20200516|298474776|02000016|1|1|2|558|1817317034515|1817317034515|02000016|02000016|||20200516144546
20200516|454024790|02000016|1|1|2|446|1817532047595|1817532047595|02000016|02000016|||20200516151631
20200516|925854791|02000016|1|1|2|111|1817532047595|1817532047595|02000016|02000016|||20200516151709
20200516|627034793|02000016|1|1|2|558|1813903326296|1813903326296|02000016|02000016|||20200516153913
20200516|248464772|02000016|1|1|2|223|1818309996978|1818309996978|02000016|02000016|||20200516142743
20200516|311774777|02000016|1|1|2|167|1815709151444|1815709151444|02000016|02000016|||20200516144548
20200516|403174778|02000016|1|1|2|111|1818909995887|1818909995887|02000016|02000016|||20200516145059
20200516|760974779|02000016|1|1|2|223|1800100000041|1800100000041|02000016|02000016|||20200516145632
20200516|908744780|02000016|1|1|2|446|1800100000041|1800100000041|02000016|02000016|||20200516145714
20200516|645764794|02000016|1|1|2|55|1815097746135|1815097746135|02000016|02000016|||20200516154824
20200516|124074795|02000016|1|1|2|558|1815097746135|1815097746135|02000016|02000016|||20200516155309
20200516|339784798|02000016|1|1|2|334|1815097746135|1815097746135|02000016|02000016|||20200516155620
20200516|140374799|02000016|1|1|2|111|1818309996978|1818309996978|02000016|02000016|||20200516155749
20200516|589224800|02000016|1|1|2|55|1818691191808|1818691191808|02000016|02000016|||20200516155910
20200516|571340|02000016|1|1|3|37200|1818309996978|1818309996978|1800000000001|1800000000001|||20200516142743
20200516|922211|02000016|1|1|3|37200|1800100000041|1800100000041|1800000000001|1800000000001|||20200516145632
20200516|388352|02000016|1|1|3|9300|1815097746135|1815097746135|1800000000001|1800000000001|||20200516154824
20200516|147203|02000016|1|1|3|55800|1815097746135|1815097746135|1800000000001|1800000000001|||20200516155620
20200516|173984|02000016|1|1|3|9300|1818691191808|1818691191808|1800000000001|1800000000001|||20200516155910
