清算中心流水号&交易所流水号&业务发生日期&交易所代码&会员编码&资金账号&出入金方式&出入金类型&出入金发起方&发生金额&币种&银行代码&银行产品代码&银行帐号&状态&备注
2020053001551293&null&20200601&02000016&1815634310189&1815634310189&&1&2&100&CNY&0040&boshzjjg&6228480306456298968&0&
2020053001551294&null&20200601&02000016&1815634310189&1815634310189&&1&2&200&CNY&0040&boshzjjg&6228480306456298968&0&
2020053001551295&null&20200601&02000016&1815634310189&1815634310189&&1&2&100&CNY&0040&boshzjjg&6228480306456298968&0&
2020053001551296&null&20200601&02000016&1813555046898&1813555046898&&1&2&10000&CNY&0040&boshzjjg&6212260907000013736&0&
2020053001551297&null&20200601&02000016&1815146155010&1815146155010&&1&2&1000&CNY&0040&boshzjjg&6228482688416580975&0&
2020053001551298&null&20200601&02000016&1815184855733&1815184855733&&1&2&200000&CNY&0040&boshzjjg&6230523960012469870&0&
20060190040021422084&20060190040021422084&20200601&02000016&1813327034451&1813327034451&&1&2&400&CNY&0040&boshzjjg&6228483718081962072&0&
20060190040021422085&20060190040021422085&20200601&02000016&1818309859106&1818309859106&&1&2&800000&CNY&0040&boshzjjg&6217000730030526889&0&
20060190040021422165&20060190040021422165&20200601&02000016&1818131276206&1818131276206&&1&2&200000&CNY&0040&boshzjjg&6228481268944607474&0&
20060190040021422086&20060190040021422086&20200601&02000016&1818687924557&1818687924557&&1&2&200&CNY&0040&boshzjjg&6222002508100012081&0&
20060190040021422013&20060190040021422013&20200601&02000016&1813021088510&1813021088510&&1&2&800000&CNY&0040&boshzjjg&6222032006000275076&0&
20060190040021422014&20060190040021422014&20200601&02000016&1813887873327&1813887873327&&1&2&3000&CNY&0040&boshzjjg&6217003970002216278&0&
20060130020100422090&Y6DW83UMFJ0OI3PJ&20200601&02000016&1813846070056&1813846070056&&0&1&188565&CNY&0040&boshzjjg&6228482688373226877&0&
20060130020100422091&YSYDSQ75MAJJHNYG&20200601&02000016&1815931808321&1815931808321&&0&1&186058&CNY&0040&boshzjjg&6215580409003675922&0&
20060130020100422171&CMAML5NJCOXZR9UZ&20200601&02000016&1815233123371&1815233123371&&0&1&185556&CNY&0040&boshzjjg&6212260409019307456&0&
20060130020100422173&HD9LJ3TR1EYYWI9J&20200601&02000016&1800100000106&1800100000106&&0&1&1003&CNY&0040&boshzjjg&6228481749121580972&0&
20060130020100422177&5B365Q5ZVSL5Q9KG&20200601&02000016&1815109156089&1815109156089&&0&1&202607&CNY&0040&boshzjjg&6230521360035249973&0&
20060130020100422180&4O7CINBI3N6PE2K9&20200601&02000016&1813958379288&1813958379288&&0&1&200601&CNY&0040&boshzjjg&6230580000213136703&0&
20060130020100422105&V24BTZ7FLFW1CINB&20200601&02000016&1813903326296&1813903326296&&0&1&641925&CNY&0040&boshzjjg&6222080409002111292&0&
20060130020100422028&4Y3H3OE8832SYSQ5&20200601&02000016&1813305788506&1813305788506&&0&1&185556&CNY&0040&boshzjjg&6212261210002695223&0&
20060130020100422030&GKJB0AH6WEB8WCAI&20200601&02000016&1817317034515&1817317034515&&0&1&421263&CNY&0040&boshzjjg&6217000140037379433&0&
20060130020100422031&RINW53TEJTBWYSH6&20200601&02000016&1815168014087&1815168014087&&0&1&192577&CNY&0040&boshzjjg&6212261210002694408&0&
20060130020100422185&PYJX1XLVCQOI72Z5&20200601&02000016&1813164990022&1813164990022&&0&1&203610&CNY&0040&boshzjjg&6214180000021104719&0&
20060130020100422108&BOX5XYLX2AH5PKMT&20200601&02000016&1818767845169&1818767845169&&0&1&214643&CNY&0040&boshzjjg&6212261210002945792&0&
20060130020100422109&2SMOQ8H6ED37F18P&20200601&02000016&1815957902628&1815957902628&&0&1&200601&CNY&0040&boshzjjg&6217680806584442&0&
20060130020100422186&OLIG3VELUTJH17CT&20200601&02000016&1813129593568&1813129593568&&0&1&200601&CNY&0040&boshzjjg&6230523440014533973&0&
20060130020100422032&68A5EGP6B0MYAM7X&20200601&02000016&1813566373447&1813566373447&&0&1&199598&CNY&0040&boshzjjg&6228480318239609072&0&
20060130020100422188&5HJDHTJ3STL3E9RQ&20200601&02000016&1813858132621&1813858132621&&0&1&185556&CNY&0040&boshzjjg&6222031210001028093&0&
20060130020100422110&7EDR9E1UGF5M3Z5Y&20200601&02000016&1815866353002&1815866353002&&0&1&601805&CNY&0040&boshzjjg&6228480268676852075&0&
20060130020100422111&QOKMJVM068WO9FSI&20200601&02000016&1813506593224&1813506593224&&0&1&160481&CNY&0040&boshzjjg&6222081208004347196&0&
20060130020100422112&1UQR9W3HU0FMLN9L&20200601&02000016&1818969738286&1818969738286&&0&1&173520&CNY&0040&boshzjjg&6236681420010311215&0&
20060130020100422114&18XGRKC0QC5083E9&20200601&02000016&1815705193619&1815705193619&&0&1&192577&CNY&0040&boshzjjg&6228481059141104070&0&
20060130020100422236&OWZYDWHJE5ATJF28&20200601&02000016&1817317034515&1817317034515&&0&1&180541&CNY&0040&boshzjjg&6217000140037379433&0&
20060130020100422237&YRB9NKCD3IHMP3HX&20200601&02000016&1815968450230&1815968450230&&0&1&203610&CNY&0040&boshzjjg&6228480318406943874&0&
20060130020100422192&ZNNVX0YJ5OEKGCRX&20200601&02000016&1813875259576&1813875259576&&0&1&195586&CNY&0040&boshzjjg&6236682930000309721&0&
20060130020100422193&2T7ASDLU2ZKX7H8V&20200601&02000016&1813858219868&1813858219868&&0&1&180541&CNY&0040&boshzjjg&6228480316116222266&0&
20060130020100422238&M61WNRL21UVMP0OD&20200601&02000016&1800100000028&1800100000028&&0&1&130391&CNY&0040&boshzjjg&6227000143610252802&0&
20060130020100422115&P2L7SHGCT8BFD63M&20200601&02000016&1815230285659&1815230285659&&0&1&200601&CNY&0040&boshzjjg&6217000140034666774&0&
20060130020100422116&IC65MQ13KV9VTAE9&20200601&02000016&1815891187077&1815891187077&&0&1&28284&CNY&0040&boshzjjg&6215592609001141464&0&
20060130020100422195&ZKRWSFE8OHOW4L7N&20200601&02000016&1813395881687&1813395881687&&0&1&185556&CNY&0040&boshzjjg&6217866200020776806&0&
20060130020100422240&7CRRYXOMGSJTWAE3&20200601&02000016&1818867803303&1818867803303&&0&1&201604&CNY&0040&boshzjjg&6222031210001965534&0&
20060130020100422118&9719P0ZTJJQ0N7S3&20200601&02000016&1813706799682&1813706799682&&0&1&204112&CNY&0040&boshzjjg&6228480382993409111&0&
20060130020100422248&AO0E6EZ3Z50975P4&20200601&02000016&1800100000050&1800100000050&&0&1&100300&CNY&0040&boshzjjg&6228481269237824776&0&
20060130020100422210&3PU2ZSED2N9CN7Y5&20200601&02000016&1818605848566&1818605848566&&0&1&210631&CNY&0040&boshzjjg&6225220304196603&0&
20060130020100422211&JYQE0LM2I7JVTW6U&20200601&02000016&1817682459990&1817682459990&&0&1&190571&CNY&0040&boshzjjg&6217920302482802&0&
20060130020100422259&QRG8589BOC8Q0OC3&20200601&02000016&1818857909742&1818857909742&&0&1&200601&CNY&0040&boshzjjg&6217231208011624826&0&
20060130020100422132&04K9J9IWHV2EKI4Z&20200601&02000016&1818857909742&1818857909742&&0&1&3510&CNY&0040&boshzjjg&6217231208011624826&0&
20060130020100422214&2KLWZ8JAE8Z9YTAR&20200601&02000016&1815215865578&1815215865578&&0&1&204613&CNY&0040&boshzjjg&6222021208006241408&0&
20060130020100422272&CF2E897MU6X574SS&20200601&02000016&1815987884158&1815987884158&&0&1&200601&CNY&0040&boshzjjg&6228483358614081478&0&
20060130020100422220&E10UG1Z4M3GYDALV&20200601&02000016&1815094645884&1815094645884&&0&1&15045&CNY&0040&boshzjjg&6228482680706083117&0&
20060130020100422230&X31QK8NKGDTOGLQO&20200601&02000016&1800100000127&1800100000127&&0&1&5015&CNY&0040&boshzjjg&6217001490003296593&0&
20060130020100422281&C97HLC94NWGAD03P&20200601&02000016&1815712555457&1815712555457&&0&1&190571&CNY&0040&boshzjjg&6222030409004695558&0&
20060130020100422282&90IS3B3YBMK8YAW8&20200601&02000016&1813603225419&1813603225419&&0&1&210631&CNY&0040&boshzjjg&6228481269150456176&0&
20060130020100422283&PCWQ6UMWMSLN6CU6&20200601&02000016&1813266662096&1813266662096&&0&1&15045&CNY&0040&boshzjjg&6217582000047574488&0&
20060130020100422284&PC96PWJT97PZWUJJ&20200601&02000016&1800100000057&1800100000057&&0&1&100300&CNY&0040&boshzjjg&6228482328554884471&0&
20060130020100422352&AJASEDBZO437PPN8&20200601&02000016&1813608767593&1813608767593&&0&1&40120&CNY&0040&boshzjjg&6228483358274020675&0&
20060130020100422289&SSBZ4U3ILIN3S8VC&20200601&02000016&1815924117387&1815924117387&&0&1&200601&CNY&0040&boshzjjg&6217993300085883731&0&
20060130020100422442&ZUHNCZ2O8GD1HSGK&20200601&02000016&1815208819237&1815208819237&&0&1&100300&CNY&0040&boshzjjg&6230523350004508275&0&
20060130020100422443&SP2MDJGGL0FRCGUE&20200601&02000016&1815869087947&1815869087947&&0&1&1003&CNY&0040&boshzjjg&6228411070450399016&0&
20060130020100422444&FCNA0AGHEOAF0G99&20200601&02000016&1813379416382&1813379416382&&0&1&10030&CNY&0040&boshzjjg&6214483001100086904&0&
20060130020100422445&T3EL4AFUGK0DXYUS&20200601&02000016&1813324639668&1813324639668&&0&1&10030&CNY&0040&boshzjjg&6212960110000005918&0&
20060130020100422446&ZJCYF5TI503E1ED1&20200601&02000016&1815667899659&1815667899659&&0&1&10030&CNY&0040&boshzjjg&6217004170000113044&0&
20060130020100422448&KQMS5PBE64TBFFX1&20200601&02000016&1815202419589&1815202419589&&0&1&10030&CNY&0040&boshzjjg&6230522940009812978&0&
20060130020100422361&D492WUXALMEA8D6A&20200601&02000016&1815227017957&1815227017957&&0&1&10030&CNY&0040&boshzjjg&6228481268355603574&0&
20060130020100422363&4I3582C5JMHXK498&20200601&02000016&1815352338039&1815352338039&&0&1&200601&CNY&0040&boshzjjg&6217004280000698579&0&
20060130020100422298&H7DZTOA2YZAWRVML&20200601&02000016&1817332403134&1817332403134&&0&1&10030&CNY&0040&boshzjjg&6228481268295550570&0&
20060130020100422366&8BL4AVQEYHYXJEAG&20200601&02000016&1815353294588&1815353294588&&0&1&210631&CNY&0040&boshzjjg&6228482928701245078&0&
20060130020100422303&YQQM5P9VW29SEKBF&20200601&02000016&1815846656422&1815846656422&&0&1&250752&CNY&0040&boshzjjg&6217001070013969569&0&
20060130020100422313&TF36AGHXPH95NHL5&20200601&02000016&1813082311311&1813082311311&&0&1&6018&CNY&0040&boshzjjg&6228481269123313074&0&
20060130020100422316&SL3L8ZQT3IC6T7WB&20200601&02000016&1813082311311&1813082311311&&0&1&3009&CNY&0040&boshzjjg&6228481269123313074&0&
20060130020100422389&199KIARA965FSMFN&20200601&02000016&1815869087947&1815869087947&&0&1&182547&CNY&0040&boshzjjg&6228411070450399016&0&
20060130020100422475&7UHL3885WWCRE8O4&20200601&02000016&1813513121930&1813513121930&&0&1&200601&CNY&0040&boshzjjg&6013825002007063429&0&
20060130020100422323&ZEM18VVYUPCJGIWU&20200601&02000016&1817732411319&1817732411319&&0&1&10030&CNY&0040&boshzjjg&6217905000004169934&0&
20060130020100422534&81WE7FIXAZQFEUB1&20200601&02000016&1813777101958&1813777101958&&0&1&200601&CNY&0040&boshzjjg&6215583901009364557&0&
20060130020100422535&ISCD9Y0EAQ11CFH1&20200601&02000016&1813566092855&1813566092855&&0&1&200601&CNY&0040&boshzjjg&6215583901003171339&0&
20060130020100422549&W3P2WZCGG6IGJ07Z&20200601&02000016&1815930239024&1815930239024&&0&1&30090&CNY&0040&boshzjjg&6228481269243308178&0&
20060130020100422431&RQPR8YW4MK30C7R8&20200601&02000016&1800100000107&1800100000107&&0&1&40120&CNY&0040&boshzjjg&6228481261659029018&0&
20060130020100422433&PKTXZ4ROY8QUCFMD&20200601&02000016&1813006233652&1813006233652&&0&1&200601&CNY&0040&boshzjjg&6222081506000105207&0&
20060130020100422573&W0ZWIMF2GJW3DJRQ&20200601&02000016&1817332403134&1817332403134&&0&1&30090&CNY&0040&boshzjjg&6228481268295550570&0&
20060130020100422652&JXF3LOKDUYZ3TAR5&20200601&02000016&1813698002339&1813698002339&&0&1&229989&CNY&0040&boshzjjg&6215581502004095402&0&
20060130020100422653&2PH4EY6W1Z52OLK5&20200601&02000016&1815697705772&1815697705772&&0&1&30090&CNY&0040&boshzjjg&6228481238834823473&0&
20060130020100422575&YYAW2G4JTHVLFRZ3&20200601&02000016&1817784230052&1817784230052&&0&1&10030&CNY&0040&boshzjjg&6227003764760002767&0&
20060130020100422655&7U0QXU4QIK5KY56J&20200601&02000016&1800100000345&1800100000345&&0&1&30090&CNY&0040&boshzjjg&6236680140002089998&0&
20060130020100422580&D3GHF4JC0FPG4OUG&20200601&02000016&1818631222983&1818631222983&&0&1&10030&CNY&0040&boshzjjg&6228481269260977574&0&
20060130020100422523&CV7IOYHMZN5YBIF6&20200601&02000016&1815770583910&1815770583910&&0&1&41925&CNY&0040&boshzjjg&6210984310002684092&0&
20060130020100422525&TZRSTO5K2EUSU6X7&20200601&02000016&1813698809219&1813698809219&&0&1&190571&CNY&0040&boshzjjg&6214833713838061&0&
20060130020100422526&PR0VLLPN5BLDBG8N&20200601&02000016&1800100000211&1800100000211&&0&1&30090&CNY&0040&boshzjjg&6215580409000671346&0&
20060130020100422670&LLGFGPT5A2JJ867R&20200601&02000016&1813207004007&1813207004007&&0&1&18054&CNY&0040&boshzjjg&6217002020057191389&0&
20060130020100422738&QICNKGBSP83UV148&20200601&02000016&1813207004007&1813207004007&&0&1&401&CNY&0040&boshzjjg&6217002020057191389&0&
20060130020100422595&EE486B1BSQIL4KIA&20200601&02000016&1813207004007&1813207004007&&0&1&60&CNY&0040&boshzjjg&6217002020057191389&0&
20060130020100422741&1YRNGUZZCVKQPDJD&20200601&02000016&1813070527319&1813070527319&&0&1&15045&CNY&0040&boshzjjg&6228490010015685214&0&
20060130020100422600&C6CPGZ1LRWRC9O5Z&20200601&02000016&1813731284037&1813731284037&&0&1&10030&CNY&0040&boshzjjg&6217991340030408996&0&
20060130020100422703&NQNRMTNCDZYJ9564&20200601&02000016&1813333799393&1813333799393&&0&1&100300&CNY&0040&boshzjjg&6217002450011806865&0&
20060130020100422781&7X55HALTHOG8FJF8&20200601&02000016&1813089614313&1813089614313&&0&1&10030&CNY&0040&boshzjjg&6217001070010529762&0&
20060130020100422786&JVK1IXJVN606KQU7&20200601&02000016&1813932229251&1813932229251&&0&1&20060&CNY&0040&boshzjjg&6227000143610361819&0&
20060130020100422720&OVYKAQB4QQTCRIV4&20200601&02000016&1817703687887&1817703687887&&0&1&10030&CNY&0040&boshzjjg&6217855300030641983&0&
20060130020100422723&MIDZSVVJBUWCS5B3&20200601&02000016&1815204682299&1815204682299&&0&1&10030&CNY&0040&boshzjjg&6228482226175661064&0&
20060130020100422790&LV1UT63BJDO8ZDE6&20200601&02000016&1818724403294&1818724403294&&0&1&10030&CNY&0040&boshzjjg&6217992610150996585&0&
20060130020100422795&6WH3JUYD4V8H4X8T&20200601&02000016&1813089950930&1813089950930&&0&1&10030&CNY&0040&boshzjjg&6217992610095631354&0&
20060130020100422802&HU1CXC7YMQAO4S85&20200601&02000016&1813582233927&1813582233927&&0&1&30090&CNY&0040&boshzjjg&6217000140037793120&0&
20060130020100422936&B57E0YM8AX4NKD01&20200601&02000016&1800100000080&1800100000080&&0&1&230692&CNY&0040&boshzjjg&6217855300030279677&0&
20060130020100422940&AFKO3R1ANBV3WQO1&20200601&02000016&1818645566788&1818645566788&&0&1&230692&CNY&0040&boshzjjg&6216695300006103063&0&
20060130020100423041&KQP5BDLDRCIZA2EZ&20200601&02000016&1815113380706&1815113380706&&0&1&200601&CNY&0040&boshzjjg&6225683821003893989&0&
20060130020100422970&Q3UDR6Q089OJAC8K&20200601&02000016&1815931775090&1815931775090&&0&1&17051&CNY&0040&boshzjjg&6216615002001917052&0&
20060130020100422904&8DA4WLQWY8A7RLXD&20200601&02000016&1813559987851&1813559987851&&0&1&188565&CNY&0040&boshzjjg&6217001880006258691&0&
20060130020100423075&2WBKZDKKRV8DQ12K&20200601&02000016&1815657925017&1815657925017&&0&1&40120&CNY&0040&boshzjjg&6212261208014984262&0&
20060130020100423082&32S3LF6GDWQX6U3Z&20200601&02000016&1815712514778&1815712514778&&0&1&6018&CNY&0040&boshzjjg&6210810140001625378&0&
20060130020100423003&5PGWM75UP9AWJ5OR&20200601&02000016&1813842006737&1813842006737&&0&1&401203&CNY&0040&boshzjjg&6228480049089415670&0&
20060130020100423093&QQCI0EMOH8VDFL3L&20200601&02000016&1813479229801&1813479229801&&0&1&204112&CNY&0040&boshzjjg&6217002020061983177&0&
20060130020100423097&DUAEPCVZ0CU7Y0GI&20200601&02000016&1815187507752&1815187507752&&0&1&20060&CNY&0040&boshzjjg&6212262511001960941&0&
20060130020100423134&22AZIWBJJ6VS4NAR&20200601&02000016&1815075218679&1815075218679&&0&1&10030&CNY&0040&boshzjjg&6228481269111559175&0&
20060130020100423102&QU9OKPBZNZOPS3FG&20200601&02000016&1817304211987&1817304211987&&0&1&10030&CNY&0040&boshzjjg&6217992340002158842&0&
20060130020100423013&ANB2TQD0CVZ0H18N&20200601&02000016&1815032232283&1815032232283&&0&1&10030&CNY&0040&boshzjjg&6228481268245286978&0&
20060130020100423019&1B1LHECIAQCUK4GQ&20200601&02000016&1800100000229&1800100000229&&0&1&10030&CNY&0040&boshzjjg&6227000143410340294&0&
20060130020100423021&SLWW0CSW4861T9P5&20200601&02000016&1813014300009&1813014300009&&0&1&10030&CNY&0040&boshzjjg&6228481261855464910&0&
20060130020100423364&1PC3Z6X9EQ5339BR&20200601&02000016&1813478653378&1813478653378&&0&1&10030&CNY&0040&boshzjjg&6228480568011405673&0&
20060130020100423194&PDYHOOZHQKF50SFD&20200601&02000016&1813393327863&1813393327863&&0&1&80240&CNY&0040&boshzjjg&6217000140004855530&0&
20060130020100423202&YZL8U0KR1LG4BRWE&20200601&02000016&1800000000001&1800000000001&&0&1&4012036&CNY&0040&boshzjjg&791914233700018&0&
20060130020100423283&C09PO4DV8QPTWAZC&20200601&02000016&1800000000001&1800000000001&&0&1&4012036&CNY&0040&boshzjjg&791914233700018&0&
20060130020100423284&K7TI1G7LD3CE0ZQR&20200601&02000016&1800000000001&1800000000001&&0&1&4012036&CNY&0040&boshzjjg&791914233700018&0&
20060130020100423203&FWRS3M1VB1543TI9&20200601&02000016&1800000000001&1800000000001&&0&1&4012036&CNY&0040&boshzjjg&791914233700018&0&
20060130020100423374&ZS1ZSV0WOUWMUXA1&20200601&02000016&1800000000001&1800000000001&&0&1&4012036&CNY&0040&boshzjjg&791914233700018&0&
20060130020100423290&VIYLD8YZC5OLRIP1&20200601&02000016&1813700388839&1813700388839&&0&1&200601&CNY&0040&boshzjjg&6222020408003390445&0&
20060130020100423211&V5XQP4U9MPLBMSMU&20200601&02000016&1813330594491&1813330594491&&0&1&200601&CNY&0040&boshzjjg&6222022510001334206&0&
20060130020100423291&D428N9RA5A2LLWPM&20200601&02000016&1813584278719&1813584278719&&0&1&10030&CNY&0040&boshzjjg&6230520660061593777&0&
20060130020100423459&5D5MLM244TKSX68U&20200601&02000016&1800100000131&1800100000131&&0&1&210631&CNY&0040&boshzjjg&6212261210002178832&0&
20060130020100423422&WZKVAZG4C740DVEQ&20200601&02000016&1800100000057&1800100000057&&0&1&40120&CNY&0040&boshzjjg&6228482328554884471&0&
20060130020100423549&3XWNDC5ZPCZU1CCA&20200601&02000016&1813555055525&1813555055525&&0&1&50150&CNY&0040&boshzjjg&6228482680606972112&0&
20060130020100423553&T83LQ86OXISH1K57&20200601&02000016&1813884332947&1813884332947&&0&1&198996&CNY&0040&boshzjjg&6217906200001783195&0&
20060130020100423497&DX88EBKGTM32PKBU&20200601&02000016&1815029688272&1815029688272&&0&1&10030&CNY&0040&boshzjjg&6236684220011867224&0&
20060130020100423499&9CNVXDC65MHHO9TA&20200601&02000016&1818940967978&1818940967978&&0&1&20060&CNY&0040&boshzjjg&6221502223000134244&0&
20060130020100423501&8PX4X19EE0TNYAXU&20200601&02000016&1815945537804&1815945537804&&0&1&20060&CNY&0040&boshzjjg&6214854512545681&0&
20060130020100423576&BX1U6AM3EJHXLNBH&20200601&02000016&1813870662832&1813870662832&&0&1&10030&CNY&0040&boshzjjg&6228450920007355618&0&
20060130020100423595&NK00O7FPG7XT6468&20200601&02000016&1813305788506&1813305788506&&0&1&601&CNY&0040&boshzjjg&6212261210002695223&0&
20060130020100423735&C1G1RYFY57AKOYVK&20200601&02000016&1815168014087&1815168014087&&0&1&1504&CNY&0040&boshzjjg&6212261210002694408&0&
20060130020100423736&YYIJJH98EDDJIPCX&20200601&02000016&1813870608160&1813870608160&&0&1&225175&CNY&0040&boshzjjg&6214857906729373&0&
20060130020100423598&XU4HMBVZC0UODGCI&20200601&02000016&1813858132621&1813858132621&&0&1&802&CNY&0040&boshzjjg&6222031210001028093&0&
20060130020100423738&D7X0034D6GML8A5J&20200601&02000016&1813875259576&1813875259576&&0&1&551&CNY&0040&boshzjjg&6236682930000309721&0&
20060130020100423739&9NHO3KL5J759OH4D&20200601&02000016&1818969738286&1818969738286&&0&1&822&CNY&0040&boshzjjg&6236681420010311215&0&
20060130020100423627&15EU5FK5V8IH6S8C&20200601&02000016&1813808788999&1813808788999&&0&1&20060&CNY&0040&boshzjjg&6228483358604716075&0&
20060130020100423766&5OI0NVR5T55Z0R0I&20200601&02000016&1815042400515&1815042400515&&0&1&401203&CNY&0040&boshzjjg&6215583400006811017&0&
20060130020100423767&7FEUH7BBTI7HRX59&20200601&02000016&1815042400515&1815042400515&&0&1&10030&CNY&0040&boshzjjg&6215583400006811017&0&
20060130020100423860&RTV1W69Q3PFL9W0U&20200601&02000016&1815038169553&1815038169553&&0&1&20060&CNY&0040&boshzjjg&6222620620028301066&0&
20060130020100423953&6P02J9LYGTYNYYZK&20200601&02000016&1800100000122&1800100000122&&0&1&1003&CNY&0040&boshzjjg&6228451268042593978&0&
20060130020100423968&PAWI0AEEZD8N8SMW&20200601&02000016&1818313096871&1818313096871&&0&1&10030&CNY&0040&boshzjjg&6228483358596905173&0&
20060130020100424036&3XOIAQB3MJ6YAW18&20200601&02000016&1813684689700&1813684689700&&0&1&150451&CNY&0040&boshzjjg&6217565300032580248&0&
20060130020100423971&2FM6P4PWESQVFPAS&20200601&02000016&1818687924557&1818687924557&&0&1&401&CNY&0040&boshzjjg&6222002508100012081&0&
20060130020100423975&UR9NTWV0L3Q5ATHN&20200601&02000016&1818788201666&1818788201666&&0&1&15045&CNY&0040&boshzjjg&6228483358596549179&0&
20060190040021422163&20060190040021422163&20200601&02000016&1818993303292&1818993303292&&1&2&1000&CNY&0040&boshzjjg&6217004280009870112&0&
20060190040021422015&20060190040021422015&20200601&02000016&1815184848605&1815184848605&&1&2&200000&CNY&0040&boshzjjg&6228483966003082665&0&
20060190040021422166&20060190040021422166&20200601&02000016&1818233358282&1818233358282&&1&2&194000&CNY&0040&boshzjjg&6236680140003081960&0&
20060190040021422092&20060190040021422092&20200601&02000016&1818993303292&1818993303292&&1&2&200&CNY&0040&boshzjjg&6217004280009870112&0&
20060190040021422093&20060190040021422093&20200601&02000016&1815690228885&1815690228885&&1&2&197000&CNY&0040&boshzjjg&6228481269208300079&0&
20060190040021422097&20060190040021422097&20200601&02000016&1818993303292&1818993303292&&1&2&500000&CNY&0040&boshzjjg&6217004280009870112&0&
20060190040021422178&20060190040021422178&20200601&02000016&1813703227331&1813703227331&&1&2&200000&CNY&0040&boshzjjg&6210810140000841083&0&
20060190040021422179&20060190040021422179&20200601&02000016&1813946835654&1813946835654&&1&2&200000&CNY&0040&boshzjjg&6217001040005814453&0&
20060190040021422234&20060190040021422234&20200601&02000016&1813988205870&1813988205870&&1&2&200000&CNY&0040&boshzjjg&6217003970001419030&0&
20060190040021422190&20060190040021422190&20200601&02000016&1818165477289&1818165477289&&1&2&200000&CNY&0040&boshzjjg&6235733600000210804&0&
20060190040021422239&20060190040021422239&20200601&02000016&1815630880329&1815630880329&&1&2&194000&CNY&0040&boshzjjg&4563515005004515888&0&
20060190040021422247&20060190040021422247&20200601&02000016&1813400267349&1813400267349&&1&2&194000&CNY&0040&boshzjjg&6217865000008146647&0&
20060190040021422206&20060190040021422206&20200601&02000016&1815097408526&1815097408526&&1&2&194000&CNY&0040&boshzjjg&6217855000063369987&0&
20060190040021422207&20060190040021422207&20200601&02000016&1818962075812&1818962075812&&1&2&200000&CNY&0040&boshzjjg&6228481985094841773&0&
20060190040021422334&20060190040021422334&20200601&02000016&1815222123742&1815222123742&&1&2&100&CNY&0040&boshzjjg&6230520650042982579&0&
20060190040021422269&20060190040021422269&20200601&02000016&1813486694384&1813486694384&&1&2&160000&CNY&0040&boshzjjg&6215583901002700468&0&
20060190040021422339&20060190040021422339&20200601&02000016&1815690228885&1815690228885&&1&2&3000&CNY&0040&boshzjjg&6228481269208300079&0&
20060190040021422218&20060190040021422218&20200601&02000016&1815222123742&1815222123742&&1&2&193100&CNY&0040&boshzjjg&6230520650042982579&0&
20060190040021422273&20060190040021422273&20200601&02000016&1813663390233&1813663390233&&1&2&200000&CNY&0040&boshzjjg&6216615002005189559&0&
20060190040021422229&20060190040021422229&20200601&02000016&1813992186412&1813992186412&&1&2&1000&CNY&0040&boshzjjg&6215592609005796412&0&
20060190040021422349&20060190040021422349&20200601&02000016&1815108647893&1815108647893&&1&2&200000&CNY&0040&boshzjjg&6217003960004969271&0&
20060190040021422447&20060190040021422447&20200601&02000016&1818903125539&1818903125539&&1&2&200000&CNY&0040&boshzjjg&6217000140023212705&0&
20060190040021422449&20060190040021422449&20200601&02000016&1818088174982&1818088174982&&1&2&190000&CNY&0040&boshzjjg&6228483358609352975&0&
20060190040021422297&20060190040021422297&20200601&02000016&1813429398439&1813429398439&&1&2&335000&CNY&0040&boshzjjg&6217920375437634&0&
20060190040021422455&20060190040021422455&20200601&02000016&1813577525294&1813577525294&&1&2&10000&CNY&0040&boshzjjg&6217003960003627946&0&
20060190040021422373&20060190040021422373&20200601&02000016&1818306924682&1818306924682&&1&2&200000&CNY&0040&boshzjjg&6217003970001585715&0&
20060190040021422456&20060190040021422456&20200601&02000016&1815634310189&1815634310189&&1&2&500&CNY&0040&boshzjjg&6228480306456298968&0&
20060190040021422372&20060190040021422372&20200601&02000016&1815903327688&1815903327688&&1&2&194000&CNY&0040&boshzjjg&6227000143210282613&0&
20060190040021422467&20060190040021422467&20200601&02000016&1815887508589&1815887508589&&1&2&10000&CNY&0040&boshzjjg&6212262510001682521&0&
20060190040021422324&20060190040021422324&20200601&02000016&1818987538596&1818987538596&&1&2&207000&CNY&0040&boshzjjg&6217003960001582077&0&
20060190040021422396&20060190040021422396&20200601&02000016&1813769055559&1813769055559&&1&2&160000&CNY&0040&boshzjjg&6212262510000846770&0&
20060190040021422330&20060190040021422330&20200601&02000016&1815771836378&1815771836378&&1&2&170000&CNY&0040&boshzjjg&6215592605004136980&0&
20060190040021422400&20060190040021422400&20200601&02000016&1813388823626&1813388823626&&1&2&210000&CNY&0040&boshzjjg&6213363350003156919&0&
20060190040021422331&20060190040021422331&20200601&02000016&1815830799079&1815830799079&&1&2&200000&CNY&0040&boshzjjg&6216605000007107837&0&
20060190040021422406&20060190040021422406&20200601&02000016&1813324536769&1813324536769&&1&2&5000&CNY&0040&boshzjjg&6215593700004614042&0&
20060190040021422412&20060190040021422412&20200601&02000016&1815333221709&1815333221709&&1&2&200000&CNY&0040&boshzjjg&6217855000039539457&0&
20060190040021422550&20060190040021422550&20200601&02000016&1818945765909&1818945765909&&1&2&7000&CNY&0040&boshzjjg&6221802610007105754&0&
20060190040021422498&20060190040021422498&20200601&02000016&1818760038371&1818760038371&&1&2&200000&CNY&0040&boshzjjg&6217001880006567315&0&
20060190040021422556&20060190040021422556&20200601&02000016&1813842006737&1813842006737&&1&2&600000&CNY&0040&boshzjjg&6228480049089415670&0&
20060190040021422579&20060190040021422579&20200601&02000016&1813224207506&1813224207506&&1&2&600000&CNY&0040&boshzjjg&6228480568130950773&0&
20060190040021422660&20060190040021422660&20200601&02000016&1818187582339&1818187582339&&1&2&10000&CNY&0040&boshzjjg&6230523960012293072&0&
20060190040021422734&20060190040021422734&20200601&02000016&1818803125896&1818803125896&&1&2&200000&CNY&0040&boshzjjg&6217000140015297557&0&
20060190040021422668&20060190040021422668&20200601&02000016&1800100000125&1800100000125&&1&2&120000&CNY&0040&boshzjjg&4340610140347896&0&
20060190040021422739&20060190040021422739&20200601&02000016&1813808788999&1813808788999&&1&2&200000&CNY&0040&boshzjjg&6228483358604716075&0&
20060190040021422671&20060190040021422671&20200601&02000016&1818002496102&1818002496102&&1&2&200000&CNY&0040&boshzjjg&6230520040053414177&0&
20060190040021422685&20060190040021422685&20200601&02000016&1815634310189&1815634310189&&1&2&200000&CNY&0040&boshzjjg&6228480306456298968&0&
20060190040021422715&20060190040021422715&20200601&02000016&1813559965824&1813559965824&&1&2&200000&CNY&0040&boshzjjg&6217566400004211373&0&
20060190040021422788&20060190040021422788&20200601&02000016&1813903228890&1813903228890&&1&2&200000&CNY&0040&boshzjjg&4367420140818834371&0&
20060190040021422630&20060190040021422630&20200601&02000016&1818945765909&1818945765909&&1&2&10000&CNY&0040&boshzjjg&6221802610007105754&0&
20060190040021422729&20060190040021422729&20200601&02000016&1813904881393&1813904881393&&1&2&200000&CNY&0040&boshzjjg&6217992610184002293&0&
20060190040021422843&20060190040021422843&20200601&02000016&1815222123742&1815222123742&&1&2&1000&CNY&0040&boshzjjg&6230520650042982579&0&
20060190040021422935&20060190040021422935&20200601&02000016&1818663100939&1818663100939&&1&2&200000&CNY&0040&boshzjjg&6222021614006591801&0&
20060190040021422814&20060190040021422814&20200601&02000016&1815188947714&1815188947714&&1&2&200000&CNY&0040&boshzjjg&6217991340030486174&0&
20060190040021422854&20060190040021422854&20200601&02000016&1815204689694&1815204689694&&1&2&200000&CNY&0040&boshzjjg&6221502600038806564&0&
20060190040021422949&20060190040021422949&20200601&02000016&1818788201666&1818788201666&&1&2&200000&CNY&0040&boshzjjg&6228483358596549179&0&
20060190040021422860&20060190040021422860&20200601&02000016&1818045505586&1818045505586&&1&2&210000&CNY&0040&boshzjjg&6217855300032529152&0&
20060190040021423036&20060190040021423036&20200601&02000016&1818220730920&1818220730920&&1&2&200000&CNY&0040&boshzjjg&6222627140000512310&0&
20060190040021423037&20060190040021423037&20200601&02000016&1818645566467&1818645566467&&1&2&210000&CNY&0040&boshzjjg&6213362660230317113&0&
20060190040021422963&20060190040021422963&20200601&02000016&1813035944756&1813035944756&&1&2&200000&CNY&0040&boshzjjg&6228483358465235074&0&
20060190040021422966&20060190040021422966&20200601&02000016&1813593926195&1813593926195&&1&2&190000&CNY&0040&boshzjjg&6228483828115704471&0&
20060190040021423044&20060190040021423044&20200601&02000016&1818849824156&1818849824156&&1&2&200000&CNY&0040&boshzjjg&6216692700000451132&0&
20060190040021422973&20060190040021422973&20200601&02000016&1815087942456&1815087942456&&1&2&200&CNY&0040&boshzjjg&6221887300013195472&0&
20060190040021422884&20060190040021422884&20200601&02000016&1815331520336&1815331520336&&1&2&350000&CNY&0040&boshzjjg&6212262510001422985&0&
20060190040021422885&20060190040021422885&20200601&02000016&1818631228121&1818631228121&&1&2&1000000&CNY&0040&boshzjjg&6217852600021512488&0&
20060190040021422902&20060190040021422902&20200601&02000016&1813909114265&1813909114265&&1&2&600000&CNY&0040&boshzjjg&6228482921044212517&0&
20060190040021422990&20060190040021422990&20200601&02000016&1815087942456&1815087942456&&1&2&200000&CNY&0040&boshzjjg&6221887300013195472&0&
20060190040021423070&20060190040021423070&20200601&02000016&1818757332390&1818757332390&&1&2&200000&CNY&0040&boshzjjg&6236681430008629742&0&
20060190040021422905&20060190040021422905&20200601&02000016&1818630239398&1818630239398&&1&2&200000&CNY&0040&boshzjjg&6221881340024031825&0&
20060190040021422993&20060190040021422993&20200601&02000016&1800100000118&1800100000118&&1&2&8000&CNY&0040&boshzjjg&6213362686057724560&0&
20060190040021422908&20060190040021422908&20200601&02000016&1813733371391&1813733371391&&1&2&1000000&CNY&0040&boshzjjg&6217865000004169601&0&
20060190040021422911&20060190040021422911&20200601&02000016&1815631163200&1815631163200&&1&2&200000&CNY&0040&boshzjjg&6222080409003769486&0&
20060190040021422913&20060190040021422913&20200601&02000016&1818606548783&1818606548783&&1&2&190000&CNY&0040&boshzjjg&6214835792567701&0&
20060190040021422916&20060190040021422916&20200601&02000016&1818962060606&1818962060606&&1&2&200000&CNY&0040&boshzjjg&6228481980808931010&0&
20060190040021422922&20060190040021422922&20200601&02000016&1818714555279&1818714555279&&1&2&200000&CNY&0040&boshzjjg&6013825311000638164&0&
20060190040021422926&20060190040021422926&20200601&02000016&1818313096871&1818313096871&&1&2&200000&CNY&0040&boshzjjg&6228483358596905173&0&
20060190040021422928&20060190040021422928&20200601&02000016&1813313124191&1813313124191&&1&2&200000&CNY&0040&boshzjjg&6228451266001426461&0&
20060190040021423098&20060190040021423098&20200601&02000016&1813131233580&1813131233580&&1&2&200000&CNY&0040&boshzjjg&6228481268625339272&0&
20060190040021423136&20060190040021423136&20200601&02000016&1815140671196&1815140671196&&1&2&733400&CNY&0040&boshzjjg&6216690500006625164&0&
20060190040021423017&20060190040021423017&20200601&02000016&1815140671196&1815140671196&&1&2&200000&CNY&0040&boshzjjg&6216690500006625164&0&
20060190040021423201&20060190040021423201&20200601&02000016&1815184846114&1815184846114&&1&2&200000&CNY&0040&boshzjjg&6217003960001167226&0&
20060190040021423206&20060190040021423206&20200601&02000016&1813555718863&1813555718863&&1&2&200000&CNY&0040&boshzjjg&6210810730044765825&0&
20060190040021423207&20060190040021423207&20200601&02000016&1818669281955&1818669281955&&1&2&200000&CNY&0040&boshzjjg&6228480928633351574&0&
20060190040021423378&20060190040021423378&20200601&02000016&1818932692236&1818932692236&&1&2&4500&CNY&0040&boshzjjg&6228481269141588772&0&
20060190040021423213&20060190040021423213&20200601&02000016&1813470525576&1813470525576&&1&2&200000&CNY&0040&boshzjjg&6222033301008456821&0&
20060190040021423308&20060190040021423308&20200601&02000016&1815699680001&1815699680001&&1&2&1200&CNY&0040&boshzjjg&6217992610177941150&0&
20060190040021423406&20060190040021423406&20200601&02000016&1813545997023&1813545997023&&1&2&200000&CNY&0040&boshzjjg&6215581809005782213&0&
20060190040021423460&20060190040021423460&20200601&02000016&1813638362781&1813638362781&&1&2&200000&CNY&0040&boshzjjg&6228480478572558573&0&
20060190040021423461&20060190040021423461&20200601&02000016&1817845057266&1817845057266&&1&2&300&CNY&0040&boshzjjg&6217992610222099277&0&
20060190040021423324&20060190040021423324&20200601&02000016&1813312795959&1813312795959&&1&2&200000&CNY&0040&boshzjjg&6222022510001735055&0&
20060190040021423330&20060190040021423330&20200601&02000016&1815042400515&1815042400515&&1&2&1000&CNY&0040&boshzjjg&6215583400006811017&0&
20060190040021423474&20060190040021423474&20200601&02000016&1815245431805&1815245431805&&1&2&200000&CNY&0040&boshzjjg&6222622380000218428&0&
20060190040021423476&20060190040021423476&20200601&02000016&1815042400515&1815042400515&&1&2&600000&CNY&0040&boshzjjg&6215583400006811017&0&
20060190040021423421&20060190040021423421&20200601&02000016&1815837935868&1815837935868&&1&2&200000&CNY&0040&boshzjjg&6210812450000594485&0&
20060190040021423538&20060190040021423538&20200601&02000016&1813584278719&1813584278719&&1&2&200000&CNY&0040&boshzjjg&6230520660061593777&0&
20060190040021423482&20060190040021423482&20200601&02000016&1817845057266&1817845057266&&1&2&210000&CNY&0040&boshzjjg&6217992610222099277&0&
20060190040021423423&20060190040021423423&20200601&02000016&1813779597882&1813779597882&&1&2&500&CNY&0040&boshzjjg&6227004630301848480&0&
20060190040021423541&20060190040021423541&20200601&02000016&1813597431025&1813597431025&&1&2&200000&CNY&0040&boshzjjg&6228483829169938270&0&
20060190040021423543&20060190040021423543&20200601&02000016&1818132222901&1818132222901&&1&2&200000&CNY&0040&boshzjjg&6228481268441509272&0&
20060190040021423542&20060190040021423542&20200601&02000016&1815586314943&1815586314943&&1&2&200000&CNY&0040&boshzjjg&6217002700001598876&0&
20060190040021423426&20060190040021423426&20200601&02000016&1813385213554&1813385213554&&1&2&200000&CNY&0040&boshzjjg&6228483822137021410&0&
20060190040021423547&20060190040021423547&20200601&02000016&1818164754119&1818164754119&&1&2&200000&CNY&0040&boshzjjg&6217852700008367946&0&
20060190040021423493&20060190040021423493&20200601&02000016&1813661262290&1813661262290&&1&2&200000&CNY&0040&boshzjjg&6236680010001682780&0&
20060190040021423552&20060190040021423552&20200601&02000016&1815592260808&1815592260808&&1&2&200000&CNY&0040&boshzjjg&6217004140007649191&0&
20060190040021423496&20060190040021423496&20200601&02000016&1818696301799&1818696301799&&1&2&200000&CNY&0040&boshzjjg&6228483829384391974&0&
20060190040021423558&20060190040021423558&20200601&02000016&1815029688272&1815029688272&&1&2&180000&CNY&0040&boshzjjg&6236684220011867224&0&
20060190040021423557&20060190040021423557&20200601&02000016&1813909852916&1813909852916&&1&2&200000&CNY&0040&boshzjjg&6222033400007501767&0&
20060190040021423634&20060190040021423634&20200601&02000016&1813555887026&1813555887026&&1&2&200000&CNY&0040&boshzjjg&6222033301014223447&0&
20060190040021423565&20060190040021423565&20200601&02000016&1815130317528&1815130317528&&1&2&200000&CNY&0040&boshzjjg&6215580409004137823&0&
20060190040021423510&20060190040021423510&20200601&02000016&1818987517957&1818987517957&&1&2&200000&CNY&0040&boshzjjg&6228483968095840877&0&
20060190040021423580&20060190040021423580&20200601&02000016&1818206761891&1818206761891&&1&2&400000&CNY&0040&boshzjjg&6228480868598057479&0&
20060190040021423657&20060190040021423657&20200601&02000016&1813190040355&1813190040355&&1&2&200000&CNY&0040&boshzjjg&6217850400006393067&0&
20060190040021423523&20060190040021423523&20200601&02000016&1815671162600&1815671162600&&1&2&200000&CNY&0040&boshzjjg&6228483829169937876&0&
20060190040021423665&20060190040021423665&20200601&02000016&1813687258341&1813687258341&&1&2&200000&CNY&0040&boshzjjg&6236682700003002080&0&
20060190040021423594&20060190040021423594&20200601&02000016&1815925589060&1815925589060&&1&2&1000000&CNY&0040&boshzjjg&6228483968610024577&0&
20060190040021423669&20060190040021423669&20200601&02000016&1813870832718&1813870832718&&1&2&50000&CNY&0040&boshzjjg&6217002020063414361&0&
20060190040021423533&20060190040021423533&20200601&02000016&1818834581128&1818834581128&&1&2&200000&CNY&0040&boshzjjg&6227001540050020699&0&
20060190040021423596&20060190040021423596&20200601&02000016&1817503250596&1817503250596&&1&2&1000000&CNY&0040&boshzjjg&6228481268887277475&0&
20060190040021423605&20060190040021423605&20200601&02000016&1818032526472&1818032526472&&1&2&100&CNY&0040&boshzjjg&6222030403005785591&0&
20060190040021423747&20060190040021423747&20200601&02000016&1813080797290&1813080797290&&1&2&200000&CNY&0040&boshzjjg&6217682901746199&0&
20060190040021423609&20060190040021423609&20200601&02000016&1818103221322&1818103221322&&1&2&200000&CNY&0040&boshzjjg&6221881340009219411&0&
20060190040021423689&20060190040021423689&20200601&02000016&1813578173185&1813578173185&&1&2&200&CNY&0040&boshzjjg&6236684020000322755&0&
20060190040021423691&20060190040021423691&20200601&02000016&1813933229549&1813933229549&&1&2&2000&CNY&0040&boshzjjg&6222020409025274021&0&
20060190040021423620&20060190040021423620&20200601&02000016&1813230823996&1813230823996&&1&2&1000&CNY&0040&boshzjjg&6222020403012247439&0&
20060190040021423702&20060190040021423702&20200601&02000016&1813578173185&1813578173185&&1&2&200000&CNY&0040&boshzjjg&6236684020000322755&0&
20060190040021423768&20060190040021423768&20200601&02000016&1818787552261&1818787552261&&1&2&400000&CNY&0040&boshzjjg&6217003960003266703&0&
20060190040021423713&20060190040021423713&20200601&02000016&1819931286513&1819931286513&&1&2&195000&CNY&0040&boshzjjg&6227000148210340626&0&
20060190040021423729&20060190040021423729&20200601&02000016&1813949280669&1813949280669&&1&2&200000&CNY&0040&boshzjjg&6217984930000138430&0&
20060190040021423940&20060190040021423940&20200601&02000016&1815232267540&1815232267540&&1&2&200000&CNY&0040&boshzjjg&6228481269134833276&0&
20060190040021423948&20060190040021423948&20200601&02000016&1813577542946&1813577542946&&1&2&400000&CNY&0040&boshzjjg&6228483968584881176&0&
20060190040021423879&20060190040021423879&20200601&02000016&1815933052604&1815933052604&&1&2&1000&CNY&0040&boshzjjg&6217855000002615367&0&
20060190040021423831&20060190040021423831&20200601&02000016&1813323529941&1813323529941&&1&2&100&CNY&0040&boshzjjg&6228481208025822170&0&
20060190040021423885&20060190040021423885&20200601&02000016&1815232640847&1815232640847&&1&2&980000&CNY&0040&boshzjjg&6228480659200859174&0&
20060190040021423886&20060190040021423886&20200601&02000016&1818687924557&1818687924557&&1&2&500000&CNY&0040&boshzjjg&6222002508100012081&0&
20060190040021423833&20060190040021423833&20200601&02000016&1819987524663&1819987524663&&1&2&400000&CNY&0040&boshzjjg&6222032510000188064&0&
20060190040021423887&20060190040021423887&20200601&02000016&1813582628539&1813582628539&&1&2&200000&CNY&0040&boshzjjg&6228481269287371975&0&
20060190040021423969&20060190040021423969&20200601&02000016&1815100500891&1815100500891&&1&2&100&CNY&0040&boshzjjg&6222080403002514662&0&
20060190040021423889&20060190040021423889&20200601&02000016&1818903380276&1818903380276&&1&2&1000&CNY&0040&boshzjjg&6228480651703319012&0&
20060190040021423970&20060190040021423970&20200601&02000016&1813323529941&1813323529941&&1&2&200000&CNY&0040&boshzjjg&6228481208025822170&0&
20060190040021424040&20060190040021424040&20200601&02000016&1818903380276&1818903380276&&1&2&199000&CNY&0040&boshzjjg&6228480651703319012&0&
20060190040021423973&20060190040021423973&20200601&02000016&1813398818422&1813398818422&&1&2&200&CNY&0040&boshzjjg&6217003930002145422&0&
20060190040021423974&20060190040021423974&20200601&02000016&1813398818422&1813398818422&&1&2&200000&CNY&0040&boshzjjg&6217003930002145422&0&
