20200905|913739510|02000016|1|1|2|55|1818091149039|1818091149039|02000016|02000016|||20200905144819|1599235200
20200905|913739511|02000016|1|1|2|825|1818994474771|1818994474771|02000016|02000016|||20200905145041|1599235200
20200905|913739512|02000016|1|1|2|770|1818091149039|1818091149039|02000016|02000016|||20200905145501|1599235200
20200905|913739513|02000016|1|1|2|825|1817732266277|1817732266277|02000016|02000016|||20200905145520|1599235200
20200905|913739514|02000016|1|1|2|825|1800100000104|1800100000104|02000016|02000016|||20200905145532|1599235200
20200905|913739515|02000016|1|1|2|825|1817642059933|1817642059933|02000016|02000016|||20200905145535|1599235200
20200905|913739516|02000016|1|1|2|825|1818371587990|1818371587990|02000016|02000016|||20200905145539|1599235200
20200905|913739517|02000016|1|1|2|825|1800100000041|1800100000041|02000016|02000016|||20200905145539|1599235200
20200905|913739518|02000016|1|1|2|825|1815033829099|1815033829099|02000016|02000016|||20200905145542|1599235200
20200905|913739519|02000016|1|1|2|825|1818674148199|1818674148199|02000016|02000016|||20200905145543|1599235200
20200905|913739520|02000016|1|1|2|550|1800100000071|1800100000071|02000016|02000016|||20200905151929|1599235200
20200905|913739522|02000016|1|1|2|275|1818994474771|1818994474771|02000016|02000016|||20200905153114|1599235200
20200905|913739523|02000016|1|1|2|550|1818729936598|1818729936598|02000016|02000016|||20200905153253|1599235200
20200905|913739525|02000016|1|1|2|275|1818994474771|1818994474771|02000016|02000016|||20200905155706|1599235200
20200905|913739526|02000016|1|1|2|550|1818091149039|1818091149039|02000016|02000016|||20200905155756|1599235200
20200905|913739528|02000016|1|1|2|825|1813483296668|1813483296668|02000016|02000016|||20200905161438|1599235200
20200905|913739529|02000016|1|1|2|275|1800100000071|1800100000071|02000016|02000016|||20200905161633|1599235200
20200905|914739521|02000016|1|1|2|550|1818729936598|1818729936598|02000016|02000016|||20200905152717|1599235200
20200905|916107669|02000016|1|1|3|700|1813112376518|1813112376518|1800100000020|1800100000020|||20200905094335|1599295413
20200905|916107670|02000016|1|1|3|700|1813112376518|1813112376518|1800100000020|1800100000020|||20200905094337|1599295413
20200905|916107671|02000016|1|1|3|700|1813840032593|1813840032593|1800100000020|1800100000020|||20200905094708|1599295413
20200905|916107672|02000016|1|1|3|700|1815368668921|1815368668921|1800100000020|1800100000020|||20200905101351|1599295413
20200905|916107673|02000016|1|1|3|700|1813831239512|1813831239512|1800100000020|1800100000020|||20200905101958|1599295413
20200905|916107674|02000016|1|1|3|700|1815388839989|1815388839989|1800100000020|1800100000020|||20200905105156|1599295413
20200905|916107675|02000016|1|1|3|700|1815368963049|1815368963049|1800100000020|1800100000020|||20200905105914|1599295413
20200905|916107676|02000016|1|1|3|700|1817866537479|1817866537479|1800100000020|1800100000020|||20200905110432|1599295413
20200905|916107677|02000016|1|1|3|700|1817866537479|1817866537479|1800100000020|1800100000020|||20200905110554|1599295413
20200905|916107678|02000016|1|1|3|1000|1813314722700|1813314722700|1800100000020|1800100000020|||20200905130204|1599295413
20200905|916107679|02000016|1|1|3|1000|1815636926050|1815636926050|1800100000020|1800100000020|||20200905135740|1599295413
20200905|916107680|02000016|1|1|3|1000|1815833589669|1815833589669|1800100000020|1800100000020|||20200905154409|1599295413
