清算中心流水号&交易所流水号&业务发生日期&交易所代码&会员编码&资金账号&出入金类型&发生金额&手续费金额&银行产品代码&备注
20042030020100821328&W3BGACJKU3L5H162&20200420&02000134&1813558749848&1813558749848&0&10030&30&boshzjjg&
20042030020100821335&NKMNDZ9OU69NTAX1&20200420&02000134&1817538719135&1817538719135&0&40120&120&boshzjjg&
20042030020100821340&Z5OMP0BNL9AMEMMG&20200420&02000134&1817538719135&1817538719135&0&3009&9&boshzjjg&
20042030020100821342&XKX3LL2VG41AVWSA&20200420&02000134&1817538719135&1817538719135&0&2006&6&boshzjjg&
