清算中心流水号&交易所流水号&业务发生日期&交易所代码&会员编码&资金账号&出入金类型&发生金额&手续费金额&银行产品代码&备注
20071430020100502096&29KJ0G42FPFZ4U8H&20200714&02000016&1815208819237&1815208819237&0&10030&30&boshzjjg&
20071430020100502098&35G15S5407DUNYYV&20200714&02000016&1813082311311&1813082311311&0&2006&6&boshzjjg&
20071430020100502099&E50M94SINS9XKEYZ&20200714&02000016&1813633226787&1813633226787&0&185556&556&boshzjjg&
20071430020100502104&JANUWGNLQTKGLYVN&20200714&02000016&1818468025462&1818468025462&0&10030&30&boshzjjg&
20071430020100502019&XFXTI3R6JCQ6E8P0&20200714&02000016&1813577500356&1813577500356&0&10030&30&boshzjjg&
20071430020100502109&YCEC41OECOT8VRTH&20200714&02000016&1813523232008&1813523232008&0&10030&30&boshzjjg&
20071430020100502025&O1Z570T78OMYIMWV&20200714&02000016&1817707068016&1817707068016&0&100300&300&boshzjjg&
20071430020100502206&ZFKH8WZJ3WBC634U&20200714&02000016&1815709151444&1815709151444&0&15045&45&boshzjjg&
20071430020100502207&Z982U12FWNRMNZAW&20200714&02000016&1818131201300&1818131201300&0&200601&601&boshzjjg&
20071430020100502113&D8NB4YLHV0KLWP6X&20200714&02000016&1813903126487&1813903126487&0&250752&752&boshzjjg&
20071430020100502032&RGWOHEKMDT77OXLH&20200714&02000016&1813379416382&1813379416382&0&10030&30&boshzjjg&
20071430020100502033&DO6LUVF1FFG0MWD2&20200714&02000016&1813931206006&1813931206006&0&250752&752&boshzjjg&
20071430020100502118&CS9USHCPNTDA1Y1L&20200714&02000016&1813324639668&1813324639668&0&20060&60&boshzjjg&
20071430020100502212&BRGVTGGNPWICQWKH&20200714&02000016&1813633226628&1813633226628&0&240722&722&boshzjjg&
20071430020100502237&9UNO4EBO973CADCK&20200714&02000016&1815879659197&1815879659197&0&100300&300&boshzjjg&
20071430020100502214&DNA8SEX5FUD697YS&20200714&02000016&1813330597481&1813330597481&0&300902&902&boshzjjg&
20071430020100502227&RS497PTF56X1KO1V&20200714&02000016&1813879606088&1813879606088&0&200601&601&boshzjjg&
20071430020100502252&QR1BBBUO2ZIM9P4Z&20200714&02000016&1813879690981&1813879690981&0&300902&902&boshzjjg&
20071430020100502335&3DD6S1KNXX5X1LT5&20200714&02000016&1815170047910&1815170047910&0&120361&361&boshzjjg&
20071430020100502229&LSE1FR4SEV11604F&20200714&02000016&1815570319902&1815570319902&0&429889&1289&boshzjjg&
20071430020100502435&OXGQYD9STPR1NHUU&20200714&02000016&1813879606088&1813879606088&0&50150&150&boshzjjg&
20071430020100502350&1WGYX5TRBWYP4E6U&20200714&02000016&1813363243535&1813363243535&0&14042&42&boshzjjg&
20071430020100502457&DVU6IHZI1URAQW5P&20200714&02000016&1818803250101&1818803250101&0&10030&30&boshzjjg&
20071430020100502363&UDYEGIHTMAOUJ2HC&20200714&02000016&1818210293990&1818210293990&0&10030&30&boshzjjg&
20071430020100502364&0LHZ64KOIA1UABRH&20200714&02000016&1818088176980&1818088176980&0&255767&767&boshzjjg&
20071430020100502278&Q08FICTC7R58PGP3&20200714&02000016&1815579647169&1815579647169&0&10030&30&boshzjjg&
20071430020100502366&CSDUQ9YH2CPTKRN1&20200714&02000016&1813082311311&1813082311311&0&27081&81&boshzjjg&
20071430020100502464&WQVHH6K1WNLKE578&20200714&02000016&1813987513948&1813987513948&0&10030&30&boshzjjg&
20071430020100502369&Z1EPH2H1GZCFP12J&20200714&02000016&1818834581128&1818834581128&0&10030&30&boshzjjg&
20071430020100502467&9WZOUBRSIBMCRNZ8&20200714&02000016&1815087511848&1815087511848&0&10030&30&boshzjjg&
20071430020100502376&LWNERMHGV4CZL7ZQ&20200714&02000016&1813230823996&1813230823996&0&50150&150&boshzjjg&
20071430020100502477&99HW3LRHZN2QSVOI&20200714&02000016&1813932211661&1813932211661&0&20060&60&boshzjjg&
20071430020100502379&KYW4KJONSNSFG1Q0&20200714&02000016&1813932246854&1813932246854&0&190571&571&boshzjjg&
20071430020100502382&0C6FCP0RJ5JZK2AQ&20200714&02000016&1813769055559&1813769055559&0&110330&330&boshzjjg&
20071430020100502294&QKODMV741A55UEO2&20200714&02000016&1818331534443&1818331534443&0&50150&150&boshzjjg&
20071430020100502383&KEN6SU4RZDCOI4V3&20200714&02000016&1818371580857&1818371580857&0&90270&270&boshzjjg&
20071430020100502296&O550N1E50DF7J5JZ&20200714&02000016&1813463503191&1813463503191&0&10030&30&boshzjjg&
20071430020100502300&KC6HHEP1YGOBHB4I&20200714&02000016&1813730476179&1813730476179&0&30090&90&boshzjjg&
20071430020100502386&IBVPF0PKVPX18KPH&20200714&02000016&1815170899237&1815170899237&0&10030&30&boshzjjg&
20071430020100502301&QJ994A7AMTQPFRIX&20200714&02000016&1815227098333&1815227098333&0&20060&60&boshzjjg&
20071430020100502387&VJHG1E2AVEODU20S&20200714&02000016&1818335259239&1818335259239&0&10030&30&boshzjjg&
20071430020100502389&S4F375H1M7N1TUBJ&20200714&02000016&1815108646659&1815108646659&0&20060&60&boshzjjg&
20071430020100502395&ZAU8KG9PHKRWH2UI&20200714&02000016&1815208999328&1815208999328&0&20060&60&boshzjjg&
20071430020100502492&NDACHHOKR1S0QZSM&20200714&02000016&1800100000245&1800100000245&0&10030&30&boshzjjg&
20071430020100502493&GEY7DAL8NW3NM26I&20200714&02000016&1813619405650&1813619405650&0&250752&752&boshzjjg&
20071430020100502319&P4KPSAEO1K7N8U07&20200714&02000016&1818689707602&1818689707602&0&10030&30&boshzjjg&
20071430020100502321&3P5358W7JAPU8UES&20200714&02000016&1817304211987&1817304211987&0&10030&30&boshzjjg&
20071430020100502408&23NCWEE086A863T1&20200714&02000016&1815930239024&1815930239024&0&190571&571&boshzjjg&
20071430020100502499&M0QQE2C6QUNORJBV&20200714&02000016&1819909235532&1819909235532&0&200601&601&boshzjjg&
20071430020100502500&E4CMNATQ89SK49UI&20200714&02000016&1818161735141&1818161735141&0&10030&30&boshzjjg&
20071430020100502502&H5KCW6W29X8JDEBW&20200714&02000016&1813478653378&1813478653378&0&30090&90&boshzjjg&
20071430020100502327&MVO1R1VYI7S128Z2&20200714&02000016&1813832296893&1813832296893&0&10030&30&boshzjjg&
20071430020100502505&AJGPAWP572FFWHZJ&20200714&02000016&1813731798775&1813731798775&0&40120&120&boshzjjg&
20071430020100502414&TWAJZJQRW0ZJ78CT&20200714&02000016&1818187582339&1818187582339&0&10030&30&boshzjjg&
20071430020100502419&WKM1INH7T7O957F1&20200714&02000016&1813315273740&1813315273740&0&100300&300&boshzjjg&
20071430020100502536&EQUQGVIU0FHYZ1JX&20200714&02000016&1813945860022&1813945860022&0&10030&30&boshzjjg&
20071430020100502508&MRYR7L04AJVC4RCV&20200714&02000016&1813577525294&1813577525294&0&10030&30&boshzjjg&
20071430020100502537&6S29I1391P1P49X4&20200714&02000016&1818288100018&1818288100018&0&50150&150&boshzjjg&
20071430020100502509&E0BVJ2RZ5N90C4UC&20200714&02000016&1800100000071&1800100000071&0&15045&45&boshzjjg&
20071430020100502422&ZOTAH3IYXJVD03ZT&20200714&02000016&1817689826169&1817689826169&0&15045&45&boshzjjg&
20071430020100502424&BXKRNL2TMU3JQZPG&20200714&02000016&1815072485085&1815072485085&0&60180&180&boshzjjg&
20071430020100502425&16V529NDWGRJG0CP&20200714&02000016&1815613502427&1815613502427&0&100300&300&boshzjjg&
20071430020100502510&4J73F9YNBIGXBS2E&20200714&02000016&1818788201666&1818788201666&0&300902&902&boshzjjg&
20071430020100502511&X8UE12MEGVZHGBNT&20200714&02000016&1813400267349&1813400267349&0&10130&30&boshzjjg&
20071430020100502539&3K3LZ2JUZSNQHS6Z&20200714&02000016&1815140671196&1815140671196&0&150451&451&boshzjjg&
20071430020100502426&BBR0QAU9W4YT6V8B&20200714&02000016&1815097408526&1815097408526&0&10130&30&boshzjjg&
20071430020100502430&FOT2UC0G0WAH4OKZ&20200714&02000016&1818746954345&1818746954345&0&10030&30&boshzjjg&
20071430020100502517&YLT4T0RN18KJFBVU&20200714&02000016&1815887508589&1815887508589&0&10030&30&boshzjjg&
20071430020100502553&IBM3FMRJRWFEB54H&20200714&02000016&1813029758688&1813029758688&0&10030&30&boshzjjg&
20071430020100502527&B7AXBEG8ITRXA4DT&20200714&02000016&1813932525581&1813932525581&0&10030&30&boshzjjg&
20071430020100502644&BU5VLVPTV7M00FFZ&20200714&02000016&1813909852916&1813909852916&0&10230&30&boshzjjg&
20071430020100502645&2DRZA7XEL9B12MEU&20200714&02000016&1815818598480&1815818598480&0&30090&90&boshzjjg&
20071430020100502646&CO4EXZ1WL2711GE3&20200714&02000016&1815206929588&1815206929588&0&10030&30&boshzjjg&
20071430020100502531&AWAYNJAOQZ4VBS85&20200714&02000016&1818674148199&1818674148199&0&300902&902&boshzjjg&
20071430020100502562&TYVADS682Y4ML2N6&20200714&02000016&1818889422056&1818889422056&0&20060&60&boshzjjg&
20071430020100502739&G2RL4H06STR8XYHT&20200714&02000016&1815389494945&1815389494945&0&25075&75&boshzjjg&
20071430020100502658&LYIX5ZFLPV6CAK80&20200714&02000016&1813921828201&1813921828201&0&20060&60&boshzjjg&
20071430020100502746&86LDOJOXLRSR5C2K&20200714&02000016&1816689634186&1816689634186&0&10030&30&boshzjjg&
20071430020100502565&ODA76CTPHIFMX15A&20200714&02000016&1818788236536&1818788236536&0&219257&657&boshzjjg&
20071430020100502664&V0XPKJDD8IUV5QGX&20200714&02000016&1817503250596&1817503250596&0&50150&150&boshzjjg&
20071430020100502666&R7W18Z8S0PVDVH5T&20200714&02000016&1815232607038&1815232607038&0&10030&30&boshzjjg&
20071430020100502569&AG87OEE3G896DVS6&20200714&02000016&1813845158388&1813845158388&0&20060&60&boshzjjg&
20071430020100502680&15EGSAX2UQQKRZFX&20200714&02000016&1815076235183&1815076235183&0&80240&240&boshzjjg&
20071430020100502582&HV7QGJF821VFLEV9&20200714&02000016&1818804688440&1818804688440&0&10030&30&boshzjjg&
20071430020100502763&AZ0WEB2WR0ZA1XG5&20200714&02000016&1817192939341&1817192939341&0&50150&150&boshzjjg&
20071430020100502683&7F0N6ZXC3NFNAOYO&20200714&02000016&1818233358282&1818233358282&0&10130&30&boshzjjg&
20071430020100502684&TVB39BP5OIK04M4C&20200714&02000016&1815245436282&1815245436282&0&10030&30&boshzjjg&
20071430020100502765&LEWKKF596X41OHT1&20200714&02000016&1815230984209&1815230984209&0&10030&30&boshzjjg&
20071430020100502686&ACMTVC2RH29OTYGA&20200714&02000016&1813733221116&1813733221116&0&10030&30&boshzjjg&
20071430020100502688&11DD76ICMEQV9ER9&20200714&02000016&1818313472920&1818313472920&0&200601&601&boshzjjg&
20071430020100502586&IO8XYGR4XC1832XZ&20200714&02000016&1813931473408&1813931473408&0&30090&90&boshzjjg&
20071430020100502587&VEZHWR7TE08SSVHI&20200714&02000016&1815931437146&1815931437146&0&10030&30&boshzjjg&
20071430020100502689&1YMQW7B52XICJDQ8&20200714&02000016&1813886994818&1813886994818&0&60180&180&boshzjjg&
20071430020100502772&1YFVET20DCBU8HY0&20200714&02000016&1813785222268&1813785222268&0&10030&30&boshzjjg&
20071430020100502774&ECZ0BU3C076O12VV&20200714&02000016&1813429897976&1813429897976&0&26078&78&boshzjjg&
20071430020100502693&A11P15FZZEYS8DJJ&20200714&02000016&1815327855187&1815327855187&0&50150&150&boshzjjg&
20071430020100502776&RVXWI44PZWNMZRFR&20200714&02000016&1815108647893&1815108647893&0&100300&300&boshzjjg&
20071430020100502592&BO3KA0MXFQ4LJAEF&20200714&02000016&1813031511388&1813031511388&0&10030&30&boshzjjg&
20071430020100502593&E5XDRIBXP74K5EOF&20200714&02000016&1813339574707&1813339574707&0&80240&240&boshzjjg&
20071430020100502594&4H0ARGMGASS2OB7R&20200714&02000016&1800100000189&1800100000189&0&30090&90&boshzjjg&
20071430020100502695&W0UBVSTO2FV5DY40&20200714&02000016&1818304684246&1818304684246&0&10030&30&boshzjjg&
20071430020100502696&B6AVSIN2KSF5J097&20200714&02000016&1815512595393&1815512595393&0&28084&84&boshzjjg&
20071430020100502793&M26IE4AUS3WU04DB&20200714&02000016&1813731660124&1813731660124&0&10030&30&boshzjjg&
20071430020100502709&FIDL0PXN3IGG0BR8&20200714&02000016&1818976770088&1818976770088&0&30090&90&boshzjjg&
20071430020100502710&OBUZDUZ1HNRMTQY8&20200714&02000016&1813730238225&1813730238225&0&20060&60&boshzjjg&
20071430020100502711&OTSR4YTKF2N4L3I8&20200714&02000016&1815771836378&1815771836378&0&20060&60&boshzjjg&
20071430020100502606&JAD5SIWO1K4CGI2M&20200714&02000016&1815630231725&1815630231725&0&10030&30&boshzjjg&
20071430020100502712&OZG3WUBVYUMOU562&20200714&02000016&1813463287557&1813463287557&0&10030&30&boshzjjg&
20071430020100502713&K334A4W05PMUG1JK&20200714&02000016&1813846862770&1813846862770&0&10030&30&boshzjjg&
20071430020100502608&XXAU9QU6NHNBJD6L&20200714&02000016&1813343028920&1813343028920&0&50150&150&boshzjjg&
20071430020100502714&7DO5ZVQMXCRTJR08&20200714&02000016&1818165477289&1818165477289&0&30090&90&boshzjjg&
20071430020100502715&VFC7EG5CKPR64LUJ&20200714&02000016&1813230331640&1813230331640&0&10030&30&boshzjjg&
20071430020100502716&6JPGV27K8G4UBAP0&20200714&02000016&1813277695882&1813277695882&0&10030&30&boshzjjg&
20071430020100502796&TE661ML1A761SDJ7&20200714&02000016&1813231500951&1813231500951&0&12036&36&boshzjjg&
20071430020100502718&J6Z0G0RDS6S80SID&20200714&02000016&1813911318605&1813911318605&0&10030&30&boshzjjg&
20071430020100502611&Q2YAMG6X5KVRNDW2&20200714&02000016&1818132717939&1818132717939&0&48144&144&boshzjjg&
20071430020100502724&HASYPQMRJGPE4O4U&20200714&02000016&1813946786563&1813946786563&0&10030&30&boshzjjg&
20071430020100502725&51PBX9SU7KQ1T5RW&20200714&02000016&1813327034451&1813327034451&0&10030&30&boshzjjg&
20071430020100502726&K4TJWZR6AV3ZDL87&20200714&02000016&1818637622966&1818637622966&0&15045&45&boshzjjg&
20071430020100502727&0QIUIV2JZPJ8IZO0&20200714&02000016&1815199992139&1815199992139&0&50150&150&boshzjjg&
20071430020100502617&UTHP28NOL4FW205N&20200714&02000016&1813191758429&1813191758429&0&20060&60&boshzjjg&
20071430020100502728&PV91UHEWKX01QBQI&20200714&02000016&1813628842075&1813628842075&0&100300&300&boshzjjg&
20071430020100502798&UN4WH2247G4IOBYD&20200714&02000016&1815633362628&1815633362628&0&10030&30&boshzjjg&
20071430020100502799&GJNFP2PWFDKNWIUD&20200714&02000016&1817325423850&1817325423850&0&10030&30&boshzjjg&
20071430020100502801&Y8JC0IK7AHKAKRP3&20200714&02000016&1818770604856&1818770604856&0&802407&2407&boshzjjg&
20071430020100502619&BKFT4FFMEFVNO0UG&20200714&02000016&1813064860909&1813064860909&0&10030&30&boshzjjg&
20071430020100502731&AD486BLYUI5T32Z8&20200714&02000016&1813582222311&1813582222311&0&50150&150&boshzjjg&
20071430020100502732&6DWZQUV7QAYYD0QE&20200714&02000016&1818313096871&1818313096871&0&351053&1053&boshzjjg&
20071430020100502620&S2DAV2ZNTS86SAW6&20200714&02000016&1815175228012&1815175228012&0&20060&60&boshzjjg&
20071430020100502733&BU3RVYZQOT55XOYR&20200714&02000016&1813545932491&1813545932491&0&30090&90&boshzjjg&
20071430020100502621&I7QEB7QVQKOG0PWA&20200714&02000016&1800100000043&1800100000043&0&481444&1444&boshzjjg&
20071430020100502623&FWSF9LUVSCT0YF54&20200714&02000016&1813235522109&1813235522109&0&30090&90&boshzjjg&
20071430020100502808&Q4M3L4E7E39P01DJ&20200714&02000016&1815945821718&1815945821718&0&10030&30&boshzjjg&
20071430020100502624&GWS066YFSCX4B032&20200714&02000016&1813785550440&1813785550440&0&20060&60&boshzjjg&
20071430020100502625&AKN3B7VIQ9881R6K&20200714&02000016&1813931203162&1813931203162&0&60180&180&boshzjjg&
20071430020100502837&FNBLZFJKMSN8XZD9&20200714&02000016&1813832565805&1813832565805&0&16048&48&boshzjjg&
20071430020100502852&W47S3CCFHKETKHBU&20200714&02000016&1818103121030&1818103121030&0&15045&45&boshzjjg&
20071430020100502853&P5XOJ0HZXWY019F5&20200714&02000016&1815137614144&1815137614144&0&20060&60&boshzjjg&
20071430020100502832&98E3CGDM94H72BNB&20200714&02000016&1815511520473&1815511520473&0&10030&30&boshzjjg&
20071430020100502833&H0042YUK4GGWSW64&20200714&02000016&1815804681313&1815804681313&0&10030&30&boshzjjg&
20071430020100502949&5HZ9DFA9C9GGGKJ6&20200714&02000016&1815933593100&1815933593100&0&10030&30&boshzjjg&
20071430020100502855&CKQ9NW85LTXAPU1K&20200714&02000016&1815032236912&1815032236912&0&20060&60&boshzjjg&
20071430020100502856&UHY55FXQ7ADR9VZL&20200714&02000016&1818131516269&1818131516269&0&10030&30&boshzjjg&
20071430020100502861&49M6ERFJT6M5KUCF&20200714&02000016&1815094526270&1815094526270&0&10030&30&boshzjjg&
20071430020100503037&AR1ZP8RMHPENS0RP&20200714&02000016&1813759215123&1813759215123&0&30090&90&boshzjjg&
20071430020100503038&UG5NR5ODT85W6KAY&20200714&02000016&1815903327688&1815903327688&0&15045&45&boshzjjg&
20071430020100502952&AGZBCF6Z7AV3W0CG&20200714&02000016&1815303121880&1815303121880&0&110330&330&boshzjjg&
20071430020100502953&Q9KHHXPYRYOW83P6&20200714&02000016&1818714555279&1818714555279&0&20060&60&boshzjjg&
20071430020100502965&H9HZJFPRID06TSNF&20200714&02000016&1815845463032&1815845463032&0&10030&30&boshzjjg&
20071430020100502968&DLP59S9U4OVKG2YJ&20200714&02000016&1813483536053&1813483536053&0&10030&30&boshzjjg&
20071430020100502970&IOJYIB2KHO133VSO&20200714&02000016&1813089614313&1813089614313&0&30090&90&boshzjjg&
20071430020100503051&5XPMHZ2ZCNE4YWJ3&20200714&02000016&1800100000106&1800100000106&0&50150&150&boshzjjg&
20071430020100502971&CDZC2ZR0E5HF7AMT&20200714&02000016&1813204687660&1813204687660&0&10030&30&boshzjjg&
20071430020100502874&LDZ9BWOVEL0TFG23&20200714&02000016&1813194551998&1813194551998&0&40120&120&boshzjjg&
20071430020100503054&ZZEO3347NEE6OGON&20200714&02000016&1818531767801&1818531767801&0&10030&30&boshzjjg&
20071430020100503055&3WQHW717YS4GFTMV&20200714&02000016&1818940967978&1818940967978&0&10030&30&boshzjjg&
20071430020100502875&D7UJ03O0ASS8CXOR&20200714&02000016&1813224207506&1813224207506&0&20060&60&boshzjjg&
20071430020100503058&EM1PPRCPL4PULB6G&20200714&02000016&1818617854952&1818617854952&0&10030&30&boshzjjg&
20071430020100502975&G71BO5RX8BE1A98G&20200714&02000016&1813988222092&1813988222092&0&30090&90&boshzjjg&
20071430020100502877&8UUM20GRIN1G3S08&20200714&02000016&1815945537804&1815945537804&0&30090&90&boshzjjg&
20071430020100503061&7NNSSA4Q2Z08PSCS&20200714&02000016&1818604681909&1818604681909&0&20060&60&boshzjjg&
20071430020100503063&PMPILQDMEMLKP2M9&20200714&02000016&1818987916256&1818987916256&0&100300&300&boshzjjg&
20071430020100502977&26INW0YS3HCE2YV6&20200714&02000016&1818674146599&1818674146599&0&100300&300&boshzjjg&
20071430020100503069&O128V51ITJZ54V5A&20200714&02000016&1818741608136&1818741608136&0&100300&300&boshzjjg&
20071430020100502888&0FU4QVHAX1TZCL5Y&20200714&02000016&1813945766811&1813945766811&0&10030&30&boshzjjg&
20071430020100502982&RR4C72BZN97LQSSV&20200714&02000016&1813703151462&1813703151462&0&22066&66&boshzjjg&
20071430020100502889&FY0S9188LL6C28WB&20200714&02000016&1818774626308&1818774626308&0&10030&30&boshzjjg&
20071430020100502898&LWUMMHDF9ACA1YI1&20200714&02000016&1813904881393&1813904881393&0&10030&30&boshzjjg&
20071430020100502991&1AZ2O4VRL50A5J0S&20200714&02000016&1817789888843&1817789888843&0&10030&30&boshzjjg&
20071430020100502899&OIE9WWV5NQK6HHTN&20200714&02000016&1818091149039&1818091149039&0&150451&451&boshzjjg&
20071430020100502995&7P55XZOIV56NLXT5&20200714&02000016&1800100000298&1800100000298&0&20060&60&boshzjjg&
20071430020100502900&KI5UA4ZE68APEVWA&20200714&02000016&1813314687653&1813314687653&0&10030&30&boshzjjg&
20071430020100503002&OFFOBJZ4T52579HL&20200714&02000016&1813932229251&1813932229251&0&20060&60&boshzjjg&
20071430020100503086&2NXCN5X8X3M78CGQ&20200714&02000016&1813628894679&1813628894679&0&250752&752&boshzjjg&
20071430020100502903&R6EGXKGR5JBB9LSI&20200714&02000016&1813623333299&1813623333299&0&18054&54&boshzjjg&
20071430020100502905&WBLATL3YRDXBGDBZ&20200714&02000016&1817703687887&1817703687887&0&10030&30&boshzjjg&
20071430020100503090&I68QU8UXWUEX3UZ2&20200714&02000016&1813836688159&1813836688159&0&10030&30&boshzjjg&
20071430020100503010&KHJU1EHV2C1J1F2Q&20200714&02000016&1813503221210&1813503221210&0&50150&150&boshzjjg&
20071430020100502911&JPRYAD3NDYM6WN8B&20200714&02000016&1813237785798&1813237785798&0&100300&300&boshzjjg&
20071430020100502913&4YFA947T4QDVBDTE&20200714&02000016&1817796982621&1817796982621&0&40120&120&boshzjjg&
20071430020100503015&RXEH6PU26GBEMDD8&20200714&02000016&1813472972651&1813472972651&0&10030&30&boshzjjg&
20071430020100503091&ESFJW8W78N5IL3CR&20200714&02000016&1818908820122&1818908820122&0&10030&30&boshzjjg&
20071430020100503018&F9TP05KZUFN7KN9M&20200714&02000016&1813831527971&1813831527971&0&30090&90&boshzjjg&
20071430020100503092&PI9NHKV1G5H419FG&20200714&02000016&1813846055840&1813846055840&0&10030&30&boshzjjg&
20071430020100503093&2AZ4GGLUL935FNXB&20200714&02000016&1815613556396&1815613556396&0&10030&30&boshzjjg&
20071430020100502920&ULWC4P6E0QX3DO00&20200714&02000016&1813089950930&1813089950930&0&10030&30&boshzjjg&
20071430020100502921&0R36BRXEHWYDECLP&20200714&02000016&1813323259697&1813323259697&0&60180&180&boshzjjg&
20071430020100503095&JO04LXMM4XQS0UJ9&20200714&02000016&1813946779996&1813946779996&0&10030&30&boshzjjg&
20071430020100503134&YM5FB49POIOZV3WE&20200714&02000016&1800100000358&1800100000358&0&10030&30&boshzjjg&
20071430020100503104&PLG6Y930KZR4C7RL&20200714&02000016&1818233445131&1818233445131&0&20060&60&boshzjjg&
20071430020100503106&8BSVRBC04H06Y1LA&20200714&02000016&1813739822199&1813739822199&0&10030&30&boshzjjg&
20071430020100503143&NSTEEAQ2V4OG5INA&20200714&02000016&1818931287322&1818931287322&0&20060&60&boshzjjg&
20071430020100503111&8IQYKZL99M1QHES8&20200714&02000016&1818730588858&1818730588858&0&10030&30&boshzjjg&
20071430020100503145&TVY1PQP1LK7F0QID&20200714&02000016&1815577856705&1815577856705&0&100300&300&boshzjjg&
20071430020100503235&V99ABEJRJ59LBDLQ&20200714&02000016&1813385213554&1813385213554&0&110330&330&boshzjjg&
20071430020100503114&T7L4I5XXAU18EKAL&20200714&02000016&1818921860818&1818921860818&0&20060&60&boshzjjg&
20071430020100503115&P9VDXSDXDWT36RZ4&20200714&02000016&1813931359385&1813931359385&0&20060&60&boshzjjg&
20071430020100503239&FX632MIMKRMQ36AH&20200714&02000016&1813887868883&1813887868883&0&100300&300&boshzjjg&
20071430020100503152&MQA7BGSHIHGGJ4XB&20200714&02000016&1818962060606&1818962060606&0&30090&90&boshzjjg&
20071430020100503117&L0C726ZXJJZO16AS&20200714&02000016&1818220358251&1818220358251&0&180541&541&boshzjjg&
20071430020100503241&4FRVYERGY7SK7XJZ&20200714&02000016&1813886968888&1813886968888&0&60180&180&boshzjjg&
20071430020100503153&WH0B8LPX8U9WV7CB&20200714&02000016&1815161960908&1815161960908&0&10030&30&boshzjjg&
20071430020100503120&1ZYK9WBLYCAROW8K&20200714&02000016&1818132565769&1818132565769&0&10030&30&boshzjjg&
20071430020100503248&B37EFF272VKLODLD&20200714&02000016&1813833007650&1813833007650&0&10030&30&boshzjjg&
20071430020100503261&KY81BGV906NHO3KP&20200714&02000016&1815833321555&1815833321555&0&20060&60&boshzjjg&
20071430020100503168&AP2QZOARVSIAYMD3&20200714&02000016&1813687258341&1813687258341&0&128385&385&boshzjjg&
20071430020100503133&K094VW9JGIHD8MRQ&20200714&02000016&1813578201088&1813578201088&0&20060&60&boshzjjg&
20071430020100503334&HHNN8XXJKKEBHXFK&20200714&02000016&1813613128663&1813613128663&0&10030&30&boshzjjg&
20071430020100503265&F35G4QW97E2OD873&20200714&02000016&1818970607159&1818970607159&0&186559&559&boshzjjg&
20071430020100503340&MAJMAHZUNIF1R34Z&20200714&02000016&1818333212310&1818333212310&0&10030&30&boshzjjg&
20071430020100503269&FCDVQQKE7WALS8I7&20200714&02000016&1815235078815&1815235078815&0&10030&30&boshzjjg&
20071430020100503271&6K4FXO2EBEVH5VI3&20200714&02000016&1813597431025&1813597431025&0&210631&631&boshzjjg&
20071430020100503272&P09MCH7ZG5WOB5VX&20200714&02000016&1815184594602&1815184594602&0&10030&30&boshzjjg&
20071430020100503277&SKVEDK06TNLCV2HY&20200714&02000016&1818531229892&1818531229892&0&5015&15&boshzjjg&
20071430020100503280&A09NZ755SD9CL6IE&20200714&02000016&1818371587990&1818371587990&0&100300&300&boshzjjg&
20071430020100503281&7FTY6QZJ7KBK6QV4&20200714&02000016&1818972629432&1818972629432&0&45135&135&boshzjjg&
20071430020100503178&3M5K0RGSBH558XH9&20200714&02000016&1815764559388&1815764559388&0&10030&30&boshzjjg&
20071430020100503190&GB11NKQWHOWU1EVG&20200714&02000016&1813661262290&1813661262290&0&220661&661&boshzjjg&
20071430020100503366&PRZAF0NY80R8GVPT&20200714&02000016&1817679265331&1817679265331&0&100300&300&boshzjjg&
20071430020100503368&K9JWAJCPD17U619G&20200714&02000016&1818931504408&1818931504408&0&10030&30&boshzjjg&
20071430020100503369&5PB3Y5R24JGL988Z&20200714&02000016&1813477499698&1813477499698&0&48144&144&boshzjjg&
20071430020100503197&EMHX8GPW6K6YQQDN&20200714&02000016&1813582246755&1813582246755&0&50150&150&boshzjjg&
20071430020100503375&RH1WYWYRMRQ91DN0&20200714&02000016&1815830219313&1815830219313&0&2006&6&boshzjjg&
20071430020100503198&PYVRWIQTVSVT8HVU&20200714&02000016&1813933293845&1813933293845&0&20060&60&boshzjjg&
20071430020100503376&K2ZSO8H5G9736R28&20200714&02000016&1818633358188&1818633358188&0&40120&120&boshzjjg&
20071430020100503382&WJ85ZOKB8J19S57S&20200714&02000016&1815931808321&1815931808321&0&10030&30&boshzjjg&
20071430020100503390&S0MSTLBXWH345KHI&20200714&02000016&1813986948741&1813986948741&0&100300&300&boshzjjg&
20071430020100503322&OKUCS1EFWEJH8I2A&20200714&02000016&1813578268057&1813578268057&0&50150&150&boshzjjg&
20071430020100503405&M6WWUMVL2XSR007P&20200714&02000016&1818633328800&1818633328800&0&10030&30&boshzjjg&
20071430020100503230&OFO5FO5Q3O0T100G&20200714&02000016&1813945287113&1813945287113&0&722&2&boshzjjg&
20071430020100503233&NUO9FWV03YWL50TB&20200714&02000016&1815557122888&1815557122888&0&100300&300&boshzjjg&
20071430020100503539&5FG4JSDTXVDQR7W5&20200714&02000016&1813832526017&1813832526017&0&32096&96&boshzjjg&
20071430020100503541&30GNVQ8U5RUK5N08&20200714&02000016&1815042400515&1815042400515&0&25075&75&boshzjjg&
20071430020100503446&9H55VRVUKRHHF5XY&20200714&02000016&1815094690607&1815094690607&0&10030&30&boshzjjg&
20071430020100503417&1I98314Z11DFMZ9E&20200714&02000016&1815940818417&1815940818417&0&10030&30&boshzjjg&
20071430020100503452&QJAV2PPYA9X6U25U&20200714&02000016&1813870832718&1813870832718&0&3711&11&boshzjjg&
20071430020100503455&ZHT5Y1QBH9XSI4NP&20200714&02000016&1813657964642&1813657964642&0&40120&120&boshzjjg&
20071430020100503421&9K4LYDMMZM2GQIGU&20200714&02000016&1813320119811&1813320119811&0&802&2&boshzjjg&
20071430020100503423&O0038S7Q63UOFWI4&20200714&02000016&1815970230203&1815970230203&0&10030&30&boshzjjg&
20071430020100503425&63C6F58JZLDAPCRN&20200714&02000016&1813619405650&1813619405650&0&20060&60&boshzjjg&
20071430020100503431&VT9B1ZRAAH7KIFHF&20200714&02000016&1815933567917&1815933567917&0&205616&616&boshzjjg&
20071430020100503557&6Q5HXWVULNMTXIIZ&20200714&02000016&1815207962519&1815207962519&0&20060&60&boshzjjg&
20071430020100503648&LYCCU04Q7ZVHSJZC&20200714&02000016&1813349554467&1813349554467&0&20060&60&boshzjjg&
20071430020100503481&PU6VTEW8KMS3PLDS&20200714&02000016&1815933567917&1815933567917&0&2507&7&boshzjjg&
20071430020100503657&YERSQYRN16OT7U3K&20200714&02000016&1818903380276&1818903380276&0&40120&120&boshzjjg&
20071430020100503658&LVBN2DEG1ZVTLY7Q&20200714&02000016&1815933158898&1815933158898&0&40120&120&boshzjjg&
20071430020100503594&RMR33EHBBDCPLZOX&20200714&02000016&1815832267413&1815832267413&0&11033&33&boshzjjg&
20071430020100503672&4LBP6XMKM7ZC6HR2&20200714&02000016&1813833011132&1813833011132&0&10030&30&boshzjjg&
20071430020100503679&QYEKWUZTDE6JIEBL&20200714&02000016&1813931267078&1813931267078&0&20060&60&boshzjjg&
20071430020100503526&U32R7YFUE1M2HXLH&20200714&02000016&1813988238986&1813988238986&0&26078&78&boshzjjg&
20071430020100503689&0AR4YHDMZJH2VM8H&20200714&02000016&1813643325475&1813643325475&0&50150&150&boshzjjg&
20071430020100503532&3JLSBBJAV9PYZXBL&20200714&02000016&1813932256061&1813932256061&0&10030&30&boshzjjg&
20071430020100503694&LPIYAU9JKFU1FJ60&20200714&02000016&1815271167538&1815271167538&0&150451&451&boshzjjg&
20071430020100503616&VO38CQR9ZRY01VX1&20200714&02000016&1815946775111&1815946775111&0&20060&60&boshzjjg&
20071430020100503618&9MT84PU90T0YCDZY&20200714&02000016&1813836555299&1813836555299&0&30090&90&boshzjjg&
20071430020100503757&5E45IMG38PJLR3GZ&20200714&02000016&1813313290175&1813313290175&0&50150&150&boshzjjg&
20071430020100503841&XP1I795ORJDHSERC&20200714&02000016&1818531222131&1818531222131&0&5015&15&boshzjjg&
20071430020100503728&O0QL5KNPKFMXOL3Z&20200714&02000016&1815699680001&1815699680001&0&10030&30&boshzjjg&
20071430020100503731&I1EKRCSSTXOTVDD6&20200714&02000016&1813766708898&1813766708898&0&10030&30&boshzjjg&
20071430020100503948&DDIKR4MBSX20QR9G&20200714&02000016&1818742493073&1818742493073&0&10030&30&boshzjjg&
20071430020100503864&772SRCJAOQNJ5E31&20200714&02000016&1815512532000&1815512532000&0&80240&240&boshzjjg&
20071430020100503781&5SJ7MX8RJEF6JQZV&20200714&02000016&1815232640847&1815232640847&0&50150&150&boshzjjg&
20071430020100503787&88AJJVKLAW6AIQCD&20200714&02000016&1818132717939&1818132717939&0&48144&144&boshzjjg&
20071430020100503879&EOEGSPVRCOG47OVV&20200714&02000016&1815931509770&1815931509770&0&30090&90&boshzjjg&
20071430020100503961&WDTZAG0WOXTLKNPQ&20200714&02000016&1815713255858&1815713255858&0&30090&90&boshzjjg&
20071430020100503982&QRYCJJDRN35STZ4M&20200714&02000016&1818645527797&1818645527797&0&17051&51&boshzjjg&
20071430020100504052&ECAK9JH92A7Y9YJD&20200714&02000016&1815613227275&1815613227275&0&26078&78&boshzjjg&
20071430020100504025&NJIDDF5W11ICGIVG&20200714&02000016&1815232499769&1815232499769&0&30090&90&boshzjjg&
20071430020100504138&8GREAITE6ZGPY8BA&20200714&02000016&1800100000122&1800100000122&0&30090&90&boshzjjg&
20071430020100504144&KLCMZL96ESPRYT64&20200714&02000016&1815107963447&1815107963447&0&40120&120&boshzjjg&
20071430020100504238&1NAACY5HMBEPYOBW&20200714&02000016&1818288188088&1818288188088&0&1003009&3009&boshzjjg&
20071430020100504241&B9OMYZAD80M12X87&20200714&02000016&1818731521085&1818731521085&0&70210&210&boshzjjg&
20071430020100504072&X8RJ2L2ZCP1W30HS&20200714&02000016&1813308821769&1813308821769&0&1003009&3009&boshzjjg&
20071430020100504253&MZUFUIG0QK8RDDDY&20200714&02000016&1813780538684&1813780538684&0&50150&150&boshzjjg&
20071430020100504164&ELLI920HJD9X7O1P&20200714&02000016&1813520629383&1813520629383&0&10030&30&boshzjjg&
20071430020100504167&ZHSAZV7WC80YDKCJ&20200714&02000016&1815946775111&1815946775111&0&10030&30&boshzjjg&
20071430020100504268&YTCWC0W2E34QK7OG&20200714&02000016&1818279612960&1818279612960&0&180541&541&boshzjjg&
20071430020100504188&M4XMRSZ4KBWO1CNY&20200714&02000016&1813578286883&1813578286883&0&100300&300&boshzjjg&
20071430020100504298&TCRFG6QKKFLDHMZP&20200714&02000016&1813359593740&1813359593740&0&202607&607&boshzjjg&
20071430020100504205&UZEPEOOPCM0IL2BX&20200714&02000016&1815871603029&1815871603029&0&50150&150&boshzjjg&
20071430020100504215&QKVO8XY8T1GE8TWS&20200714&02000016&1813887805937&1813887805937&0&20060&60&boshzjjg&
20071430020100504321&STNHQ5AJSAAFS3OT&20200714&02000016&1815969256322&1815969256322&0&10030&30&boshzjjg&
20071430020100504322&1T4DJZ8H868SLRJH&20200714&02000016&1813663390233&1813663390233&0&191875&575&boshzjjg&
20071430020100504323&KA87A0FIUV96GUZJ&20200714&02000016&1815987886307&1815987886307&0&10030&30&boshzjjg&
20071430020100504220&UJGW8A194RIZF17T&20200714&02000016&1814787304811&1814787304811&0&10030&30&boshzjjg&
20071430020100504335&P24BFRJ6ADNWZZRF&20200714&02000016&1815184848605&1815184848605&0&60180&180&boshzjjg&
20071430020100504340&WDA8IIK0R0DJSWCH&20200714&02000016&1815184855733&1815184855733&0&60180&180&boshzjjg&
20071430020100504536&PKRFL6PU0B76MZAE&20200714&02000016&1817642059933&1817642059933&0&100300&300&boshzjjg&
20071430020100504350&8E18XZ3WTLYAZ7JX&20200714&02000016&1813323299114&1813323299114&0&30090&90&boshzjjg&
20071430020100504540&3AATA7C7S8TTRCJK&20200714&02000016&1818345857865&1818345857865&0&20060&60&boshzjjg&
20071430020100504379&5QROLLR15KDIERGA&20200714&02000016&1818053143677&1818053143677&0&20060&60&boshzjjg&
20071430020100504480&EY9BEXGNQHJ49265&20200714&02000016&1815586318495&1815586318495&0&50150&150&boshzjjg&
20071430020100504391&AOYAE995H98XGCG7&20200714&02000016&1818732221628&1818732221628&0&30090&90&boshzjjg&
20071430020100504484&XDAYXF23HHD4WIJ7&20200714&02000016&1815933126808&1815933126808&0&10030&30&boshzjjg&
20071430020100504422&3IL8ENIJADYYDFEZ&20200714&02000016&1817780514895&1817780514895&0&30090&90&boshzjjg&
20071430020100504519&S4FI6IKMLFELKP6I&20200714&02000016&1815368798533&1815368798533&0&200601&601&boshzjjg&
20071430020100504427&65UG4FZEK79FVYBP&20200714&02000016&1817780514895&1817780514895&0&10030&30&boshzjjg&
20071430020100504433&V2K6TU4ZF7ONQK7I&20200714&02000016&1815350349372&1815350349372&0&60180&180&boshzjjg&
20071430020100504639&OZ4WDBVYS2R56ZV4&20200714&02000016&1813111448814&1813111448814&0&20060&60&boshzjjg&
20071430020100504742&LOQJ4LIL7ROVY5K4&20200714&02000016&1818730588858&1818730588858&0&10030&30&boshzjjg&
20071430020100504625&3W4OKOJTO8Q0EF1E&20200714&02000016&1818931441806&1818931441806&0&10030&30&boshzjjg&
20071430020100504748&ZULPDQ8SRAHIZO95&20200714&02000016&1815100500891&1815100500891&0&10030&30&boshzjjg&
20071430020100504666&8HHSM60P7NS0X9ME&20200714&02000016&1815287133896&1815287133896&0&200601&601&boshzjjg&
20071430020100504671&HZ7DD31RE8IGZBHA&20200714&02000016&1815227060395&1815227060395&0&30090&90&boshzjjg&
20071430020100504861&ATMBDVB4MYDOLC1U&20200714&02000016&1818088174982&1818088174982&0&50150&150&boshzjjg&
20071430020100504864&QDQTH5YCKOG8VFFV&20200714&02000016&1818908826659&1818908826659&0&150451&451&boshzjjg&
20071430020100504686&LSYYB048MOWYM467&20200714&02000016&1800100000117&1800100000117&0&50150&150&boshzjjg&
20071430020100504690&NYFFF0624S0SOOTI&20200714&02000016&1818010518350&1818010518350&0&50150&150&boshzjjg&
20071430020100504696&YJKZAFL6YDK38SJI&20200714&02000016&1818779946893&1818779946893&0&10030&30&boshzjjg&
20071430020100504886&TYEC663ZKPU79P6U&20200714&02000016&1818049119039&1818049119039&0&4513540&13540&boshzjjg&
20071430020100504716&HBTJ24853RAH3YBQ&20200714&02000016&1818049119039&1818049119039&0&4513540&13540&boshzjjg&
20071430020100504797&NQSCZRAOMW9OQN94&20200714&02000016&1818049119039&1818049119039&0&4513540&13540&boshzjjg&
20071430020100504798&GTXB143RVLINHLWK&20200714&02000016&1818049119039&1818049119039&0&4513540&13540&boshzjjg&
20071430020100504717&MENQS75I38HYQJFE&20200714&02000016&1818049119039&1818049119039&0&4513540&13540&boshzjjg&
20071430020100504718&APTVND2YFBK2LM7W&20200714&02000016&1818049119039&1818049119039&0&4513540&13540&boshzjjg&
20071430020100504887&LSOTAFUH41ILW0I7&20200714&02000016&1813730288889&1813730288889&0&20060&60&boshzjjg&
20071430020100504888&W69ZVV7B7NG4IC5Y&20200714&02000016&1818049119039&1818049119039&0&2006018&6018&boshzjjg&
