20200921|914912558|02000016|1|1|2|110|1818691191808|1818691191808|02000016|02000016|||20200921164509|1600617600
20200921|914912559|02000016|1|1|2|110|1818994474771|1818994474771|02000016|02000016|||20200921164820|1600617600
20200921|914912560|02000016|1|1|2|110|1818691191808|1818691191808|02000016|02000016|||20200921164910|1600617600
20200921|914912561|02000016|1|1|2|110|1818994474771|1818994474771|02000016|02000016|||20200921172258|1600617600
20200921|914912562|02000016|1|1|2|110|1818994474771|1818994474771|02000016|02000016|||20200921172609|1600617600
20200921|914912563|02000016|1|1|2|110|1818994474771|1818994474771|02000016|02000016|||20200921173049|1600617600
20200921|915912558|02000016|1|1|3|19740|1818691191808|1818691191808|1818691191806|1818691191806|||20200921164509|1600617600
20200921|915912559|02000016|1|1|3|21450|1818994474771|1818994474771|1818691191806|1818691191806|||20200921164820|1600617600
20200921|915912560|02000016|1|1|3|19740|1818691191808|1818691191808|1818691191806|1818691191806|||20200921164910|1600617600
20200921|915912561|02000016|1|1|3|19740|1818994474771|1818994474771|1818691191806|1818691191806|||20200921172258|1600617600
20200921|915912562|02000016|1|1|3|3000|1818994474771|1818994474771|1818691191806|1818691191806|||20200921172609|1600617600
20200921|915912563|02000016|1|1|3|3000|1818994474771|1818994474771|1818691191806|1818691191806|||20200921173049|1600617600
20200921|916111040|02000016|1|1|3|700|1818288538601|1818288538601|1800100000020|1800100000020|||20200921090030|1600685571
20200921|916111041|02000016|1|1|3|700|1815877749714|1815877749714|1800100000020|1800100000020|||20200921093249|1600685571
20200921|916111042|02000016|1|1|3|700|1815175665850|1815175665850|1800100000020|1800100000020|||20200921093400|1600685571
20200921|916111043|02000016|1|1|3|700|1815630043158|1815630043158|1800100000020|1800100000020|||20200921093607|1600685571
20200921|916111044|02000016|1|1|3|700|1815736914111|1815736914111|1800100000020|1800100000020|||20200921094105|1600685571
20200921|916111045|02000016|1|1|3|1000|1815516513633|1815516513633|1800100000020|1800100000020|||20200921094503|1600685571
20200921|916111046|02000016|1|1|3|700|1813230629988|1813230629988|1800100000020|1800100000020|||20200921094510|1600685571
20200921|916111047|02000016|1|1|3|1000|1815257296726|1815257296726|1800100000020|1800100000020|||20200921094557|1600685571
20200921|916111048|02000016|1|1|3|700|1818037226096|1818037226096|1800100000020|1800100000020|||20200921094828|1600685571
20200921|916111049|02000016|1|1|3|700|1818931234584|1818931234584|1800100000020|1800100000020|||20200921095218|1600685571
20200921|916111050|02000016|1|1|3|700|1813949202078|1813949202078|1800100000020|1800100000020|||20200921095242|1600685571
20200921|916111051|02000016|1|1|3|700|1813304883330|1813304883330|1800100000020|1800100000020|||20200921095242|1600685571
20200921|916111052|02000016|1|1|3|700|1813949202078|1813949202078|1800100000020|1800100000020|||20200921095315|1600685571
20200921|916111053|02000016|1|1|3|700|1815537970915|1815537970915|1800100000020|1800100000020|||20200921095444|1600685571
20200921|916111054|02000016|1|1|3|700|1818714473082|1818714473082|1800100000020|1800100000020|||20200921095704|1600685571
20200921|916111055|02000016|1|1|3|700|1815037900809|1815037900809|1800100000020|1800100000020|||20200921095905|1600685571
20200921|916111056|02000016|1|1|3|1000|1813166675655|1813166675655|1800100000020|1800100000020|||20200921095945|1600685571
20200921|916111057|02000016|1|1|3|700|1818612052579|1818612052579|1800100000020|1800100000020|||20200921100903|1600685571
20200921|916111058|02000016|1|1|3|700|1813582210238|1813582210238|1800100000020|1800100000020|||20200921101045|1600685571
20200921|916111059|02000016|1|1|3|1000|1815640332208|1815640332208|1800100000020|1800100000020|||20200921101548|1600685571
20200921|916111060|02000016|1|1|3|700|1813624375787|1813624375787|1800100000020|1800100000020|||20200921102004|1600685571
20200921|916111061|02000016|1|1|3|700|1813930201988|1813930201988|1800100000020|1800100000020|||20200921102051|1600685571
20200921|916111062|02000016|1|1|3|1000|1815871931238|1815871931238|1800100000020|1800100000020|||20200921102131|1600685571
20200921|916111063|02000016|1|1|3|700|1815031983200|1815031983200|1800100000020|1800100000020|||20200921102239|1600685571
20200921|916111064|02000016|1|1|3|1000|1815871931238|1815871931238|1800100000020|1800100000020|||20200921102422|1600685571
20200921|916111065|02000016|1|1|3|700|1818080885521|1818080885521|1800100000020|1800100000020|||20200921103010|1600685571
20200921|916111066|02000016|1|1|3|700|1818730025922|1818730025922|1800100000020|1800100000020|||20200921103430|1600685571
20200921|916111067|02000016|1|1|3|700|1813234017849|1813234017849|1800100000020|1800100000020|||20200921105710|1600685571
20200921|916111068|02000016|1|1|3|700|1817791306151|1817791306151|1800100000020|1800100000020|||20200921110226|1600685571
20200921|916111069|02000016|1|1|3|700|1813035372806|1813035372806|1800100000020|1800100000020|||20200921111602|1600685571
20200921|916111070|02000016|1|1|3|1000|1813932238474|1813932238474|1800100000020|1800100000020|||20200921111816|1600685571
20200921|916111071|02000016|1|1|3|1000|1813932238474|1813932238474|1800100000020|1800100000020|||20200921111849|1600685571
20200921|916111072|02000016|1|1|3|1000|1813932238474|1813932238474|1800100000020|1800100000020|||20200921111944|1600685571
20200921|916111073|02000016|1|1|3|1000|1813932238474|1813932238474|1800100000020|1800100000020|||20200921112006|1600685571
20200921|916111074|02000016|1|1|3|1000|1818631212641|1818631212641|1800100000020|1800100000020|||20200921112118|1600685571
20200921|916111075|02000016|1|1|3|1000|1818631212641|1818631212641|1800100000020|1800100000020|||20200921112203|1600685571
20200921|916111076|02000016|1|1|3|1000|1818672804273|1818672804273|1800100000020|1800100000020|||20200921112239|1600685571
20200921|916111077|02000016|1|1|3|1000|1813545934692|1813545934692|1800100000020|1800100000020|||20200921112359|1600685571
20200921|916111078|02000016|1|1|3|700|1815612516808|1815612516808|1800100000020|1800100000020|||20200921112701|1600685571
20200921|916111079|02000016|1|1|3|1000|1817751565108|1817751565108|1800100000020|1800100000020|||20200921113415|1600685571
20200921|916111080|02000016|1|1|3|1000|1817751565108|1817751565108|1800100000020|1800100000020|||20200921113449|1600685571
20200921|916111081|02000016|1|1|3|1000|1817751565108|1817751565108|1800100000020|1800100000020|||20200921113523|1600685571
20200921|916111082|02000016|1|1|3|700|1817751565108|1817751565108|1800100000020|1800100000020|||20200921113614|1600685571
20200921|916111083|02000016|1|1|3|1000|1813483293913|1813483293913|1800100000020|1800100000020|||20200921114023|1600685571
20200921|916111084|02000016|1|1|3|700|1819932910006|1819932910006|1800100000020|1800100000020|||20200921114054|1600685571
20200921|916111085|02000016|1|1|3|700|1819932910006|1819932910006|1800100000020|1800100000020|||20200921114109|1600685571
20200921|916111086|02000016|1|1|3|1000|1815698835153|1815698835153|1800100000020|1800100000020|||20200921114256|1600685571
20200921|916111087|02000016|1|1|3|1000|1818609280106|1818609280106|1800100000020|1800100000020|||20200921114436|1600685571
20200921|916111088|02000016|1|1|3|1000|1813930848070|1813930848070|1800100000020|1800100000020|||20200921122956|1600685571
20200921|916111089|02000016|1|1|3|1000|1815287541585|1815287541585|1800100000020|1800100000020|||20200921123531|1600685571
20200921|916111090|02000016|1|1|3|700|1813998259838|1813998259838|1800100000020|1800100000020|||20200921125256|1600685571
20200921|916111091|02000016|1|1|3|1000|1813998259838|1813998259838|1800100000020|1800100000020|||20200921125356|1600685571
20200921|916111092|02000016|1|1|3|1000|1813998259838|1813998259838|1800100000020|1800100000020|||20200921125415|1600685571
20200921|916111093|02000016|1|1|3|1000|1813998259838|1813998259838|1800100000020|1800100000020|||20200921125435|1600685571
20200921|916111094|02000016|1|1|3|1000|1813998259838|1813998259838|1800100000020|1800100000020|||20200921125452|1600685571
20200921|916111095|02000016|1|1|3|1000|1813998259838|1813998259838|1800100000020|1800100000020|||20200921125516|1600685571
20200921|916111096|02000016|1|1|3|1000|1813998259838|1813998259838|1800100000020|1800100000020|||20200921125541|1600685571
20200921|916111097|02000016|1|1|3|700|1818240287995|1818240287995|1800100000020|1800100000020|||20200921125930|1600685571
20200921|916111098|02000016|1|1|3|1000|1818240287995|1818240287995|1800100000020|1800100000020|||20200921125950|1600685571
20200921|916111099|02000016|1|1|3|1000|1818240287995|1818240287995|1800100000020|1800100000020|||20200921130012|1600685571
20200921|916111100|02000016|1|1|3|1000|1818240287995|1818240287995|1800100000020|1800100000020|||20200921130035|1600685571
20200921|916111101|02000016|1|1|3|1000|1818240287995|1818240287995|1800100000020|1800100000020|||20200921130104|1600685571
20200921|916111102|02000016|1|1|3|700|1813840199563|1813840199563|1800100000020|1800100000020|||20200921130346|1600685571
20200921|916111103|02000016|1|1|3|700|1818931229855|1818931229855|1800100000020|1800100000020|||20200921132246|1600685571
20200921|916111104|02000016|1|1|3|700|1813082380826|1813082380826|1800100000020|1800100000020|||20200921132453|1600685571
20200921|916111105|02000016|1|1|3|700|1813837939615|1813837939615|1800100000020|1800100000020|||20200921134315|1600685571
20200921|916111106|02000016|1|1|3|1000|1817325423850|1817325423850|1800100000020|1800100000020|||20200921140153|1600685571
20200921|916111107|02000016|1|1|3|1000|1813988225116|1813988225116|1800100000020|1800100000020|||20200921140707|1600685571
20200921|916111108|02000016|1|1|3|700|1813131239019|1813131239019|1800100000020|1800100000020|||20200921140817|1600685571
20200921|916111109|02000016|1|1|3|700|1813759225587|1813759225587|1800100000020|1800100000020|||20200921140855|1600685571
20200921|916111110|02000016|1|1|3|700|1813759232122|1813759232122|1800100000020|1800100000020|||20200921140935|1600685571
20200921|916111111|02000016|1|1|3|1000|1815227234914|1815227234914|1800100000020|1800100000020|||20200921141647|1600685571
20200921|916111112|02000016|1|1|3|700|1815108647893|1815108647893|1800100000020|1800100000020|||20200921142304|1600685571
20200921|916111113|02000016|1|1|3|700|1815903236465|1815903236465|1800100000020|1800100000020|||20200921142353|1600685571
20200921|916111114|02000016|1|1|3|700|1815698301309|1815698301309|1800100000020|1800100000020|||20200921144448|1600685571
20200921|916111115|02000016|1|1|3|1000|1813730451279|1813730451279|1800100000020|1800100000020|||20200921145415|1600685571
20200921|916111116|02000016|1|1|3|1000|1813603225419|1813603225419|1800100000020|1800100000020|||20200921145534|1600685571
20200921|916111117|02000016|1|1|3|1000|1815130268126|1815130268126|1800100000020|1800100000020|||20200921145639|1600685571
20200921|916111118|02000016|1|1|3|1000|1817516551290|1817516551290|1800100000020|1800100000020|||20200921145646|1600685571
20200921|916111119|02000016|1|1|3|700|1815100258404|1815100258404|1800100000020|1800100000020|||20200921145729|1600685571
20200921|916111120|02000016|1|1|3|1000|1815233758901|1815233758901|1800100000020|1800100000020|||20200921145749|1600685571
20200921|916111121|02000016|1|1|3|700|1815130371519|1815130371519|1800100000020|1800100000020|||20200921145924|1600685571
20200921|916111122|02000016|1|1|3|1000|1813611017783|1813611017783|1800100000020|1800100000020|||20200921150446|1600685571
20200921|916111123|02000016|1|1|3|700|1818970607159|1818970607159|1800100000020|1800100000020|||20200921152131|1600685571
20200921|916111124|02000016|1|1|3|700|1813582623427|1813582623427|1800100000020|1800100000020|||20200921153417|1600685571
20200921|916111125|02000016|1|1|3|700|1818970607159|1818970607159|1800100000020|1800100000020|||20200921153950|1600685571
20200921|916111126|02000016|1|1|3|1000|1813832256871|1813832256871|1800100000020|1800100000020|||20200921154020|1600685571
20200921|916111127|02000016|1|1|3|700|1815592201336|1815592201336|1800100000020|1800100000020|||20200921160014|1600685571
