清算中心流水号&交易所流水号&业务发生日期&交易所代码&会员编码&资金账号&出入金类型&发生金额&手续费金额&银行产品代码&备注
20060830020100431461&TFBLP63A4PZ7KOU5&20200608&02000016&1815079696414&1815079696414&0&11033&33&boshzjjg&
20060830020100431372&34ADJ987X5NNTPGG&20200608&02000016&1800100000106&1800100000106&0&100300&300&boshzjjg&
20060830020100431469&X7J08QFR6QQ0QGHT&20200608&02000016&1817732266277&1817732266277&0&40120&120&boshzjjg&
20060830020100431471&18GPV7FXO5PN6DP8&20200608&02000016&1813577500356&1813577500356&0&10030&30&boshzjjg&
20060830020100431581&TY5OMOSFCIEDY6H3&20200608&02000016&1813700388839&1813700388839&0&411233&1233&boshzjjg&
20060830020100431405&Y3AIHD4DJS1NO9W8&20200608&02000016&1813582743080&1813582743080&0&18054&54&boshzjjg&
20060830020100431595&I79B74KW6PLT2X7W&20200608&02000016&1800100000031&1800100000031&0&40120&120&boshzjjg&
20060830020100431407&5B6MM2BUX1D25XYH&20200608&02000016&1818631760322&1818631760322&0&18054&54&boshzjjg&
20060830020100431598&H62IQP100N6GFXXT&20200608&02000016&1818631222983&1818631222983&0&180541&541&boshzjjg&
20060830020100431509&6W6B1SEN9KM8HK8B&20200608&02000016&1800100000099&1800100000099&0&10030&30&boshzjjg&
20060830020100431606&7DHIT1W5TGUWCESZ&20200608&02000016&1818149061051&1818149061051&0&20060&60&boshzjjg&
20060830020100431411&BF56B3T6XKB667LJ&20200608&02000016&1815045790917&1815045790917&0&10030&30&boshzjjg&
20060830020100431514&GD7JIET9TYS7ORXJ&20200608&02000016&1818604689751&1818604689751&0&10030&30&boshzjjg&
20060830020100431413&63B5XJ3TD4VWDUOL&20200608&02000016&1815712514778&1815712514778&0&10030&30&boshzjjg&
20060830020100431515&JT3W4UFNGXVIBAYE&20200608&02000016&1817304211987&1817304211987&0&10030&30&boshzjjg&
20060830020100431415&GZTLJAX4O4S9LNI1&20200608&02000016&1818631760311&1818631760311&0&10030&30&boshzjjg&
20060830020100431610&QAQ15PW353QFFR3K&20200608&02000016&1819912156726&1819912156726&0&20060&60&boshzjjg&
20060830020100431611&CXSITJBCBOZNTLB4&20200608&02000016&1815840074214&1815840074214&0&10030&30&boshzjjg&
20060830020100431612&87JURQ36N8MI2TCQ&20200608&02000016&1817332403134&1817332403134&0&10030&30&boshzjjg&
20060830020100431613&T76XBCI6UEUH356O&20200608&02000016&1818210293990&1818210293990&0&20060&60&boshzjjg&
20060830020100431517&MTQTK90YHT7TDQJ8&20200608&02000016&1815832285526&1815832285526&0&20060&60&boshzjjg&
20060830020100431615&RYQ7S58SC8N09IIC&20200608&02000016&1813940555070&1813940555070&0&10030&30&boshzjjg&
20060830020100431518&OOYMWVDI0OBRK3J0&20200608&02000016&1815232231134&1815232231134&0&210130&630&boshzjjg&
20060830020100431422&GZPT6IM8HL45UHP3&20200608&02000016&1815925591567&1815925591567&0&80240&240&boshzjjg&
20060830020100431635&2AFG84U92ITBASJX&20200608&02000016&1813643126078&1813643126078&0&20060&60&boshzjjg&
20060830020100431640&M9LNEFH977MI2YO8&20200608&02000016&1815184848605&1815184848605&0&20060&60&boshzjjg&
20060830020100431632&UPMVIYME2S62H4HS&20200608&02000016&1818629264385&1818629264385&0&30090&90&boshzjjg&
20060830020100431660&14W9CZKZAR69PEO4&20200608&02000016&1818834581128&1818834581128&0&20060&60&boshzjjg&
20060830020100431661&F0XXHYSYJE0ZRQ31&20200608&02000016&1818313096871&1818313096871&0&220661&661&boshzjjg&
20060830020100431845&GQJVYYI9WMDM8K7E&20200608&02000016&1818746535653&1818746535653&0&10030&30&boshzjjg&
20060830020100431750&OTZD4KK35TRZ4YIG&20200608&02000016&1815333262646&1815333262646&0&10030&30&boshzjjg&
20060830020100431854&C9R377QTJ22HA3X1&20200608&02000016&1818345857865&1818345857865&0&20060&60&boshzjjg&
20060830020100431862&AQOYW83GLX2SDCK9&20200608&02000016&1818875037395&1818875037395&0&30692&92&boshzjjg&
20060830020100431866&BM9VSLUBVZ86IH0S&20200608&02000016&1813992400727&1813992400727&0&501&1&boshzjjg&
20060830020100431766&7EH2N0LO02L235ND&20200608&02000016&1818788201666&1818788201666&0&200601&601&boshzjjg&
20060830020100431673&1HUA5TX71PVSA6KR&20200608&02000016&1815097408526&1815097408526&0&10130&30&boshzjjg&
20060830020100431769&M1JJ1T97V18D93TS&20200608&02000016&1813400267349&1813400267349&0&10130&30&boshzjjg&
20060830020100431868&47BKBQKWSRPQ0Q30&20200608&02000016&1818165477289&1818165477289&0&15045&45&boshzjjg&
20060830020100431674&7E5PK251EYOEEBNI&20200608&02000016&1815818598480&1815818598480&0&20060&60&boshzjjg&
20060830020100431870&SFBQ5CQ5TFPN44FM&20200608&02000016&1818187582339&1818187582339&0&10030&30&boshzjjg&
20060830020100431678&DF3FAGDGJUV8OV1N&20200608&02000016&1813478653378&1813478653378&0&40120&120&boshzjjg&
20060830020100431679&QMWAZBBFM1YE6NS0&20200608&02000016&1819909235532&1819909235532&0&19057&57&boshzjjg&
20060830020100431871&3D843HMKKNMXUX12&20200608&02000016&1818233358282&1818233358282&0&10130&30&boshzjjg&
20060830020100431680&WNB965XPWDS8SQYU&20200608&02000016&1813961081945&1813961081945&0&190571&571&boshzjjg&
20060830020100431771&VJDV6KC4SOM5J8DT&20200608&02000016&1813323228902&1813323228902&0&22066&66&boshzjjg&
20060830020100431681&1BUVI6JJNVICH8N8&20200608&02000016&1815109233126&1815109233126&0&300902&902&boshzjjg&
20060830020100431683&W7T1PI5JMUT3VGTT&20200608&02000016&1815136188661&1815136188661&0&185656&556&boshzjjg&
20060830020100431781&2246EYOHQ57V0WRC&20200608&02000016&1813577525294&1813577525294&0&10030&30&boshzjjg&
20060830020100431881&9AEYIL74EW5XGKS5&20200608&02000016&1813613128663&1813613128663&0&20060&60&boshzjjg&
20060830020100431882&D50F37O6XA34F9JI&20200608&02000016&1813577525294&1813577525294&0&10030&30&boshzjjg&
20060830020100431785&CVQUNHT2Y3YCGMVH&20200608&02000016&1815887508589&1815887508589&0&10030&30&boshzjjg&
20060830020100431883&PSPWX4O7UVSMVH3M&20200608&02000016&1819937183090&1819937183090&0&198595&595&boshzjjg&
20060830020100431691&394NDZD4LQL1MDOW&20200608&02000016&1815903327688&1815903327688&0&20260&60&boshzjjg&
20060830020100431787&UMUEZY2ERNM7U4XE&20200608&02000016&1815709151444&1815709151444&0&10030&30&boshzjjg&
20060830020100431887&TFV6XSPNZP9FGL6D&20200608&02000016&1815109156089&1815109156089&0&10030&30&boshzjjg&
20060830020100431693&HGV8D6TFH2LVG10X&20200608&02000016&1800100000109&1800100000109&0&10030&30&boshzjjg&
20060830020100431694&DW0P9OYIGQFI6UYU&20200608&02000016&1818741608136&1818741608136&0&10030&30&boshzjjg&
20060830020100431696&H5GI3QU73V4YWAJ8&20200608&02000016&1815727394536&1815727394536&0&10030&30&boshzjjg&
20060830020100431697&31C16OZLKIA8WUDC&20200608&02000016&1815231216025&1815231216025&0&10130&30&boshzjjg&
20060830020100431893&9722IET8J05M7T2M&20200608&02000016&1815227017957&1815227017957&0&10030&30&boshzjjg&
20060830020100431803&YQJHCNQDEHPSSHOT&20200608&02000016&1813628842075&1813628842075&0&50150&150&boshzjjg&
20060830020100431906&BPI04DC5WLP0XNDK&20200608&02000016&1815109233126&1815109233126&0&80240&240&boshzjjg&
20060830020100431806&QXC5ZX8SKV8Q26EM&20200608&02000016&1813379416382&1813379416382&0&10030&30&boshzjjg&
20060830020100431809&6I2K80ZJRAPWP3KT&20200608&02000016&1818335259239&1818335259239&0&20060&60&boshzjjg&
20060830020100431813&M775TMDMB19QVT3B&20200608&02000016&1813703283113&1813703283113&0&30090&90&boshzjjg&
20060830020100431712&I17QVXA9ZSS647HJ&20200608&02000016&1813324639668&1813324639668&0&10030&30&boshzjjg&
20060830020100431819&NC0GNBUM00I527OT&20200608&02000016&1815667899659&1815667899659&0&10030&30&boshzjjg&
20060830020100431719&V8YKJKB1Q6A149A5&20200608&02000016&1815202419589&1815202419589&0&10030&30&boshzjjg&
20060830020100431921&EUPAJXD9IYULHXGK&20200608&02000016&1815184855733&1815184855733&0&26078&78&boshzjjg&
20060830020100431922&JV4KVTRTRJYX0DEX&20200608&02000016&1815045503182&1815045503182&0&28886&86&boshzjjg&
20060830020100431828&VX3X3SSPSN09H825&20200608&02000016&1818233445131&1818233445131&0&210130&630&boshzjjg&
20060830020100431724&YK1R6GECYSOGFMFS&20200608&02000016&1813292999216&1813292999216&0&10030&30&boshzjjg&
20060830020100431831&NW8MDQQ1I56XCYM7&20200608&02000016&1813633226787&1813633226787&0&30090&90&boshzjjg&
20060830020100431929&T57FFCKEEL3XOL7C&20200608&02000016&1813908822711&1813908822711&0&10030&30&boshzjjg&
20060830020100432037&UIR68V64CRD1BLHQ&20200608&02000016&1818987538596&1818987538596&0&30090&90&boshzjjg&
20060830020100432043&LN5EFFHE2MXO9WW0&20200608&02000016&1813832256871&1813832256871&0&35005&105&boshzjjg&
20060830020100432044&YRENLP3TXF6NFZYI&20200608&02000016&1800100000347&1800100000347&0&14042&42&boshzjjg&
20060830020100432146&P2UW75D7CCGJ80KS&20200608&02000016&1816646828858&1816646828858&0&10030&30&boshzjjg&
20060830020100432150&B510C2720PWPIKY5&20200608&02000016&1815946631777&1815946631777&0&15045&45&boshzjjg&
20060830020100432153&QE4TI5V51B2QBSHK&20200608&02000016&1817614685531&1817614685531&0&15045&45&boshzjjg&
20060830020100432154&I3R7K69LNOKKMWVH&20200608&02000016&1813115642991&1813115642991&0&10030&30&boshzjjg&
20060830020100432054&4O8YI63WHFVLTQGE&20200608&02000016&1818746794204&1818746794204&0&15045&45&boshzjjg&
20060830020100432064&9JCF83UB2ZXVFI4R&20200608&02000016&1818511141687&1818511141687&0&200601&601&boshzjjg&
20060830020100432067&O3V8PIBDUP339PI0&20200608&02000016&1813930833053&1813930833053&0&9929&29&boshzjjg&
20060830020100431967&F1CAHI76YCW1JC05&20200608&02000016&1818132758604&1818132758604&0&9929&29&boshzjjg&
20060830020100432168&WVF5O6MUMY8SP7TT&20200608&02000016&1813730198476&1813730198476&0&9929&29&boshzjjg&
20060830020100432170&AH8ABQE1R0PSEYNX&20200608&02000016&1813904881393&1813904881393&0&10030&30&boshzjjg&
20060830020100432071&OPOIY1D5SRGAKVM8&20200608&02000016&1813730198476&1813730198476&0&9929&29&boshzjjg&
20060830020100431974&ZQGQ6FY7JRQ4LM56&20200608&02000016&1800100000245&1800100000245&0&10030&30&boshzjjg&
20060830020100432083&Q6N7B8RJRHWAZBLJ&20200608&02000016&1800100000080&1800100000080&0&50150&150&boshzjjg&
20060830020100432188&W3MKDWDM6ETE73N0&20200608&02000016&1813603225419&1813603225419&0&30090&90&boshzjjg&
20060830020100431986&DM94JXYZA6TP2MT5&20200608&02000016&1800100000042&1800100000042&0&501504&1504&boshzjjg&
20060830020100431995&3ICO3EHNIY9H04JW&20200608&02000016&1813515799998&1813515799998&0&20060&60&boshzjjg&
20060830020100432100&82JVAGOGV8R6YM4Z&20200608&02000016&1815770280016&1815770280016&0&10230&30&boshzjjg&
20060830020100432004&0S6F6DNA53U65G34&20200608&02000016&1813587758991&1813587758991&0&10030&30&boshzjjg&
20060830020100432110&8W7I7HTPARAC2DAH&20200608&02000016&1813587765311&1813587765311&0&10030&30&boshzjjg&
20060830020100432008&DJUH91J11TL52HSD&20200608&02000016&1813970601152&1813970601152&0&20060&60&boshzjjg&
20060830020100432120&TWC4R7HE3SFJ03VF&20200608&02000016&1813987956640&1813987956640&0&50150&150&boshzjjg&
20060830020100432235&W7DGMVTZR7XIKOUP&20200608&02000016&1815869087947&1815869087947&0&10030&30&boshzjjg&
20060830020100432239&KRHI5RU8VFHMVL0T&20200608&02000016&1817789888843&1817789888843&0&20060&60&boshzjjg&
20060830020100432442&AXOWO8ZP3WTQ4VKP&20200608&02000016&1815974969450&1815974969450&0&20060&60&boshzjjg&
20060830020100432445&I7VLLBTSDWBUOB5B&20200608&02000016&1813335339191&1813335339191&0&280842&842&boshzjjg&
20060830020100432256&D2FXAUFS8FN25YV9&20200608&02000016&1813335335656&1813335335656&0&30090&90&boshzjjg&
20060830020100432360&INYFOAXOO7YBVIGP&20200608&02000016&1815933126808&1815933126808&0&30090&90&boshzjjg&
20060830020100432479&4B2DFEUIG9MBJCWW&20200608&02000016&1818468025462&1818468025462&0&20060&60&boshzjjg&
20060830020100432314&XB046D7XKQNTOZA3&20200608&02000016&1815334465219&1815334465219&0&50150&150&boshzjjg&
20060830020100432746&Q4X5SX0WQN9QJMSV&20200608&02000016&1818304684246&1818304684246&0&10030&30&boshzjjg&
20060830020100432561&IIVPU0IBJXYI5TYZ&20200608&02000016&1818804688440&1818804688440&0&10030&30&boshzjjg&
20060830020100432655&XFWY6JY1SVBM8N8Q&20200608&02000016&1813846862770&1813846862770&0&10030&30&boshzjjg&
20060830020100432656&9M44TWEOIUIB2HUP&20200608&02000016&1813946786563&1813946786563&0&10030&30&boshzjjg&
20060830020100432563&Z2NV9C097FBIR7AJ&20200608&02000016&1815945821718&1815945821718&0&10030&30&boshzjjg&
20060830020100432658&L8N21RLH1RK7W8W0&20200608&02000016&1815804681313&1815804681313&0&10030&30&boshzjjg&
20060830020100432749&5OW4W9B4BDT6U7Q1&20200608&02000016&1815094526270&1815094526270&0&10030&30&boshzjjg&
20060830020100432750&CR0CTGAU6LI5PGOO&20200608&02000016&1815845463032&1815845463032&0&10030&30&boshzjjg&
20060830020100432564&9DVOV0M0LTY9987X&20200608&02000016&1813204687660&1813204687660&0&10030&30&boshzjjg&
20060830020100432664&VD0CR7DIDATQDWLN&20200608&02000016&1818604681909&1818604681909&0&10030&30&boshzjjg&
20060830020100432760&FCO3GG1R4EQDNDW5&20200608&02000016&1815389494945&1815389494945&0&30090&90&boshzjjg&
20060830020100432669&OY7XT8ZBVL1N886L&20200608&02000016&1818903123383&1818903123383&0&16048&48&boshzjjg&
20060830020100432578&QEK9JHU2IQJH5042&20200608&02000016&1815771836378&1815771836378&0&35105&105&boshzjjg&
20060830020100432683&1JYRVW60G9UP8AE4&20200608&02000016&1813582217784&1813582217784&0&20060&60&boshzjjg&
20060830020100432611&L0Z70YXCHBEGMZC5&20200608&02000016&1800100000361&1800100000361&0&20060&60&boshzjjg&
20060830020100432794&Z4Z393U06EDCGG2U&20200608&02000016&1813931380155&1813931380155&0&24072&72&boshzjjg&
20060830020100432797&HJ83JW652FH6RMAR&20200608&02000016&1813473122412&1813473122412&0&80240&240&boshzjjg&
20060830020100432627&V47NA57CX731WR62&20200608&02000016&1818855897042&1818855897042&0&30090&90&boshzjjg&
20060830020100432940&EWDG86LEECZXGPLD&20200608&02000016&1818855897042&1818855897042&0&30090&90&boshzjjg&
20060830020100432942&2NN2UZSF0RESTBX8&20200608&02000016&1813931358252&1813931358252&0&10030&30&boshzjjg&
20060830020100432943&2YHPQ0EFRMDBN2VK&20200608&02000016&1813833495031&1813833495031&0&10030&30&boshzjjg&
20060830020100432826&HPC6HVXMSV8GBWSJ&20200608&02000016&1815633298879&1815633298879&0&20060&60&boshzjjg&
20060830020100432966&FRHOJYL5QBG0Q13U&20200608&02000016&1813429398439&1813429398439&0&110330&330&boshzjjg&
20060830020100432900&VGPJ698IR3ZSOW12&20200608&02000016&1815502925058&1815502925058&0&10030&30&boshzjjg&
20060830020100433083&IX976VZCE14OMZ23&20200608&02000016&1815930239024&1815930239024&0&20060&60&boshzjjg&
20060830020100433000&20OEJEA23GNF5QW8&20200608&02000016&1818713290860&1818713290860&0&20060&60&boshzjjg&
20060830020100432914&QBIPJ4336S8SI7IJ&20200608&02000016&1813463287557&1813463287557&0&10030&30&boshzjjg&
20060830020100433091&P6YZZUZEITENS1FS&20200608&02000016&1813911318605&1813911318605&0&20060&60&boshzjjg&
20060830020100432920&EI3FPLAOVGTWIKS2&20200608&02000016&1813808788999&1813808788999&0&200601&601&boshzjjg&
20060830020100433103&2HYFQW57DD5GCDBV&20200608&02000016&1813681926479&1813681926479&0&50150&150&boshzjjg&
20060830020100433016&9XZ6GLRZ6U0TF1FM&20200608&02000016&1815127269046&1815127269046&0&10030&30&boshzjjg&
20060830020100433018&Q06LM0BMZPYVII00&20200608&02000016&1813603123859&1813603123859&0&10030&30&boshzjjg&
20060830020100433137&OCIP6EOIHZERO0W5&20200608&02000016&1813308821971&1813308821971&0&10030&30&boshzjjg&
20060830020100433181&83GP35LG8RFF5YI4&20200608&02000016&1818724403294&1818724403294&0&10030&30&boshzjjg&
20060830020100433182&KVNL5UENTTNMYK09&20200608&02000016&1813089950930&1813089950930&0&10030&30&boshzjjg&
