20200701|02000016|91292082|1815256323299|1815256323299|20200511000080|B3UHWVR2|1|0|18600|18600|720|0|0|0|0|0|0|0|0|0|1|0|0|20200701170649
20200701|02000016|91292080|1813897985407|1813897985407|20200511000080|B3UHWVR2|1|0|3600|3600|2|0|0|0|0|0|0|0|0|0|1|0|0|20200701170648
20200701|02000016|91292078|1815311367336|1815311367336|20200511000080|B3UHWVR2|1|0|3600|3600|2|0|0|0|0|0|0|0|0|0|1|0|0|20200701170647
20200701|02000016|91292076|1818634009284|1818634009284|20200511000080|B3UHWVR2|1|0|3600|3600|2|0|0|0|0|0|0|0|0|0|1|0|0|20200701170646
20200701|02000016|91292074|1813831522789|1813831522789|20200511000080|B3UHWVR2|1|0|3600|3600|3|0|0|0|0|0|0|0|0|0|1|0|0|20200701170644
20200701|02000016|91292072|1815246230377|1815246230377|20200511000080|B3UHWVR2|1|0|3600|3600|2|0|0|0|0|0|0|0|0|0|1|0|0|20200701170643
20200701|02000016|91292070|1818352027259|1818352027259|20200511000080|B3UHWVR2|1|0|3600|3600|3|0|0|0|0|0|0|0|0|0|1|0|0|20200701170642
20200701|02000016|91292068|1813808787391|1813808787391|20200511000080|B3UHWVR2|1|0|3600|3600|2|0|0|0|0|0|0|0|0|0|1|0|0|20200701170641
20200701|02000016|91292066|1815230406766|1815230406766|20200511000080|B3UHWVR2|1|0|3600|3600|2|0|0|0|0|0|0|0|0|0|1|0|0|20200701170640
20200701|02000016|91292064|1813759241776|1813759241776|20200511000080|B3UHWVR2|1|0|3600|3600|2|0|0|0|0|0|0|0|0|0|1|0|0|20200701170639
20200701|02000016|91292062|1818220358251|1818220358251|20200511000080|B3UHWVR2|1|0|3600|3600|2|0|0|0|0|0|0|0|0|0|1|0|0|20200701170638
20200701|02000016|91292060|1815145522029|1815145522029|20200511000080|B3UHWVR2|1|0|3600|3600|2|0|0|0|0|0|0|0|0|0|1|0|0|20200701170637
20200701|02000016|91292058|1813658729094|1813658729094|20200511000080|B3UHWVR2|1|0|3600|3600|2|0|0|0|0|0|0|0|0|0|1|0|0|20200701170636
20200701|02000016|91292056|1818085888288|1818085888288|20200511000080|B3UHWVR2|1|0|3600|3600|2|0|0|0|0|0|0|0|0|0|1|0|0|20200701170635
20200701|02000016|91292054|1815045780767|1815045780767|20200511000080|B3UHWVR2|1|0|3600|3600|2|0|0|0|0|0|0|0|0|0|1|0|0|20200701170634
20200701|02000016|91292052|1815931586164|1815931586164|20200511000080|B3UHWVR2|1|0|3600|3600|2|0|0|0|0|0|0|0|0|0|1|0|0|20200701170633
20200701|02000016|91292050|1814787397187|1814787397187|20200511000080|B3UHWVR2|1|0|3600|3600|2|0|0|0|0|0|0|0|0|0|1|0|0|20200701170632
20200701|02000016|91292048|1815887555058|1815887555058|20200511000080|B3UHWVR2|1|0|3600|3600|2|0|0|0|0|0|0|0|0|0|1|0|0|20200701170631
20200701|02000016|91292046|1813400267349|1813400267349|20200511000080|B3UHWVR2|1|0|3600|3600|2|0|0|0|0|0|0|0|0|0|1|0|0|20200701170630
20200701|02000016|91292044|1818787586472|1818787586472|20200511000080|B3UHWVR2|1|0|3600|3600|2|0|0|0|0|0|0|0|0|0|1|0|0|20200701170629
20200701|02000016|91292042|1813988222092|1813988222092|20200511000080|B3UHWVR2|1|0|3600|3600|3|0|0|0|0|0|0|0|0|0|1|0|0|20200701170628
20200701|02000016|91292040|1815727280047|1815727280047|20200511000080|B3UHWVR2|1|0|3600|3600|2|0|0|0|0|0|0|0|0|0|1|0|0|20200701170627
20200701|02000016|91292038|1813080797290|1813080797290|20200511000080|B3UHWVR2|1|0|3600|3600|2|0|0|0|0|0|0|0|0|0|1|0|0|20200701170626
20200701|02000016|91292036|1818746710622|1818746710622|20200511000080|B3UHWVR2|1|0|3600|3600|2|0|0|0|0|0|0|0|0|0|1|0|0|20200701170625
20200701|02000016|91292034|1813930801797|1813930801797|20200511000080|B3UHWVR2|1|0|3600|3600|2|0|0|0|0|0|0|0|0|0|1|0|0|20200701170624
20200701|02000016|91292032|1818731521085|1818731521085|20200511000080|B3UHWVR2|1|0|3600|3600|2|0|0|0|0|0|0|0|0|0|1|0|0|20200701170623
20200701|02000016|91292030|1813846717749|1813846717749|20200511000080|B3UHWVR2|1|0|3600|3600|2|0|0|0|0|0|0|0|0|0|1|0|0|20200701170622
20200701|02000016|91292028|1818507776297|1818507776297|20200511000080|B3UHWVR2|1|0|3600|3600|2|0|0|0|0|0|0|0|0|0|1|0|0|20200701170621
20200701|02000016|91292026|1813810810905|1813810810905|20200511000080|B3UHWVR2|1|0|3600|3600|2|0|0|0|0|0|0|0|0|0|1|0|0|20200701170620
20200701|02000016|91292024|1815238108000|1815238108000|20200511000080|B3UHWVR2|1|0|3600|3600|3|0|0|0|0|0|0|0|0|0|1|0|0|20200701170619
20200701|02000016|91292022|1818313472920|1818313472920|20200511000080|B3UHWVR2|1|0|3600|3600|2|0|0|0|0|0|0|0|0|0|1|0|0|20200701170618
20200701|02000016|91292020|1813785432993|1813785432993|20200511000080|B3UHWVR2|1|0|3600|3600|2|0|0|0|0|0|0|0|0|0|1|0|0|20200701170617
20200701|02000016|91292018|1815215907729|1815215907729|20200511000080|B3UHWVR2|1|0|3600|3600|2|0|0|0|0|0|0|0|0|0|1|0|0|20200701170616
20200701|02000016|91292016|1813759215316|1813759215316|20200511000080|B3UHWVR2|1|0|3600|3600|3|0|0|0|0|0|0|0|0|0|1|0|0|20200701170615
20200701|02000016|91292014|1818206761891|1818206761891|20200511000080|B3UHWVR2|1|0|3600|3600|2|0|0|0|0|0|0|0|0|0|1|0|0|20200701170614
20200701|02000016|91292012|1815097408526|1815097408526|20200511000080|B3UHWVR2|1|0|3600|3600|2|0|0|0|0|0|0|0|0|0|1|0|0|20200701170613
20200701|02000016|91292010|1813577503685|1813577503685|20200511000080|B3UHWVR2|1|0|3600|3600|3|0|0|0|0|0|0|0|0|0|1|0|0|20200701170612
20200701|02000016|91292008|1815946740910|1815946740910|20200511000080|B3UHWVR2|1|0|3600|3600|2|0|0|0|0|0|0|0|0|0|1|0|0|20200701170611
20200701|02000016|91292006|1815031298030|1815031298030|20200511000080|B3UHWVR2|1|0|3600|3600|2|0|0|0|0|0|0|0|0|0|1|0|0|20200701170610
20200701|02000016|91292004|1815929113628|1815929113628|20200511000080|B3UHWVR2|1|0|3600|3600|2|0|0|0|0|0|0|0|0|0|1|0|0|20200701170609
20200701|02000016|91292002|1813501288089|1813501288089|20200511000080|B3UHWVR2|1|0|3600|3600|2|0|0|0|0|0|0|0|0|0|1|0|0|20200701170608
20200701|02000016|91292000|1818826447446|1818826447446|20200511000080|B3UHWVR2|1|0|3600|3600|2|0|0|0|0|0|0|0|0|0|1|0|0|20200701170607
20200701|02000016|91291998|1814736438192|1814736438192|20200511000080|B3UHWVR2|1|0|3600|3600|2|0|0|0|0|0|0|0|0|0|1|0|0|20200701170606
20200701|02000016|91291996|1815887508592|1815887508592|20200511000080|B3UHWVR2|1|0|3600|3600|2|0|0|0|0|0|0|0|0|0|1|0|0|20200701170605
20200701|02000016|91291994|1813385213554|1813385213554|20200511000080|B3UHWVR2|1|0|3600|3600|2|0|0|0|0|0|0|0|0|0|1|0|0|20200701170604
20200701|02000016|91291992|1818779955712|1818779955712|20200511000080|B3UHWVR2|1|0|3600|3600|2|0|0|0|0|0|0|0|0|0|1|0|0|20200701170603
20200701|02000016|91291990|1813946850664|1813946850664|20200511000080|B3UHWVR2|1|0|3600|3600|2|0|0|0|0|0|0|0|0|0|1|0|0|20200701170602
20200701|02000016|91291988|1815712568650|1815712568650|20200511000080|B3UHWVR2|1|0|3600|3600|2|0|0|0|0|0|0|0|0|0|1|0|0|20200701170601
20200701|02000016|91291986|1800100000106|1800100000106|20200511000080|B3UHWVR2|1|0|3600|3600|4|0|0|0|0|0|0|0|0|0|1|0|0|20200701170559
20200701|02000016|91291984|1818733254139|1818733254139|20200511000080|B3UHWVR2|1|0|3600|3600|2|0|0|0|0|0|0|0|0|0|1|0|0|20200701170558
20200701|02000016|91291982|1800100000041|1800100000041|20200511000080|B3UHWVR2|1|0|3600|3600|3|0|0|0|0|0|0|0|0|0|1|0|0|20200701170557
20200701|02000016|91291973|1816630228108|1816630228108|20200511000080|B3UHWVR2|1|0|18600|18600|10|0|0|550|0|0|0|0|0|0|1|0|0|20200701155140
20200701|02000016|91291972|1813155869839|1813155869839|20200511000080|B3UHWVR2|1|0|18600|18600|10|0|0|550|0|0|0|0|0|0|1|0|0|20200701154925
20200701|02000016|91291663|1815570319902|1815570319902|20200511000080|B3UHWVR2|1|0|18600|18600|10|0|0|550|0|0|0|0|0|0|1|0|0|20200701141956
20200701|02000016|91291662|1818696301799|1818696301799|20200511000080|B3UHWVR2|1|0|18600|18600|10|0|0|550|0|0|0|0|0|0|1|0|0|20200701141941
20200701|02000016|91291661|1813483277175|1813483277175|20200511000080|B3UHWVR2|1|0|18600|18600|10|0|0|550|0|0|0|0|0|0|1|0|0|20200701141824
20200701|02000016|91291660|1813098067177|1813098067177|20200511000080|B3UHWVR2|1|0|18600|18600|10|0|0|550|0|0|0|0|0|0|1|0|0|20200701141430
20200701|02000016|91291652|1813988266069|1813988266069|20200511000080|B3UHWVR2|1|0|18600|18600|10|0|0|550|0|0|0|0|0|0|1|0|0|20200701141405
20200701|02000016|91291651|1813992186412|1813992186412|20200511000080|B3UHWVR2|1|0|18600|18600|10|0|0|550|0|0|0|0|0|0|1|0|0|20200701141315
20200701|02000016|91291642|1818871383962|1818871383962|20200511000080|B3UHWVR2|1|0|18600|18600|10|0|0|550|0|0|0|0|0|0|1|0|0|20200701141133
20200701|02000016|91291641|1815140671196|1815140671196|20200511000080|B3UHWVR2|1|0|18600|18600|10|0|0|550|0|0|0|0|0|0|1|0|0|20200701141103
20200701|02000016|91291625|1813673521508|1813673521508|20200511000080|B3UHWVR2|1|0|18600|18600|10|0|0|550|0|0|0|0|0|0|1|0|0|20200701140827
20200701|02000016|91291624|1815818598480|1815818598480|20200511000080|B3UHWVR2|1|0|18600|18600|10|0|0|550|0|0|0|0|0|0|1|0|0|20200701140741
20200701|02000016|91291623|1813591148644|1813591148644|20200511000080|B3UHWVR2|1|0|18600|18600|10|0|0|550|0|0|0|0|0|0|1|0|0|20200701140733
20200701|02000016|91291617|1818787532842|1818787532842|20200511000080|B3UHWVR2|1|0|18600|18600|10|0|0|550|0|0|0|0|0|0|1|0|0|20200701140717
20200701|02000016|91291606|1815579647169|1815579647169|20200511000080|B3UHWVR2|1|0|18600|18600|10|0|0|550|0|0|0|0|0|0|1|0|0|20200701140656
20200701|02000016|91291605|1813477449008|1813477449008|20200511000080|B3UHWVR2|1|0|18600|18600|10|0|0|550|0|0|0|0|0|0|1|0|0|20200701140531
20200701|02000016|91291598|1818207221619|1818207221619|20200511000080|B3UHWVR2|1|0|18600|18600|10|0|0|550|0|0|0|0|0|0|1|0|0|20200701140306
20200701|02000016|91291597|1813111448814|1813111448814|20200511000080|B3UHWVR2|1|0|18600|18600|10|0|0|550|0|0|0|0|0|0|1|0|0|20200701140255
20200701|02000016|91291595|1815866353002|1815866353002|20200511000080|B3UHWVR2|1|0|18600|18600|10|0|0|550|0|0|0|0|0|0|1|0|0|20200701140215
20200701|02000016|91291582|1815146770925|1815146770925|20200511000080|B3UHWVR2|1|0|18600|18600|10|0|0|550|0|0|0|0|0|0|1|0|0|20200701135929
20200701|02000016|91291581|1813731660124|1813731660124|20200511000080|B3UHWVR2|1|0|18600|18600|10|0|0|550|0|0|0|0|0|0|1|0|0|20200701135903
20200701|02000016|91291580|1815087527527|1815087527527|20200511000080|B3UHWVR2|1|0|18600|18600|10|0|0|550|0|0|0|0|0|0|1|0|0|20200701135901
20200701|02000016|91291579|1818634009284|1818634009284|20200511000080|B3UHWVR2|1|0|18600|18600|10|0|0|550|0|0|0|0|0|0|1|0|0|20200701135831
20200701|02000016|91291573|1813785550440|1813785550440|20200511000080|B3UHWVR2|1|0|18600|18600|10|0|0|550|0|0|0|0|0|0|1|0|0|20200701135759
20200701|02000016|91291566|1813933389443|1813933389443|20200511000080|B3UHWVR2|1|0|18600|18600|10|0|0|550|0|0|0|0|0|0|1|0|0|20200701135725
20200701|02000016|91291564|1815609823197|1815609823197|20200511000080|B3UHWVR2|1|0|18600|18600|10|0|0|550|0|0|0|0|0|0|1|0|0|20200701135639
20200701|02000016|91291557|1818931287322|1818931287322|20200511000080|B3UHWVR2|1|0|18600|18600|10|0|0|550|0|0|0|0|0|0|1|0|0|20200701134724
20200701|02000016|91291549|1813400264443|1813400264443|20200511000080|B3UHWVR2|1|0|18600|18600|10|0|0|550|0|0|0|0|0|0|1|0|0|20200701134504
20200701|02000016|91291548|1815232607038|1815232607038|20200511000080|B3UHWVR2|1|0|18600|18600|10|0|0|550|0|0|0|0|0|0|1|0|0|20200701134452
20200701|02000016|91291542|1818931232281|1818931232281|20200511000080|B3UHWVR2|1|0|18600|18600|10|0|0|550|0|0|0|0|0|0|1|0|0|20200701134406
20200701|02000016|91291540|1815129827688|1815129827688|20200511000080|B3UHWVR2|1|0|18600|18600|10|0|0|550|0|0|0|0|0|0|1|0|0|20200701134112
20200701|02000016|91291536|1800100000032|1800100000032|20200511000080|B3UHWVR2|1|0|18600|18600|10|0|0|550|0|0|0|0|0|0|1|0|0|20200701134039
20200701|02000016|91291533|1813238826869|1813238826869|20200511000080|B3UHWVR2|1|0|18600|18600|10|0|0|550|0|0|0|0|0|0|1|0|0|20200701134020
20200701|02000016|91291528|1815904002064|1815904002064|20200511000080|B3UHWVR2|1|0|18600|18600|10|0|0|550|0|0|0|0|0|0|1|0|0|20200701133952
20200701|02000016|91291527|1815947464963|1815947464963|20200511000080|B3UHWVR2|1|0|18600|18600|10|0|0|550|0|0|0|0|0|0|1|0|0|20200701133938
20200701|02000016|91291526|1819987578156|1819987578156|20200511000080|B3UHWVR2|1|0|18600|18600|10|0|0|550|0|0|0|0|0|0|1|0|0|20200701133918
20200701|02000016|91291525|1813825724130|1813825724130|20200511000080|B3UHWVR2|1|0|18600|18600|10|0|0|550|0|0|0|0|0|0|1|0|0|20200701133910
20200701|02000016|91291519|1818669281955|1818669281955|20200511000080|B3UHWVR2|1|0|18600|18600|10|0|0|550|0|0|0|0|0|0|1|0|0|20200701133850
20200701|02000016|91291511|1813429897976|1813429897976|20200511000080|B3UHWVR2|1|0|18600|18600|10|0|0|550|0|0|0|0|0|0|1|0|0|20200701133811
20200701|02000016|91291508|1818313096871|1818313096871|20200511000080|B3UHWVR2|1|0|18600|18600|10|0|0|550|0|0|0|0|0|0|1|0|0|20200701133732
20200701|02000016|91291509|1815171555563|1815171555563|20200511000080|B3UHWVR2|1|0|18600|18600|10|0|0|550|0|0|0|0|0|0|1|0|0|20200701133732
20200701|02000016|91291501|1818788201666|1818788201666|20200511000080|B3UHWVR2|1|0|18600|18600|10|0|0|550|0|0|0|0|0|0|1|0|0|20200701133640
20200701|02000016|91291500|1815512257375|1815512257375|20200511000080|B3UHWVR2|1|0|18600|18600|10|0|0|550|0|0|0|0|0|0|1|0|0|20200701133631
20200701|02000016|91291498|1815887508589|1815887508589|20200511000080|B3UHWVR2|1|0|18600|18600|10|0|0|550|0|0|0|0|0|0|1|0|0|20200701133515
20200701|02000016|91291497|1815271167538|1815271167538|20200511000080|B3UHWVR2|1|0|18600|18600|10|0|0|550|0|0|0|0|0|0|1|0|0|20200701133513
20200701|02000016|91291491|1815671191786|1815671191786|20200511000080|B3UHWVR2|1|0|18600|18600|10|0|0|550|0|0|0|0|0|0|1|0|0|20200701133445
20200701|02000016|91291488|1818371587990|1818371587990|20200511000080|B3UHWVR2|1|0|18600|18600|10|0|0|550|0|0|0|0|0|0|1|0|0|20200701133431
20200701|02000016|91291489|1813577525294|1813577525294|20200511000080|B3UHWVR2|1|0|18600|18600|10|0|0|550|0|0|0|0|0|0|1|0|0|20200701133431
20200701|02000016|91291471|1815561743759|1815561743759|20200511000080|B3UHWVR2|1|0|18600|18600|10|0|0|550|0|0|0|0|0|0|1|0|0|20200701133359
20200701|02000016|91291472|1813970039068|1813970039068|20200511000080|B3UHWVR2|1|0|18600|18600|10|0|0|550|0|0|0|0|0|0|1|0|0|20200701133359
20200701|02000016|91291470|1818903327969|1818903327969|20200511000080|B3UHWVR2|1|0|18600|18600|10|0|0|550|0|0|0|0|0|0|1|0|0|20200701133347
20200701|02000016|91291468|1818371580857|1818371580857|20200511000080|B3UHWVR2|1|0|18600|18600|10|0|0|550|0|0|0|0|0|0|1|0|0|20200701133337
20200701|02000016|91291461|1815327855187|1815327855187|20200511000080|B3UHWVR2|1|0|18600|18600|10|0|0|550|0|0|0|0|0|0|1|0|0|20200701133320
20200701|02000016|91291460|1815045503182|1815045503182|20200511000080|B3UHWVR2|1|0|18600|18600|10|0|0|550|0|0|0|0|0|0|1|0|0|20200701133311
20200701|02000016|91291453|1813582884362|1813582884362|20200511000080|B3UHWVR2|1|0|18600|18600|10|0|0|550|0|0|0|0|0|0|1|0|0|20200701133258
20200701|02000016|91291446|1815630880329|1815630880329|20200511000080|B3UHWVR2|1|0|18600|18600|10|0|0|550|0|0|0|0|0|0|1|0|0|20200701133225
20200701|02000016|91291444|1818633328800|1818633328800|20200511000080|B3UHWVR2|1|0|18600|18600|10|0|0|550|0|0|0|0|0|0|1|0|0|20200701133204
20200701|02000016|91291443|1813520629383|1813520629383|20200511000080|B3UHWVR2|1|0|18600|18600|10|0|0|550|0|0|0|0|0|0|1|0|0|20200701133117
20200701|02000016|91291437|1815933432468|1815933432468|20200511000080|B3UHWVR2|1|0|18600|18600|10|0|0|550|0|0|0|0|0|0|1|0|0|20200701133039
20200701|02000016|91291428|1813932882235|1813932882235|20200511000080|B3UHWVR2|1|0|18600|18600|10|0|0|550|0|0|0|0|0|0|1|0|0|20200701132950
20200701|02000016|91291427|1813429398439|1813429398439|20200511000080|B3UHWVR2|1|0|18600|18600|10|0|0|550|0|0|0|0|0|0|1|0|0|20200701132919
20200701|02000016|91291422|1818674146599|1818674146599|20200511000080|B3UHWVR2|1|0|18600|18600|10|0|0|550|0|0|0|0|0|0|1|0|0|20200701132832
20200701|02000016|91291415|1813879656972|1813879656972|20200511000080|B3UHWVR2|1|0|18600|18600|10|0|0|550|0|0|0|0|0|0|1|0|0|20200701132741
20200701|02000016|91291414|1818233313819|1818233313819|20200511000080|B3UHWVR2|1|0|18600|18600|10|0|0|550|0|0|0|0|0|0|1|0|0|20200701132731
20200701|02000016|91291397|1815758449560|1815758449560|20200511000080|B3UHWVR2|1|0|18600|18600|10|0|0|550|0|0|0|0|0|0|1|0|0|20200701132505
20200701|02000016|91291396|1813886968888|1813886968888|20200511000080|B3UHWVR2|1|0|18600|18600|10|0|0|550|0|0|0|0|0|0|1|0|0|20200701132504
20200701|02000016|91291395|1813932525581|1813932525581|20200511000080|B3UHWVR2|1|0|18600|18600|10|0|0|550|0|0|0|0|0|0|1|0|0|20200701132449
20200701|02000016|91291394|1818674148199|1818674148199|20200511000080|B3UHWVR2|1|0|18600|18600|10|0|0|550|0|0|0|0|0|0|1|0|0|20200701132446
20200701|02000016|91291392|1813021088510|1813021088510|20200511000080|B3UHWVR2|1|0|18600|18600|10|0|0|550|0|0|0|0|0|0|1|0|0|20200701132445
20200701|02000016|91291393|1813840542929|1813840542929|20200511000080|B3UHWVR2|1|0|18600|18600|10|0|0|550|0|0|0|0|0|0|1|0|0|20200701132445
20200701|02000016|91291391|1813582217784|1813582217784|20200511000080|B3UHWVR2|1|0|18600|18600|10|0|0|550|0|0|0|0|0|0|1|0|0|20200701132444
20200701|02000016|91291369|1813576284540|1813576284540|20200511000080|B3UHWVR2|1|0|18600|18600|10|0|0|550|0|0|0|0|0|0|1|0|0|20200701132410
20200701|02000016|91291366|1813313290175|1813313290175|20200511000080|B3UHWVR2|1|0|18600|18600|10|0|0|550|0|0|0|0|0|0|1|0|0|20200701132356
20200701|02000016|91291359|1818834581128|1818834581128|20200511000080|B3UHWVR2|1|0|18600|18600|10|0|0|550|0|0|0|0|0|0|1|0|0|20200701132326
20200701|02000016|91291358|1813308821971|1813308821971|20200511000080|B3UHWVR2|1|0|18600|18600|10|0|0|550|0|0|0|0|0|0|1|0|0|20200701132321
20200701|02000016|91291351|1813472972651|1813472972651|20200511000080|B3UHWVR2|1|0|18600|18600|10|0|0|550|0|0|0|0|0|0|1|0|0|20200701132226
20200701|02000016|91291344|1818088174982|1818088174982|20200511000080|B3UHWVR2|1|0|18600|18600|10|0|0|550|0|0|0|0|0|0|1|0|0|20200701132105
20200701|02000016|91291341|1813988290117|1813988290117|20200511000080|B3UHWVR2|1|0|18600|18600|10|0|0|550|0|0|0|0|0|0|1|0|0|20200701132027
20200701|02000016|91291339|1818787552261|1818787552261|20200511000080|B3UHWVR2|1|0|18600|18600|10|0|0|550|0|0|0|0|0|0|1|0|0|20200701131940
20200701|02000016|91291334|1813820546821|1813820546821|20200511000080|B3UHWVR2|1|0|18600|18600|10|0|0|550|0|0|0|0|0|0|1|0|0|20200701131919
20200701|02000016|91291330|1815925591567|1815925591567|20200511000080|B3UHWVR2|1|0|18600|18600|10|0|0|550|0|0|0|0|0|0|1|0|0|20200701131821
20200701|02000016|91291328|1813887868883|1813887868883|20200511000080|B3UHWVR2|1|0|18600|18600|10|0|0|550|0|0|0|0|0|0|1|0|0|20200701131756
20200701|02000016|91291316|1815887543597|1815887543597|20200511000080|B3UHWVR2|1|0|18600|18600|10|0|0|550|0|0|0|0|0|0|1|0|0|20200701131651
20200701|02000016|91291315|1818869127192|1818869127192|20200511000080|B3UHWVR2|1|0|18600|18600|10|0|0|550|0|0|0|0|0|0|1|0|0|20200701131647
20200701|02000016|91291312|1815368948672|1815368948672|20200511000080|B3UHWVR2|1|0|18600|18600|10|0|0|550|0|0|0|0|0|0|1|0|0|20200701131624
20200701|02000016|91291298|1818468155812|1818468155812|20200511000080|B3UHWVR2|1|0|18600|18600|10|0|0|550|0|0|0|0|0|0|1|0|0|20200701131623
20200701|02000016|91291290|1813082360764|1813082360764|20200511000080|B3UHWVR2|1|0|18600|18600|10|0|0|550|0|0|0|0|0|0|1|0|0|20200701131455
20200701|02000016|91291289|1815108633866|1815108633866|20200511000080|B3UHWVR2|1|0|18600|18600|10|0|0|550|0|0|0|0|0|0|1|0|0|20200701131451
20200701|02000016|91291287|1818674147179|1818674147179|20200511000080|B3UHWVR2|1|0|18600|18600|10|0|0|550|0|0|0|0|0|0|1|0|0|20200701131444
20200701|02000016|91291286|1815108634439|1815108634439|20200511000080|B3UHWVR2|1|0|18600|18600|10|0|0|550|0|0|0|0|0|0|1|0|0|20200701131443
20200701|02000016|91291285|1815108633866|1815108633866|20200511000080|B3UHWVR2|1|0|18600|18600|10|0|0|550|0|0|0|0|0|0|1|0|0|20200701131437
20200701|02000016|91291273|1813274543299|1813274543299|20200511000080|B3UHWVR2|1|0|18600|18600|10|0|0|550|0|0|0|0|0|0|1|0|0|20200701131407
20200701|02000016|91291272|1813368815583|1813368815583|20200511000080|B3UHWVR2|1|0|18600|18600|10|0|0|550|0|0|0|0|0|0|1|0|0|20200701131359
20200701|02000016|91291263|1813733371391|1813733371391|20200511000080|B3UHWVR2|1|0|18600|18600|10|0|0|550|0|0|0|0|0|0|1|0|0|20200701131306
20200701|02000016|91291262|1813908813212|1813908813212|20200511000080|B3UHWVR2|1|0|18600|18600|10|0|0|550|0|0|0|0|0|0|1|0|0|20200701131259
20200701|02000016|91291249|1818959010680|1818959010680|20200511000080|B3UHWVR2|1|0|18600|18600|10|0|0|550|0|0|0|0|0|0|1|0|0|20200701131126
20200701|02000016|91291244|1817761272857|1817761272857|20200511000080|B3UHWVR2|1|0|18600|18600|10|0|0|550|0|0|0|0|0|0|1|0|0|20200701130813
20200701|02000016|91291243|1813097309231|1813097309231|20200511000080|B3UHWVR2|1|0|18600|18600|10|0|0|550|0|0|0|0|0|0|1|0|0|20200701130745
20200701|02000016|91291242|1813628842075|1813628842075|20200511000080|B3UHWVR2|1|0|18600|18600|10|0|0|550|0|0|0|0|0|0|1|0|0|20200701130740
20200701|02000016|91291241|1815807960001|1815807960001|20200511000080|B3UHWVR2|1|0|18600|18600|10|0|0|550|0|0|0|0|0|0|1|0|0|20200701130650
20200701|02000016|91291240|1815232508176|1815232508176|20200511000080|B3UHWVR2|1|0|18600|18600|10|0|0|550|0|0|0|0|0|0|1|0|0|20200701130154
20200701|02000016|91291239|1818803126206|1818803126206|20200511000080|B3UHWVR2|1|0|18600|18600|10|0|0|550|0|0|0|0|0|0|1|0|0|20200701130010
20200701|02000016|91291238|1815246832407|1815246832407|20200511000080|B3UHWVR2|1|0|18600|18600|10|0|0|550|0|0|0|0|0|0|1|0|0|20200701125739
20200701|02000016|91291237|1813987544821|1813987544821|20200511000080|B3UHWVR2|1|0|18600|18600|10|0|0|550|0|0|0|0|0|0|1|0|0|20200701125735
20200701|02000016|91291224|1813370555380|1813370555380|20200511000080|B3UHWVR2|1|0|18600|18600|10|0|0|550|0|0|0|0|0|0|1|0|0|20200701112915
20200701|02000016|91291223|1815601097966|1815601097966|20200511000080|B3UHWVR2|1|0|18600|18600|10|0|0|550|0|0|0|0|0|0|1|0|0|20200701112904
20200701|02000016|91291216|1818088155607|1818088155607|20200511000080|B3UHWVR2|1|0|18600|18600|10|0|0|550|0|0|0|0|0|0|1|0|0|20200701112807
20200701|02000016|91291215|1815245431805|1815245431805|20200511000080|B3UHWVR2|1|0|18600|18600|10|0|0|550|0|0|0|0|0|0|1|0|0|20200701112802
20200701|02000016|91291211|1813578288004|1813578288004|20200511000080|B3UHWVR2|1|0|18600|18600|10|0|0|550|0|0|0|0|0|0|1|0|0|20200701112725
20200701|02000016|91291210|1813577503685|1813577503685|20200511000080|B3UHWVR2|1|0|18600|18600|10|0|0|550|0|0|0|0|0|0|1|0|0|20200701112720
20200701|02000016|91291200|1818879714520|1818879714520|20200511000080|B3UHWVR2|1|0|18600|18600|10|0|0|550|0|0|0|0|0|0|1|0|0|20200701112635
20200701|02000016|91291199|1813681926479|1813681926479|20200511000080|B3UHWVR2|1|0|18600|18600|10|0|0|550|0|0|0|0|0|0|1|0|0|20200701112627
20200701|02000016|91291192|1813970691179|1813970691179|20200511000080|B3UHWVR2|1|0|18600|18600|10|0|0|550|0|0|0|0|0|0|1|0|0|20200701112610
20200701|02000016|91291191|1818220730920|1818220730920|20200511000080|B3UHWVR2|1|0|18600|18600|10|0|0|550|0|0|0|0|0|0|1|0|0|20200701112538
20200701|02000016|91291190|1815127498151|1815127498151|20200511000080|B3UHWVR2|1|0|18600|18600|10|0|0|550|0|0|0|0|0|0|1|0|0|20200701112535
20200701|02000016|91291179|1813879690981|1813879690981|20200511000080|B3UHWVR2|1|0|18600|18600|10|0|0|550|0|0|0|0|0|0|1|0|0|20200701112450
20200701|02000016|91291173|1815712514778|1815712514778|20200511000080|B3UHWVR2|1|0|18600|18600|10|0|0|550|0|0|0|0|0|0|1|0|0|20200701112434
20200701|02000016|91291167|1813669212329|1813669212329|20200511000080|B3UHWVR2|1|0|18600|18600|10|0|0|550|0|0|0|0|0|0|1|0|0|20200701112418
20200701|02000016|91291166|1815946109858|1815946109858|20200511000080|B3UHWVR2|1|0|18600|18600|10|0|0|550|0|0|0|0|0|0|1|0|0|20200701112416
20200701|02000016|91291165|1815170899237|1815170899237|20200511000080|B3UHWVR2|1|0|18600|18600|10|0|0|550|0|0|0|0|0|0|1|0|0|20200701112411
20200701|02000016|91291147|1815128992230|1815128992230|20200511000080|B3UHWVR2|1|0|18600|18600|10|0|0|550|0|0|0|0|0|0|1|0|0|20200701112315
20200701|02000016|91291146|1815230406766|1815230406766|20200511000080|B3UHWVR2|1|0|18600|18600|10|0|0|550|0|0|0|0|0|0|1|0|0|20200701112247
20200701|02000016|91291143|1815087942456|1815087942456|20200511000080|B3UHWVR2|1|0|18600|18600|10|0|0|550|0|0|0|0|0|0|1|0|0|20200701112235
20200701|02000016|91291122|1813988205870|1813988205870|20200511000080|B3UHWVR2|1|0|18600|18600|10|0|0|550|0|0|0|0|0|0|1|0|0|20200701112127
20200701|02000016|91291121|1813722243235|1813722243235|20200511000080|B3UHWVR2|1|0|18600|18600|10|0|0|550|0|0|0|0|0|0|1|0|0|20200701112124
20200701|02000016|91291120|1815232267540|1815232267540|20200511000080|B3UHWVR2|1|0|18600|18600|10|0|0|550|0|0|0|0|0|0|1|0|0|20200701112106
20200701|02000016|91291105|1815368798533|1815368798533|20200511000080|B3UHWVR2|1|0|18600|18600|10|0|0|550|0|0|0|0|0|0|1|0|0|20200701111855
20200701|02000016|91291096|1819931458246|1819931458246|20200511000080|B3UHWVR2|1|0|18600|18600|10|0|0|550|0|0|0|0|0|0|1|0|0|20200701111737
20200701|02000016|91291092|1813803277987|1813803277987|20200511000080|B3UHWVR2|1|0|18600|18600|10|0|0|550|0|0|0|0|0|0|1|0|0|20200701111709
20200701|02000016|91291091|1813887870390|1813887870390|20200511000080|B3UHWVR2|1|0|18600|18600|10|0|0|550|0|0|0|0|0|0|1|0|0|20200701111706
20200701|02000016|91291089|1800100000085|1800100000085|20200511000080|B3UHWVR2|1|0|18600|18600|10|0|0|550|0|0|0|0|0|0|1|0|0|20200701111636
20200701|02000016|91291077|1813130096123|1813130096123|20200511000080|B3UHWVR2|1|0|18600|18600|10|0|0|550|0|0|0|0|0|0|1|0|0|20200701111552
20200701|02000016|91291071|1813903128198|1813903128198|20200511000080|B3UHWVR2|1|0|18600|18600|10|0|0|550|0|0|0|0|0|0|1|0|0|20200701111532
20200701|02000016|91291065|1813607196765|1813607196765|20200511000080|B3UHWVR2|1|0|18600|18600|10|0|0|550|0|0|0|0|0|0|1|0|0|20200701111509
20200701|02000016|91291064|1813603225419|1813603225419|20200511000080|B3UHWVR2|1|0|18600|18600|10|0|0|550|0|0|0|0|0|0|1|0|0|20200701111508
20200701|02000016|91291062|1818987549010|1818987549010|20200511000080|B3UHWVR2|1|0|18600|18600|10|0|0|550|0|0|0|0|0|0|1|0|0|20200701111448
20200701|02000016|91291053|1815227234914|1815227234914|20200511000080|B3UHWVR2|1|0|18600|18600|10|0|0|550|0|0|0|0|0|0|1|0|0|20200701111416
20200701|02000016|91291042|1817732266277|1817732266277|20200511000080|B3UHWVR2|1|0|18600|18600|10|0|0|550|0|0|0|0|0|0|1|0|0|20200701111330
20200701|02000016|91291039|1818779955712|1818779955712|20200511000080|B3UHWVR2|1|0|18600|18600|10|0|0|550|0|0|0|0|0|0|1|0|0|20200701111305
20200701|02000016|91291038|1815925433800|1815925433800|20200511000080|B3UHWVR2|1|0|18600|18600|10|0|0|550|0|0|0|0|0|0|1|0|0|20200701111227
20200701|02000016|91291022|1813224207506|1813224207506|20200511000080|B3UHWVR2|1|0|18600|18600|10|0|0|550|0|0|0|0|0|0|1|0|0|20200701111159
20200701|02000016|91291021|1818962075812|1818962075812|20200511000080|B3UHWVR2|1|0|18600|18600|10|0|0|550|0|0|0|0|0|0|1|0|0|20200701111145
20200701|02000016|91291020|1813171699300|1813171699300|20200511000080|B3UHWVR2|1|0|18600|18600|10|0|0|550|0|0|0|0|0|0|1|0|0|20200701111139
20200701|02000016|91291009|1818037565877|1818037565877|20200511000080|B3UHWVR2|1|0|18600|18600|10|0|0|550|0|0|0|0|0|0|1|0|0|20200701111055
20200701|02000016|91291008|1815925589060|1815925589060|20200511000080|B3UHWVR2|1|0|18600|18600|10|0|0|550|0|0|0|0|0|0|1|0|0|20200701111046
20200701|02000016|91291003|1818988233957|1818988233957|20200511000080|B3UHWVR2|1|0|18600|18600|10|0|0|550|0|0|0|0|0|0|1|0|0|20200701111012
20200701|02000016|91290999|1815187546096|1815187546096|20200511000080|B3UHWVR2|1|0|18600|18600|10|0|0|550|0|0|0|0|0|0|1|0|0|20200701110956
20200701|02000016|91290987|1817167993679|1817167993679|20200511000080|B3UHWVR2|1|0|18600|18600|10|0|0|550|0|0|0|0|0|0|1|0|0|20200701110940
20200701|02000016|91290972|1813997953437|1813997953437|20200511000080|B3UHWVR2|1|0|18600|18600|10|0|0|550|0|0|0|0|0|0|1|0|0|20200701110911
20200701|02000016|91290963|1813235522109|1813235522109|20200511000080|B3UHWVR2|1|0|18600|18600|10|0|0|550|0|0|0|0|0|0|1|0|0|20200701110850
20200701|02000016|91290961|1815770387875|1815770387875|20200511000080|B3UHWVR2|1|0|18600|18600|10|0|0|550|0|0|0|0|0|0|1|0|0|20200701110808
20200701|02000016|91290955|1813070527319|1813070527319|20200511000080|B3UHWVR2|1|0|18600|18600|10|0|0|550|0|0|0|0|0|0|1|0|0|20200701110728
20200701|02000016|91290954|1813628759556|1813628759556|20200511000080|B3UHWVR2|1|0|18600|18600|10|0|0|550|0|0|0|0|0|0|1|0|0|20200701110725
20200701|02000016|91290953|1815184974413|1815184974413|20200511000080|B3UHWVR2|1|0|18600|18600|10|0|0|550|0|0|0|0|0|0|1|0|0|20200701110720
20200701|02000016|91290951|1815108647893|1815108647893|20200511000080|B3UHWVR2|1|0|18600|18600|10|0|0|550|0|0|0|0|0|0|1|0|0|20200701110713
20200701|02000016|91290928|1818945765909|1818945765909|20200511000080|B3UHWVR2|1|0|18600|18600|10|0|0|550|0|0|0|0|0|0|1|0|0|20200701110647
20200701|02000016|91290925|1815199992139|1815199992139|20200511000080|B3UHWVR2|1|0|18600|18600|10|0|0|550|0|0|0|0|0|0|1|0|0|20200701110642
20200701|02000016|91290915|1818687221023|1818687221023|20200511000080|B3UHWVR2|1|0|18600|18600|10|0|0|550|0|0|0|0|0|0|1|0|0|20200701110621
20200701|02000016|91290894|1815108605312|1815108605312|20200511000080|B3UHWVR2|1|0|18600|18600|10|0|0|550|0|0|0|0|0|0|1|0|0|20200701110444
20200701|02000016|91290893|1813988267556|1813988267556|20200511000080|B3UHWVR2|1|0|18600|18600|10|0|0|550|0|0|0|0|0|0|1|0|0|20200701110431
20200701|02000016|91290886|1815222123742|1815222123742|20200511000080|B3UHWVR2|1|0|18600|18600|10|0|0|550|0|0|0|0|0|0|1|0|0|20200701110349
20200701|02000016|91290875|1818875037395|1818875037395|20200511000080|B3UHWVR2|1|0|18600|18600|10|0|0|550|0|0|0|0|0|0|1|0|0|20200701110338
20200701|02000016|91290865|1800100000197|1800100000197|20200511000080|B3UHWVR2|1|0|18600|18600|10|0|0|550|0|0|0|0|0|0|1|0|0|20200701110216
20200701|02000016|91290856|1818164319032|1818164319032|20200511000080|B3UHWVR2|1|0|18600|18600|10|0|0|550|0|0|0|0|0|0|1|0|0|20200701110156
20200701|02000016|91290855|1815670742888|1815670742888|20200511000080|B3UHWVR2|1|0|18600|18600|10|0|0|550|0|0|0|0|0|0|1|0|0|20200701110108
20200701|02000016|91290852|1813379416382|1813379416382|20200511000080|B3UHWVR2|1|0|18600|18600|10|0|0|550|0|0|0|0|0|0|1|0|0|20200701110035
20200701|02000016|91290851|1800100000221|1800100000221|20200511000080|B3UHWVR2|1|0|18600|18600|10|0|0|550|0|0|0|0|0|0|1|0|0|20200701105915
20200701|02000016|91290844|1813578299876|1813578299876|20200511000080|B3UHWVR2|1|0|18600|18600|10|0|0|550|0|0|0|0|0|0|1|0|0|20200701105752
20200701|02000016|91290843|1813607095019|1813607095019|20200511000080|B3UHWVR2|1|0|18600|18600|10|0|0|550|0|0|0|0|0|0|1|0|0|20200701105518
20200701|02000016|91290841|1815303121880|1815303121880|20200511000080|B3UHWVR2|1|0|18600|18600|10|0|0|550|0|0|0|0|0|0|1|0|0|20200701105427
20200701|02000016|91290826|1815031281951|1815031281951|20200511000080|B3UHWVR2|1|0|18600|18600|10|0|0|550|0|0|0|0|0|0|1|0|0|20200701104904
20200701|02000016|91290825|1815879043462|1815879043462|20200511000080|B3UHWVR2|1|0|18600|18600|10|0|0|550|0|0|0|0|0|0|1|0|0|20200701104841
20200701|02000016|91290822|1813607095019|1813607095019|20200511000080|B3UHWVR2|1|0|18600|18600|10|0|0|550|0|0|0|0|0|0|1|0|0|20200701104801
20200701|02000016|91290817|1818524494313|1818524494313|20200511000080|B3UHWVR2|1|0|18600|18600|10|0|0|550|0|0|0|0|0|0|1|0|0|20200701104708
20200701|02000016|91290816|1813012058379|1813012058379|20200511000080|B3UHWVR2|1|0|18600|18600|10|0|0|550|0|0|0|0|0|0|1|0|0|20200701104654
20200701|02000016|91290808|1815393311758|1815393311758|20200511000080|B3UHWVR2|1|0|18600|18600|10|0|0|550|0|0|0|0|0|0|1|0|0|20200701104629
20200701|02000016|91290805|1813879643951|1813879643951|20200511000080|B3UHWVR2|1|0|18600|18600|10|0|0|550|0|0|0|0|0|0|1|0|0|20200701104546
20200701|02000016|91290791|1817192939341|1817192939341|20200511000080|B3UHWVR2|1|0|18600|18600|10|0|0|550|0|0|0|0|0|0|1|0|0|20200701104308
20200701|02000016|91290789|1815070004787|1815070004787|20200511000080|B3UHWVR2|1|0|18600|18600|10|0|0|550|0|0|0|0|0|0|1|0|0|20200701104138
20200701|02000016|91290780|1813889148575|1813889148575|20200511000080|B3UHWVR2|1|0|18600|18600|10|0|0|550|0|0|0|0|0|0|1|0|0|20200701104045
20200701|02000016|91290779|1815070008715|1815070008715|20200511000080|B3UHWVR2|1|0|18600|18600|10|0|0|550|0|0|0|0|0|0|1|0|0|20200701104041
20200701|02000016|91290776|1800100000053|1800100000053|20200511000080|B3UHWVR2|1|0|18600|18600|10|0|0|550|0|0|0|0|0|0|1|0|0|20200701103936
20200701|02000016|91290774|1813486694384|1813486694384|20200511000080|B3UHWVR2|1|0|18600|18600|10|0|0|550|0|0|0|0|0|0|1|0|0|20200701103913
20200701|02000016|91290769|1813870662832|1813870662832|20200511000080|B3UHWVR2|1|0|18600|18600|10|0|0|550|0|0|0|0|0|0|1|0|0|20200701103800
20200701|02000016|91290766|1813324639668|1813324639668|20200511000080|B3UHWVR2|1|0|18600|18600|10|0|0|550|0|0|0|0|0|0|1|0|0|20200701103705
20200701|02000016|91290760|1815170023481|1815170023481|20200511000080|B3UHWVR2|1|0|18600|18600|10|0|0|550|0|0|0|0|0|0|1|0|0|20200701103228
20200701|02000016|91290734|1818137951359|1818137951359|20200511000080|B3UHWVR2|1|0|18600|18600|10|0|0|550|0|0|0|0|0|0|1|0|0|20200701102722
20200701|02000016|91290729|1815632237118|1815632237118|20200511000080|B3UHWVR2|1|0|18600|18600|10|0|0|550|0|0|0|0|0|0|1|0|0|20200701102620
20200701|02000016|91290718|1815672770921|1815672770921|20200511000080|B3UHWVR2|1|0|18600|18600|10|0|0|550|0|0|0|0|0|0|1|0|0|20200701102609
20200701|02000016|91290717|1815733288376|1815733288376|20200511000080|B3UHWVR2|1|0|18600|18600|10|0|0|550|0|0|0|0|0|0|1|0|0|20200701102607
20200701|02000016|91290697|1816532225555|1816532225555|20200511000080|B3UHWVR2|1|0|18600|18600|10|0|0|550|0|0|0|0|0|0|1|0|0|20200701102338
20200701|02000016|91290696|1818987916256|1818987916256|20200511000080|B3UHWVR2|1|0|18600|18600|10|0|0|550|0|0|0|0|0|0|1|0|0|20200701102316
20200701|02000016|91290694|1813972627032|1813972627032|20200511000080|B3UHWVR2|1|0|18600|18600|10|0|0|550|0|0|0|0|0|0|1|0|0|20200701102241
20200701|02000016|91290692|1813545933109|1813545933109|20200511000080|B3UHWVR2|1|0|18600|18600|10|0|0|550|0|0|0|0|0|0|1|0|0|20200701102202
20200701|02000016|91290674|1813707261154|1813707261154|20200511000080|B3UHWVR2|1|0|18600|18600|10|0|0|550|0|0|0|0|0|0|1|0|0|20200701102119
20200701|02000016|91290672|1815187700939|1815187700939|20200511000080|B3UHWVR2|1|0|18600|18600|10|0|0|550|0|0|0|0|0|0|1|0|0|20200701102056
20200701|02000016|91290670|1813388758398|1813388758398|20200511000080|B3UHWVR2|1|0|18600|18600|10|0|0|550|0|0|0|0|0|0|1|0|0|20200701102045
20200701|02000016|91290668|1815871922595|1815871922595|20200511000080|B3UHWVR2|1|0|18600|18600|10|0|0|550|0|0|0|0|0|0|1|0|0|20200701102037
20200701|02000016|91290660|1813961081945|1813961081945|20200511000080|B3UHWVR2|1|0|18600|18600|10|0|0|550|0|0|0|0|0|0|1|0|0|20200701102019
20200701|02000016|91290649|1813545938209|1813545938209|20200511000080|B3UHWVR2|1|0|18600|18600|10|0|0|550|0|0|0|0|0|0|1|0|0|20200701101927
20200701|02000016|91290634|1813730445367|1813730445367|20200511000080|B3UHWVR2|1|0|18600|18600|10|0|0|550|0|0|0|0|0|0|1|0|0|20200701101837
20200701|02000016|91290623|1817762345860|1817762345860|20200511000080|B3UHWVR2|1|0|18600|18600|10|0|0|550|0|0|0|0|0|0|1|0|0|20200701101719
20200701|02000016|91290620|1815614976824|1815614976824|20200511000080|B3UHWVR2|1|0|18600|18600|10|0|0|550|0|0|0|0|0|0|1|0|0|20200701101635
20200701|02000016|91290615|1813879606088|1813879606088|20200511000080|B3UHWVR2|1|0|18600|18600|10|0|0|550|0|0|0|0|0|0|1|0|0|20200701101628
20200701|02000016|91290595|1815271167538|1815271167538|20200511000080|B3UHWVR2|1|0|18600|18600|10|0|0|550|0|0|0|0|0|0|1|0|0|20200701101501
20200701|02000016|91290585|1813961959185|1813961959185|20200511000080|B3UHWVR2|1|0|18600|18600|10|0|0|550|0|0|0|0|0|0|1|0|0|20200701101428
20200701|02000016|91290582|1813129593568|1813129593568|20200511000080|B3UHWVR2|1|0|18600|18600|10|0|0|550|0|0|0|0|0|0|1|0|0|20200701101422
20200701|02000016|91290581|1818288188088|1818288188088|20200511000080|B3UHWVR2|1|0|18600|18600|10|0|0|550|0|0|0|0|0|0|1|0|0|20200701101401
20200701|02000016|91290580|1818787537265|1818787537265|20200511000080|B3UHWVR2|1|0|18600|18600|10|0|0|550|0|0|0|0|0|0|1|0|0|20200701101358
20200701|02000016|91290577|1818687837811|1818687837811|20200511000080|B3UHWVR2|1|0|18600|18600|10|0|0|550|0|0|0|0|0|0|1|0|0|20200701101325
20200701|02000016|91290568|1815176312057|1815176312057|20200511000080|B3UHWVR2|1|0|18600|18600|10|0|0|550|0|0|0|0|0|0|1|0|0|20200701101302
20200701|02000016|91290565|1818624081638|1818624081638|20200511000080|B3UHWVR2|1|0|18600|18600|10|0|0|550|0|0|0|0|0|0|1|0|0|20200701101223
20200701|02000016|91290564|1815577856705|1815577856705|20200511000080|B3UHWVR2|1|0|18600|18600|10|0|0|550|0|0|0|0|0|0|1|0|0|20200701101211
20200701|02000016|91290542|1813879690981|1813879690981|20200511000080|B3UHWVR2|1|0|18600|18600|10|0|0|550|0|0|0|0|0|0|1|0|0|20200701101143
20200701|02000016|91290540|1813607373680|1813607373680|20200511000080|B3UHWVR2|1|0|18600|18600|10|0|0|550|0|0|0|0|0|0|1|0|0|20200701101120
20200701|02000016|91290527|1815208802992|1815208802992|20200511000080|B3UHWVR2|1|0|18600|18600|10|0|0|550|0|0|0|0|0|0|1|0|0|20200701101031
20200701|02000016|91290517|1818532109882|1818532109882|20200511000080|B3UHWVR2|1|0|18600|18600|10|0|0|550|0|0|0|0|0|0|1|0|0|20200701101014
20200701|02000016|91290515|1818779946893|1818779946893|20200511000080|B3UHWVR2|1|0|18600|18600|10|0|0|550|0|0|0|0|0|0|1|0|0|20200701101010
20200701|02000016|91290512|1813483500680|1813483500680|20200511000080|B3UHWVR2|1|0|18600|18600|10|0|0|550|0|0|0|0|0|0|1|0|0|20200701100958
20200701|02000016|91290502|1813483536053|1813483536053|20200511000080|B3UHWVR2|1|0|18600|18600|10|0|0|550|0|0|0|0|0|0|1|0|0|20200701100934
20200701|02000016|91290494|1818131516269|1818131516269|20200511000080|B3UHWVR2|1|0|18600|18600|10|0|0|550|0|0|0|0|0|0|1|0|0|20200701100908
20200701|02000016|91290491|1815511520473|1815511520473|20200511000080|B3UHWVR2|1|0|18600|18600|10|0|0|550|0|0|0|0|0|0|1|0|0|20200701100829
20200701|02000016|91290482|1815038169553|1815038169553|20200511000080|B3UHWVR2|1|0|18600|18600|10|0|0|550|0|0|0|0|0|0|1|0|0|20200701100708
20200701|02000016|91290473|1813308821769|1813308821769|20200511000080|B3UHWVR2|1|0|18600|18600|10|0|0|550|0|0|0|0|0|0|1|0|0|20200701100701
20200701|02000016|91290467|1815946740910|1815946740910|20200511000080|B3UHWVR2|1|0|18600|18600|10|0|0|550|0|0|0|0|0|0|1|0|0|20200701100653
20200701|02000016|91290465|1815287635988|1815287635988|20200511000080|B3UHWVR2|1|0|18600|18600|10|0|0|550|0|0|0|0|0|0|1|0|0|20200701100636
20200701|02000016|91290457|1813945860022|1813945860022|20200511000080|B3UHWVR2|1|0|18600|18600|10|0|0|550|0|0|0|0|0|0|1|0|0|20200701100614
20200701|02000016|91290431|1815946516599|1815946516599|20200511000080|B3UHWVR2|1|0|18600|18600|10|0|0|550|0|0|0|0|0|0|1|0|0|20200701100401
20200701|02000016|91290428|1813833235609|1813833235609|20200511000080|B3UHWVR2|1|0|18600|18600|10|0|0|550|0|0|0|0|0|0|1|0|0|20200701100353
20200701|02000016|91290414|1815987579618|1815987579618|20200511000080|B3UHWVR2|1|0|18600|18600|10|0|0|550|0|0|0|0|0|0|1|0|0|20200701100303
20200701|02000016|91290402|1800100000118|1800100000118|20200511000080|B3UHWVR2|1|0|18600|18600|10|0|0|550|0|0|0|0|0|0|1|0|0|20200701100202
20200701|02000016|91290395|1815389494945|1815389494945|20200511000080|B3UHWVR2|1|0|18600|18600|10|0|0|550|0|0|0|0|0|0|1|0|0|20200701100140
20200701|02000016|91290389|1815632218558|1815632218558|20200511000080|B3UHWVR2|1|0|18600|18600|10|0|0|550|0|0|0|0|0|0|1|0|0|20200701100130
20200701|02000016|91290371|1813031511388|1813031511388|20200511000080|B3UHWVR2|1|0|18600|18600|10|0|0|550|0|0|0|0|0|0|1|0|0|20200701100057
20200701|02000016|91290366|1815771836378|1815771836378|20200511000080|B3UHWVR2|1|0|18600|18600|10|0|0|550|0|0|0|0|0|0|1|0|0|20200701100041
20200701|02000016|91290361|1813987242668|1813987242668|20200511000080|B3UHWVR2|1|0|18600|18600|10|0|0|550|0|0|0|0|0|0|1|0|0|20200701095956
20200701|02000016|91290355|1813769055559|1813769055559|20200511000080|B3UHWVR2|1|0|18600|18600|10|0|0|550|0|0|0|0|0|0|1|0|0|20200701095943
20200701|02000016|91290346|1818249480111|1818249480111|20200511000080|B3UHWVR2|1|0|18600|18600|10|0|0|550|0|0|0|0|0|0|1|0|0|20200701095923
20200701|02000016|91290342|1800100000113|1800100000113|20200511000080|B3UHWVR2|1|0|18600|18600|10|0|0|550|0|0|0|0|0|0|1|0|0|20200701095849
20200701|02000016|91290331|1813485275935|1813485275935|20200511000080|B3UHWVR2|1|0|18600|18600|10|0|0|550|0|0|0|0|0|0|1|0|0|20200701095832
20200701|02000016|91290326|1815230406766|1815230406766|20200511000080|B3UHWVR2|1|0|18600|18600|10|0|0|550|0|0|0|0|0|0|1|0|0|20200701095804
20200701|02000016|91290320|1813578294167|1813578294167|20200511000080|B3UHWVR2|1|0|18600|18600|10|0|0|550|0|0|0|0|0|0|1|0|0|20200701095738
20200701|02000016|91290307|1815770280016|1815770280016|20200511000080|B3UHWVR2|1|0|18600|18600|10|0|0|550|0|0|0|0|0|0|1|0|0|20200701095632
20200701|02000016|91290308|1818352021124|1818352021124|20200511000080|B3UHWVR2|1|0|18600|18600|10|0|0|550|0|0|0|0|0|0|1|0|0|20200701095632
20200701|02000016|91290306|1815368486928|1815368486928|20200511000080|B3UHWVR2|1|0|18600|18600|10|0|0|550|0|0|0|0|0|0|1|0|0|20200701095623
20200701|02000016|91290293|1813832296893|1813832296893|20200511000080|B3UHWVR2|1|0|18600|18600|10|0|0|550|0|0|0|0|0|0|1|0|0|20200701095609
20200701|02000016|91290291|1815925440402|1815925440402|20200511000080|B3UHWVR2|1|0|18600|18600|10|0|0|550|0|0|0|0|0|0|1|0|0|20200701095606
20200701|02000016|91290267|1813707962158|1813707962158|20200511000080|B3UHWVR2|1|0|18600|18600|10|0|0|550|0|0|0|0|0|0|1|0|0|20200701095504
20200701|02000016|91290264|1813529529358|1813529529358|20200511000080|B3UHWVR2|1|0|18600|18600|10|0|0|550|0|0|0|0|0|0|1|0|0|20200701095446
20200701|02000016|91290258|1813650053647|1813650053647|20200511000080|B3UHWVR2|1|0|18600|18600|10|0|0|550|0|0|0|0|0|0|1|0|0|20200701095432
20200701|02000016|91290259|1818468150535|1818468150535|20200511000080|B3UHWVR2|1|0|18600|18600|10|0|0|550|0|0|0|0|0|0|1|0|0|20200701095432
20200701|02000016|91290249|1815161960908|1815161960908|20200511000080|B3UHWVR2|1|0|18600|18600|10|0|0|550|0|0|0|0|0|0|1|0|0|20200701095352
20200701|02000016|91290247|1815170845976|1815170845976|20200511000080|B3UHWVR2|1|0|18600|18600|10|0|0|550|0|0|0|0|0|0|1|0|0|20200701095345
20200701|02000016|91290241|1815833589669|1815833589669|20200511000080|B3UHWVR2|1|0|18600|18600|10|0|0|550|0|0|0|0|0|0|1|0|0|20200701095335
20200701|02000016|91290230|1813587758991|1813587758991|20200511000080|B3UHWVR2|1|0|18600|18600|10|0|0|550|0|0|0|0|0|0|1|0|0|20200701095305
20200701|02000016|91290229|1813979695121|1813979695121|20200511000080|B3UHWVR2|1|0|18600|18600|10|0|0|550|0|0|0|0|0|0|1|0|0|20200701095303
20200701|02000016|91290223|1813998105808|1813998105808|20200511000080|B3UHWVR2|1|0|18600|18600|10|0|0|550|0|0|0|0|0|0|1|0|0|20200701095249
20200701|02000016|91290203|1813472252427|1813472252427|20200511000080|B3UHWVR2|1|0|18600|18600|10|0|0|550|0|0|0|0|0|0|1|0|0|20200701095200
20200701|02000016|91290202|1818313073286|1818313073286|20200511000080|B3UHWVR2|1|0|18600|18600|10|0|0|550|0|0|0|0|0|0|1|0|0|20200701095159
20200701|02000016|91290188|1815690228885|1815690228885|20200511000080|B3UHWVR2|1|0|18600|18600|10|0|0|550|0|0|0|0|0|0|1|0|0|20200701095137
20200701|02000016|91290186|1818371587990|1818371587990|20200511000080|B3UHWVR2|1|0|18600|18600|10|0|0|550|0|0|0|0|0|0|1|0|0|20200701095128
20200701|02000016|91290180|1819987524663|1819987524663|20200511000080|B3UHWVR2|1|0|18600|18600|10|0|0|550|0|0|0|0|0|0|1|0|0|20200701095112
20200701|02000016|91290171|1815716865625|1815716865625|20200511000080|B3UHWVR2|1|0|18600|18600|10|0|0|550|0|0|0|0|0|0|1|0|0|20200701095107
20200701|02000016|91290167|1813009970011|1813009970011|20200511000080|B3UHWVR2|1|0|18600|18600|10|0|0|550|0|0|0|0|0|0|1|0|0|20200701095056
20200701|02000016|91290150|1815770327841|1815770327841|20200511000080|B3UHWVR2|1|0|18600|18600|10|0|0|550|0|0|0|0|0|0|1|0|0|20200701095043
20200701|02000016|91290147|1815397618643|1815397618643|20200511000080|B3UHWVR2|1|0|18600|18600|10|0|0|550|0|0|0|0|0|0|1|0|0|20200701095038
20200701|02000016|91290146|1813576820096|1813576820096|20200511000080|B3UHWVR2|1|0|18600|18600|10|0|0|550|0|0|0|0|0|0|1|0|0|20200701095033
20200701|02000016|91290145|1813846055840|1813846055840|20200511000080|B3UHWVR2|1|0|18600|18600|10|0|0|550|0|0|0|0|0|0|1|0|0|20200701095021
20200701|02000016|91290129|1813673797843|1813673797843|20200511000080|B3UHWVR2|1|0|18600|18600|10|0|0|550|0|0|0|0|0|0|1|0|0|20200701095003
20200701|02000016|91290116|1813970660020|1813970660020|20200511000080|B3UHWVR2|1|0|18600|18600|10|0|0|550|0|0|0|0|0|0|1|0|0|20200701094945
20200701|02000016|91290103|1815081293601|1815081293601|20200511000080|B3UHWVR2|1|0|18600|18600|10|0|0|550|0|0|0|0|0|0|1|0|0|20200701094916
20200701|02000016|91290102|1815837935909|1815837935909|20200511000080|B3UHWVR2|1|0|18600|18600|10|0|0|550|0|0|0|0|0|0|1|0|0|20200701094913
20200701|02000016|91290098|1813759210281|1813759210281|20200511000080|B3UHWVR2|1|0|18600|18600|10|0|0|550|0|0|0|0|0|0|1|0|0|20200701094900
20200701|02000016|91290096|1815578194090|1815578194090|20200511000080|B3UHWVR2|1|0|18600|18600|10|0|0|550|0|0|0|0|0|0|1|0|0|20200701094850
20200701|02000016|91290095|1815871603029|1815871603029|20200511000080|B3UHWVR2|1|0|18600|18600|10|0|0|550|0|0|0|0|0|0|1|0|0|20200701094849
20200701|02000016|91290094|1813125529077|1813125529077|20200511000080|B3UHWVR2|1|0|18600|18600|10|0|0|550|0|0|0|0|0|0|1|0|0|20200701094845
20200701|02000016|91290079|1817697226810|1817697226810|20200511000080|B3UHWVR2|1|0|18600|18600|10|0|0|550|0|0|0|0|0|0|1|0|0|20200701094834
20200701|02000016|91290060|1819937271172|1819937271172|20200511000080|B3UHWVR2|1|0|18600|18600|10|0|0|550|0|0|0|0|0|0|1|0|0|20200701094821
20200701|02000016|91290058|1813936839459|1813936839459|20200511000080|B3UHWVR2|1|0|18600|18600|10|0|0|550|0|0|0|0|0|0|1|0|0|20200701094816
20200701|02000016|91290049|1815940289789|1815940289789|20200511000080|B3UHWVR2|1|0|18600|18600|10|0|0|550|0|0|0|0|0|0|1|0|0|20200701094803
20200701|02000016|91290034|1818149061051|1818149061051|20200511000080|B3UHWVR2|1|0|18600|18600|10|0|0|550|0|0|0|0|0|0|1|0|0|20200701094749
20200701|02000016|91290033|1815887550134|1815887550134|20200511000080|B3UHWVR2|1|0|18600|18600|10|0|0|550|0|0|0|0|0|0|1|0|0|20200701094741
20200701|02000016|91290030|1815227234914|1815227234914|20200511000080|B3UHWVR2|1|0|18600|18600|10|0|0|550|0|0|0|0|0|0|1|0|0|20200701094737
20200701|02000016|91290022|1813766212715|1813766212715|20200511000080|B3UHWVR2|1|0|18600|18600|10|0|0|550|0|0|0|0|0|0|1|0|0|20200701094731
20200701|02000016|91290020|1815072485085|1815072485085|20200511000080|B3UHWVR2|1|0|18600|18600|10|0|0|550|0|0|0|0|0|0|1|0|0|20200701094727
20200701|02000016|91290017|1813733367682|1813733367682|20200511000080|B3UHWVR2|1|0|18600|18600|10|0|0|550|0|0|0|0|0|0|1|0|0|20200701094719
20200701|02000016|91290007|1815502925058|1815502925058|20200511000080|B3UHWVR2|1|0|18600|18600|10|0|0|550|0|0|0|0|0|0|1|0|0|20200701094653
20200701|02000016|91290002|1815208756608|1815208756608|20200511000080|B3UHWVR2|1|0|18600|18600|10|0|0|550|0|0|0|0|0|0|1|0|0|20200701094627
20200701|02000016|91289997|1813759236489|1813759236489|20200511000080|B3UHWVR2|1|0|18600|18600|9|0|0|495|0|0|0|0|0|0|1|0|0|20200701094626
20200701|02000016|91289995|1815216284718|1815216284718|20200511000080|B3UHWVR2|1|0|18600|18600|10|0|0|550|0|0|0|0|0|0|1|0|0|20200701094623
20200701|02000016|91289994|1813904881393|1813904881393|20200511000080|B3UHWVR2|1|0|18600|18600|10|0|0|550|0|0|0|0|0|0|1|0|0|20200701094620
20200701|02000016|91289986|1815925568823|1815925568823|20200511000080|B3UHWVR2|1|0|18600|18600|10|0|0|550|0|0|0|0|0|0|1|0|0|20200701094606
20200701|02000016|91289981|1813064860909|1813064860909|20200511000080|B3UHWVR2|1|0|18600|18600|10|0|0|550|0|0|0|0|0|0|1|0|0|20200701094535
20200701|02000016|91289973|1818007063132|1818007063132|20200511000080|B3UHWVR2|1|0|18600|18600|10|0|0|550|0|0|0|0|0|0|1|0|0|20200701094523
20200701|02000016|91289971|1813886994818|1813886994818|20200511000080|B3UHWVR2|1|0|18600|18600|10|0|0|550|0|0|0|0|0|0|1|0|0|20200701094515
20200701|02000016|91289962|1813987510903|1813987510903|20200511000080|B3UHWVR2|1|0|18600|18600|10|0|0|550|0|0|0|0|0|0|1|0|0|20200701094505
20200701|02000016|91289958|1813933217166|1813933217166|20200511000080|B3UHWVR2|1|0|18600|18600|10|0|0|550|0|0|0|0|0|0|1|0|0|20200701094447
20200701|02000016|91289951|1815802457305|1815802457305|20200511000080|B3UHWVR2|1|0|18600|18600|10|0|0|550|0|0|0|0|0|0|1|0|0|20200701094443
20200701|02000016|91289943|1818132565769|1818132565769|20200511000080|B3UHWVR2|1|0|18600|18600|10|0|0|550|0|0|0|0|0|0|1|0|0|20200701094427
20200701|02000016|91289942|1813909114265|1813909114265|20200511000080|B3UHWVR2|1|0|18600|18600|10|0|0|550|0|0|0|0|0|0|1|0|0|20200701094425
20200701|02000016|91289940|1813576820339|1813576820339|20200511000080|B3UHWVR2|1|0|18600|18600|10|0|0|550|0|0|0|0|0|0|1|0|0|20200701094415
20200701|02000016|91289933|1818161735141|1818161735141|20200511000080|B3UHWVR2|1|0|18600|18600|10|0|0|550|0|0|0|0|0|0|1|0|0|20200701094411
20200701|02000016|91289929|1818833231624|1818833231624|20200511000080|B3UHWVR2|1|0|18600|18600|10|0|0|550|0|0|0|0|0|0|1|0|0|20200701094407
20200701|02000016|91289926|1813555313989|1813555313989|20200511000080|B3UHWVR2|1|0|18600|18600|10|0|0|550|0|0|0|0|0|0|1|0|0|20200701094401
20200701|02000016|91289908|1813766269479|1813766269479|20200511000080|B3UHWVR2|1|0|18600|18600|10|0|0|550|0|0|0|0|0|0|1|0|0|20200701094310
20200701|02000016|91289903|1813483435916|1813483435916|20200511000080|B3UHWVR2|1|0|18600|18600|10|0|0|550|0|0|0|0|0|0|1|0|0|20200701094301
20200701|02000016|91289884|1813343123027|1813343123027|20200511000080|B3UHWVR2|1|0|18600|18600|10|0|0|550|0|0|0|0|0|0|1|0|0|20200701094246
20200701|02000016|91289881|1818330297314|1818330297314|20200511000080|B3UHWVR2|1|0|18600|18600|10|0|0|550|0|0|0|0|0|0|1|0|0|20200701094230
20200701|02000016|91289866|1813683131563|1813683131563|20200511000080|B3UHWVR2|1|0|18600|18600|10|0|0|550|0|0|0|0|0|0|1|0|0|20200701094219
20200701|02000016|91289849|1818131268984|1818131268984|20200511000080|B3UHWVR2|1|0|18600|18600|10|0|0|550|0|0|0|0|0|0|1|0|0|20200701094203
20200701|02000016|91289845|1818802455863|1818802455863|20200511000080|B3UHWVR2|1|0|18600|18600|10|0|0|550|0|0|0|0|0|0|1|0|0|20200701094148
20200701|02000016|91289844|1815636574848|1815636574848|20200511000080|B3UHWVR2|1|0|18600|18600|10|0|0|550|0|0|0|0|0|0|1|0|0|20200701094141
20200701|02000016|91289834|1800100000114|1800100000114|20200511000080|B3UHWVR2|1|0|18600|18600|10|0|0|550|0|0|0|0|0|0|1|0|0|20200701094120
20200701|02000016|91289825|1815100273368|1815100273368|20200511000080|B3UHWVR2|1|0|18600|18600|10|0|0|550|0|0|0|0|0|0|1|0|0|20200701094104
20200701|02000016|91289786|1813576146503|1813576146503|20200511000080|B3UHWVR2|1|0|18600|18600|10|0|0|550|0|0|0|0|0|0|1|0|0|20200701094031
20200701|02000016|91289784|1813393322187|1813393322187|20200511000080|B3UHWVR2|1|0|18600|18600|10|0|0|550|0|0|0|0|0|0|1|0|0|20200701094024
20200701|02000016|91289783|1800100000088|1800100000088|20200511000080|B3UHWVR2|1|0|18600|18600|10|0|0|550|0|0|0|0|0|0|1|0|0|20200701094023
20200701|02000016|91289756|1813080793849|1813080793849|20200511000080|B3UHWVR2|1|0|18600|18600|10|0|0|550|0|0|0|0|0|0|1|0|0|20200701093958
20200701|02000016|91289748|1815383327001|1815383327001|20200511000080|B3UHWVR2|1|0|18600|18600|10|0|0|550|0|0|0|0|0|0|1|0|0|20200701093945
20200701|02000016|91289745|1818231283196|1818231283196|20200511000080|B3UHWVR2|1|0|18600|18600|10|0|0|550|0|0|0|0|0|0|1|0|0|20200701093941
20200701|02000016|91289744|1813987513948|1813987513948|20200511000080|B3UHWVR2|1|0|18600|18600|10|0|0|550|0|0|0|0|0|0|1|0|0|20200701093939
20200701|02000016|91289728|1813604555811|1813604555811|20200511000080|B3UHWVR2|1|0|18600|18600|10|0|0|550|0|0|0|0|0|0|1|0|0|20200701093924
20200701|02000016|91289727|1817707068016|1817707068016|20200511000080|B3UHWVR2|1|0|18600|18600|10|0|0|550|0|0|0|0|0|0|1|0|0|20200701093923
20200701|02000016|91289724|1813770855951|1813770855951|20200511000080|B3UHWVR2|1|0|18600|18600|10|0|0|550|0|0|0|0|0|0|1|0|0|20200701093918
20200701|02000016|91289703|1813988262688|1813988262688|20200511000080|B3UHWVR2|1|0|18600|18600|10|0|0|550|0|0|0|0|0|0|1|0|0|20200701093859
20200701|02000016|91289690|1813887868883|1813887868883|20200511000080|B3UHWVR2|1|0|18600|18600|10|0|0|550|0|0|0|0|0|0|1|0|0|20200701093850
20200701|02000016|91289679|1817346665892|1817346665892|20200511000080|B3UHWVR2|1|0|18600|18600|10|0|0|550|0|0|0|0|0|0|1|0|0|20200701093834
20200701|02000016|91289677|1813330597481|1813330597481|20200511000080|B3UHWVR2|1|0|18600|18600|10|0|0|550|0|0|0|0|0|0|1|0|0|20200701093831
20200701|02000016|91289660|1800100000280|1800100000280|20200511000080|B3UHWVR2|1|0|18600|18600|10|0|0|550|0|0|0|0|0|0|1|0|0|20200701093816
20200701|02000016|91289651|1818210293990|1818210293990|20200511000080|B3UHWVR2|1|0|18600|18600|10|0|0|550|0|0|0|0|0|0|1|0|0|20200701093812
20200701|02000016|91289626|1813385849623|1813385849623|20200511000080|B3UHWVR2|1|0|18600|18600|10|0|0|550|0|0|0|0|0|0|1|0|0|20200701093749
20200701|02000016|91289625|1815694698860|1815694698860|20200511000080|B3UHWVR2|1|0|18600|18600|10|0|0|550|0|0|0|0|0|0|1|0|0|20200701093747
20200701|02000016|91289608|1818288950291|1818288950291|20200511000080|B3UHWVR2|1|0|18600|18600|10|0|0|550|0|0|0|0|0|0|1|0|0|20200701093729
20200701|02000016|91289591|1800100000036|1800100000036|20200511000080|B3UHWVR2|1|0|18600|18600|10|0|0|550|0|0|0|0|0|0|1|0|0|20200701093704
20200701|02000016|91289585|1815908602531|1815908602531|20200511000080|B3UHWVR2|1|0|18600|18600|10|0|0|550|0|0|0|0|0|0|1|0|0|20200701093654
20200701|02000016|91289575|1813309116156|1813309116156|20200511000080|B3UHWVR2|1|0|18600|18600|10|0|0|550|0|0|0|0|0|0|1|0|0|20200701093650
20200701|02000016|91289571|1818802455863|1818802455863|20200511000080|B3UHWVR2|1|0|18600|18600|10|0|0|550|0|0|0|0|0|0|1|0|0|20200701093643
20200701|02000016|91289562|1818103125352|1818103125352|20200511000080|B3UHWVR2|1|0|18600|18600|10|0|0|550|0|0|0|0|0|0|1|0|0|20200701093633
20200701|02000016|91289527|1815614201777|1815614201777|20200511000080|B3UHWVR2|1|0|18600|18600|10|0|0|550|0|0|0|0|0|0|1|0|0|20200701093608
20200701|02000016|91289493|1813759236489|1813759236489|20200511000080|B3UHWVR2|1|0|18600|18600|1|0|0|55|0|0|0|0|0|0|1|0|0|20200701093527
20200701|02000016|91289482|1813463442485|1813463442485|20200511000080|B3UHWVR2|1|0|18600|18600|10|0|0|550|0|0|0|0|0|0|1|0|0|20200701093522
20200701|02000016|91289438|1818331534443|1818331534443|20200511000080|B3UHWVR2|1|0|18600|18600|10|0|0|550|0|0|0|0|0|0|1|0|0|20200701093442
20200701|02000016|91289431|1815334341131|1815334341131|20200511000080|B3UHWVR2|1|0|18600|18600|10|0|0|550|0|0|0|0|0|0|1|0|0|20200701093438
20200701|02000016|91289429|1813998105808|1813998105808|20200511000080|B3UHWVR2|1|0|18600|18600|10|0|0|550|0|0|0|0|0|0|1|0|0|20200701093436
20200701|02000016|91289427|1813731798775|1813731798775|20200511000080|B3UHWVR2|1|0|18600|18600|10|0|0|550|0|0|0|0|0|0|1|0|0|20200701093435
20200701|02000016|91289415|1817732266277|1817732266277|20200511000080|B3UHWVR2|1|0|18600|18600|10|0|0|550|0|0|0|0|0|0|1|0|0|20200701093426
20200701|02000016|91289412|1818191539413|1818191539413|20200511000080|B3UHWVR2|1|0|18600|18600|10|0|0|550|0|0|0|0|0|0|1|0|0|20200701093421
20200701|02000016|91289401|1813988274451|1813988274451|20200511000080|B3UHWVR2|1|0|18600|18600|10|0|0|550|0|0|0|0|0|0|1|0|0|20200701093417
20200701|02000016|91289375|1818093392935|1818093392935|20200511000080|B3UHWVR2|1|0|18600|18600|10|0|0|550|0|0|0|0|0|0|1|0|0|20200701093358
20200701|02000016|91289364|1813065172689|1813065172689|20200511000080|B3UHWVR2|1|0|18600|18600|10|0|0|550|0|0|0|0|0|0|1|0|0|20200701093343
20200701|02000016|91289362|1815137614144|1815137614144|20200511000080|B3UHWVR2|1|0|18600|18600|10|0|0|550|0|0|0|0|0|0|1|0|0|20200701093340
20200701|02000016|91289361|1813555344462|1813555344462|20200511000080|B3UHWVR2|1|0|18600|18600|10|0|0|550|0|0|0|0|0|0|1|0|0|20200701093339
20200701|02000016|91289350|1818790595711|1818790595711|20200511000080|B3UHWVR2|1|0|18600|18600|10|0|0|550|0|0|0|0|0|0|1|0|0|20200701093323
20200701|02000016|91289341|1813313124191|1813313124191|20200511000080|B3UHWVR2|1|0|18600|18600|10|0|0|550|0|0|0|0|0|0|1|0|0|20200701093317
20200701|02000016|91289325|1813889877508|1813889877508|20200511000080|B3UHWVR2|1|0|18600|18600|10|0|0|550|0|0|0|0|0|0|1|0|0|20200701093306
20200701|02000016|91289326|1813477461038|1813477461038|20200511000080|B3UHWVR2|1|0|18600|18600|10|0|0|550|0|0|0|0|0|0|1|0|0|20200701093306
20200701|02000016|91289322|1813343028920|1813343028920|20200511000080|B3UHWVR2|1|0|18600|18600|10|0|0|550|0|0|0|0|0|0|1|0|0|20200701093303
20200701|02000016|91289311|1813481184097|1813481184097|20200511000080|B3UHWVR2|1|0|18600|18600|10|0|0|550|0|0|0|0|0|0|1|0|0|20200701093255
20200701|02000016|91289307|1815130317528|1815130317528|20200511000080|B3UHWVR2|1|0|18600|18600|10|0|0|550|0|0|0|0|0|0|1|0|0|20200701093248
20200701|02000016|91289306|1818335259239|1818335259239|20200511000080|B3UHWVR2|1|0|18600|18600|10|0|0|550|0|0|0|0|0|0|1|0|0|20200701093244
20200701|02000016|91289305|1818733245321|1818733245321|20200511000080|B3UHWVR2|1|0|18600|18600|10|0|0|550|0|0|0|0|0|0|1|0|0|20200701093243
20200701|02000016|91289290|1813463503191|1813463503191|20200511000080|B3UHWVR2|1|0|18600|18600|10|0|0|550|0|0|0|0|0|0|1|0|0|20200701093230
20200701|02000016|91289279|1813582238836|1813582238836|20200511000080|B3UHWVR2|1|0|18600|18600|10|0|0|550|0|0|0|0|0|0|1|0|0|20200701093223
20200701|02000016|91289276|1800000000001|1800000000001|20200511000080|B3UHWVR2|1|0|18600|18600|10|0|0|0|0|0|0|0|0|0|1|0|0|20200701093221
20200701|02000016|91289275|1813576268031|1813576268031|20200511000080|B3UHWVR2|1|0|18600|18600|10|0|0|0|0|0|0|0|0|0|1|0|0|20200701093219
20200701|02000016|91289271|1813988222217|1813988222217|20200511000080|B3UHWVR2|1|0|18600|18600|10|0|0|550|0|0|0|0|0|0|1|0|0|20200701093217
20200701|02000016|91289270|1818010518350|1818010518350|20200511000080|B3UHWVR2|1|0|18600|18600|10|0|0|550|0|0|0|0|0|0|1|0|0|20200701093216
20200701|02000016|91289265|1800000000001|1800000000001|20200511000080|B3UHWVR2|1|0|18600|18600|10|0|0|0|0|0|0|0|0|0|1|0|0|20200701093214
20200701|02000016|91289261|1813576268031|1813576268031|20200511000080|B3UHWVR2|1|0|18600|18600|10|0|0|0|0|0|0|0|0|0|1|0|0|20200701093209
20200701|02000016|91289258|1817779639002|1817779639002|20200511000080|B3UHWVR2|1|0|18600|18600|10|0|0|550|0|0|0|0|0|0|1|0|0|20200701093208
20200701|02000016|91289254|1800000000001|1800000000001|20200511000080|B3UHWVR2|1|0|18600|18600|10|0|0|0|0|0|0|0|0|0|1|0|0|20200701093207
20200701|02000016|91289252|1813163653278|1813163653278|20200511000080|B3UHWVR2|1|0|18600|18600|10|0|0|550|0|0|0|0|0|0|1|0|0|20200701093204
20200701|02000016|91289248|1816689634186|1816689634186|20200511000080|B3UHWVR2|1|0|18600|18600|10|0|0|550|0|0|0|0|0|0|1|0|0|20200701093200
20200701|02000016|91289242|1800000000001|1800000000001|20200511000080|B3UHWVR2|1|0|18600|18600|10|0|0|0|0|0|0|0|0|0|1|0|0|20200701093159
20200701|02000016|91289241|1813576268031|1813576268031|20200511000080|B3UHWVR2|1|0|18600|18600|10|0|0|0|0|0|0|0|0|0|1|0|0|20200701093157
20200701|02000016|91289236|1800000000001|1800000000001|20200511000080|B3UHWVR2|1|0|18600|18600|10|0|0|0|0|0|0|0|0|0|1|0|0|20200701093151
20200701|02000016|91289237|1818624043293|1818624043293|20200511000080|B3UHWVR2|1|0|18600|18600|10|0|0|550|0|0|0|0|0|0|1|0|0|20200701093151
20200701|02000016|91289232|1813576268031|1813576268031|20200511000080|B3UHWVR2|1|0|18600|18600|10|0|0|0|0|0|0|0|0|0|1|0|0|20200701093150
20200701|02000016|91289229|1813992529265|1813992529265|20200511000080|B3UHWVR2|1|0|18600|18600|10|0|0|550|0|0|0|0|0|0|1|0|0|20200701093149
20200701|02000016|91289223|1815887537882|1815887537882|20200511000080|B3UHWVR2|1|0|18600|18600|10|0|0|550|0|0|0|0|0|0|1|0|0|20200701093147
20200701|02000016|91289219|1800000000001|1800000000001|20200511000080|B3UHWVR2|1|0|18600|18600|10|0|0|0|0|0|0|0|0|0|1|0|0|20200701093145
20200701|02000016|91289218|1813577500356|1813577500356|20200511000080|B3UHWVR2|1|0|18600|18600|10|0|0|550|0|0|0|0|0|0|1|0|0|20200701093143
20200701|02000016|91289212|1813576268031|1813576268031|20200511000080|B3UHWVR2|1|0|18600|18600|10|0|0|0|0|0|0|0|0|0|1|0|0|20200701093141
20200701|02000016|91289211|1800000000001|1800000000001|20200511000080|B3UHWVR2|1|0|18600|18600|10|0|0|0|0|0|0|0|0|0|1|0|0|20200701093137
20200701|02000016|91289209|1813576268031|1813576268031|20200511000080|B3UHWVR2|1|0|18600|18600|10|0|0|0|0|0|0|0|0|0|1|0|0|20200701093134
20200701|02000016|91289204|1800000000001|1800000000001|20200511000080|B3UHWVR2|1|0|18600|18600|10|0|0|0|0|0|0|0|0|0|1|0|0|20200701093130
20200701|02000016|91289200|1815969220999|1815969220999|20200511000080|B3UHWVR2|1|0|18600|18600|10|0|0|550|0|0|0|0|0|0|1|0|0|20200701093127
20200701|02000016|91289199|1813576268031|1813576268031|20200511000080|B3UHWVR2|1|0|18600|18600|10|0|0|0|0|0|0|0|0|0|1|0|0|20200701093127
20200701|02000016|91289198|1813988266069|1813988266069|20200511000080|B3UHWVR2|1|0|18600|18600|10|0|0|550|0|0|0|0|0|0|1|0|0|20200701093127
20200701|02000016|91289196|1815887543597|1815887543597|20200511000080|B3UHWVR2|1|0|18600|18600|10|0|0|550|0|0|0|0|0|0|1|0|0|20200701093126
20200701|02000016|91289190|1817784230052|1817784230052|20200511000080|B3UHWVR2|1|0|18600|18600|10|0|0|550|0|0|0|0|0|0|1|0|0|20200701093119
20200701|02000016|91289189|1813987590496|1813987590496|20200511000080|B3UHWVR2|1|0|18600|18600|10|0|0|550|0|0|0|0|0|0|1|0|0|20200701093118
20200701|02000016|91289188|1813576268031|1813576268031|20200511000080|B3UHWVR2|1|0|18600|18600|10|0|0|0|0|0|0|0|0|0|1|0|0|20200701093115
20200701|02000016|91289183|1818979627512|1818979627512|20200511000080|B3UHWVR2|1|0|18600|18600|10|0|0|550|0|0|0|0|0|0|1|0|0|20200701093113
20200701|02000016|91289181|1800000000001|1800000000001|20200511000080|B3UHWVR2|1|0|18600|18600|10|0|0|0|0|0|0|0|0|0|1|0|0|20200701093108
20200701|02000016|91289179|1813576268031|1813576268031|20200511000080|B3UHWVR2|1|0|18600|18600|10|0|0|0|0|0|0|0|0|0|1|0|0|20200701093107
20200701|02000016|91289172|1800000000001|1800000000001|20200511000080|B3UHWVR2|1|0|18600|18600|10|0|0|0|0|0|0|0|0|0|1|0|0|20200701093101
20200701|02000016|91289171|1813576268031|1813576268031|20200511000080|B3UHWVR2|1|0|18600|18600|10|0|0|0|0|0|0|0|0|0|1|0|0|20200701093100
20200701|02000016|91289170|1813577542946|1813577542946|20200511000080|B3UHWVR2|1|0|18600|18600|10|0|0|550|0|0|0|0|0|0|1|0|0|20200701093100
20200701|02000016|91289166|1800000000001|1800000000001|20200511000080|B3UHWVR2|1|0|18600|18600|10|0|0|0|0|0|0|0|0|0|1|0|0|20200701093055
20200701|02000016|91289165|1813576268031|1813576268031|20200511000080|B3UHWVR2|1|0|18600|18600|10|0|0|0|0|0|0|0|0|0|1|0|0|20200701093053
20200701|02000016|91289163|1800000000001|1800000000001|20200511000080|B3UHWVR2|1|0|18600|18600|10|0|0|0|0|0|0|0|0|0|1|0|0|20200701093049
20200701|02000016|91289159|1813576268031|1813576268031|20200511000080|B3UHWVR2|1|0|18600|18600|10|0|0|0|0|0|0|0|0|0|1|0|0|20200701093045
20200701|02000016|91289156|1800000000001|1800000000001|20200511000080|B3UHWVR2|1|0|18600|18600|10|0|0|0|0|0|0|0|0|0|1|0|0|20200701093042
20200701|02000016|91289154|1815911570370|1815911570370|20200511000080|B3UHWVR2|1|0|18600|18600|10|0|0|550|0|0|0|0|0|0|1|0|0|20200701093039
20200701|02000016|91289152|1813576268031|1813576268031|20200511000080|B3UHWVR2|1|0|18600|18600|10|0|0|0|0|0|0|0|0|0|1|0|0|20200701093038
20200701|02000016|91289151|1800000000001|1800000000001|20200511000080|B3UHWVR2|1|0|18600|18600|10|0|0|0|0|0|0|0|0|0|1|0|0|20200701093035
20200701|02000016|91289145|1813953133822|1813953133822|20200511000080|B3UHWVR2|1|0|18600|18600|10|0|0|550|0|0|0|0|0|0|1|0|0|20200701093033
20200701|02000016|91289139|1813766275577|1813766275577|20200511000080|B3UHWVR2|1|0|18600|18600|10|0|0|550|0|0|0|0|0|0|1|0|0|20200701093027
20200701|02000016|91289137|1800000000001|1800000000001|20200511000080|B3UHWVR2|1|0|18600|18600|10|0|0|0|0|0|0|0|0|0|1|0|0|20200701093025
20200701|02000016|91289136|1813576268031|1813576268031|20200511000080|B3UHWVR2|1|0|18600|18600|10|0|0|0|0|0|0|0|0|0|1|0|0|20200701093021
20200701|02000016|91289135|1817325423850|1817325423850|20200511000080|B3UHWVR2|1|0|18600|18600|10|0|0|550|0|0|0|0|0|0|1|0|0|20200701093019
20200701|02000016|91289134|1800000000001|1800000000001|20200511000080|B3UHWVR2|1|0|18600|18600|10|0|0|0|0|0|0|0|0|0|1|0|0|20200701093018
20200701|02000016|91289132|1800000000001|1800000000001|20200511000080|B3UHWVR2|1|0|18600|18600|10|0|0|0|0|0|0|0|0|0|1|0|0|20200701093011
20200701|02000016|91289130|1800000000001|1800000000001|20200511000080|B3UHWVR2|1|0|18600|18600|10|0|0|0|0|0|0|0|0|0|1|0|0|20200701093005
20200701|02000016|91289129|1800000000001|1800000000001|20200511000080|B3UHWVR2|1|0|18600|18600|10|0|0|0|0|0|0|0|0|0|1|0|0|20200701092958
20200701|02000016|91289126|1800000000001|1800000000001|20200511000080|B3UHWVR2|1|0|18600|18600|10|0|0|0|0|0|0|0|0|0|1|0|0|20200701092950
20200701|02000016|91289125|1815845182230|1815845182230|20200511000080|B3UHWVR2|1|0|18600|18600|10|0|0|550|0|0|0|0|0|0|1|0|0|20200701092943
20200701|02000016|91289124|1800000000001|1800000000001|20200511000080|B3UHWVR2|1|0|18600|18600|10|0|0|0|0|0|0|0|0|0|1|0|0|20200701092939
20200701|02000016|91289123|1800000000001|1800000000001|20200511000080|B3UHWVR2|1|0|18600|18600|10|0|0|0|0|0|0|0|0|0|1|0|0|20200701092929
20200701|02000016|91289122|1800000000001|1800000000001|20200511000080|B3UHWVR2|1|0|18600|18600|10|0|0|0|0|0|0|0|0|0|1|0|0|20200701092920
