清算中心流水号&交易所流水号&业务发生日期&交易所代码&会员编码&资金账号&出入金类型&发生金额&手续费金额&银行产品代码&备注
20042230020100822173&8LHU61OGE5NY2U6P&20200422&02000134&1813558749848&1813558749848&0&3009&9&boshzjjg&
20042230020100822174&9VI8Q30QZYXWL97V&20200422&02000134&1813558749848&1813558749848&0&2006&6&boshzjjg&
20042230020100822176&U4R647NL2BL2AEO9&20200422&02000134&1817538719135&1817538719135&0&4012&12&boshzjjg&
20042230020100822197&8PHMGA1EAKM9XJMM&20200422&02000134&1817538719131&1817538719131&0&10030&30&boshzjjg&
