20200423|02000134|1813558749848|1813558749848|CNY|115430|986950
20200423|02000134|1817538719135|1817538719135|CNY|34600|2999642166
20200423|02000134|1817538719131|1817538719131|CNY|30060|305065
20200423|02000134|1818568888359|1818568888359|CNY|0|0
20200423|02000134|1818567881828|1818567881828|CNY|0|0
