清算中心流水号&交易所流水号&业务发生日期&交易所代码&会员编码&资金账号&出入金方式&出入金类型&出入金发起方&发生金额&币种&银行代码&银行产品代码&银行帐号&状态&备注
20071790040021510027&20071790040021510027&20200717&02000016&1815536647555&1815536647555&&1&2&200000&CNY&0040&boshzjjg&6226220906392641&0&
20071790040021510112&20071790040021510112&20200717&02000016&1813099471977&1813099471977&&1&2&100&CNY&0040&boshzjjg&6230523350015327871&0&
20071790040021510026&20071790040021510026&20200717&02000016&1813933286024&1813933286024&&1&2&10000&CNY&0040&boshzjjg&6222020409009473771&0&
20071790040021510113&20071790040021510113&20200717&02000016&1815287519894&1815287519894&&1&2&200000&CNY&0040&boshzjjg&6236683960000037096&0&
20071790040021510163&20071790040021510163&20200717&02000016&1815534463761&1815534463761&&1&2&200000&CNY&0040&boshzjjg&6226190900466313&0&
20071790040021510164&20071790040021510164&20200717&02000016&1818788224059&1818788224059&&1&2&800000&CNY&0040&boshzjjg&6228483358070515670&0&
20071730020100510186&74TCUVB85SEXKNRI&20200717&02000016&1815931775090&1815931775090&&0&1&100300&CNY&0040&boshzjjg&6216615002001917052&0&
20071730020100510187&UBTJ5Y2A6ENJQASB&20200717&02000016&1815931775090&1815931775090&&0&1&97291&CNY&0040&boshzjjg&6216615002001917052&0&
20071730020100510258&EFEH7059FRINBPGT&20200717&02000016&1813908822711&1813908822711&&0&1&200601&CNY&0040&boshzjjg&6228483358379095879&0&
20071730020100510341&4V9RAVV3X8GWJ9QX&20200717&02000016&1815879659197&1815879659197&&0&1&100300&CNY&0040&boshzjjg&6228482311117869619&0&
20071730020100510342&6B5WEFTVZGP2I37K&20200717&02000016&1800100000031&1800100000031&&0&1&60180&CNY&0040&boshzjjg&6230521260013799371&0&
20071730020100510259&4B9IVYCHAB4AU1WR&20200717&02000016&1813908822711&1813908822711&&0&1&5015&CNY&0040&boshzjjg&6228483358379095879&0&
20071730020100510197&7N95C5Y5AGNIOH9N&20200717&02000016&1816603203329&1816603203329&&0&1&401203&CNY&0040&boshzjjg&6228481269277930574&0&
20071730020100510198&OC3TRUFUUDL7R8UH&20200717&02000016&1813879606088&1813879606088&&0&1&100300&CNY&0040&boshzjjg&6217994350015241384&0&
20071730020100510347&ZH016KENSZOIXCCR&20200717&02000016&1813379416382&1813379416382&&0&1&20060&CNY&0040&boshzjjg&6214483001100086904&0&
20071730020100510202&IN6GWN7SXJFY5IK7&20200717&02000016&1818468025462&1818468025462&&0&1&10030&CNY&0040&boshzjjg&6228483968612650775&0&
20071730020100510350&59RD8ZL5X894KZNK&20200717&02000016&1813577500356&1813577500356&&0&1&30090&CNY&0040&boshzjjg&6212262510000520615&0&
20071730020100510203&0GX1GS3C8A6DJI0Y&20200717&02000016&1813388827661&1813388827661&&0&1&10030&CNY&0040&boshzjjg&6228483358580489473&0&
20071730020100510205&S3OJQFVSW1ID6IOC&20200717&02000016&1813324639668&1813324639668&&0&1&200601&CNY&0040&boshzjjg&6212960110000005918&0&
20071730020100510352&OOOX0XGQFS48QHLB&20200717&02000016&1817689826169&1817689826169&&0&1&5015&CNY&0040&boshzjjg&6213360159902334672&0&
20071730020100510210&G161SGADYASR74MU&20200717&02000016&1815187564467&1815187564467&&0&1&190571&CNY&0040&boshzjjg&6222022510001573894&0&
20071730020100510211&3SMFND3IL0NEW13Y&20200717&02000016&1813633226787&1813633226787&&0&1&10030&CNY&0040&boshzjjg&6217230409000055995&0&
20071730020100510271&WXQEYRA60I0H1Z8M&20200717&02000016&1813330594491&1813330594491&&0&1&100300&CNY&0040&boshzjjg&6222022510001334206&0&
20071730020100510356&TA06GDS3ZSAWVB6M&20200717&02000016&1815667899659&1815667899659&&0&1&10030&CNY&0040&boshzjjg&6217004170000113044&0&
20071730020100510216&9DK15246DL354XAO&20200717&02000016&1815170047910&1815170047910&&0&1&200601&CNY&0040&boshzjjg&6228482318309465775&0&
20071730020100510273&N00V5Z1NMF74NPXM&20200717&02000016&1815202419589&1815202419589&&0&1&10030&CNY&0040&boshzjjg&6230522940009812978&0&
20071730020100510275&II7LYO0NCIZSV0YJ&20200717&02000016&1813879690981&1813879690981&&0&1&300902&CNY&0040&boshzjjg&6222031509000683695&0&
20071730020100510282&NL5U4EZ3EC3Y3FRD&20200717&02000016&1813879643951&1813879643951&&0&1&100300&CNY&0040&boshzjjg&6217994350011713899&0&
20071730020100510367&Z3GCNA0FVKP7W8LC&20200717&02000016&1815930276335&1815930276335&&0&1&100&CNY&0040&boshzjjg&6222080409003770310&0&
20071730020100510290&V509BQ7LEME6FWAT&20200717&02000016&1815170899237&1815170899237&&0&1&10030&CNY&0040&boshzjjg&6217002110000855436&0&
20071730020100510292&D3PP4LT7BRZL90W6&20200717&02000016&1800100000081&1800100000081&&0&1&40120&CNY&0040&boshzjjg&6228482688427112172&0&
20071730020100510294&6NT7NDXY5VY6QM6B&20200717&02000016&1817325423850&1817325423850&&0&1&186559&CNY&0040&boshzjjg&6212260409010000191&0&
20071730020100510233&T7HXFQZE5NZBNBY1&20200717&02000016&1813769055559&1813769055559&&0&1&70210&CNY&0040&boshzjjg&6212262510000846770&0&
20071730020100510296&E9ZQBHWGPE8HQ161&20200717&02000016&1813879656972&1813879656972&&0&1&100300&CNY&0040&boshzjjg&6228452318048863377&0&
20071730020100510384&6TQ9JDI4IGO2MFDD&20200717&02000016&1815368948672&1815368948672&&0&1&120361&CNY&0040&boshzjjg&6212262510001422175&0&
20071730020100510443&T3CERROBW2N73NVP&20200717&02000016&1815311367336&1815311367336&&0&1&35105&CNY&0040&boshzjjg&6236680140001986723&0&
20071730020100510393&CY9DHODTTXHZ6E9D&20200717&02000016&1815308750506&1815308750506&&0&1&50150&CNY&0040&boshzjjg&6212252510000029809&0&
20071730020100510313&67R2SQP3F7D62KBD&20200717&02000016&1815170845976&1815170845976&&0&1&100300&CNY&0040&boshzjjg&6217211509001667368&0&
20071730020100510396&7ZZK7XH1N2R928JW&20200717&02000016&1818987538596&1818987538596&&0&1&30090&CNY&0040&boshzjjg&6217003960001582077&0&
20071730020100510326&3LZ2L898XICD3M7P&20200717&02000016&1813987581003&1813987581003&&0&1&90270&CNY&0040&boshzjjg&6212262510001194170&0&
20071730020100510412&6E4SKSVMVUUMYH62&20200717&02000016&1818787532842&1818787532842&&0&1&50150&CNY&0040&boshzjjg&6222032510000142566&0&
20071730020100510327&W0JNOJ4KN42GELD1&20200717&02000016&1813707962158&1813707962158&&0&1&100300&CNY&0040&boshzjjg&6228482318735468773&0&
20071730020100510457&7B02899EOEO4AX2U&20200717&02000016&1813766275577&1813766275577&&0&1&100300&CNY&0040&boshzjjg&6228482318084842677&0&
20071730020100510539&CEZ56LH0XWCGMRQ4&20200717&02000016&1818879714520&1818879714520&&0&1&100300&CNY&0040&boshzjjg&6215581509003247488&0&
20071730020100510467&GVCN98SQXYGQ0QQI&20200717&02000016&1815208819237&1815208819237&&0&1&10030&CNY&0040&boshzjjg&6230523350004508275&0&
20071730020100510468&FVBT3C6347C1ARY7&20200717&02000016&1815930284881&1815930284881&&0&1&40421&CNY&0040&boshzjjg&6228481268357479171&0&
20071730020100510564&QFP08R8H7GDH4UHM&20200717&02000016&1818691191808&1818691191808&&0&1&401203&CNY&0040&boshzjjg&6215583700004872469&0&
20071730020100510586&DMB82KO8PQ7AI6AC&20200717&02000016&1813230823996&1813230823996&&0&1&80240&CNY&0040&boshzjjg&6222020403012247439&0&
20071730020100510589&MWKA3FDGSH8RWHHN&20200717&02000016&1813759215316&1813759215316&&0&1&140421&CNY&0040&boshzjjg&6228483358585958779&0&
20071730020100510590&VH49BCGXCO78FUIY&20200717&02000016&1813412602773&1813412602773&&0&1&30090&CNY&0040&boshzjjg&6230520600113342377&0&
20071730020100510596&VGND5H7L0TPE816F&20200717&02000016&1818032580086&1818032580086&&0&1&40120&CNY&0040&boshzjjg&6212260403012654519&0&
20071730020100510519&HDJD98OLHKXTE6PV&20200717&02000016&1815208802992&1815208802992&&0&1&50150&CNY&0040&boshzjjg&6222032511000114688&0&
20071730020100510605&7DOE6WPNZW5D568J&20200717&02000016&1813093021794&1813093021794&&0&1&30090&CNY&0040&boshzjjg&6228271047008333076&0&
20071730020100510699&JBLZGEOWDG5PX1QC&20200717&02000016&1818934819900&1818934819900&&0&1&200601&CNY&0040&boshzjjg&6216696200010203462&0&
20071730020100510532&L4USV7BXZ5G1D0GR&20200717&02000016&1815634310189&1815634310189&&0&1&50150&CNY&0040&boshzjjg&6228480306456298968&0&
20071730020100510613&MBDASNC0XJ3S7MY5&20200717&02000016&1815921807241&1815921807241&&0&1&200601&CNY&0040&boshzjjg&6228481985573802676&0&
20071730020100510614&JNAV171TSWT3G5IL&20200717&02000016&1818908752966&1818908752966&&0&1&300902&CNY&0040&boshzjjg&6215582510000004574&0&
20071730020100510704&RZV0D1G2MLFZVTOA&20200717&02000016&1815904002064&1815904002064&&0&1&30090&CNY&0040&boshzjjg&6217850400004579311&0&
20071730020100510735&G3UX62Y3MQ23YHQ3&20200717&02000016&1813503229712&1813503229712&&0&1&10030&CNY&0040&boshzjjg&6212260409008055702&0&
20071730020100510707&FW1WSWH1VBBEE7ZG&20200717&02000016&1813759221835&1813759221835&&0&1&70210&CNY&0040&boshzjjg&6212262511001786486&0&
20071730020100510738&P9L4HABF737VFW93&20200717&02000016&1815232209902&1815232209902&&0&1&40120&CNY&0040&boshzjjg&6217855000072262223&0&
20071730020100510710&K2C7UUG8II1MLPVA&20200717&02000016&1815716865625&1815716865625&&0&1&40120&CNY&0040&boshzjjg&6217855000043214923&0&
20071730020100510713&2B8462BE7Y7VNRJR&20200717&02000016&1813055634853&1813055634853&&0&1&10030&CNY&0040&boshzjjg&6212261408014771533&0&
20071730020100510622&7KEXXRB1VGBXXLFO&20200717&02000016&1815368684150&1815368684150&&0&1&70210&CNY&0040&boshzjjg&6228483358609606073&0&
20071730020100510747&K92W80ZUBJNW9QLN&20200717&02000016&1818746954345&1818746954345&&0&1&10030&CNY&0040&boshzjjg&6228482688434033973&0&
20071730020100510717&GCUNJWEKUZ642I2L&20200717&02000016&1813722424859&1813722424859&&0&1&30090&CNY&0040&boshzjjg&6217855000072262215&0&
20071730020100510629&R7N81MXBH3DPQ7KN&20200717&02000016&1815130451026&1815130451026&&0&1&23069&CNY&0040&boshzjjg&6210810140000576705&0&
20071730020100510751&XA494NPNJXP974EP&20200717&02000016&1815130451026&1815130451026&&0&1&501&CNY&0040&boshzjjg&6210810140000576705&0&
20071730020100510631&UI5IDH4ML1CDZK6M&20200717&02000016&1815511520473&1815511520473&&0&1&20060&CNY&0040&boshzjjg&6228230655150233363&0&
20071730020100510632&PQN1MNGV1DSNJBUP&20200717&02000016&1813945860022&1813945860022&&0&1&20060&CNY&0040&boshzjjg&6217000010123344932&0&
20071730020100510753&4E6M41O20UZ9VGY5&20200717&02000016&1818187266755&1818187266755&&0&1&50150&CNY&0040&boshzjjg&6217003970003590010&0&
20071730020100510758&IHV06KFZCJTC9F4G&20200717&02000016&1818088176980&1818088176980&&0&1&210631&CNY&0040&boshzjjg&6230523350004703074&0&
20071730020100510842&EK0Q5X6ZO1UEJUTO&20200717&02000016&1800100000060&1800100000060&&0&1&75225&CNY&0040&boshzjjg&6228480198414160970&0&
20071730020100510732&DI2U68FBU6BM33I8&20200717&02000016&1818131516269&1818131516269&&0&1&30090&CNY&0040&boshzjjg&6228480659211340974&0&
20071730020100510843&EXS4PESJFMXMCL81&20200717&02000016&1813478653378&1813478653378&&0&1&40120&CNY&0040&boshzjjg&6228480568011405673&0&
20071730020100510846&6DVC4J0V02DJPDG0&20200717&02000016&1815100269110&1815100269110&&0&1&20060&CNY&0040&boshzjjg&6228481268511222673&0&
20071730020100510847&RW4HU07FYTO65CG5&20200717&02000016&1815130451026&1815130451026&&0&1&50&CNY&0040&boshzjjg&6210810140000576705&0&
20071730020100510768&D9NKEBGA2BSY647Q&20200717&02000016&1815818598480&1815818598480&&0&1&20060&CNY&0040&boshzjjg&6230520120003213679&0&
20071730020100510852&JN2V4QL2HXGV05DL&20200717&02000016&1815100269110&1815100269110&&0&1&20060&CNY&0040&boshzjjg&6228481268511222673&0&
20071730020100510946&RRFOWGZS1S4C1S0C&20200717&02000016&1813992529265&1813992529265&&0&1&50150&CNY&0040&boshzjjg&6217004170003277606&0&
20071730020100510857&CAQFC1P5J53K071A&20200717&02000016&1813836555299&1813836555299&&0&1&30090&CNY&0040&boshzjjg&6228482678422975475&0&
20071730020100510858&BG0G4XC6SO0UZ9QO&20200717&02000016&1813733367682&1813733367682&&0&1&19759&CNY&0040&boshzjjg&6222030409006631551&0&
20071730020100510781&SB7KHOHXGSRQ6E4A&20200717&02000016&1815128477807&1815128477807&&0&1&215646&CNY&0040&boshzjjg&6236680140004022195&0&
20071730020100510956&OO5WULQI4MKALBKK&20200717&02000016&1815397618643&1815397618643&&0&1&310932&CNY&0040&boshzjjg&6212262318000704969&0&
20071730020100510787&KH91AEEC8NZ28BTJ&20200717&02000016&1818788224059&1818788224059&&0&1&802407&CNY&0040&boshzjjg&6228483358070515670&0&
20071730020100510871&W0HI6IB3KOGT8NCL&20200717&02000016&1813892560221&1813892560221&&0&1&90&CNY&0040&boshzjjg&6215592605007339003&0&
20071730020100510791&IYOJMNC9YKBE5G5M&20200717&02000016&1815908611028&1815908611028&&0&1&60180&CNY&0040&boshzjjg&6228483829039555379&0&
20071730020100510880&2F72MJ370FV61J1P&20200717&02000016&1813892560221&1813892560221&&0&1&100300&CNY&0040&boshzjjg&6215592605007339003&0&
20071730020100510882&10AWQI70O535KP3O&20200717&02000016&1818220730920&1818220730920&&0&1&50150&CNY&0040&boshzjjg&6222627140000512310&0&
20071730020100510883&54ABXTPU7P7O847N&20200717&02000016&1813607196765&1813607196765&&0&1&60180&CNY&0040&boshzjjg&6228480059835911377&0&
20071730020100510978&AMXXYJ959SBKY3AF&20200717&02000016&1813703226933&1813703226933&&0&1&10030&CNY&0040&boshzjjg&6236680140003922932&0&
20071730020100510891&S9GCW49DGAR0LPO8&20200717&02000016&1813556430912&1813556430912&&0&1&20060&CNY&0040&boshzjjg&6222082003002115920&0&
20071730020100510892&671PKB2C4QYH6IA1&20200717&02000016&1813503874461&1813503874461&&0&1&190571&CNY&0040&boshzjjg&6212261714005212290&0&
20071730020100510805&5A5NASTXJU82YO2R&20200717&02000016&1813343028920&1813343028920&&0&1&50150&CNY&0040&boshzjjg&6217855000036002541&0&
20071730020100510987&GT0WBME0MGAA27ST&20200717&02000016&1813082311311&1813082311311&&0&1&44132&CNY&0040&boshzjjg&6228481269123313074&0&
20071730020100510988&Y2YHI3P2GKASNLWK&20200717&02000016&1813477461038&1813477461038&&0&1&20060&CNY&0040&boshzjjg&6228483821578495711&0&
20071730020100510911&6C77NLNBG4GM73R4&20200717&02000016&1815271903817&1815271903817&&0&1&40120&CNY&0040&boshzjjg&6228270051257148475&0&
20071730020100510822&ZTPCDZ066G00EVMH&20200717&02000016&1813263638109&1813263638109&&0&1&10030&CNY&0040&boshzjjg&6217001140052912372&0&
20071730020100511000&9CA1VT3SQAQQVKT3&20200717&02000016&1818165477289&1818165477289&&0&1&30090&CNY&0040&boshzjjg&6235733600000210804&0&
20071730020100510827&5FOZ7YTCM6Y2Z6TI&20200717&02000016&1813407207108&1813407207108&&0&1&50150&CNY&0040&boshzjjg&6236682700002708745&0&
20071730020100510913&0CNKQ6ZFDMX65HFH&20200717&02000016&1815946775111&1815946775111&&0&1&40120&CNY&0040&boshzjjg&6228412680007614813&0&
20071730020100510915&FG0Z011PXG0R5GN7&20200717&02000016&1813190099140&1813190099140&&0&1&140421&CNY&0040&boshzjjg&6217213301015322547&0&
20071730020100510830&Z99WTUWAI1ILLG0C&20200717&02000016&1813510564251&1813510564251&&0&1&20060&CNY&0040&boshzjjg&6217007200008195755&0&
20071730020100510832&KLTBPBJON13ZVJBW&20200717&02000016&1815613502427&1815613502427&&0&1&41123&CNY&0040&boshzjjg&6231562800348242&0&
20071730020100511010&3Y452SNZOYKZUZQO&20200717&02000016&1813582884362&1813582884362&&0&1&10030&CNY&0040&boshzjjg&6228480658265660873&0&
20071730020100511037&ZY3CZY7C21UV58R9&20200717&02000016&1815087511848&1815087511848&&0&1&40120&CNY&0040&boshzjjg&6230523960006142871&0&
20071730020100511038&8MA12A8LUFGDEF8P&20200717&02000016&1813235522109&1813235522109&&0&1&50150&CNY&0040&boshzjjg&4563517612300638286&0&
20071730020100511039&UGFWQ5E21TLVBZ0M&20200717&02000016&1818161735141&1818161735141&&0&1&10030&CNY&0040&boshzjjg&6217997900073030546&0&
20071730020100511014&XBBI6CLYDTVV58AF&20200717&02000016&1813987513948&1813987513948&&0&1&10030&CNY&0040&boshzjjg&6222032510000191720&0&
20071730020100511015&XQUGXQXW0VL4X3BA&20200717&02000016&1815840074214&1815840074214&&0&1&150451&CNY&0040&boshzjjg&6236680730002216342&0&
20071730020100510923&L06JI89YU33BFS2S&20200717&02000016&1816689634186&1816689634186&&0&1&10030&CNY&0040&boshzjjg&6217232201004854152&0&
20071730020100510924&7GAABLIA01CYWUCW&20200717&02000016&1815880931399&1815880931399&&0&1&30090&CNY&0040&boshzjjg&6217906500035689627&0&
20071730020100511018&Q10BYFG5DVS89DHC&20200717&02000016&1815208896655&1815208896655&&0&1&50150&CNY&0040&boshzjjg&6228483350109027017&0&
20071730020100511134&YQV2R00P5O3V1H9Y&20200717&02000016&1813940555070&1813940555070&&0&1&100300&CNY&0040&boshzjjg&6210810730003257400&0&
20071730020100511029&AB1WKPNIIWCTHK6N&20200717&02000016&1813070511719&1813070511719&&0&1&9027&CNY&0040&boshzjjg&6217000140000818474&0&
20071730020100511136&1Q03WY25QK1JM2KX&20200717&02000016&1815208999328&1815208999328&&0&1&10030&CNY&0040&boshzjjg&6230520150011399475&0&
20071730020100511030&JAVVA4AIOGBEYIA4&20200717&02000016&1813545932491&1813545932491&&0&1&20060&CNY&0040&boshzjjg&6228453828123642370&0&
20071730020100511031&R9ZT01J3IEHM5R7C&20200717&02000016&1818335259239&1818335259239&&0&1&10030&CNY&0040&boshzjjg&6212260504007260822&0&
20071730020100511032&56ES00D4DN9MNUMD&20200717&02000016&1813335339191&1813335339191&&0&1&30090&CNY&0040&boshzjjg&6217004140003676727&0&
20071730020100511138&FL0MVC4LU8RBNIDK&20200717&02000016&1813904008782&1813904008782&&0&1&40120&CNY&0040&boshzjjg&6227000736080365358&0&
20071730020100511234&13N80EA2FANWJ20C&20200717&02000016&1815771836378&1815771836378&&0&1&20060&CNY&0040&boshzjjg&6215592605004136980&0&
20071730020100511141&K5R5ELKUQM32TJQ8&20200717&02000016&1813593967178&1813593967178&&0&1&401&CNY&0040&boshzjjg&6216607600003689239&0&
20071730020100511146&LTXFTJU2WAL01IDS&20200717&02000016&1813759236567&1813759236567&&0&1&180541&CNY&0040&boshzjjg&6228483358274324879&0&
20071730020100511239&O35RH0ANC4JYWBOR&20200717&02000016&1800100000063&1800100000063&&0&1&100300&CNY&0040&boshzjjg&6228482680558013519&0&
20071730020100511240&6B6XGP8H9DJF47N0&20200717&02000016&1815620030555&1815620030555&&0&1&100300&CNY&0040&boshzjjg&6222030302013325764&0&
20071730020100511147&MBK7U6GAM07GNBPF&20200717&02000016&1815561743759&1815561743759&&0&1&10030&CNY&0040&boshzjjg&6228482688418322475&0&
20071730020100511148&MT1G95SRY0XAZYIU&20200717&02000016&1817689826169&1817689826169&&0&1&10030&CNY&0040&boshzjjg&6213360159902334672&0&
20071730020100511242&73CCX182R13VJJN5&20200717&02000016&1818032526472&1818032526472&&0&1&20060&CNY&0040&boshzjjg&6222030403005785591&0&
20071730020100511151&KWGQT1ZA8QRLQQ37&20200717&02000016&1818678057828&1818678057828&&0&1&180541&CNY&0040&boshzjjg&6212261607016161805&0&
20071730020100511243&J8I7EIOCAKQECOGZ&20200717&02000016&1813593967178&1813593967178&&0&1&1003&CNY&0040&boshzjjg&6216607600003689239&0&
20071730020100511153&HB66VLUIQ18LXQFA&20200717&02000016&1818714555279&1818714555279&&0&1&17051&CNY&0040&boshzjjg&6013825311000638164&0&
20071730020100511155&A55C59S7CGU448KU&20200717&02000016&1813549727898&1813549727898&&0&1&20060&CNY&0040&boshzjjg&6228481389211373572&0&
20071730020100511246&K9J2JSX59FYP2TA1&20200717&02000016&1818233358282&1818233358282&&0&1&30391&CNY&0040&boshzjjg&6236680140003081960&0&
20071730020100511247&GP6KXBVFL386S7UG&20200717&02000016&1813796586326&1813796586326&&0&1&10030&CNY&0040&boshzjjg&6217001070012158248&0&
20071730020100511068&UIBEZBJ99NICS0FB&20200717&02000016&1813846055840&1813846055840&&0&1&15546&CNY&0040&boshzjjg&4367421041460035508&0&
20071730020100511159&DVO2E5U53B1FDDZV&20200717&02000016&1800100000071&1800100000071&&0&1&30090&CNY&0040&boshzjjg&6228272226027369472&0&
20071730020100511070&G515FP4RTWYSF10X&20200717&02000016&1813335335656&1813335335656&&0&1&41123&CNY&0040&boshzjjg&6217004140002561193&0&
20071730020100511162&D94ZCVV6EQH534IZ&20200717&02000016&1813970601152&1813970601152&&0&1&100300&CNY&0040&boshzjjg&5240942110023944&0&
20071730020100511163&BNBU7SAHEXG7WFOE&20200717&02000016&1813932525581&1813932525581&&0&1&10030&CNY&0040&boshzjjg&6222030403007280369&0&
20071730020100511251&16SYQHY1PW0RVGTP&20200717&02000016&1813909852916&1813909852916&&0&1&10230&CNY&0040&boshzjjg&6222033400007501767&0&
20071730020100511072&PA5XLCKN3O65N7VZ&20200717&02000016&1815303121880&1815303121880&&0&1&70210&CNY&0040&boshzjjg&6217000140008538074&0&
20071730020100511076&J7FD55VLCOCTDZZE&20200717&02000016&1815632218558&1815632218558&&0&1&11033&CNY&0040&boshzjjg&6217000140012460182&0&
20071730020100511253&LS0CVZP37SGWHL32&20200717&02000016&1818842642830&1818842642830&&0&1&30090&CNY&0040&boshzjjg&6215583400002661713&0&
20071730020100511080&TAMJL4FREDEL2PCW&20200717&02000016&1813731798775&1813731798775&&0&1&40120&CNY&0040&boshzjjg&6228480649169179276&0&
20071730020100511255&ICK4PH1TMBA5EBG6&20200717&02000016&1815130267157&1815130267157&&0&1&30090&CNY&0040&boshzjjg&6228481269278258272&0&
20071730020100511256&ANEIJHAE2Q5VBAOS&20200717&02000016&1818387540732&1818387540732&&0&1&110330&CNY&0040&boshzjjg&6212262511001893159&0&
20071730020100511273&1VMJUPXIXALOTVHZ&20200717&02000016&1813796541908&1813796541908&&0&1&10030&CNY&0040&boshzjjg&6217992610168596948&0&
20071730020100511181&YAAVMP3KWZ4P41XW&20200717&02000016&1815592260808&1815592260808&&0&1&60180&CNY&0040&boshzjjg&6217004140007649191&0&
20071730020100511274&SD8IRXV7K9TO4SPQ&20200717&02000016&1818804596623&1818804596623&&0&1&150451&CNY&0040&boshzjjg&6217001020003435584&0&
20071730020100511097&B93YV2EX4HJ7AN9N&20200717&02000016&1813555055525&1813555055525&&0&1&50150&CNY&0040&boshzjjg&6228482680606972112&0&
20071730020100511182&B6GC7T2IPCT3F8CS&20200717&02000016&1813683131563&1813683131563&&0&1&15045&CNY&0040&boshzjjg&6228481009189128077&0&
20071730020100511098&A8X6JGRUSUH1IEZD&20200717&02000016&1815512595393&1815512595393&&0&1&11033&CNY&0040&boshzjjg&6226195301284009&0&
20071730020100511183&K9MREYS738VQ0F21&20200717&02000016&1813578222161&1813578222161&&0&1&100300&CNY&0040&boshzjjg&6217997300002074667&0&
20071730020100511099&7BVDQ57K5ROFGEZI&20200717&02000016&1815076235183&1815076235183&&0&1&100300&CNY&0040&boshzjjg&6228480659132065874&0&
20071730020100511277&M3A5ORW686FH8R8U&20200717&02000016&1817731252779&1817731252779&&0&1&77532&CNY&0040&boshzjjg&6228481268396525075&0&
20071730020100511278&16N57U80S3XD79YN&20200717&02000016&1813343123027&1813343123027&&0&1&50150&CNY&0040&boshzjjg&6217565000057962418&0&
20071730020100511101&9T3OVSKPSIEI0JJL&20200717&02000016&1815045503182&1815045503182&&0&1&60180&CNY&0040&boshzjjg&6227001071550159001&0&
20071730020100511279&382S7LA0GKO5EMK7&20200717&02000016&1815630880329&1815630880329&&0&1&10130&CNY&0040&boshzjjg&4563515005004515888&0&
20071730020100511184&BBRZ3VE2F405GW8E&20200717&02000016&1815368486928&1815368486928&&0&1&30090&CNY&0040&boshzjjg&6222082510000337827&0&
20071730020100511185&EYG6AG670RJFCHCM&20200717&02000016&1818187582339&1818187582339&&0&1&10030&CNY&0040&boshzjjg&6230523960012293072&0&
20071730020100511282&3YPD0Z5YMPKAG61S&20200717&02000016&1813730441093&1813730441093&&0&1&20060&CNY&0040&boshzjjg&6228481269279917777&0&
20071730020100511283&SOEWTSCQG5BPV1HK&20200717&02000016&1815232607038&1815232607038&&0&1&10030&CNY&0040&boshzjjg&6228480652067343614&0&
20071730020100511186&8Z0GDFAB6SDVP3QW&20200717&02000016&1818604681909&1818604681909&&0&1&36108&CNY&0040&boshzjjg&6217992610209647056&0&
20071730020100511106&42W9O9SBLJVYQ1MV&20200717&02000016&1800100000085&1800100000085&&0&1&90270&CNY&0040&boshzjjg&6228481269136633674&0&
20071730020100511191&PO88J13JCURA0X7G&20200717&02000016&1813031511388&1813031511388&&0&1&10030&CNY&0040&boshzjjg&6217000180011149501&0&
20071730020100511192&X3CH18N00ACVPK54&20200717&02000016&1813988253077&1813988253077&&0&1&50150&CNY&0040&boshzjjg&6217003970003589830&0&
20071730020100511108&IBCT7J3NLOQP4OE6&20200717&02000016&1815184974413&1815184974413&&0&1&100300&CNY&0040&boshzjjg&6228483358597652972&0&
20071730020100511286&AS5G0F2TAAMGL9AT&20200717&02000016&1818846735652&1818846735652&&0&1&50150&CNY&0040&boshzjjg&6217001040008008442&0&
20071730020100511110&L6FMJMAYGITSI7EW&20200717&02000016&1813904881393&1813904881393&&0&1&10030&CNY&0040&boshzjjg&6217992610184002293&0&
20071730020100511111&OWFCZG4LIX1PT1U7&20200717&02000016&1815029688272&1815029688272&&0&1&100300&CNY&0040&boshzjjg&6236684220011867224&0&
20071730020100511288&THL3Y85GRU7RH0S1&20200717&02000016&1813230331640&1813230331640&&0&1&10030&CNY&0040&boshzjjg&6228480649169025172&0&
20071730020100511195&5QBPW5DUWAW82T43&20200717&02000016&1800100000298&1800100000298&&0&1&10030&CNY&0040&boshzjjg&6222020906003758198&0&
20071730020100511114&E9KCFQHQKKLU5J6N&20200717&02000016&1818468150535&1818468150535&&0&1&20060&CNY&0040&boshzjjg&6228480861114941912&0&
20071730020100511117&3TFUFM4O4AFVYX8Z&20200717&02000016&1813485275935&1813485275935&&0&1&60180&CNY&0040&boshzjjg&6228481985832903778&0&
20071730020100511197&8Q4ZP96I820XINBM&20200717&02000016&1818288188088&1818288188088&&0&1&1003009&CNY&0040&boshzjjg&4367423970030033718&0&
20071730020100511290&W2NSJTCP2G9W0XI4&20200717&02000016&1815861099820&1815861099820&&0&1&20060&CNY&0040&boshzjjg&6217001310008472538&0&
20071730020100511199&WLM2ID1Y5BVUZI28&20200717&02000016&1815633362628&1815633362628&&0&1&10030&CNY&0040&boshzjjg& 6216695000010405609&0&
20071730020100511119&NOR5YMJ3NOAU0JM8&20200717&02000016&1813320061039&1813320061039&&0&1&20060&CNY&0040&boshzjjg&6228482318150774770&0&
20071730020100511120&2JWZ3Y7IEONHZC1Y&20200717&02000016&1818629264385&1818629264385&&0&1&60180&CNY&0040&boshzjjg&6214831295597766&0&
20071730020100511201&ILJZM5WX72MVT7BP&20200717&02000016&1818231246705&1818231246705&&0&1&10030&CNY&0040&boshzjjg&6215580409001608644&0&
20071730020100511123&1C9ZWC277YJO7ORZ&20200717&02000016&1815933739943&1815933739943&&0&1&50150&CNY&0040&boshzjjg&6227000140230002146&0&
20071730020100511294&VTCC6TMFSAQ6Y0W2&20200717&02000016&1813932211661&1813932211661&&0&1&20060&CNY&0040&boshzjjg&6212260409009915227&0&
20071730020100511129&3E1SGQ41H2TUNDLW&20200717&02000016&1813082352837&1813082352837&&0&1&50150&CNY&0040&boshzjjg&6214660140144072&0&
20071730020100511131&HTR1BXZ814H51B7C&20200717&02000016&1813619402778&1813619402778&&0&1&50150&CNY&0040&boshzjjg&6217997300042873276&0&
20071730020100511303&WUMIV0F5PSN0VCKZ&20200717&02000016&1815097408526&1815097408526&&0&1&20260&CNY&0040&boshzjjg&6217855000063369987&0&
20071730020100511220&AQ7H19CTGAELJKQJ&20200717&02000016&1813731660124&1813731660124&&0&1&30090&CNY&0040&boshzjjg&6216695000002505127&0&
20071730020100511221&POBGK1GEOD23P98T&20200717&02000016&1813673797843&1813673797843&&0&1&100300&CNY&0040&boshzjjg&6210812450008141339&0&
20071730020100511337&XNIC987NS58S68Y4&20200717&02000016&1813785550440&1813785550440&&0&1&20060&CNY&0040&boshzjjg&6222020403024592509&0&
20071730020100511306&L7EMA7P8DVMVQX4C&20200717&02000016&1813400267349&1813400267349&&0&1&10130&CNY&0040&boshzjjg&6217865000008146647&0&
20071730020100511307&KJ1493VBNHVHDKJ0&20200717&02000016&1815175228012&1815175228012&&0&1&30090&CNY&0040&boshzjjg&6228481269185401577&0&
20071730020100511339&IEKYL7V8PFBYP39I&20200717&02000016&1818331534443&1818331534443&&0&1&30090&CNY&0040&boshzjjg&6217000180046539940&0&
20071730020100511224&0J5KVDQZ0YOMEG5B&20200717&02000016&1815530285307&1815530285307&&0&1&70210&CNY&0040&boshzjjg&6217000140016881292&0&
20071730020100511225&S70ON07CVXGL7BBR&20200717&02000016&1817304211987&1817304211987&&0&1&10030&CNY&0040&boshzjjg&6217992340002158842&0&
20071730020100511341&JHMM7ZEKS111XIEF&20200717&02000016&1815204682299&1815204682299&&0&1&10030&CNY&0040&boshzjjg&6228482226175661064&0&
20071730020100511342&QRVDS2ZNPXNUI73T&20200717&02000016&1818689707602&1818689707602&&0&1&10030&CNY&0040&boshzjjg&6228480158299224671&0&
20071730020100511226&HM7VQM1N2RHTJDRA&20200717&02000016&1816532225555&1816532225555&&0&1&60180&CNY&0040&boshzjjg&6217000140031454828&0&
20071730020100511227&JPHDOBG0Q58EUFRW&20200717&02000016&1800100000125&1800100000125&&0&1&20060&CNY&0040&boshzjjg&4340610140347896&0&
20071730020100511344&CN2HWS3WG9X7TJTT&20200717&02000016&1818725376312&1818725376312&&0&1&50150&CNY&0040&boshzjjg&6228483968092407175&0&
20071730020100511310&DRRWWDA3JE301D8P&20200717&02000016&1819937271172&1819937271172&&0&1&90270&CNY&0040&boshzjjg&6214833792203286&0&
20071730020100511346&EQXILJ4N6PHWB4UH&20200717&02000016&1813263638109&1813263638109&&0&1&10030&CNY&0040&boshzjjg&6217001140052912372&0&
20071730020100511315&RAJVUDRAU9BO8KT1&20200717&02000016&1813161831191&1813161831191&&0&1&10030&CNY&0040&boshzjjg&6217001050004889265&0&
20071730020100511232&C98Q6ISAXKXVJU8B&20200717&02000016&1815245431805&1815245431805&&0&1&40120&CNY&0040&boshzjjg&6222622380000218428&0&
20071730020100511316&ZACCF6YG8E0YZDIP&20200717&02000016&1818889422056&1818889422056&&0&1&10030&CNY&0040&boshzjjg&6228410150025333913&0&
20071730020100511317&N8RHQR63NSF0CX5J&20200717&02000016&1815097408526&1815097408526&&0&1&10130&CNY&0040&boshzjjg&6217855000063369987&0&
20071730020100511233&4341WN6SIQ786X3Y&20200717&02000016&1800100000045&1800100000045&&0&1&20060&CNY&0040&boshzjjg&6228481268397400476&0&
20071730020100511435&M5TFOPGP14AEGFBE&20200717&02000016&1813483536053&1813483536053&&0&1&10030&CNY&0040&boshzjjg&6217000180005468214&0&
20071730020100511436&FN3OBIF1JUKMZQM0&20200717&02000016&1813194659455&1813194659455&&0&1&10030&CNY&0040&boshzjjg&6217982610008534879&0&
20071730020100511318&U4H3ZGWIWATQ5F1B&20200717&02000016&1813089950930&1813089950930&&0&1&10030&CNY&0040&boshzjjg&6217992610095631354&0&
20071730020100511321&HCEAY1WEDJ3HJJM6&20200717&02000016&1813887865192&1813887865192&&0&1&150451&CNY&0040&boshzjjg&6230523350004150870&0&
20071730020100511322&OIIK9BIS25UF6Z6N&20200717&02000016&1815833589669&1815833589669&&0&1&50150&CNY&0040&boshzjjg&6222020403009686904&0&
20071730020100511352&EPLRCGL2LLL46LET&20200717&02000016&1815946608077&1815946608077&&0&1&10030&CNY&0040&boshzjjg&6217982610000881294&0&
20071730020100511438&8GAK1DFJPKOX02ML&20200717&02000016&1815903327688&1815903327688&&0&1&30090&CNY&0040&boshzjjg&6227000143210282613&0&
20071730020100511369&M4NHN24KBM7EWJC9&20200717&02000016&1818531767801&1818531767801&&0&1&10030&CNY&0040&boshzjjg&6228480651622950616&0&
20071730020100511373&DADFUQKMNMF2H0OX&20200717&02000016&1815670742888&1815670742888&&0&1&110330&CNY&0040&boshzjjg&6230520730030540678&0&
20071730020100511453&Q6JMTJEHSTAZZ4RO&20200717&02000016&1818875037395&1818875037395&&0&1&10130&CNY&0040&boshzjjg&6228480479009445673&0&
20071730020100511540&RH7YZJUXCAWBPUBV&20200717&02000016&1818976770088&1818976770088&&0&1&25075&CNY&0040&boshzjjg&6212262201024968523&0&
20071730020100511454&LURGCCL30SICYNW0&20200717&02000016&1813503221210&1813503221210&&0&1&50150&CNY&0040&boshzjjg&6228271261257628470&0&
20071730020100511541&K7IFONYLT9G9GBND&20200717&02000016&1818085888288&1818085888288&&0&1&40120&CNY&0040&boshzjjg&6212262410004870522&0&
20071730020100511456&B9SCDM8IHDRBPXIF&20200717&02000016&1818249480111&1818249480111&&0&1&120361&CNY&0040&boshzjjg&6215580907001321407&0&
20071730020100511375&8056491FOHT00O37&20200717&02000016&1818103121030&1818103121030&&0&1&20060&CNY&0040&boshzjjg&6236680140002963580&0&
20071730020100511457&7USJEGZ9GJ58CMZW&20200717&02000016&1813385213554&1813385213554&&0&1&90270&CNY&0040&boshzjjg&6228483822137021410&0&
20071730020100511458&DXNTLC7VG0573DC0&20200717&02000016&1818962060606&1818962060606&&0&1&200601&CNY&0040&boshzjjg&6228481980808931010&0&
20071730020100511544&ZNHID0NTYR8MG5CZ&20200717&02000016&1815512524009&1815512524009&&0&1&10030&CNY&0040&boshzjjg&6228230655139870368&0&
20071730020100511378&D8OF86UOTJIZDXRW&20200717&02000016&1819931216183&1819931216183&&0&1&10030&CNY&0040&boshzjjg&6217000140006136178&0&
20071730020100511459&8ZOGQJXU41SVMNMB&20200717&02000016&1815871922595&1815871922595&&0&1&80240&CNY&0040&boshzjjg&6228453828173080075&0&
20071730020100511379&92XFBT7Y75H1OJKL&20200717&02000016&1813333126087&1813333126087&&0&1&50150&CNY&0040&boshzjjg&6228481268847645076&0&
20071730020100511545&QM9KI5VMK4URP13L&20200717&02000016&1818746794204&1818746794204&&0&1&190571&CNY&0040&boshzjjg&6222020906004162366&0&
20071730020100511460&BH79682DXT4GTOCQ&20200717&02000016&1800100000189&1800100000189&&0&1&20060&CNY&0040&boshzjjg&6228481269260355474&0&
20071730020100511461&JXUMZWXBT6N2N904&20200717&02000016&1818053143677&1818053143677&&0&1&10030&CNY&0040&boshzjjg&6228480251376548417&0&
20071730020100511382&8XG9YO84AG06FJA5&20200717&02000016&1813886968888&1813886968888&&0&1&90270&CNY&0040&boshzjjg&6236682700003311564&0&
20071730020100511383&UOKP31L0RFHTONWX&20200717&02000016&1813473122412&1813473122412&&0&1&50150&CNY&0040&boshzjjg&6228481266474990260&0&
20071730020100511463&ZYDY20LA92WW3BGH&20200717&02000016&1815170827317&1815170827317&&0&1&100300&CNY&0040&boshzjjg&6215581509002045123&0&
20071730020100511547&SRZSVAFN1IGFVV92&20200717&02000016&1817359382356&1817359382356&&0&1&15045&CNY&0040&boshzjjg&6236681880001110282&0&
20071730020100511384&Z38TYK91LTHGQFV6&20200717&02000016&1813231500951&1813231500951&&0&1&12036&CNY&0040&boshzjjg&6230520650040854077&0&
20071730020100511548&UIX0T22T3Y170109&20200717&02000016&1815133232674&1815133232674&&0&1&10030&CNY&0040&boshzjjg&6228481269291377877&0&
20071730020100511549&IPCFTHFJR4IR4S2Y&20200717&02000016&1815512524008&1815512524008&&0&1&10030&CNY&0040&boshzjjg&6217000180044506966&0&
20071730020100511550&G5UQXVQTSRS3SK7R&20200717&02000016&1818387548855&1818387548855&&0&1&100300&CNY&0040&boshzjjg&6228483351069712614&0&
20071730020100511464&KEMVA2L2FWTOZAE5&20200717&02000016&1813571459983&1813571459983&&0&1&28084&CNY&0040&boshzjjg&6236684170000559672&0&
20071730020100511551&FOUCKE202W9HEUYI&20200717&02000016&1818921860818&1818921860818&&0&1&15045&CNY&0040&boshzjjg&6228431989604774772&0&
20071730020100511553&ZCJ9AP3L4V6ZPGC5&20200717&02000016&1813703151462&1813703151462&&0&1&10030&CNY&0040&boshzjjg&6217855000054129564&0&
20071730020100511557&8KCZISFO53A4ZJHJ&20200717&02000016&1813889877508&1813889877508&&0&1&11835&CNY&0040&boshzjjg&6228480049074333177&0&
20071730020100511468&QTIQ4HZ57N248KRJ&20200717&02000016&1813831588800&1813831588800&&0&1&50150&CNY&0040&boshzjjg&6217000180002169047&0&
20071730020100511558&CY0CGB9WFPS4ZOGJ&20200717&02000016&1818288549796&1818288549796&&0&1&80240&CNY&0040&boshzjjg&6228483968416607476&0&
20071730020100511469&YYG88JYSND0AJMLS&20200717&02000016&1813191758429&1813191758429&&0&1&12036&CNY&0040&boshzjjg&6217991240007416891&0&
20071730020100511559&KGOYKX3F7T31HV6I&20200717&02000016&1813324561701&1813324561701&&0&1&100300&CNY&0040&boshzjjg&6215593700016650885&0&
20071730020100511390&S3MYPDHEXELYBGHK&20200717&02000016&1813623333299&1813623333299&&0&1&40120&CNY&0040&boshzjjg&6228480658461337573&0&
20071730020100511391&CWAYQDMEF59BK13K&20200717&02000016&1800100000041&1800100000041&&0&1&40120&CNY&0040&boshzjjg&6228481268439100175&0&
20071730020100511392&PVEIODZ1QSJHBNSV&20200717&02000016&1815579647169&1815579647169&&0&1&10030&CNY&0040&boshzjjg&6217002110005451819&0&
20071730020100511560&PLHLDOM1LLRLK561&20200717&02000016&1815632237118&1815632237118&&0&1&40120&CNY&0040&boshzjjg&6217000140038134423&0&
20071730020100511393&4CSDC0JRZG77IXXS&20200717&02000016&1813277695882&1813277695882&&0&1&10030&CNY&0040&boshzjjg&6230523820009371978&0&
20071730020100511471&AGGLIWGL6MW1DGKP&20200717&02000016&1813310933838&1813310933838&&0&1&30090&CNY&0040&boshzjjg&6236684140002876762&0&
20071730020100511561&EJCSHMS8SVS03D5Z&20200717&02000016&1817796982621&1817796982621&&0&1&32096&CNY&0040&boshzjjg&6228480658461327673&0&
20071730020100511394&N2KGVSXVN4WUUA71&20200717&02000016&1818834581128&1818834581128&&0&1&10030&CNY&0040&boshzjjg&6227001540050020699&0&
20071730020100511562&F7GGMPNRA9SZSJYV&20200717&02000016&1815845182230&1815845182230&&0&1&30090&CNY&0040&boshzjjg&6217992610151656378&0&
20071730020100511563&8NTLRR9U5QEDH2AA&20200717&02000016&1818674148199&1818674148199&&0&1&180541&CNY&0040&boshzjjg&6228483829038873773&0&
20071730020100511564&AZ7QP66NARWQLS9I&20200717&02000016&1818931232281&1818931232281&&0&1&40120&CNY&0040&boshzjjg&6217855000069310779&0&
20071730020100511472&SV69R086N6HHLUJ6&20200717&02000016&1815087509852&1815087509852&&0&1&65195&CNY&0040&boshzjjg&6230523960012227070&0&
20071730020100511474&044H841S5LJEFZDD&20200717&02000016&1813903326296&1813903326296&&0&1&30090&CNY&0040&boshzjjg&6222080409002111292&0&
20071730020100511475&4KR47SB3J6AUA5UX&20200717&02000016&1815946631777&1815946631777&&0&1&20060&CNY&0040&boshzjjg&6217992610114376478&0&
20071730020100511568&OVV3IRLK0TBG19TB&20200717&02000016&1815845516850&1815845516850&&0&1&20060&CNY&0040&boshzjjg&6217230912002669408&0&
20071730020100511580&M7CGXNT95EOZ611Z&20200717&02000016&1818371580857&1818371580857&&0&1&110330&CNY&0040&boshzjjg&6228483829384377973&0&
20071730020100511495&5HH32BFFU10A9G87&20200717&02000016&1813831527971&1813831527971&&0&1&10030&CNY&0040&boshzjjg&6228480656113277262&0&
20071730020100511581&IVV1GRSQV0XQ9M0L&20200717&02000016&1815184597495&1815184597495&&0&1&40120&CNY&0040&boshzjjg&6217001070010192868&0&
20071730020100511496&D60DSCPWWD08N1GX&20200717&02000016&1818945101437&1818945101437&&0&1&30090&CNY&0040&boshzjjg&6222620410010698723&0&
20071730020100511498&ZRP050LY0Q26D1QF&20200717&02000016&1815108634308&1815108634308&&0&1&30090&CNY&0040&boshzjjg&6236683970000172173&0&
20071730020100511411&JQZGHU2SQ8DZMYV8&20200717&02000016&1818210293990&1818210293990&&0&1&20060&CNY&0040&boshzjjg&6236683320015427180&0&
20071730020100511500&5YG1Q1QHV7GL5UPP&20200717&02000016&1800100000106&1800100000106&&0&1&60180&CNY&0040&boshzjjg&6228481749121580972&0&
20071730020100511583&XZV26KFLEPKGD8SQ&20200717&02000016&1815524873254&1815524873254&&0&1&10030&CNY&0040&boshzjjg&6230580000278650515&0&
20071730020100511501&SO5GPA9CW7VMM36K&20200717&02000016&1813388758398&1813388758398&&0&1&90270&CNY&0040&boshzjjg&6228483968601129070&0&
20071730020100511412&9YNRARBGTXF300VV&20200717&02000016&1815137614144&1815137614144&&0&1&8024&CNY&0040&boshzjjg&6228482398538071578&0&
20071730020100511413&IMU7224V0KUDQ3EW&20200717&02000016&1815667931997&1815667931997&&0&1&50150&CNY&0040&boshzjjg&6217977900045324864&0&
20071730020100511414&WASB775ILAXAXHFY&20200717&02000016&1813429897976&1813429897976&&0&1&10030&CNY&0040&boshzjjg&6217857600056687507&0&
20071730020100511587&GU22A7CH3E42G1VO&20200717&02000016&1813832562778&1813832562778&&0&1&20060&CNY&0040&boshzjjg&6212260403009194909&0&
20071730020100511503&49XG85IIE27ET8J1&20200717&02000016&1800100000043&1800100000043&&0&1&692076&CNY&0040&boshzjjg&6228480190737213818&0&
20071730020100511508&VK5S4X58NG3R9PMA&20200717&02000016&1815161960908&1815161960908&&0&1&20060&CNY&0040&boshzjjg&6236681320001941667&0&
20071730020100511418&7T6SDH5ZD87U5ONK&20200717&02000016&1813674575508&1813674575508&&0&1&100300&CNY&0040&boshzjjg&6217001040005621239&0&
20071730020100511513&F23XP78JVAAF4KSC&20200717&02000016&1815108634439&1815108634439&&0&1&100300&CNY&0040&boshzjjg&6217003970002582695&0&
20071730020100511421&WCO6V9DWY43O1JSZ&20200717&02000016&1813953133822&1813953133822&&0&1&10030&CNY&0040&boshzjjg&6228480256165687763&0&
20071730020100511423&NOT4PDT559X22U5G&20200717&02000016&1818730588858&1818730588858&&0&1&10030&CNY&0040&boshzjjg&6217000180014526994&0&
20071730020100511515&9EYB5ZXL3NDRKQ18&20200717&02000016&1818903380276&1818903380276&&0&1&10030&CNY&0040&boshzjjg&6228480651703319012&0&
20071730020100511597&5STLG1HAYE738UAR&20200717&02000016&1815289457818&1815289457818&&0&1&50150&CNY&0040&boshzjjg&6217004220024555413&0&
20071730020100511526&M1SBLOO2YW5ALQ93&20200717&02000016&1813628853769&1813628853769&&0&1&60180&CNY&0040&boshzjjg&6228483351167871015&0&
20071730020100511609&6XF2UIHEP1JWS5A1&20200717&02000016&1818371587990&1818371587990&&0&1&150451&CNY&0040&boshzjjg&6228463828033893772&0&
20071730020100511640&PZQKJ329863BYLX5&20200717&02000016&1818617854952&1818617854952&&0&1&10030&CNY&0040&boshzjjg&6212260403021156779&0&
20071730020100511529&O0JIAT5UQC0M2J8T&20200717&02000016&1813601063211&1813601063211&&0&1&50150&CNY&0040&boshzjjg&6212263301023070260&0&
20071730020100511642&3DNX3YIY01MU8W3K&20200717&02000016&1815246832407&1815246832407&&0&1&20060&CNY&0040&boshzjjg&6217992610220553614&0&
20071730020100511618&SOTI2GW7INQ5S0QV&20200717&02000016&1813603778998&1813603778998&&0&1&60180&CNY&0040&boshzjjg&6228230976052087263&0&
20071730020100511645&DB0MEM695CHT68A7&20200717&02000016&1813887838521&1813887838521&&0&1&150451&CNY&0040&boshzjjg&6217902700005627599&0&
20071730020100511619&XDWZR74Z0IGT5GE0&20200717&02000016&1813933221582&1813933221582&&0&1&10030&CNY&0040&boshzjjg&6217000140016984757&0&
20071730020100511620&ND3QAOESQ1UNQ7WM&20200717&02000016&1813987515001&1813987515001&&0&1&30090&CNY&0040&boshzjjg&6217997300080891768&0&
20071730020100511621&EM9NF2V6GN9G8CNM&20200717&02000016&1813930833053&1813930833053&&0&1&60180&CNY&0040&boshzjjg&6210810140000144322&0&
20071730020100511533&QID2WV82OSK1P2O3&20200717&02000016&1815945840667&1815945840667&&0&1&10030&CNY&0040&boshzjjg&6217001050003986773&0&
20071730020100511734&A6DJ7QZQSFH3H32R&20200717&02000016&1800100000073&1800100000073&&0&1&200601&CNY&0040&boshzjjg&6228482688416581072&0&
20071730020100511646&NHTU8ZE1FGWC2EPV&20200717&02000016&1815208756608&1815208756608&&0&1&150451&CNY&0040&boshzjjg&6212262510001366117&0&
20071730020100511735&SH01QD25K6LC5LFA&20200717&02000016&1813897985407&1813897985407&&0&1&70210&CNY&0040&boshzjjg&6226094111357503&0&
20071730020100511622&S04O8GTYHMMCRTGA&20200717&02000016&1815038169553&1815038169553&&0&1&20060&CNY&0040&boshzjjg&6222620620028301066&0&
20071730020100511736&YR0M9MMCEXR3KF46&20200717&02000016&1813933229549&1813933229549&&0&1&20060&CNY&0040&boshzjjg&6222020409025274021&0&
20071730020100511647&RYIISAGVKKOQ2Z77&20200717&02000016&1815613556396&1815613556396&&0&1&10030&CNY&0040&boshzjjg&6228480659215979777&0&
20071730020100511648&KR7DPLSG3R70F47J&20200717&02000016&1813619405650&1813619405650&&0&1&200601&CNY&0040&boshzjjg&6228481439237393078&0&
20071730020100511625&NTI1RG3MQDQPKI6Q&20200717&02000016&1815146155010&1815146155010&&0&1&200601&CNY&0040&boshzjjg&6228482688416580975&0&
20071730020100511627&G7265K6YKMJQ64QE&20200717&02000016&1815572287378&1815572287378&&0&1&10030&CNY&0040&boshzjjg&6228483829736035675&0&
20071730020100511742&Z9ZSS3MOXWHC4RA7&20200717&02000016&1813472972651&1813472972651&&0&1&20060&CNY&0040&boshzjjg&9558820403001406380&0&
20071730020100511632&IS60LZLHKSO802FE&20200717&02000016&1818132758604&1818132758604&&0&1&100300&CNY&0040&boshzjjg&6228481268440158675&0&
20071730020100511633&N1VXARXR3FQOCUNQ&20200717&02000016&1813463503191&1813463503191&&0&1&10030&CNY&0040&boshzjjg&6222030403007685450&0&
20071730020100511845&09QVTG1OS5O1OEGR&20200717&02000016&1815170023481&1815170023481&&0&1&1504513&CNY&0040&boshzjjg&6215591502000970283&0&
20071730020100511757&C4F9QNGDUGPR0MF6&20200717&02000016&1813483500680&1813483500680&&0&1&50150&CNY&0040&boshzjjg&6228480659145462878&0&
20071730020100511758&7ZE1FQAO9IJ64MJ1&20200717&02000016&1813903128198&1813903128198&&0&1&50150&CNY&0040&boshzjjg&6228481268090586571&0&
20071730020100511759&9ZB2K4RSG22CH6CU&20200717&02000016&1818634009284&1818634009284&&0&1&50150&CNY&0040&boshzjjg&4340610180411321&0&
20071730020100511762&N9NPNSH9VDEKO9TQ&20200717&02000016&1813987581588&1813987581588&&0&1&100300&CNY&0040&boshzjjg&6214663960017865&0&
20071730020100511850&LG36JQ8MZQWNGJ97&20200717&02000016&1818098518863&1818098518863&&0&1&50150&CNY&0040&boshzjjg&6217993770000096058&0&
20071730020100511852&JI6XYGMYJCSH9891&20200717&02000016&1815100500891&1815100500891&&0&1&10030&CNY&0040&boshzjjg&6222080403002514662&0&
20071730020100511768&KSBHGYBZFGHAIUUU&20200717&02000016&1815630158606&1815630158606&&0&1&230692&CNY&0040&boshzjjg&6212260409019553661&0&
20071730020100511855&PTXTWXBA607TIA3F&20200717&02000016&1819931210376&1819931210376&&0&1&100300&CNY&0040&boshzjjg&6228481268296769575&0&
20071730020100511670&HE68M15BPXUN7H4B&20200717&02000016&1813315427245&1813315427245&&0&1&80240&CNY&0040&boshzjjg&6228481269120727672&0&
20071730020100511671&L8CGDCG8L83VZLGY&20200717&02000016&1818232567432&1818232567432&&0&1&50150&CNY&0040&boshzjjg&6228480659129657477&0&
20071730020100511856&0NPE17ZKTDK7PTCO&20200717&02000016&1814784685555&1814784685555&&0&1&20060&CNY&0040&boshzjjg&6217855300005049576&0&
20071730020100511857&EN5IZVTV2PPWZX2P&20200717&02000016&1815287565721&1815287565721&&0&1&80240&CNY&0040&boshzjjg&6222032510000142699&0&
20071730020100511858&P3WRKVBZNMM7PVVU&20200717&02000016&1813831231696&1813831231696&&0&1&30090&CNY&0040&boshzjjg&6212260409010544925&0&
20071730020100511772&U7IZG3AJZYY7OFFT&20200717&02000016&1813803277987&1813803277987&&0&1&100300&CNY&0040&boshzjjg&6228481268946191279&0&
20071730020100511674&9S0J40B0LE50OG0I&20200717&02000016&1813650053647&1813650053647&&0&1&100300&CNY&0040&boshzjjg&6212262502007703492&0&
20071730020100511675&T5TM9UE63HAGR3YI&20200717&02000016&1818945765909&1818945765909&&0&1&20060&CNY&0040&boshzjjg&6221802610007105754&0&
20071730020100511676&G8L2XJKKQ9CWSOA2&20200717&02000016&1818803126206&1818803126206&&0&1&200601&CNY&0040&boshzjjg&4367420140038202151&0&
20071730020100511861&OEPTO8R11B2RF3QF&20200717&02000016&1818931441806&1818931441806&&0&1&10030&CNY&0040&boshzjjg&6222030403007736303&0&
20071730020100511775&VBW5SNFQGJTMNAAZ&20200717&02000016&1818232580077&1818232580077&&0&1&50150&CNY&0040&boshzjjg&6228480650643592415&0&
20071730020100511687&CUYM5ENAOHPKNPCM&20200717&02000016&1815932005092&1815932005092&&0&1&180541&CNY&0040&boshzjjg&6228480659170682275&0&
20071730020100511688&KID9LH3UPJH076UR&20200717&02000016&1818288950291&1818288950291&&0&1&100300&CNY&0040&boshzjjg&6228450860019060519&0&
20071730020100511691&VGZ40HLZ73CFCGE9&20200717&02000016&1815368798533&1815368798533&&0&1&200601&CNY&0040&boshzjjg&6223691492549633&0&
20071730020100511874&QXIZGHQ5ZILT3L6R&20200717&02000016&1813578198508&1813578198508&&0&1&401203&CNY&0040&boshzjjg&6217997300096189504&0&
20071730020100511875&ZQXTXEF2MM4080S9&20200717&02000016&1818345581710&1818345581710&&0&1&230692&CNY&0040&boshzjjg&6217001020002630839&0&
20071730020100511786&94RGYUH57G9H1W03&20200717&02000016&1813130096123&1813130096123&&0&1&80240&CNY&0040&boshzjjg&6228480588949101673&0&
20071730020100511692&UFAQKHAHAKJKM793&20200717&02000016&1818741608136&1818741608136&&0&1&200601&CNY&0040&boshzjjg&6212260708008900761&0&
20071730020100511695&WSL5JV78CHR3S5U5&20200717&02000016&1813393327863&1813393327863&&0&1&30090&CNY&0040&boshzjjg&6217000140004855530&0&
20071730020100511878&3OH2DFDOA4KQY3TB&20200717&02000016&1813703283113&1813703283113&&0&1&60180&CNY&0040&boshzjjg&6228481268439092075&0&
20071730020100511696&A8G6V8QHSW4EMHPO&20200717&02000016&1815045749881&1815045749881&&0&1&20060&CNY&0040&boshzjjg&6228482670574074215&0&
20071730020100511697&4THEDVS2BRCACF7N&20200717&02000016&1813343521285&1813343521285&&0&1&50150&CNY&0040&boshzjjg&6213363829900086378&0&
20071730020100511699&M6QRJ2KZM4GOROQP&20200717&02000016&1813472252427&1813472252427&&0&1&40120&CNY&0040&boshzjjg&6217865000000917466&0&
20071730020100511702&5Q676Y2EAGW8448G&20200717&02000016&1813111448814&1813111448814&&0&1&30090&CNY&0040&boshzjjg&6230520650024392771&0&
20071730020100511703&D4CZGNXH3MFAORIC&20200717&02000016&1818690049591&1818690049591&&0&1&40120&CNY&0040&boshzjjg&6228480231197014211&0&
20071730020100511704&PXF8S0XUE7IFZXRW&20200717&02000016&1813638362781&1813638362781&&0&1&50150&CNY&0040&boshzjjg&6228480478572558573&0&
20071730020100511791&Q9SJQTBW9OUNTC5S&20200717&02000016&1813930857226&1813930857226&&0&1&13039&CNY&0040&boshzjjg&6228481266530859467&0&
20071730020100511706&5XDR3NMHQS1NQY74&20200717&02000016&1818774626308&1818774626308&&0&1&10030&CNY&0040&boshzjjg&6228480328660061172&0&
20071730020100511707&63Y8374NZAN24U02&20200717&02000016&1815207962519&1815207962519&&0&1&100300&CNY&0040&boshzjjg&6226822200018047404&0&
20071730020100511882&NN5I0LAZUEB7A18C&20200717&02000016&1813845158388&1813845158388&&0&1&20060&CNY&0040&boshzjjg&6214854502491383&0&
20071730020100511885&CJHOMLOB2X5Q8DK9&20200717&02000016&1813082360764&1813082360764&&0&1&90270&CNY&0040&boshzjjg&6228481269272315573&0&
20071730020100511892&M1JKUNDATQ1GTDIT&20200717&02000016&1815227098333&1815227098333&&0&1&10030&CNY&0040&boshzjjg&6228481261798664410&0&
20071730020100511897&6L5Q6UT8ANIACI40&20200717&02000016&1813832296893&1813832296893&&0&1&10030&CNY&0040&boshzjjg&6216605000008103157&0&
20071730020100511725&OXTE5OV14P2YD9LW&20200717&02000016&1813785222268&1813785222268&&0&1&20060&CNY&0040&boshzjjg&6228481268948566478&0&
20071730020100511727&P4T5VZ8DHPVUKNY5&20200717&02000016&1813368815583&1813368815583&&0&1&401203&CNY&0040&boshzjjg&6217003930001736106&0&
20071730020100511804&ZU1KB5EF219KOM4W&20200717&02000016&1815127498151&1815127498151&&0&1&20060&CNY&0040&boshzjjg&6217000140030569147&0&
20071730020100511904&VNGOTTGVA0X7LQ0I&20200717&02000016&1818624043293&1818624043293&&0&1&50150&CNY&0040&boshzjjg&6216600400000883241&0&
20071730020100511907&B9MB90VI28D6R2R9&20200717&02000016&1813730294744&1813730294744&&0&1&30090&CNY&0040&boshzjjg&6221881340015720501&0&
20071730020100511908&08B6RRBACWSE8T3V&20200717&02000016&1813582238836&1813582238836&&0&1&20060&CNY&0040&boshzjjg&6217000140039977259&0&
20071730020100511910&V5PIZT4CBG55QIK9&20200717&02000016&1815003326193&1815003326193&&0&1&200601&CNY&0040&boshzjjg&6228481262086400418&0&
20071730020100511912&2I645DG133VUPZHI&20200717&02000016&1800100000347&1800100000347&&0&1&100300&CNY&0040&boshzjjg&6228481268946635879&0&
20071730020100511939&G1WKQM5Y51CL4TCN&20200717&02000016&1813832256871&1813832256871&&0&1&43129&CNY&0040&boshzjjg&6228481268439319270&0&
20071730020100511811&1NOLR35RIHKEDU4Y&20200717&02000016&1813997978230&1813997978230&&0&1&50150&CNY&0040&boshzjjg&6236682700004695551&0&
20071730020100511940&JM38EHWINTL46XH8&20200717&02000016&1818288100018&1818288100018&&0&1&30090&CNY&0040&boshzjjg&6217852700022290108&0&
20071730020100511923&78TGMD43Q84RRJO4&20200717&02000016&1813887868883&1813887868883&&0&1&100300&CNY&0040&boshzjjg&6214993970005596&0&
20071730020100511821&V5EPV69SM6S2JKHT&20200717&02000016&1813577525294&1813577525294&&0&1&15045&CNY&0040&boshzjjg&6217003960003627946&0&
20071730020100511925&2WYRW18I3EIQTL68&20200717&02000016&1815887508589&1815887508589&&0&1&10030&CNY&0040&boshzjjg&6212262510001682521&0&
20071730020100511823&3IQKTX4USOMQCQLC&20200717&02000016&1813508750269&1813508750269&&0&1&200&CNY&0040&boshzjjg&6217003960005693219&0&
20071730020100511957&4E4ADJPITU436FMY&20200717&02000016&1818802455863&1818802455863&&0&1&601805&CNY&0040&boshzjjg&6230580000217789507&0&
20071730020100511826&OEUCV4Y3XT20PWB2&20200717&02000016&1813578268057&1813578268057&&0&1&30090&CNY&0040&boshzjjg&6217003970003416869&0&
20071730020100511930&ZZYA0MO17LFMQS1N&20200717&02000016&1813988211117&1813988211117&&0&1&601805&CNY&0040&boshzjjg&6228483358580821972&0&
20071730020100511931&OHI0GTBFMUPPRP3L&20200717&02000016&1815838437347&1815838437347&&0&1&50150&CNY&0040&boshzjjg&6210812590000503844&0&
20071730020100511932&449BWKMZM5FUB2U6&20200717&02000016&1815108633866&1815108633866&&0&1&20060&CNY&0040&boshzjjg&6217003970000530878&0&
20071730020100512034&6JUF5V4C044MH3BM&20200717&02000016&1813933217166&1813933217166&&0&1&100300&CNY&0040&boshzjjg&6217991340022740497&0&
20071730020100511827&UM6XPTVS3J6O3LRR&20200717&02000016&1818431266975&1818431266975&&0&1&10030&CNY&0040&boshzjjg&6217000140034044378&0&
20071730020100512037&CR7P8HLW89RKMI8C&20200717&02000016&1818045367971&1818045367971&&0&1&15045&CNY&0040&boshzjjg&6228482680712102216&0&
20071730020100511965&MCBMEUSSP3ICLYJC&20200717&02000016&1813529538686&1813529538686&&0&1&30090&CNY&0040&boshzjjg&6212262511002220345&0&
20071730020100511833&P6AG5PQTTFT4F1X9&20200717&02000016&1813831270832&1813831270832&&0&1&30090&CNY&0040&boshzjjg&6222020409007680963&0&
20071730020100511980&27O8YFCYN1Q3AIMF&20200717&02000016&1813667969830&1813667969830&&0&1&30090&CNY&0040&boshzjjg&6217994350007129829&0&
20071730020100512055&OH8WJYKC42CBF0PC&20200717&02000016&1813832526017&1813832526017&&0&1&24874&CNY&0040&boshzjjg&6217000180003186602&0&
20071730020100512145&S1AXPV1JRBJUQT00&20200717&02000016&1813988247562&1813988247562&&0&1&20060&CNY&0040&boshzjjg&6212262511001634553&0&
20071730020100512149&GFC350G7OP301LTN&20200717&02000016&1813988222092&1813988222092&&0&1&20060&CNY&0040&boshzjjg&6230523350002530776&0&
20071730020100511985&FHBF9I2IMYKG35ZD&20200717&02000016&1813513061187&1813513061187&&0&1&60180&CNY&0040&boshzjjg&6228450658030449178&0&
20071730020100512152&EQFNY77M3ZVMG5UQ&20200717&02000016&1815969279844&1815969279844&&0&1&30090&CNY&0040&boshzjjg&6217003970003557027&0&
20071730020100511990&MF8GT1ZZL2F4T9EA&20200717&02000016&1813451158460&1813451158460&&0&1&1003&CNY&0040&boshzjjg&6217002660003105700&0&
20071730020100512154&KPO22W2PJ3JF5LJJ&20200717&02000016&1813669212329&1813669212329&&0&1&100300&CNY&0040&boshzjjg&6221888040002479482&0&
20071730020100512071&A0T4GJWZWBDROTIT&20200717&02000016&1813931205191&1813931205191&&0&1&190571&CNY&0040&boshzjjg&6222020409027711541&0&
20071730020100512000&1BDNM4XOB6TEED9G&20200717&02000016&1818962075812&1818962075812&&0&1&40120&CNY&0040&boshzjjg&6228481985094841773&0&
20071730020100512164&1XOK7XHAL5TUA19X&20200717&02000016&1815969236033&1815969236033&&0&1&30090&CNY&0040&boshzjjg&6217003970003051245&0&
20071730020100512074&GFA6EMZQ2WAS5RPZ&20200717&02000016&1813231744099&1813231744099&&0&1&10030&CNY&0040&boshzjjg&6217933535108953&0&
20071730020100512169&95EVQF8VL7H11MEL&20200717&02000016&1813997953437&1813997953437&&0&1&50150&CNY&0040&boshzjjg&6213363829900696176&0&
20071730020100512009&CL5WCUOD60JY1FM9&20200717&02000016&1800100000340&1800100000340&&0&1&100300&CNY&0040&boshzjjg&6217002020076391689&0&
20071730020100512015&LCUCEHDOPW5K1HUQ&20200717&02000016&1818674146599&1818674146599&&0&1&80240&CNY&0040&boshzjjg&6228483828878286773&0&
20071730020100512089&3FDHYC6OXXIWM350&20200717&02000016&1813991898100&1813991898100&&0&1&90270&CNY&0040&boshzjjg&6228480210409909715&0&
20071730020100512184&MSRI8P7XR048BPQB&20200717&02000016&1813988224020&1813988224020&&0&1&20060&CNY&0040&boshzjjg&6212262511001503055&0&
20071730020100512186&EWQHO7V5TJ6L88K1&20200717&02000016&1813576878317&1813576878317&&0&1&20060&CNY&0040&boshzjjg&9558821509000390414&0&
20071730020100512189&J1XS6DI0HZJY83Q4&20200717&02000016&1818731521085&1818731521085&&0&1&60180&CNY&0040&boshzjjg&6228230655260666668&0&
20071730020100512095&5WI8EGOF9FWLPCY2&20200717&02000016&1813504031399&1813504031399&&0&1&40120&CNY&0040&boshzjjg&6217000730014405720&0&
20071730020100512032&W8K85YMD31200DTN&20200717&02000016&1813992400727&1813992400727&&0&1&50150&CNY&0040&boshzjjg&6217977900044128894&0&
20071730020100512106&9VWLPIODDPH7OEO7&20200717&02000016&1813780538684&1813780538684&&0&1&20060&CNY&0040&boshzjjg&9558800403100478003&0&
20071730020100512107&CFFPC633WPKQ7JOW&20200717&02000016&1813633181332&1813633181332&&0&1&10030&CNY&0040&boshzjjg&6217000160005540212&0&
20071730020100512108&AHAEDOT735MQ4GMS&20200717&02000016&1816630228108&1816630228108&&0&1&15045&CNY&0040&boshzjjg&6230521260007051375&0&
20071730020100512246&SSIWPTG9OM6LOF62&20200717&02000016&1813171908620&1813171908620&&0&1&10030&CNY&0040&boshzjjg&6217711804108882&0&
20071730020100512119&0O6OABRFLPNW1IQC&20200717&02000016&1815108646659&1815108646659&&0&1&30090&CNY&0040&boshzjjg&6228413353037590564&0&
20071730020100512255&IYKUPI0QE8LQDA24&20200717&02000016&1818231283196&1818231283196&&0&1&130391&CNY&0040&boshzjjg&6213361269904359673&0&
20071730020100512121&L3Z3GMEKJW80PS15&20200717&02000016&1818088174982&1818088174982&&0&1&60180&CNY&0040&boshzjjg&6228483358609352975&0&
20071730020100512122&22MITU8682HBLQLH&20200717&02000016&1813932256061&1813932256061&&0&1&30090&CNY&0040&boshzjjg&6222080409001330703&0&
20071730020100512221&LD9I6JXPOQR834FT&20200717&02000016&1818345857865&1818345857865&&0&1&20060&CNY&0040&boshzjjg&6228412670034997919&0&
20071730020100512262&HW5N84WRX5Z8HPQD&20200717&02000016&1813687258341&1813687258341&&0&1&140421&CNY&0040&boshzjjg&6236682700003002080&0&
20071730020100512128&C13JWZDWV40AFISX&20200717&02000016&1800100000104&1800100000104&&0&1&50150&CNY&0040&boshzjjg&6217933501713984&0&
20071730020100512130&E54B1O56LQOSGX6D&20200717&02000016&1815702129504&1815702129504&&0&1&30090&CNY&0040&boshzjjg&6236562110000275470&0&
20071730020100512227&RGO1LQRXPB9C08P0&20200717&02000016&1815586314943&1815586314943&&0&1&90270&CNY&0040&boshzjjg&6217002700001598876&0&
20071730020100512267&JBFMGV2QWASAFEHM&20200717&02000016&1813979604853&1813979604853&&0&1&30090&CNY&0040&boshzjjg&6232086500014934581&0&
20071730020100512132&M0155WJP4F7IT2Z6&20200717&02000016&1813115642991&1813115642991&&0&1&10030&CNY&0040&boshzjjg&6212260906003871389&0&
20071730020100512279&K377N3K4OZWJLWY9&20200717&02000016&1817325423850&1817325423850&&0&1&10030&CNY&0040&boshzjjg&6212260409010000191&0&
20071730020100512340&GLCE3YDW69DBCE3S&20200717&02000016&1813708622615&1813708622615&&0&1&20060&CNY&0040&boshzjjg&6217003970000167259&0&
20071730020100512280&BU98PXHVOEIPP3KQ&20200717&02000016&1813739822199&1813739822199&&0&1&10130&CNY&0040&boshzjjg&6230520650041673575&0&
20071730020100512347&7BTUD6U4C0EWA685&20200717&02000016&1813483564692&1813483564692&&0&1&10030&CNY&0040&boshzjjg&6217000180019627284&0&
20071730020100512348&9AVA6YX0SHXM2O4M&20200717&02000016&1818674147179&1818674147179&&0&1&50150&CNY&0040&boshzjjg&6217857600056693018&0&
20071730020100512287&TMN3H6T88C3ACF40&20200717&02000016&1800100000048&1800100000048&&0&1&100300&CNY&0040&boshzjjg&6217000140028374146&0&
20071730020100512350&5PAG4FUVJBSMTNVY&20200717&02000016&1813832993559&1813832993559&&0&1&10030&CNY&0040&boshzjjg&6230520650041836875&0&
20071730020100512451&IWAKO2ZM1ZKVSET6&20200717&02000016&1815042400515&1815042400515&&0&1&25175&CNY&0040&boshzjjg&6215583400006811017&0&
20071730020100512454&4764TZCKU1RRQTUQ&20200717&02000016&1813931280204&1813931280204&&0&1&35105&CNY&0040&boshzjjg&6228271261255112576&0&
20071730020100512357&Y8FQOSLJ1BOZJMDG&20200717&02000016&1813931267078&1813931267078&&0&1&20060&CNY&0040&boshzjjg&6228411264507692974&0&
20071730020100512307&PDCXFDREO3I1V421&20200717&02000016&1813400350306&1813400350306&&0&1&30090&CNY&0040&boshzjjg&6228481749127228477&0&
20071730020100512472&DOS7LTKLEA7D8WWY&20200717&02000016&1813785432993&1813785432993&&0&1&45135&CNY&0040&boshzjjg&6228411264505679478&0&
20071730020100512309&YVT7HP466D8NTFLC&20200717&02000016&1815133217875&1815133217875&&0&1&60180&CNY&0040&boshzjjg&6228481266337752964&0&
20071730020100512473&X6I5HO2J0AG4FNH5&20200717&02000016&1817796969398&1817796969398&&0&1&10030&CNY&0040&boshzjjg&6236680180004236478&0&
20071730020100512474&T0NGV8M1PWO90HLV&20200717&02000016&1815097746135&1815097746135&&0&1&40120&CNY&0040&boshzjjg&6228481269200656973&0&
20071730020100512312&XFVC0S525JD4RBT4&20200717&02000016&1819116014591&1819116014591&&0&1&5015&CNY&0040&boshzjjg&6222032510000192629&0&
20071730020100512378&Z1FNQY80B7ONOK80&20200717&02000016&1813513284448&1813513284448&&0&1&18054&CNY&0040&boshzjjg&6217730726751264&0&
20071730020100512477&HDBWLJNXRENQACW2&20200717&02000016&1815512532000&1815512532000&&0&1&100300&CNY&0040&boshzjjg&6222080403002647884&0&
20071730020100512478&B64797IBMYU8Q1X4&20200717&02000016&1815232640847&1815232640847&&0&1&80240&CNY&0040&boshzjjg&6228480659200859174&0&
20071730020100512317&C9M1URWS4X29FMAA&20200717&02000016&1818731866982&1818731866982&&0&1&10030&CNY&0040&boshzjjg&6214831001419701&0&
20071730020100512381&4TZ02B0R4ZJYJ4WQ&20200717&02000016&1815933321253&1815933321253&&0&1&65195&CNY&0040&boshzjjg&6228480018952268870&0&
20071730020100512320&0B4THGRTAK6V52JX&20200717&02000016&1815866353002&1815866353002&&0&1&30090&CNY&0040&boshzjjg&6228480268676852075&0&
20071730020100512484&B1KBJNXCKPBTGG93&20200717&02000016&1813641226784&1813641226784&&0&1&20060&CNY&0040&boshzjjg&6214832167598643&0&
20071730020100512389&ZICRJTIIFWIQGJRY&20200717&02000016&1815727394536&1815727394536&&0&1&200601&CNY&0040&boshzjjg&9559982200454824818&0&
20071730020100512332&K3FXI2OLB8BZVT1I&20200717&02000016&1813180214668&1813180214668&&0&1&20060&CNY&0040&boshzjjg&6228481269260152970&0&
20071730020100512490&LJX045XAKLLZSLKR&20200717&02000016&1818132723583&1818132723583&&0&1&40120&CNY&0040&boshzjjg&6228480648923575977&0&
20071730020100512396&UMOJM8G563V4329U&20200717&02000016&1813520802238&1813520802238&&0&1&40120&CNY&0040&boshzjjg&6217000010154759305&0&
20071730020100512494&WFP9Y9V3DH6W6V0O&20200717&02000016&1813373121391&1813373121391&&0&1&100300&CNY&0040&boshzjjg&6228481268439947773&0&
20071730020100512545&OR08KCGJ4JT91QRR&20200717&02000016&1815713255858&1815713255858&&0&1&50150&CNY&0040&boshzjjg&6222080403001786808&0&
20071730020100512404&B1RSDKZN6MIDMWKO&20200717&02000016&1815931509770&1815931509770&&0&1&20060&CNY&0040&boshzjjg&6212260403001951553&0&
20071730020100512564&MZFH7V1IXLCFVECC&20200717&02000016&1815028299966&1815028299966&&0&1&30090&CNY&0040&boshzjjg&6217000140008891887&0&
20071730020100512574&JI8R9CJY5HSA9TD6&20200717&02000016&1817732266277&1817732266277&&0&1&200601&CNY&0040&boshzjjg&6228481262349094115&0&
20071730020100512580&7JEI5VA1HB0N5UXJ&20200717&02000016&1815832279039&1815832279039&&0&1&20060&CNY&0040&boshzjjg&6230521740022915076&0&
20071730020100512596&CKBJKKRY7CIO44QT&20200717&02000016&1815176687912&1815176687912&&0&1&30090&CNY&0040&boshzjjg&9558800403102535255&0&
20071730020100512615&R5Y0SJQWPB6FUZH4&20200717&02000016&1815232499769&1815232499769&&0&1&30090&CNY&0040&boshzjjg&6212260403018836144&0&
20071730020100512618&F308JAO31Q0Q54KS&20200717&02000016&1815614976824&1815614976824&&0&1&50150&CNY&0040&boshzjjg&6228480651962941217&0&
20071730020100512688&B472UYLNCBSUCVMU&20200717&02000016&1818046671766&1818046671766&&0&1&40120&CNY&0040&boshzjjg&6221884280018439609&0&
20071730020100512707&W8VIONDJYEMA8CRR&20200717&02000016&1815832285526&1815832285526&&0&1&20060&CNY&0040&boshzjjg&6212260409007071536&0&
20071730020100512794&BDKKHRME315JQSFO&20200717&02000016&1815940818417&1815940818417&&0&1&10230&CNY&0040&boshzjjg&6217000780000487802&0&
20071730020100512796&FWR27FCS745TTIWP&20200717&02000016&1813191684413&1813191684413&&0&1&100300&CNY&0040&boshzjjg&6217000140024766428&0&
20071730020100512797&FQJAHBTIEHRO3F0A&20200717&02000016&1818640583537&1818640583537&&0&1&30090&CNY&0040&boshzjjg&6214830242282472&0&
20071730020100512712&LD1KS6MH6YVWG8MM&20200717&02000016&1813840542929&1813840542929&&0&1&100300&CNY&0040&boshzjjg&6217001040008514977&0&
20071730020100512713&Y4I1U5YL7YVYWNWT&20200717&02000016&1813629677894&1813629677894&&0&1&80240&CNY&0040&boshzjjg&6217852700004848386&0&
20071730020100512715&NT6BOG0M0PP3WWWO&20200717&02000016&1800100000107&1800100000107&&0&1&60180&CNY&0040&boshzjjg&6228481261659029018&0&
20071730020100512719&3TT9PLFSU0N8SOX6&20200717&02000016&1813097309231&1813097309231&&0&1&40120&CNY&0040&boshzjjg&6217002020064199466&0&
20071730020100512726&0UOKMN6WUU8D78YO&20200717&02000016&1818514573135&1818514573135&&0&1&20060&CNY&0040&boshzjjg&6228481269236496675&0&
20071730020100512867&GNKV7AACHNHA2JEG&20200717&02000016&1813931473408&1813931473408&&0&1&50150&CNY&0040&boshzjjg&6227000180160009950&0&
20071730020100512732&U71GQ6DP6W9V4129&20200717&02000016&1818871383962&1818871383962&&0&1&19057&CNY&0040&boshzjjg&6217995200197285064&0&
20071730020100512820&WFQQICK0XUI9IYJG&20200717&02000016&1818987916256&1818987916256&&0&1&50150&CNY&0040&boshzjjg&6236684020000323225&0&
20071730020100512870&44MZW1AYRGOMRQJX&20200717&02000016&1800100000358&1800100000358&&0&1&10030&CNY&0040&boshzjjg&6217992610007794647&0&
20071730020100512822&LJCS139WZT6E9HWR&20200717&02000016&1815879659564&1815879659564&&0&1&20060&CNY&0040&boshzjjg&6217002110005542005&0&
20071730020100512823&AU0BPQSF48PQ2HQL&20200717&02000016&1818531577125&1818531577125&&0&1&10030&CNY&0040&boshzjjg&6227000181070030953&0&
20071730020100512875&PWY2CCP7B4E3WUWY&20200717&02000016&1815969220999&1815969220999&&0&1&100300&CNY&0040&boshzjjg&6228483358609071278&0&
20071730020100512824&8IG0WNGY8L2C4I6U&20200717&02000016&1813266662096&1813266662096&&0&1&40120&CNY&0040&boshzjjg&6217582000047574488&0&
20071730020100512825&5O3KHFS7RMT8SDLZ&20200717&02000016&1813191684413&1813191684413&&0&1&50150&CNY&0040&boshzjjg&6217000140024766428&0&
20071730020100512877&65G8VY6E5B4AQX1G&20200717&02000016&1815334341131&1815334341131&&0&1&902708&CNY&0040&boshzjjg&6217003970002037427&0&
20071730020100512882&GHQTBDQ8GIVZOI96&20200717&02000016&1813811828631&1813811828631&&0&1&20060&CNY&0040&boshzjjg&6222080409004343158&0&
20071730020100512831&F2DRCYOPL18N00CR&20200717&02000016&1813323259697&1813323259697&&0&1&50150&CNY&0040&boshzjjg&6228480659208975774&0&
20071730020100512953&BXWASWI0JMBEN09E&20200717&02000016&1813555046898&1813555046898&&0&1&50150&CNY&0040&boshzjjg&6212260907000013736&0&
20071730020100512960&03MJ8O75NGPYSBPN&20200717&02000016&1800100000118&1800100000118&&0&1&60180&CNY&0040&boshzjjg&6213362686057724560&0&
20071730020100513044&Q5URI3KC2PSK8FEP&20200717&02000016&1815031298030&1815031298030&&0&1&50150&CNY&0040&boshzjjg&6213361269902917670&0&
20071730020100512895&QXU7MNZ0SB24T5O5&20200717&02000016&1815031298030&1815031298030&&0&1&20060&CNY&0040&boshzjjg&6213361269902917670&0&
20071730020100513051&7KESDCXMLPOD8IWV&20200717&02000016&1800100000084&1800100000084&&0&1&20060&CNY&0040&boshzjjg&6228482688436843270&0&
20071730020100512903&GGWCLI8003VG74VL&20200717&02000016&1815146755908&1815146755908&&0&1&10030&CNY&0040&boshzjjg&6222020907000113676&0&
20071730020100512905&MHSMUJ2SV8RETTX8&20200717&02000016&1813604685553&1813604685553&&0&1&20060&CNY&0040&boshzjjg&6217001040008930421&0&
20071730020100512911&QHBENJDQYYSL26JW&20200717&02000016&1818003228206&1818003228206&&0&1&54563&CNY&0040&boshzjjg&6228481268630913574&0&
20071730020100512993&TYD84UXNSMFI5QRP&20200717&02000016&1815930296196&1815930296196&&0&1&60180&CNY&0040&boshzjjg&6222030409002206200&0&
20071730020100512928&VJ28FOJPKYKY3CW1&20200717&02000016&1815945805951&1815945805951&&0&1&10030&CNY&0040&boshzjjg&6228482698421651877&0&
20071730020100512930&A51QXDLVDJTRYOK8&20200717&02000016&1813607373680&1813607373680&&0&1&18054&CNY&0040&boshzjjg&6227003010240257906&0&
20071730020100513014&PL4QJIE8M2M2GQOP&20200717&02000016&1815833895638&1815833895638&&0&1&20060&CNY&0040&boshzjjg&6228481269168125177&0&
20071730020100513018&KBLQX0RQPLZABLXS&20200717&02000016&1813931219857&1813931219857&&0&1&20060&CNY&0040&boshzjjg&6228451268000815371&0&
20071730020100513020&0SGP8JXUQU7X0379&20200717&02000016&1800100000122&1800100000122&&0&1&60180&CNY&0040&boshzjjg&6228451268042593978&0&
20071730020100513096&LV60VRIFFVPYUBQJ&20200717&02000016&1813582233927&1813582233927&&0&1&50150&CNY&0040&boshzjjg&6217000140037793120&0&
20071730020100513158&982VY8JYCLYURLQJ&20200717&02000016&1800100000213&1800100000213&&0&1&30090&CNY&0040&boshzjjg&6217855300027671225&0&
20071730020100513028&D05ZK529NVST16AZ&20200717&02000016&1800100000048&1800100000048&&0&1&501&CNY&0040&boshzjjg&6217000140028374146&0&
20071730020100513029&02VYFRS0IJMCGCNY&20200717&02000016&1815502925058&1815502925058&&0&1&40120&CNY&0040&boshzjjg&6212263700001397795&0&
20071730020100513033&FWWAQYPS8QOUGWVB&20200717&02000016&1817751565108&1817751565108&&0&1&601&CNY&0040&boshzjjg&6228481988222307477&0&
20071730020100513166&MOHTQI9L3ZHV8HXL&20200717&02000016&1813323228902&1813323228902&&0&1&40120&CNY&0040&boshzjjg&6236680140001843411&0&
20071730020100513170&8LA3SCPV826PBJOC&20200717&02000016&1815031281951&1815031281951&&0&1&100300&CNY&0040&boshzjjg&6228481269047287974&0&
20071730020100513175&TCNEU1VVHT9139B5&20200717&02000016&1815925589060&1815925589060&&0&1&10030&CNY&0040&boshzjjg&6228483968610024577&0&
20071730020100513115&03E0ST0L8PHF1XBO&20200717&02000016&1800100000067&1800100000067&&0&1&40120&CNY&0040&boshzjjg&9551002756000704419&0&
20071730020100513187&T8RQX3TSPC0HDK83&20200717&02000016&1817751565108&1817751565108&&0&1&10030&CNY&0040&boshzjjg&6228481988222307477&0&
20071730020100513130&ZJC2CSV9NWLJLMSN&20200717&02000016&1817751565108&1817751565108&&0&1&50150&CNY&0040&boshzjjg&6228481988222307477&0&
20071730020100513260&7PC6NCK5OBXIUWZL&20200717&02000016&1813730837693&1813730837693&&0&1&10030&CNY&0040&boshzjjg&6228480469030916172&0&
20071730020100513193&FQBLS6V1X0I06QY0&20200717&02000016&1815227788236&1815227788236&&0&1&40120&CNY&0040&boshzjjg&6217855000005841713&0&
20071730020100513266&Z4U9JYGTBVUGB3FO&20200717&02000016&1815222123742&1815222123742&&0&1&30090&CNY&0040&boshzjjg&6230520650042982579&0&
20071730020100513280&U3NKQJWD5DVJMK5Q&20200717&02000016&1813343095977&1813343095977&&0&1&2607&CNY&0040&boshzjjg&6222080409001527738&0&
20071730020100513211&Z0VHGFHHFOXHIXLO&20200717&02000016&1800100000080&1800100000080&&0&1&60180&CNY&0040&boshzjjg&6217855300030279677&0&
20071730020100513305&1G73BIR3360DTDFP&20200717&02000016&1813628842075&1813628842075&&0&1&20060&CNY&0040&boshzjjg&6228483358606381670&0&
20071730020100513464&APGLQMBKIG20YG3O&20200717&02000016&1818992419179&1818992419179&&0&1&501&CNY&0040&boshzjjg&6217853600052557104&0&
20071730020100513329&HGYD5ZIPSAONUOG4&20200717&02000016&1813840562388&1813840562388&&0&1&10030&CNY&0040&boshzjjg&6231561901219617&0&
20071730020100513552&81QJA81E51HG3KLK&20200717&02000016&1815613265118&1815613265118&&0&1&30090&CNY&0040&boshzjjg&6228481268884741077&0&
20071730020100513506&DOO8IUMTR2E98ONL&20200717&02000016&1813191775000&1813191775000&&0&1&30090&CNY&0040&boshzjjg&6228480659144404376&0&
20071730020100513513&HXJZLBXDRYPICOEF&20200717&02000016&1813808788999&1813808788999&&0&1&30090&CNY&0040&boshzjjg&6228483358604716075&0&
20071730020100513585&ORHWZM2V3C87OET6&20200717&02000016&1813582884362&1813582884362&&0&1&10030&CNY&0040&boshzjjg&6228480658265660873&0&
20071730020100513672&G7E19BUZMQ8DHRAE&20200717&02000016&1813988288595&1813988288595&&0&1&100300&CNY&0040&boshzjjg&6217003970002701956&0&
20071730020100513737&PF66C49DWD4JKV13&20200717&02000016&1813832263840&1813832263840&&0&1&10030&CNY&0040&boshzjjg&6222020409032260237&0&
20071730020100513758&NIGDVFMCA6WF370K&20200717&02000016&1819912156726&1819912156726&&0&1&20060&CNY&0040&boshzjjg&6212260409006270493&0&
20071730020100513767&ZW7IXWDSG2WPO3PW&20200717&02000016&1813933209391&1813933209391&&0&1&50150&CNY&0040&boshzjjg&6213361269901131778&0&
20071790040021510162&20071790040021510162&20200717&02000016&1813546380765&1813546380765&&1&2&200000&CNY&0040&boshzjjg&6226733100100149&0&
20071790040021510114&20071790040021510114&20200717&02000016&1817704509566&1817704509566&&1&2&200000&CNY&0040&boshzjjg&6217230905000134524&0&
20071790040021510188&20071790040021510188&20200717&02000016&1813099470902&1813099470902&&1&2&200000&CNY&0040&boshzjjg&6228483356011733568&0&
20071790040021510133&20071790040021510133&20200717&02000016&1818770604856&1818770604856&&1&2&200000&CNY&0040&boshzjjg&6222031509000686193&0&
20071790040021510339&20071790040021510339&20200717&02000016&1813576617667&1813576617667&&1&2&200000&CNY&0040&boshzjjg&6210812110000298780&0&
20071790040021510338&20071790040021510338&20200717&02000016&1813313120228&1813313120228&&1&2&100&CNY&0040&boshzjjg&6228481269083877977&0&
20071790040021510204&20071790040021510204&20200717&02000016&1818003228206&1818003228206&&1&2&200000&CNY&0040&boshzjjg&6228481268630913574&0&
20071790040021510213&20071790040021510213&20200717&02000016&1815189286627&1815189286627&&1&2&200000&CNY&0040&boshzjjg&6228481984260275411&0&
20071790040021510362&20071790040021510362&20200717&02000016&1815142389605&1815142389605&&1&2&200000&CNY&0040&boshzjjg&6228481238807995779&0&
20071790040021510377&20071790040021510377&20200717&02000016&1815605110960&1815605110960&&1&2&194900&CNY&0040&boshzjjg&6217993000395399226&0&
20071790040021510452&20071790040021510452&20200717&02000016&1813523622273&1813523622273&&1&2&100&CNY&0040&boshzjjg&6212261705017598353&0&
20071790040021510536&20071790040021510536&20200717&02000016&1813191670068&1813191670068&&1&2&772000&CNY&0040&boshzjjg&6228481268631168178&0&
20071790040021510459&20071790040021510459&20200717&02000016&1813796790256&1813796790256&&1&2&200000&CNY&0040&boshzjjg&6210982600111154876&0&
20071790040021510560&20071790040021510560&20200717&02000016&1813313120228&1813313120228&&1&2&399900&CNY&0040&boshzjjg&6228481269083877977&0&
20071790040021510487&20071790040021510487&20200717&02000016&1813523622273&1813523622273&&1&2&199900&CNY&0040&boshzjjg&6212261705017598353&0&
20071790040021510496&20071790040021510496&20200717&02000016&1818903361766&1818903361766&&1&2&200000&CNY&0040&boshzjjg&6217000140012236731&0&
20071790040021510570&20071790040021510570&20200717&02000016&1813508750269&1813508750269&&1&2&200000&CNY&0040&boshzjjg&6217003960005693219&0&
20071790040021510529&20071790040021510529&20200717&02000016&1815226565837&1815226565837&&1&2&200000&CNY&0040&boshzjjg&6228480639302017772&0&
20071790040021510697&20071790040021510697&20200717&02000016&1813987055596&1813987055596&&1&2&1000000&CNY&0040&boshzjjg&6228483968584922970&0&
20071790040021510528&20071790040021510528&20200717&02000016&1813940206553&1813940206553&&1&2&205000&CNY&0040&boshzjjg&6227000735000114508&0&
20071790040021510737&20071790040021510737&20200717&02000016&1813909147787&1813909147787&&1&2&200000&CNY&0040&boshzjjg&6228482958374033873&0&
20071790040021510708&20071790040021510708&20200717&02000016&1818531229892&1818531229892&&1&2&5000&CNY&0040&boshzjjg&6217000140008298133&0&
20071790040021510736&20071790040021510736&20200717&02000016&1813400389138&1813400389138&&1&2&200000&CNY&0040&boshzjjg&6228481268683830873&0&
20071790040021510748&20071790040021510748&20200717&02000016&1813932238474&1813932238474&&1&2&10000&CNY&0040&boshzjjg&6228481269113851679&0&
20071790040021510733&20071790040021510733&20200717&02000016&1813373021662&1813373021662&&1&2&200000&CNY&0040&boshzjjg&6222080409004479697&0&
20071790040021510844&20071790040021510844&20200717&02000016&1818803125896&1818803125896&&1&2&200000&CNY&0040&boshzjjg&6217000140015297557&0&
20071790040021510934&20071790040021510934&20200717&02000016&1813393029437&1813393029437&&1&2&200000&CNY&0040&boshzjjg&6216695000006447904&0&
20071790040021510864&20071790040021510864&20200717&02000016&1818788224059&1818788224059&&1&2&800000&CNY&0040&boshzjjg&6228483358070515670&0&
20071790040021510777&20071790040021510777&20200717&02000016&1813811828631&1813811828631&&1&2&180000&CNY&0040&boshzjjg&6222080409004343158&0&
20071790040021510789&20071790040021510789&20200717&02000016&1815170510050&1815170510050&&1&2&5000&CNY&0040&boshzjjg&6217002020063188189&0&
20071790040021510872&20071790040021510872&20200717&02000016&1813483435916&1813483435916&&1&2&2000&CNY&0040&boshzjjg&6236680130002387492&0&
20071790040021510800&20071790040021510800&20200717&02000016&1815101123947&1815101123947&&1&2&200000&CNY&0040&boshzjjg&6222020200041462140&0&
20071790040021510799&20071790040021510799&20200717&02000016&1813529527711&1813529527711&&1&2&200000&CNY&0040&boshzjjg&6212262511001332182&0&
20071790040021510912&20071790040021510912&20200717&02000016&1815620918665&1815620918665&&1&2&200000&CNY&0040&boshzjjg&6228480028181743577&0&
20071790040021510823&20071790040021510823&20200717&02000016&1813931357731&1813931357731&&1&2&1000&CNY&0040&boshzjjg&6222020409009989719&0&
20071790040021510833&20071790040021510833&20200717&02000016&1813483435916&1813483435916&&1&2&10000&CNY&0040&boshzjjg&6236680130002387492&0&
20071790040021511004&20071790040021511004&20200717&02000016&1815945805951&1815945805951&&1&2&200000&CNY&0040&boshzjjg&6228482698421651877&0&
20071790040021510919&20071790040021510919&20200717&02000016&1815097761333&1815097761333&&1&2&400000&CNY&0040&boshzjjg&6222080409000946897&0&
20071790040021511135&20071790040021511135&20200717&02000016&1813933380665&1813933380665&&1&2&200000&CNY&0040&boshzjjg&6217000180039963008&0&
20071790040021511137&20071790040021511137&20200717&02000016&1813998301313&1813998301313&&1&2&200000&CNY&0040&boshzjjg&6212263500023392307&0&
20071790040021511235&20071790040021511235&20200717&02000016&1813009900301&1813009900301&&1&2&800000&CNY&0040&boshzjjg&6217001020007314314&0&
20071790040021511143&20071790040021511143&20200717&02000016&1815033721326&1815033721326&&1&2&156000&CNY&0040&boshzjjg&6217000140035632445&0&
20071790040021511144&20071790040021511144&20200717&02000016&1815931773590&1815931773590&&1&2&166000&CNY&0040&boshzjjg&6217000140035632999&0&
20071790040021511061&20071790040021511061&20200717&02000016&1815940272518&1815940272518&&1&2&200000&CNY&0040&boshzjjg&6210810730041751349&0&
20071790040021511250&20071790040021511250&20200717&02000016&1818970607159&1818970607159&&1&2&199200&CNY&0040&boshzjjg&6228480928729743072&0&
20071790040021511248&20071790040021511248&20200717&02000016&1813931357731&1813931357731&&1&2&199000&CNY&0040&boshzjjg&6222020409009989719&0&
20071790040021511249&20071790040021511249&20200717&02000016&1817717742279&1817717742279&&1&2&210000&CNY&0040&boshzjjg&6228480659186072578&0&
20071790040021511187&20071790040021511187&20200717&02000016&1818713250590&1818713250590&&1&2&200000&CNY&0040&boshzjjg&6228481269177143773&0&
20071790040021511112&20071790040021511112&20200717&02000016&1818970624362&1818970624362&&1&2&200000&CNY&0040&boshzjjg&6230522310021955470&0&
20071790040021511231&20071790040021511231&20200717&02000016&1813029890582&1813029890582&&1&2&200000&CNY&0040&boshzjjg&6217994681024255456&0&
20071790040021511441&20071790040021511441&20200717&02000016&1818098518853&1818098518853&&1&2&980000&CNY&0040&boshzjjg&6212262502038420157&0&
20071790040021511377&20071790040021511377&20200717&02000016&1813785222266&1813785222266&&1&2&200000&CNY&0040&boshzjjg&6222020409028822180&0&
20071790040021511386&20071790040021511386&20200717&02000016&1813544834788&1813544834788&&1&2&200000&CNY&0040&boshzjjg&6222034000002372435&0&
20071790040021511465&20071790040021511465&20200717&02000016&1813663399658&1813663399658&&1&2&200000&CNY&0040&boshzjjg&6228451268028090478&0&
20071790040021511552&20071790040021511552&20200717&02000016&1817778882068&1817778882068&&1&2&400000&CNY&0040&boshzjjg&6228481262349257514&0&
20071790040021511395&20071790040021511395&20200717&02000016&1813284599625&1813284599625&&1&2&200000&CNY&0040&boshzjjg&6217001020000034539&0&
20071790040021511565&20071790040021511565&20200717&02000016&1815906980427&1815906980427&&1&2&200000&CNY&0040&boshzjjg&6228413960177223317&0&
20071790040021511510&20071790040021511510&20200717&02000016&1813593967178&1813593967178&&1&2&800000&CNY&0040&boshzjjg&6216607600003689239&0&
20071790040021511643&20071790040021511643&20200717&02000016&1818787512925&1818787512925&&1&2&200000&CNY&0040&boshzjjg&6217232510000320996&0&
20071790040021511739&20071790040021511739&20200717&02000016&1815142051751&1815142051751&&1&2&200000&CNY&0040&boshzjjg&6222620310003504039&0&
20071790040021511664&20071790040021511664&20200717&02000016&1815036381560&1815036381560&&1&2&200000&CNY&0040&boshzjjg&6222021705004019991&0&
20071790040021511763&20071790040021511763&20200717&02000016&1813933289360&1813933289360&&1&2&200000&CNY&0040&boshzjjg&6222080409004893996&0&
20071790040021511764&20071790040021511764&20200717&02000016&1818591506868&1818591506868&&1&2&10000&CNY&0040&boshzjjg&6236684170000408508&0&
20071790040021511859&20071790040021511859&20200717&02000016&1815233758901&1815233758901&&1&2&160000&CNY&0040&boshzjjg&6217991340030374214&0&
20071790040021511873&20071790040021511873&20200717&02000016&1815609151431&1815609151431&&1&2&10000&CNY&0040&boshzjjg&6214484001100071848&0&
20071790040021511700&20071790040021511700&20200717&02000016&1815045765018&1815045765018&&1&2&200000&CNY&0040&boshzjjg&6217001040003472320&0&
20071790040021511790&20071790040021511790&20200717&02000016&1813851015847&1813851015847&&1&2&20000&CNY&0040&boshzjjg&6228481989474308577&0&
20071790040021511717&20071790040021511717&20200717&02000016&1813722251072&1813722251072&&1&2&1000&CNY&0040&boshzjjg&6217000140006136285&0&
20071790040021511730&20071790040021511730&20200717&02000016&1817614015933&1817614015933&&1&2&2200&CNY&0040&boshzjjg&6228480048930530976&0&
20071790040021511937&20071790040021511937&20200717&02000016&1815231268197&1815231268197&&1&2&200000&CNY&0040&boshzjjg&6230521260022902073&0&
20071790040021511808&20071790040021511808&20200717&02000016&1813722251072&1813722251072&&1&2&1000000&CNY&0040&boshzjjg&6217000140006136285&0&
20071790040021511812&20071790040021511812&20200717&02000016&1818511141687&1818511141687&&1&2&160000&CNY&0040&boshzjjg&6217232607000418257&0&
20071790040021511955&20071790040021511955&20200717&02000016&1813862285261&1813862285261&&1&2&200000&CNY&0040&boshzjjg&6236682000026570258&0&
20071790040021511825&20071790040021511825&20200717&02000016&1818633129536&1818633129536&&1&2&200000&CNY&0040&boshzjjg&6228480656424243169&0&
20071790040021511960&20071790040021511960&20200717&02000016&1815246263199&1815246263199&&1&2&200000&CNY&0040&boshzjjg&6217905300005337518&0&
20071790040021512143&20071790040021512143&20200717&02000016&1818509159862&1818509159862&&1&2&195000&CNY&0040&boshzjjg&6217853600023289670&0&
20071790040021511978&20071790040021511978&20200717&02000016&1815032393998&1815032393998&&1&2&180000&CNY&0040&boshzjjg&6228480648913464877&0&
20071790040021512053&20071790040021512053&20200717&02000016&1813931395134&1813931395134&&1&2&200000&CNY&0040&boshzjjg&6212260409015540951&0&
20071790040021511989&20071790040021511989&20200717&02000016&1817761272857&1817761272857&&1&2&170000&CNY&0040&boshzjjg&6217003800032658217&0&
20071790040021512075&20071790040021512075&20200717&02000016&1813830402848&1813830402848&&1&2&200000&CNY&0040&boshzjjg&6217004380005506890&0&
20071790040021512006&20071790040021512006&20200717&02000016&1815517971188&1815517971188&&1&2&200000&CNY&0040&boshzjjg&6222031705000337643&0&
20071790040021512170&20071790040021512170&20200717&02000016&1813473214804&1813473214804&&1&2&200000&CNY&0040&boshzjjg&6228412124504551277&0&
20071790040021512187&20071790040021512187&20200717&02000016&1815339748998&1815339748998&&1&2&200000&CNY&0040&boshzjjg&6217868500001050628&0&
20071790040021512093&20071790040021512093&20200717&02000016&1815987888742&1815987888742&&1&2&200000&CNY&0040&boshzjjg&6217003960002304620&0&
20071790040021512102&20071790040021512102&20200717&02000016&1813451158460&1813451158460&&1&2&200000&CNY&0040&boshzjjg&6217002660003105700&0&
20071790040021512198&20071790040021512198&20200717&02000016&1813887873327&1813887873327&&1&2&200000&CNY&0040&boshzjjg&6217003970002216278&0&
20071790040021512244&20071790040021512244&20200717&02000016&1813466173625&1813466173625&&1&2&30000&CNY&0040&boshzjjg&6217004020000505980&0&
20071790040021512112&20071790040021512112&20200717&02000016&1815930270144&1815930270144&&1&2&200000&CNY&0040&boshzjjg&6228481268100114174&0&
20071790040021512206&20071790040021512206&20200717&02000016&1815832267413&1815832267413&&1&2&1000&CNY&0040&boshzjjg&6222080409000809582&0&
20071790040021512251&20071790040021512251&20200717&02000016&1815987579618&1815987579618&&1&2&200000&CNY&0040&boshzjjg&6221807300002224546&0&
20071790040021512218&20071790040021512218&20200717&02000016&1815079792504&1815079792504&&1&2&200000&CNY&0040&boshzjjg&6217002020063184873&0&
20071790040021512231&20071790040021512231&20200717&02000016&1818911615844&1818911615844&&1&2&100&CNY&0040&boshzjjg&6212260200141063475&0&
20071790040021512439&20071790040021512439&20200717&02000016&1815735518465&1815735518465&&1&2&100&CNY&0040&boshzjjg&6217858100031073120&0&
20071790040021512282&20071790040021512282&20200717&02000016&1818911615844&1818911615844&&1&2&195900&CNY&0040&boshzjjg&6212260200141063475&0&
20071790040021512345&20071790040021512345&20200717&02000016&1815735518465&1815735518465&&1&2&195900&CNY&0040&boshzjjg&6217858100031073120&0&
20071790040021512444&20071790040021512444&20200717&02000016&1818809152800&1818809152800&&1&2&195000&CNY&0040&boshzjjg&6217853600053136122&0&
20071790040021512283&20071790040021512283&20200717&02000016&1815879317904&1815879317904&&1&2&25000&CNY&0040&boshzjjg&6236682080002826858&0&
20071790040021512297&20071790040021512297&20200717&02000016&1813914955610&1813914955610&&1&2&500&CNY&0040&boshzjjg&6217002000016584700&0&
20071790040021512314&20071790040021512314&20200717&02000016&1815930296195&1815930296195&&1&2&100&CNY&0040&boshzjjg&6212260409010672304&0&
20071790040021512313&20071790040021512313&20200717&02000016&1813914955610&1813914955610&&1&2&100000&CNY&0040&boshzjjg&6217002000016584700&0&
20071790040021512315&20071790040021512315&20200717&02000016&1815930296195&1815930296195&&1&2&100&CNY&0040&boshzjjg&6212260409010672304&0&
20071790040021512319&20071790040021512319&20200717&02000016&1813914955610&1813914955610&&1&2&99500&CNY&0040&boshzjjg&6217002000016584700&0&
20071790040021512480&20071790040021512480&20200717&02000016&1815230984209&1815230984209&&1&2&180000&CNY&0040&boshzjjg&6228480651416232510&0&
20071790040021512390&20071790040021512390&20200717&02000016&1813987518232&1813987518232&&1&2&1000000&CNY&0040&boshzjjg&6222002510200005957&0&
20071790040021512413&20071790040021512413&20200717&02000016&1815987570659&1815987570659&&1&2&600000&CNY&0040&boshzjjg&6212262511001638398&0&
20071790040021512512&20071790040021512512&20200717&02000016&1813898831243&1813898831243&&1&2&10000&CNY&0040&boshzjjg&6227000730340514400&0&
20071790040021512519&20071790040021512519&20200717&02000016&1813721627456&1813721627456&&1&2&200000&CNY&0040&boshzjjg&6212261705016414719&0&
20071790040021512518&20071790040021512518&20200717&02000016&1813576938337&1813576938337&&1&2&800000&CNY&0040&boshzjjg&6214662020077513&0&
20071790040021512575&20071790040021512575&20200717&02000016&1813099471977&1813099471977&&1&2&200000&CNY&0040&boshzjjg&6230523350015327871&0&
20071790040021512734&20071790040021512734&20200717&02000016&1813898831243&1813898831243&&1&2&190000&CNY&0040&boshzjjg&6227000730340514400&0&
20071790040021512735&20071790040021512735&20200717&02000016&1818970113305&1818970113305&&1&2&200000&CNY&0040&boshzjjg&6215686500000221521&0&
20071790040021512645&20071790040021512645&20200717&02000016&1818990272427&1818990272427&&1&2&200000&CNY&0040&boshzjjg&6222022305000914490&0&
20071790040021512653&20071790040021512653&20200717&02000016&1813832298272&1813832298272&&1&2&100&CNY&0040&boshzjjg&6222030200008391058&0&
20071790040021512603&20071790040021512603&20200717&02000016&1813831239512&1813831239512&&1&2&1000000&CNY&0040&boshzjjg&6228481266531787360&0&
20071790040021512753&20071790040021512753&20200717&02000016&1813832298272&1813832298272&&1&2&195900&CNY&0040&boshzjjg&6222030200008391058&0&
20071790040021512662&20071790040021512662&20200717&02000016&1815510752565&1815510752565&&1&2&10000&CNY&0040&boshzjjg&6217000010146688950&0&
20071790040021512762&20071790040021512762&20200717&02000016&1813623329019&1813623329019&&1&2&200000&CNY&0040&boshzjjg&6217000140002544433&0&
20071790040021512622&20071790040021512622&20200717&02000016&1815510752565&1815510752565&&1&2&186000&CNY&0040&boshzjjg&6217000010146688950&0&
20071790040021512621&20071790040021512621&20200717&02000016&1813903229313&1813903229313&&1&2&200000&CNY&0040&boshzjjg&6222030413001186314&0&
20071790040021512691&20071790040021512691&20200717&02000016&1815924633482&1815924633482&&1&2&200000&CNY&0040&boshzjjg&6230520860103440876&0&
20071790040021512845&20071790040021512845&20200717&02000016&1813897951201&1813897951201&&1&2&100&CNY&0040&boshzjjg&6216690400002118613&0&
20071790040021512798&20071790040021512798&20200717&02000016&1813603227958&1813603227958&&1&2&800000&CNY&0040&boshzjjg&6228481261743334515&0&
20071790040021512847&20071790040021512847&20200717&02000016&1815631225680&1815631225680&&1&2&195000&CNY&0040&boshzjjg&6228481269210996971&0&
20071790040021512799&20071790040021512799&20200717&02000016&1813674277407&1813674277407&&1&2&200000&CNY&0040&boshzjjg&6216600400000577447&0&
20071790040021512802&20071790040021512802&20200717&02000016&1815100207285&1815100207285&&1&2&180000&CNY&0040&boshzjjg&6228481269145263778&0&
20071790040021512853&20071790040021512853&20200717&02000016&1813477836573&1813477836573&&1&2&20000&CNY&0040&boshzjjg&6236682700002326886&0&
20071790040021512811&20071790040021512811&20200717&02000016&1813897951201&1813897951201&&1&2&200000&CNY&0040&boshzjjg&6216690400002118613&0&
20071790040021512865&20071790040021512865&20200717&02000016&1818222192593&1818222192593&&1&2&1000000&CNY&0040&boshzjjg&6217000210028314200&0&
20071790040021512868&20071790040021512868&20200717&02000016&1818240287995&1818240287995&&1&2&200000&CNY&0040&boshzjjg&6230520040066875273&0&
20071790040021512819&20071790040021512819&20200717&02000016&1815030256426&1815030256426&&1&2&200000&CNY&0040&boshzjjg&6228481269235543477&0&
20071790040021512876&20071790040021512876&20200717&02000016&1813648092324&1813648092324&&1&2&100&CNY&0040&boshzjjg&6222024402035413776&0&
20071790040021512827&20071790040021512827&20200717&02000016&1815959529097&1815959529097&&1&2&200000&CNY&0040&boshzjjg&6228480688507548875&0&
20071790040021512826&20071790040021512826&20200717&02000016&1813648092324&1813648092324&&1&2&200000&CNY&0040&boshzjjg&6222024402035413776&0&
20071790040021512947&20071790040021512947&20200717&02000016&1816735141313&1816735141313&&1&2&400000&CNY&0040&boshzjjg&6214833151661801&0&
20071790040021512951&20071790040021512951&20200717&02000016&1813367962949&1813367962949&&1&2&200000&CNY&0040&boshzjjg&6212261509003751350&0&
20071790040021513043&20071790040021513043&20200717&02000016&1818225032580&1818225032580&&1&2&200000&CNY&0040&boshzjjg&6216693200004649095&0&
20071790040021512965&20071790040021512965&20200717&02000016&1815245436282&1815245436282&&1&2&200000&CNY&0040&boshzjjg&6217992610164485211&0&
20071790040021512908&20071790040021512908&20200717&02000016&1813722979978&1813722979978&&1&2&200000&CNY&0040&boshzjjg&6217000010076940348&0&
20071790040021512914&20071790040021512914&20200717&02000016&1813696372615&1813696372615&&1&2&200000&CNY&0040&boshzjjg&6228481339076658971&0&
20071790040021513068&20071790040021513068&20200717&02000016&1815969042578&1815969042578&&1&2&1000000&CNY&0040&boshzjjg&6230523350015441375&0&
20071790040021512917&20071790040021512917&20200717&02000016&1815930296195&1815930296195&&1&2&200000&CNY&0040&boshzjjg&6212260409010672304&0&
20071790040021512916&20071790040021512916&20200717&02000016&1815630269016&1815630269016&&1&2&1000000&CNY&0040&boshzjjg&6236680140004430430&0&
20071790040021512988&20071790040021512988&20200717&02000016&1813483296668&1813483296668&&1&2&200000&CNY&0040&boshzjjg&6210981340009307739&0&
20071790040021513144&20071790040021513144&20200717&02000016&1815184862521&1815184862521&&1&2&200000&CNY&0040&boshzjjg&6217003960002715767&0&
20071790040021513248&20071790040021513248&20200717&02000016&1813628822920&1813628822920&&1&2&1000000&CNY&0040&boshzjjg&6228483356067022064&0&
20071790040021513119&20071790040021513119&20200717&02000016&1819933596129&1819933596129&&1&2&200000&CNY&0040&boshzjjg&6217000140000892149&0&
20071790040021513189&20071790040021513189&20200717&02000016&1818707066198&1818707066198&&1&2&800000&CNY&0040&boshzjjg&6217994350003901205&0&
20071790040021513356&20071790040021513356&20200717&02000016&1813477507375&1813477507375&&1&2&203000&CNY&0040&boshzjjg&6228483829407852176&0&
20071790040021513221&20071790040021513221&20200717&02000016&1813166603992&1813166603992&&1&2&200000&CNY&0040&boshzjjg&6216690400002118605&0&
20071790040021513222&20071790040021513222&20200717&02000016&1815099982633&1815099982633&&1&2&203000&CNY&0040&boshzjjg&6228480086809959074&0&
20071790040021513292&20071790040021513292&20200717&02000016&1815198878191&1815198878191&&1&2&200000&CNY&0040&boshzjjg&6230520860057265279&0&
20071790040021513302&20071790040021513302&20200717&02000016&1813384678556&1813384678556&&1&2&200000&CNY&0040&boshzjjg&6228482686157751862&0&
20071790040021513373&20071790040021513373&20200717&02000016&1818213478317&1818213478317&&1&2&200000&CNY&0040&boshzjjg&6228483618628708477&0&
20071790040021513372&20071790040021513372&20200717&02000016&1813886996165&1813886996165&&1&2&800000&CNY&0040&boshzjjg&6228483829749262373&0&
20071790040021513397&20071790040021513397&20200717&02000016&1818992419179&1818992419179&&1&2&1000&CNY&0040&boshzjjg&6217853600052557104&0&
20071790040021513462&20071790040021513462&20200717&02000016&1813519170558&1813519170558&&1&2&196000&CNY&0040&boshzjjg&6227004226690084488&0&
20071790040021513410&20071790040021513410&20200717&02000016&1815690228885&1815690228885&&1&2&190000&CNY&0040&boshzjjg&6228481269208300079&0&
20071790040021513413&20071790040021513413&20200717&02000016&1815998071234&1815998071234&&1&2&200000&CNY&0040&boshzjjg&6228480588994488173&0&
20071790040021513534&20071790040021513534&20200717&02000016&1818662308075&1818662308075&&1&2&200000&CNY&0040&boshzjjg&6228272501244475678&0&
20071790040021513482&20071790040021513482&20200717&02000016&1815632218558&1815632218558&&1&2&200000&CNY&0040&boshzjjg&6217000140012460182&0&
20071790040021513558&20071790040021513558&20200717&02000016&1817731131026&1817731131026&&1&2&1000&CNY&0040&boshzjjg&6226622805626641&0&
20071790040021513687&20071790040021513687&20200717&02000016&1813315427245&1813315427245&&1&2&100&CNY&0040&boshzjjg&6228481269120727672&0&
20071790040021513617&20071790040021513617&20200717&02000016&1813315427245&1813315427245&&1&2&800000&CNY&0040&boshzjjg&6228481269120727672&0&
20071790040021513631&20071790040021513631&20200717&02000016&1813477507375&1813477507375&&1&2&800000&CNY&0040&boshzjjg&6228483829407852176&0&
20071790040021513769&20071790040021513769&20200717&02000016&1813730545089&1813730545089&&1&2&200000&CNY&0040&boshzjjg&6217000140039032352&0&
