清算中心流水号&交易所流水号&业务发生日期&交易所代码&会员编码&资金账号&出入金方式&出入金类型&出入金发起方&发生金额&币种&银行代码&银行产品代码&银行帐号&状态&备注
20072090040021513878&20072090040021513878&20200720&02000016&1815246429529&1815246429529&&1&2&10000&CNY&0040&boshzjjg&6221802610008390603&0&
20072090040021513949&20072090040021513949&20200720&02000016&1818287107880&1818287107880&&1&2&200000&CNY&0040&boshzjjg&6217003860036490199&0&
20072090040021513880&20072090040021513880&20200720&02000016&1815945927028&1815945927028&&1&2&200000&CNY&0040&boshzjjg&6217992610081898470&0&
20072090040021513826&20072090040021513826&20200720&02000016&1818787585469&1818787585469&&1&2&190000&CNY&0040&boshzjjg&6222032510000192579&0&
20072090040021513946&20072090040021513946&20200720&02000016&1815368491912&1815368491912&&1&2&200000&CNY&0040&boshzjjg&6228483968078551970&0&
20072090040021513945&20072090040021513945&20200720&02000016&1813466148055&1813466148055&&1&2&150000&CNY&0040&boshzjjg&6228483968594680378&0&
20072090040021513875&20072090040021513875&20200720&02000016&1800100000064&1800100000064&&1&2&500000&CNY&0040&boshzjjg&6228481269164514978&0&
20072090040021513823&20072090040021513823&20200720&02000016&1815517971188&1815517971188&&1&2&200000&CNY&0040&boshzjjg&6222031705000337643&0&
20072090040021513879&20072090040021513879&20200720&02000016&1815620030555&1815620030555&&1&2&110000&CNY&0040&boshzjjg&6222030302013325764&0&
20072090040021513825&20072090040021513825&20200720&02000016&1818787523983&1818787523983&&1&2&1000000&CNY&0040&boshzjjg&6217003960005216458&0&
20072090040021513822&20072090040021513822&20200720&02000016&1813987054343&1813987054343&&1&2&1000000&CNY&0040&boshzjjg&6228483968416931975&0&
20072090040021513821&20072090040021513821&20200720&02000016&1813846717749&1813846717749&&1&2&540000&CNY&0040&boshzjjg&6228482668266454471&0&
20072090040021513824&20072090040021513824&20200720&02000016&1815570046829&1815570046829&&1&2&182500&CNY&0040&boshzjjg&6214837943710115&0&
20072090040021513877&20072090040021513877&20200720&02000016&1815140004537&1815140004537&&1&2&197000&CNY&0040&boshzjjg&6228480048247084071&0&
20072090040021513944&20072090040021513944&20200720&02000016&1813320455230&1813320455230&&1&2&100&CNY&0040&boshzjjg&6228483358344570279&0&
20072090040021513881&20072090040021513881&20200720&02000016&1818788237107&1818788237107&&1&2&100&CNY&0040&boshzjjg&6228483358585387672&0&
20072090040021513948&20072090040021513948&20200720&02000016&1817737938169&1817737938169&&1&2&1000000&CNY&0040&boshzjjg&6210984930005642001&0&
20072030020100513976&UEY5QPYST9XP2BFK&20200720&02000016&1815709151444&1815709151444&&0&1&15045&CNY&0040&boshzjjg&6217004170001727701&0&
20072030020100513899&3MUOR6884YJT22FA&20200720&02000016&1815945927028&1815945927028&&0&1&200601&CNY&0040&boshzjjg&6217992610081898470&0&
20072030020100513979&C7WXSH6G96POZOJQ&20200720&02000016&1813324639668&1813324639668&&0&1&15045&CNY&0040&boshzjjg&6212960110000005918&0&
20072030020100514058&UWY4I0Y75ORZNOC7&20200720&02000016&1813379416382&1813379416382&&0&1&10030&CNY&0040&boshzjjg&6214483001100086904&0&
20072030020100514059&OAWBD0WHF02QN1RH&20200720&02000016&1818159800103&1818159800103&&0&1&30090&CNY&0040&boshzjjg&6217566400004211720&0&
20072030020100513905&4UA0RZ7CUD6D949G&20200720&02000016&1818870559010&1818870559010&&0&1&40120&CNY&0040&boshzjjg&6228482328475598374&0&
20072030020100513988&37Y7X38QZPZT33KR&20200720&02000016&1800100000031&1800100000031&&0&1&90270&CNY&0040&boshzjjg&6230521260013799371&0&
20072030020100513932&Q425ZXMUEXXAZLXZ&20200720&02000016&1815245431805&1815245431805&&0&1&40120&CNY&0040&boshzjjg&6222622380000218428&0&
20072030020100514138&59RCKVI350LEEA4Y&20200720&02000016&1815311367336&1815311367336&&0&1&187562&CNY&0040&boshzjjg&6236680140001986723&0&
20072030020100514084&C8QVRZHEACL9DW5C&20200720&02000016&1813836685281&1813836685281&&0&1&20060&CNY&0040&boshzjjg&6222622380000869378&0&
20072030020100514088&Y0ORLWEPN74OW3CY&20200720&02000016&1818779946893&1818779946893&&0&1&20060&CNY&0040&boshzjjg&6217231509001562623&0&
20072030020100514140&ESWP1DL32O1SSA42&20200720&02000016&1813370555380&1813370555380&&0&1&30090&CNY&0040&boshzjjg&6228480258142932072&0&
20072030020100514096&RH4GGZLKO7WX0UQ4&20200720&02000016&1818879647566&1818879647566&&0&1&100300&CNY&0040&boshzjjg&6217002020067630889&0&
20072030020100514021&H8OACE3YU79B5A0E&20200720&02000016&1815845182230&1815845182230&&0&1&10030&CNY&0040&boshzjjg&6217992610151656378&0&
20072030020100514022&KU6CBMYAMUDDA79Y&20200720&02000016&1815107963447&1815107963447&&0&1&13039&CNY&0040&boshzjjg&6215994350000163829&0&
20072030020100514023&PAP1VE2C1OVSKB9D&20200720&02000016&1800100000060&1800100000060&&0&1&110330&CNY&0040&boshzjjg&6228480198414160970&0&
20072030020100514026&ZAN5TX0J1E50Z41J&20200720&02000016&1813953133822&1813953133822&&0&1&10030&CNY&0040&boshzjjg&6228480256165687763&0&
20072030020100514027&7O7DHTQO2IZNH5WQ&20200720&02000016&1818979627512&1818979627512&&0&1&100300&CNY&0040&boshzjjg&6236562110001491183&0&
20072030020100514103&FO6LV0HLVUG0YCMV&20200720&02000016&1818468025462&1818468025462&&0&1&10030&CNY&0040&boshzjjg&6228483968612650775&0&
20072030020100514104&OATPBZ1WRGAIQ2GE&20200720&02000016&1800100000186&1800100000186&&0&1&30090&CNY&0040&boshzjjg&6217001180025883805&0&
20072030020100514155&C3S3ALAHXVR2OQK5&20200720&02000016&1813483277175&1813483277175&&0&1&38114&CNY&0040&boshzjjg&6217000140030095739&0&
20072030020100514030&VPG6FIGP9XYC07BF&20200720&02000016&1813930267945&1813930267945&&0&1&200601&CNY&0040&boshzjjg&6227000140710170793&0&
20072030020100514031&TQWXKPVXKUUO3RMG&20200720&02000016&1815807960001&1815807960001&&0&1&100300&CNY&0040&boshzjjg&6217002110006397771&0&
20072030020100514107&LI6GAEFDCRBEJQXC&20200720&02000016&1813577500356&1813577500356&&0&1&10030&CNY&0040&boshzjjg&6212262510000520615&0&
20072030020100514157&DVCZ16SKOK41HPN4&20200720&02000016&1815170899237&1815170899237&&0&1&10030&CNY&0040&boshzjjg&6217002110000855436&0&
20072030020100514110&R9KW4YCQDASKQQ59&20200720&02000016&1817689826169&1817689826169&&0&1&10030&CNY&0040&boshzjjg&6213360159902334672&0&
20072030020100514111&UYJX62FZATOPUS96&20200720&02000016&1815129737661&1815129737661&&0&1&621865&CNY&0040&boshzjjg&6217004140008222246&0&
20072030020100514235&QMEXTWEYCYLA426G&20200720&02000016&1817779639002&1817779639002&&0&1&100300&CNY&0040&boshzjjg&6222031509000196565&0&
20072030020100514167&DRWW9VNYJHCNS2NY&20200720&02000016&1813633226787&1813633226787&&0&1&11033&CNY&0040&boshzjjg&6217230409000055995&0&
20072030020100514181&CKJJOCX9JURRFS5P&20200720&02000016&1813082311311&1813082311311&&0&1&50150&CNY&0040&boshzjjg&6228481269123313074&0&
20072030020100514213&IZL398C65VCUP29B&20200720&02000016&1813891386808&1813891386808&&0&1&902708&CNY&0040&boshzjjg&6228482908679544371&0&
20072030020100514371&87D7FFJMLYUE3ZZE&20200720&02000016&1815930239024&1815930239024&&0&1&20060&CNY&0040&boshzjjg&6228481269243308178&0&
20072030020100514374&RFYRIGYR6KSNACZG&20200720&02000016&1818371580857&1818371580857&&0&1&100300&CNY&0040&boshzjjg&6228483829384377973&0&
20072030020100514382&QNGHNPRZM7K5BMED&20200720&02000016&1815802457305&1815802457305&&0&1&100300&CNY&0040&boshzjjg&6228480040516726615&0&
20072030020100514388&ONQI0D6G2PDLCZ6D&20200720&02000016&1813879606751&1813879606751&&0&1&50150&CNY&0040&boshzjjg&6228482318561698378&0&
20072030020100514445&WUZIHWUAJ6FF8FAB&20200720&02000016&1813230823996&1813230823996&&0&1&80240&CNY&0040&boshzjjg&6222020403012247439&0&
20072030020100514317&9DH14X3IV0ZX5G64&20200720&02000016&1815230406766&1815230406766&&0&1&80240&CNY&0040&boshzjjg&6228481269158683276&0&
20072030020100514392&HSNAQ36H7QM1QMKP&20200720&02000016&1819912156726&1819912156726&&0&1&20060&CNY&0040&boshzjjg&6212260409006270493&0&
20072030020100514393&2QIY6WW02JW1N3Y1&20200720&02000016&1818371580857&1818371580857&&0&1&10030&CNY&0040&boshzjjg&6228483829384377973&0&
20072030020100514398&M1QL31POHSI314P5&20200720&02000016&1815570046829&1815570046829&&0&1&190571&CNY&0040&boshzjjg&6214837943710115&0&
20072030020100514459&KA8GLCZXEM9B5TH5&20200720&02000016&1813903228890&1813903228890&&0&1&26078&CNY&0040&boshzjjg&4367420140818834371&0&
20072030020100514417&LQ7E7OBFQ9TNAFCO&20200720&02000016&1813833293648&1813833293648&&0&1&40120&CNY&0040&boshzjjg&6228481269151628674&0&
20072030020100514418&0EEWMHPUF5MZQMVR&20200720&02000016&1813988222217&1813988222217&&0&1&50150&CNY&0040&boshzjjg&6228483358594872474&0&
20072030020100514485&4TRM9FSVULX2E1US&20200720&02000016&1815208819237&1815208819237&&0&1&20060&CNY&0040&boshzjjg&6230523350004508275&0&
20072030020100514495&TDXQLK5VLWHMF0KD&20200720&02000016&1818803126206&1818803126206&&0&1&200601&CNY&0040&boshzjjg&4367420140038202151&0&
20072030020100514563&OMGRA865WQ8NN8RZ&20200720&02000016&1815028290277&1815028290277&&0&1&60180&CNY&0040&boshzjjg&6228481268300952175&0&
20072030020100514517&FQYTWDBTHTAS4NEI&20200720&02000016&1813478653378&1813478653378&&0&1&50150&CNY&0040&boshzjjg&6228480568011405673&0&
20072030020100514573&J24SFM6Y94A9J86V&20200720&02000016&1818834581128&1818834581128&&0&1&10030&CNY&0040&boshzjjg&6227001540050020699&0&
20072030020100514529&D8ZSSLRHGYR9T6ME&20200720&02000016&1800100000073&1800100000073&&0&1&250752&CNY&0040&boshzjjg&6228482688416581072&0&
20072030020100514584&RE9HYMRK0BR8ZE2I&20200720&02000016&1813080793849&1813080793849&&0&1&100300&CNY&0040&boshzjjg&6210810730022700372&0&
20072030020100514740&5L5YP78ZCFWS3M5Z&20200720&02000016&1813578273333&1813578273333&&0&1&601805&CNY&0040&boshzjjg&6228453358003254872&0&
20072030020100514686&1B7YA9NVA8IJNHNA&20200720&02000016&1818210293990&1818210293990&&0&1&20060&CNY&0040&boshzjjg&6236683320015427180&0&
20072030020100514595&M8YAT3I62JLM8E0S&20200720&02000016&1818046671766&1818046671766&&0&1&200601&CNY&0040&boshzjjg&6221884280018439609&0&
20072030020100514695&6861Y2G0VUY8F787&20200720&02000016&1800100000041&1800100000041&&0&1&60180&CNY&0040&boshzjjg&6228481268439100175&0&
20072030020100514698&7EF1ZI9UZPZ0WO0M&20200720&02000016&1815903321913&1815903321913&&0&1&11434&CNY&0040&boshzjjg&6227000140830097983&0&
20072030020100514612&6FQAWA793CWEQ603&20200720&02000016&1815880931399&1815880931399&&0&1&18054&CNY&0040&boshzjjg&6217906500035689627&0&
20072030020100514757&929OEDB6TN4LS6N8&20200720&02000016&1818779740474&1818779740474&&0&1&100300&CNY&0040&boshzjjg&6214837972324085&0&
20072030020100514758&1STVM2B008A6BTCL&20200720&02000016&1817192939341&1817192939341&&0&1&73219&CNY&0040&boshzjjg&6230520040019132277&0&
20072030020100514722&USP9G8SYE5S05HAN&20200720&02000016&1813988247562&1813988247562&&0&1&190571&CNY&0040&boshzjjg&6212262511001634553&0&
20072030020100514627&ZA3YJCIWBVIU6NU0&20200720&02000016&1818908752966&1818908752966&&0&1&200601&CNY&0040&boshzjjg&6215582510000004574&0&
20072030020100514628&1D9DFMIYQZZSV0UU&20200720&02000016&1813832293322&1813832293322&&0&1&30090&CNY&0040&boshzjjg&6228481269174012971&0&
20072030020100514729&VCI8ZECVCYRAT0OP&20200720&02000016&1818633328800&1818633328800&&0&1&40120&CNY&0040&boshzjjg&6228480656235877262&0&
20072030020100514937&GVRVHTCQQL3OPPAS&20200720&02000016&1813997953437&1813997953437&&0&1&20060&CNY&0040&boshzjjg&6213363829900696176&0&
20072030020100514791&Y7N0UNK4L9ALNUPT&20200720&02000016&1813961081945&1813961081945&&0&1&20060&CNY&0040&boshzjjg&6228483422865691714&0&
20072030020100514848&V74ZAUXDE3IR9R7V&20200720&02000016&1800100000063&1800100000063&&0&1&100300&CNY&0040&boshzjjg&6228482680558013519&0&
20072030020100514796&OF61IACOB5MYK1Y8&20200720&02000016&1813785222268&1813785222268&&0&1&20060&CNY&0040&boshzjjg&6228481268948566478&0&
20072030020100514797&O2E46CNTQDDQSWHG&20200720&02000016&1813477490018&1813477490018&&0&1&401203&CNY&0040&boshzjjg&6228483829747676673&0&
20072030020100514954&T5E3EJHIPW7YTXJN&20200720&02000016&1813932888853&1813932888853&&0&1&10030&CNY&0040&boshzjjg&6217991340013195743&0&
20072030020100514804&0F1CRHY7EUHOC0PI&20200720&02000016&1815801107589&1815801107589&&0&1&19057&CNY&0040&boshzjjg&6216690100009003954&0&
20072030020100514871&5SPUW9E6WUJ16QYD&20200720&02000016&1813098067177&1813098067177&&0&1&50150&CNY&0040&boshzjjg&6215592609002479863&0&
20072030020100514878&LZ7AVBUGF8E1FKJZ&20200720&02000016&1818962060606&1818962060606&&0&1&220661&CNY&0040&boshzjjg&6228481980808931010&0&
20072030020100514883&4TC7MOYA71XCHZHF&20200720&02000016&1815824461587&1815824461587&&0&1&180541&CNY&0040&boshzjjg&6228480321505768911&0&
20072030020100514820&SEKR759RGG16SBPL&20200720&02000016&1818604689751&1818604689751&&0&1&9027&CNY&0040&boshzjjg&6236681050000025002&0&
20072030020100514885&CSAIQOCTAQ37KQOF&20200720&02000016&1815072485085&1815072485085&&0&1&40120&CNY&0040&boshzjjg&6217002870006494965&0&
20072030020100514824&9ARYJI5STUM1TX0X&20200720&02000016&1815094665586&1815094665586&&0&1&10030&CNY&0040&boshzjjg&6228482680844141017&0&
20072030020100514826&ULDZLKELYJY0RSR5&20200720&02000016&1815097408526&1815097408526&&0&1&10130&CNY&0040&boshzjjg&6217855000063369987&0&
20072030020100514976&YEEWTK1LYSD3NFBO&20200720&02000016&1813931380155&1813931380155&&0&1&50150&CNY&0040&boshzjjg&6228481262203130013&0&
20072030020100514897&3I0VMK3VG14IUSR4&20200720&02000016&1815137614144&1815137614144&&0&1&12637&CNY&0040&boshzjjg&6228482398538071578&0&
20072030020100514905&8ASIDD3UQS9ZWLXB&20200720&02000016&1818714555279&1818714555279&&0&1&21063&CNY&0040&boshzjjg&6013825311000638164&0&
20072030020100515046&E4S051J5O0L5N3XQ&20200720&02000016&1815208999328&1815208999328&&0&1&20060&CNY&0040&boshzjjg&6230520150011399475&0&
20072030020100514910&XKFB1FEOHGUE33W0&20200720&02000016&1813930896039&1813930896039&&0&1&40120&CNY&0040&boshzjjg&6222080409001690213&0&
20072030020100514989&PFX1R9JISK8455AN&20200720&02000016&1818875037395&1818875037395&&0&1&10230&CNY&0040&boshzjjg&6228480479009445673&0&
20072030020100515052&RGMT0MBCGK775S3V&20200720&02000016&1817304211987&1817304211987&&0&1&10030&CNY&0040&boshzjjg&6217992340002158842&0&
20072030020100514920&VH36HRG86VOZUQNO&20200720&02000016&1818931287322&1818931287322&&0&1&40120&CNY&0040&boshzjjg&6222621360000937418&0&
20072030020100515000&USA267SWVIUAQ8PR&20200720&02000016&1813619405650&1813619405650&&0&1&180541&CNY&0040&boshzjjg&6228481439237393078&0&
20072030020100515069&UE0SD4GV6DNZDPLU&20200720&02000016&1818131201300&1818131201300&&0&1&100300&CNY&0040&boshzjjg&6236680140000463443&0&
20072030020100514928&09Y4CZSOH5HWA30Y&20200720&02000016&1800100000066&1800100000066&&0&1&250752&CNY&0040&boshzjjg&6216615002005232763&0&
20072030020100514932&7PZR4TAP9IU66BA6&20200720&02000016&1815613502427&1815613502427&&0&1&30090&CNY&0040&boshzjjg&6231562800348242&0&
20072030020100515010&HUIKFLJB0Q34E1O5&20200720&02000016&1813082311311&1813082311311&&0&1&10030&CNY&0040&boshzjjg&6228481269123313074&0&
20072030020100515076&M8NFDX8J336NT7A0&20200720&02000016&1815818598480&1815818598480&&0&1&20060&CNY&0040&boshzjjg&6230520120003213679&0&
20072030020100515135&HH3456TWE5OAOLCS&20200720&02000016&1817689826169&1817689826169&&0&1&10030&CNY&0040&boshzjjg&6213360159902334672&0&
20072030020100515081&DJTB1VGI6WZG96BF&20200720&02000016&1818637622966&1818637622966&&0&1&21063&CNY&0040&boshzjjg&6228482398984921078&0&
20072030020100515141&EDYE99O2SVHRPZG4&20200720&02000016&1818869202035&1818869202035&&0&1&70210&CNY&0040&boshzjjg&6228483358609435374&0&
20072030020100515084&GEH6KAFH8M75D4GX&20200720&02000016&1813932525581&1813932525581&&0&1&10030&CNY&0040&boshzjjg&6222030403007280369&0&
20072030020100515088&56AF0W6ZER3SS3D0&20200720&02000016&1813577525294&1813577525294&&0&1&20060&CNY&0040&boshzjjg&6217003960003627946&0&
20072030020100515022&40NV5X7OU1MDEGNM&20200720&02000016&1818940967978&1818940967978&&0&1&50150&CNY&0040&boshzjjg&6221502223000134244&0&
20072030020100515089&J0V215C7H0SD7I4T&20200720&02000016&1818032526472&1818032526472&&0&1&40120&CNY&0040&boshzjjg&6222030403005785591&0&
20072030020100515149&6H0QLSKK35XSA4CR&20200720&02000016&1818208471819&1818208471819&&0&1&40120&CNY&0040&boshzjjg&6212262403007033727&0&
20072030020100515151&RSJ4DNQ8OZMVVY1K&20200720&02000016&1813988202057&1813988202057&&0&1&10030&CNY&0040&boshzjjg&6217003970002588692&0&
20072030020100515028&MKCS1U3AL0YYO73Z&20200720&02000016&1800100000071&1800100000071&&0&1&70210&CNY&0040&boshzjjg&6228272226027369472&0&
20072030020100515158&3RDH4EZR9MYCU4SV&20200720&02000016&1813987242668&1813987242668&&0&1&5015&CNY&0040&boshzjjg&6228483348467598579&0&
20072030020100515033&J9LVNOJ68J2WBS06&20200720&02000016&1816689634186&1816689634186&&0&1&10030&CNY&0040&boshzjjg&6217232201004854152&0&
20072030020100515163&ALOXTAB37S3S8KAD&20200720&02000016&1813683131563&1813683131563&&0&1&10030&CNY&0040&boshzjjg&6228481009189128077&0&
20072030020100515102&5S6Y4S34WU7CED3O&20200720&02000016&1818191539413&1818191539413&&0&1&50150&CNY&0040&boshzjjg&6228482906150002661&0&
20072030020100515235&P8MSU1K2B7ZDGK7W&20200720&02000016&1800100000140&1800100000140&&0&1&20060&CNY&0040&boshzjjg&6212260409010694019&0&
20072030020100515105&JC4JX0GFIWTD1CED&20200720&02000016&1813949291950&1813949291950&&0&1&6018&CNY&0040&boshzjjg&6212261705012004548&0&
20072030020100515238&GEGZSCHLN23GVQ9P&20200720&02000016&1813628894679&1813628894679&&0&1&100300&CNY&0040&boshzjjg&6228483358594425570&0&
20072030020100515239&XIP1U99U6ZWCA2ZK&20200720&02000016&1815951703440&1815951703440&&0&1&60180&CNY&0040&boshzjjg&6217002200016513150&0&
20072030020100515173&05LNDLLLSWQP9Q5R&20200720&02000016&1815561743759&1815561743759&&0&1&10030&CNY&0040&boshzjjg&6228482688418322475&0&
20072030020100515249&WNIP2U2JF589T9YL&20200720&02000016&1815512595393&1815512595393&&0&1&10030&CNY&0040&boshzjjg&6226195301284009&0&
20072030020100515126&17SA22ZT1FGG4L57&20200720&02000016&1813383626357&1813383626357&&0&1&50150&CNY&0040&boshzjjg&6228481266482264062&0&
20072030020100515128&PWS6PYA8FTAE4KK2&20200720&02000016&1813628842075&1813628842075&&0&1&200601&CNY&0040&boshzjjg&6228483358606381670&0&
20072030020100515259&CT3JCNXGLDTAZOC6&20200720&02000016&1813224207506&1813224207506&&0&1&20060&CNY&0040&boshzjjg&6228480568130950773&0&
20072030020100515188&7R5QBGW7KW71I4A3&20200720&02000016&1815131610496&1815131610496&&0&1&20060&CNY&0040&boshzjjg&6217000140005782865&0&
20072030020100515263&WA5IVEZHP9KHWZ55&20200720&02000016&1818187582339&1818187582339&&0&1&10030&CNY&0040&boshzjjg&6230523960012293072&0&
20072030020100515339&FECLC6FXRPGLVVVF&20200720&02000016&1813673128038&1813673128038&&0&1&10030&CNY&0040&boshzjjg&6228481266180496164&0&
20072030020100515266&YV7FJKFK5DTVJ04F&20200720&02000016&1815245436282&1815245436282&&0&1&10030&CNY&0040&boshzjjg&6217992610164485211&0&
20072030020100515341&LR5N14MOQAWN6V7Q&20200720&02000016&1815887508589&1815887508589&&0&1&20060&CNY&0040&boshzjjg&6212262510001682521&0&
20072030020100515271&4E907TUGQL9UT5S0&20200720&02000016&1813556430912&1813556430912&&0&1&10030&CNY&0040&boshzjjg&6222082003002115920&0&
20072030020100515351&OYAWWNF8218WVP4N&20200720&02000016&1815076235183&1815076235183&&0&1&80240&CNY&0040&boshzjjg&6228480659132065874&0&
20072030020100515283&F8H67370FLX7R9GZ&20200720&02000016&1815630880329&1815630880329&&0&1&10130&CNY&0040&boshzjjg&4563515005004515888&0&
20072030020100515358&2V3J1CL5R9Z374K9&20200720&02000016&1815208808189&1815208808189&&0&1&30090&CNY&0040&boshzjjg&6228483350106186410&0&
20072030020100515207&XXR3N6WKLQW701TH&20200720&02000016&1817751565108&1817751565108&&0&1&30090&CNY&0040&boshzjjg&6228481988222307477&0&
20072030020100515208&XLL6XHEYM7GPA9BU&20200720&02000016&1813703151462&1813703151462&&0&1&10030&CNY&0040&boshzjjg&6217855000054129564&0&
20072030020100515292&Y31ZIGC3ROURT0AB&20200720&02000016&1813400267349&1813400267349&&0&1&10130&CNY&0040&boshzjjg&6217865000008146647&0&
20072030020100515364&HW699KV4A62EVEKN&20200720&02000016&1815126963815&1815126963815&&0&1&40120&CNY&0040&boshzjjg&6217902700004471866&0&
20072030020100515366&U714MFXWT7RTWXFF&20200720&02000016&1815230282596&1815230282596&&0&1&190571&CNY&0040&boshzjjg&6217000140016939173&0&
20072030020100515217&Q6OLLZ4ZX51AI88C&20200720&02000016&1813578288004&1813578288004&&0&1&70210&CNY&0040&boshzjjg&6217212511000078828&0&
20072030020100515305&BAPA742VRS2IH4AX&20200720&02000016&1813477461038&1813477461038&&0&1&20060&CNY&0040&boshzjjg&6228483821578495711&0&
20072030020100515306&37YBN0FXY2UII05Q&20200720&02000016&1813231744099&1813231744099&&0&1&180541&CNY&0040&boshzjjg&6217933535108953&0&
20072030020100515307&F0G0J4UWDUUJ91KS&20200720&02000016&1815945537804&1815945537804&&0&1&30090&CNY&0040&boshzjjg&6214854512545681&0&
20072030020100515309&CS0A75CRQ5UEUCQD&20200720&02000016&1813932211661&1813932211661&&0&1&10030&CNY&0040&boshzjjg&6212260409009915227&0&
20072030020100515326&NW5QFTPBLPFHHY76&20200720&02000016&1813194551998&1813194551998&&0&1&50150&CNY&0040&boshzjjg&6217001070014442525&0&
20072030020100515232&TTJY99WG7MBVA9DE&20200720&02000016&1813846055840&1813846055840&&0&1&20060&CNY&0040&boshzjjg&4367421041460035508&0&
20072030020100515377&R05RZV7VI9UP1A4X&20200720&02000016&1813988222092&1813988222092&&0&1&20060&CNY&0040&boshzjjg&6230523350002530776&0&
20072030020100515378&3NFBK2IGCB1CY721&20200720&02000016&1813089614313&1813089614313&&0&1&30090&CNY&0040&boshzjjg&6217001070010529762&0&
20072030020100515328&9EMC3U57T3JM9IXJ&20200720&02000016&1813643126078&1813643126078&&0&1&50150&CNY&0040&boshzjjg&6228481269143994077&0&
20072030020100515330&TOU4SQ2S2HPMHOMC&20200720&02000016&1815161960908&1815161960908&&0&1&20060&CNY&0040&boshzjjg&6236681320001941667&0&
20072030020100515331&3EZVTTKWOEWX94EN&20200720&02000016&1815232607038&1815232607038&&0&1&10030&CNY&0040&boshzjjg&6228480652067343614&0&
20072030020100515380&ENLILOBZEB5JKSJS&20200720&02000016&1815342938753&1815342938753&&0&1&50150&CNY&0040&boshzjjg&6213363829900696275&0&
20072030020100515437&SO7VT8GTJWCXECWX&20200720&02000016&1819845365701&1819845365701&&0&1&20060&CNY&0040&boshzjjg&6212260907002737423&0&
20072030020100515536&T9KANAWHFYDH5J9B&20200720&02000016&1813623333299&1813623333299&&0&1&26078&CNY&0040&boshzjjg&6228480658461337573&0&
20072030020100515384&M1K7FAAO40D81XOK&20200720&02000016&1818233358282&1818233358282&&0&1&25175&CNY&0040&boshzjjg&6236680140003081960&0&
20072030020100515538&XZIHJ9BDYNXHNCFA&20200720&02000016&1813931205191&1813931205191&&0&1&19057&CNY&0040&boshzjjg&6222020409027711541&0&
20072030020100515386&XHGX9EL586J4ZTZJ&20200720&02000016&1800100000188&1800100000188&&0&1&30090&CNY&0040&boshzjjg&6228481890389855613&0&
20072030020100515387&N6GJCO1OYTE97FTM&20200720&02000016&1815871931238&1815871931238&&0&1&20060&CNY&0040&boshzjjg&6236682700001675796&0&
20072030020100515389&MPMH8CQ3EPPE763U&20200720&02000016&1815845320444&1815845320444&&0&1&60180&CNY&0040&boshzjjg&6215580907001057555&0&
20072030020100515542&2NP87B7PBJBXEMIJ&20200720&02000016&1815208849678&1815208849678&&0&1&10030&CNY&0040&boshzjjg&6217997300081286679&0&
20072030020100515549&HXSB6LER51KNTC8W&20200720&02000016&1800100000036&1800100000036&&0&1&60180&CNY&0040&boshzjjg&6228480928463461170&0&
20072030020100515450&5C7U5F9U8I1SHT9Z&20200720&02000016&1815032925000&1815032925000&&0&1&20060&CNY&0040&boshzjjg&6228480658999329670&0&
20072030020100515451&CZJ0GKI7NO0PETOX&20200720&02000016&1813836555299&1813836555299&&0&1&30090&CNY&0040&boshzjjg&6228482678422975475&0&
20072030020100515559&FW3NP626KK71DCGW&20200720&02000016&1815133232674&1815133232674&&0&1&10030&CNY&0040&boshzjjg&6228481269291377877&0&
20072030020100515560&6K7BGMWED6Q34TG7&20200720&02000016&1815128477807&1815128477807&&0&1&18655&CNY&0040&boshzjjg&6236680140004022195&0&
20072030020100515452&A89K8VWUPZ33776L&20200720&02000016&1813400336006&1813400336006&&0&1&50150&CNY&0040&boshzjjg&6227000140710176493&0&
20072030020100515410&XJYQBE9U419P785T&20200720&02000016&1815682951846&1815682951846&&0&1&60180&CNY&0040&boshzjjg&6222032709000584138&0&
20072030020100515564&8A43QO28834CZUQJ&20200720&02000016&1818921860818&1818921860818&&0&1&20060&CNY&0040&boshzjjg&6228431989604774772&0&
20072030020100515411&EYBES9KGQ8POQA9W&20200720&02000016&1813274543299&1813274543299&&0&1&30090&CNY&0040&boshzjjg&6212260904005137735&0&
20072030020100515412&4QV1Z308GA3SGETX&20200720&02000016&1813545932491&1813545932491&&0&1&40120&CNY&0040&boshzjjg&6228453828123642370&0&
20072030020100515469&UMO89Y7WRHY842SF&20200720&02000016&1818689707602&1818689707602&&0&1&10030&CNY&0040&boshzjjg&6228480158299224671&0&
20072030020100515585&XX5X0JZSN96GKEIE&20200720&02000016&1818010518350&1818010518350&&0&1&50150&CNY&0040&boshzjjg&6222600530010881823&0&
20072030020100515433&ROK60V3EJU1394PF&20200720&02000016&1813779597882&1813779597882&&0&1&50150&CNY&0040&boshzjjg&6227004630301848480&0&
20072030020100515634&6GRP4Z5Z9PCTR59D&20200720&02000016&1818288100018&1818288100018&&0&1&10030&CNY&0040&boshzjjg&6217852700022290108&0&
20072030020100515635&94KZ83O954GAHQXS&20200720&02000016&1813159989877&1813159989877&&0&1&50150&CNY&0040&boshzjjg&6228480190286820013&0&
20072030020100515636&EYYI20QTWLLSNVBJ&20200720&02000016&1817317033540&1817317033540&&0&1&20060&CNY&0040&boshzjjg&6217000140040036566&0&
20072030020100515481&NA422SX7KJ4VFMVU&20200720&02000016&1815887550134&1815887550134&&0&1&70210&CNY&0040&boshzjjg&6217003970000160544&0&
20072030020100515588&JVXSJT13EXPVU361&20200720&02000016&1818604681909&1818604681909&&0&1&24072&CNY&0040&boshzjjg&6217992610209647056&0&
20072030020100515596&9SH3K3371QEX3F36&20200720&02000016&1818889422056&1818889422056&&0&1&20060&CNY&0040&boshzjjg&6228410150025333913&0&
20072030020100515597&TNCA1ZHUG3LBO5XC&20200720&02000016&1813235522109&1813235522109&&0&1&60180&CNY&0040&boshzjjg&4563517612300638286&0&
20072030020100515600&YNYEVT2QDU36EV2U&20200720&02000016&1817703687887&1817703687887&&0&1&10030&CNY&0040&boshzjjg&6217855300030641983&0&
20072030020100515649&V5RDW7Y90FILXV0X&20200720&02000016&1813990752155&1813990752155&&0&1&10030&CNY&0040&boshzjjg&6230523350013669571&0&
20072030020100515601&E6JK6ITNMJN2RO2E&20200720&02000016&1813808781900&1813808781900&&0&1&60180&CNY&0040&boshzjjg&6228483358379078776&0&
20072030020100515494&RD1QW5PYZ9LTSJDR&20200720&02000016&1815033799920&1815033799920&&0&1&80240&CNY&0040&boshzjjg&6217000140028808507&0&
20072030020100515496&T4GTXQDVDQYTNGTI&20200720&02000016&1813831527971&1813831527971&&0&1&10030&CNY&0040&boshzjjg&6228480656113277262&0&
20072030020100515607&2ZZ4IIQHV9IO3LU2&20200720&02000016&1818987916256&1818987916256&&0&1&200601&CNY&0040&boshzjjg&6236684020000323225&0&
20072030020100515656&BSESX9F2Z6GR18HW&20200720&02000016&1815933126808&1815933126808&&0&1&100300&CNY&0040&boshzjjg&6228481261924832113&0&
20072030020100515660&AVWSANGZBMY12THC&20200720&02000016&1818976770088&1818976770088&&0&1&25075&CNY&0040&boshzjjg&6212262201024968523&0&
20072030020100515661&VA5AYB0HISW0V960&20200720&02000016&1815211571887&1815211571887&&0&1&90270&CNY&0040&boshzjjg&6228481691102790115&0&
20072030020100515503&26K8LZ199QORG2VV&20200720&02000016&1813510564251&1813510564251&&0&1&10030&CNY&0040&boshzjjg&6217007200008195755&0&
20072030020100515662&9RILQ2S54U2T7YYZ&20200720&02000016&1813619647900&1813619647900&&0&1&100300&CNY&0040&boshzjjg&6217003860019630217&0&
20072030020100515614&JAT97SLCWMPJJ0X8&20200720&02000016&1815042400515&1815042400515&&0&1&10030&CNY&0040&boshzjjg&6215583400006811017&0&
20072030020100515615&3E7N54AI1TZFY7Z0&20200720&02000016&1815903327688&1815903327688&&0&1&30090&CNY&0040&boshzjjg&6227000143210282613&0&
20072030020100515663&EOTGMTFPM4RD7P45&20200720&02000016&1813009970011&1813009970011&&0&1&20060&CNY&0040&boshzjjg&6221802610007911698&0&
20072030020100515617&04F1L0PILB52P7Q9&20200720&02000016&1818288188088&1818288188088&&0&1&501504&CNY&0040&boshzjjg&4367423970030033718&0&
20072030020100515664&FD5HHBGJWXREODCP&20200720&02000016&1813315236132&1813315236132&&0&1&60180&CNY&0040&boshzjjg&6235010151300125775&0&
20072030020100515666&X2KL8YCIYVEGFA8F&20200720&02000016&1815333225923&1815333225923&&0&1&20060&CNY&0040&boshzjjg&6212260409019012403&0&
20072030020100515622&V4XFNBC3WZ9XWAXK&20200720&02000016&1815871603029&1815871603029&&0&1&30090&CNY&0040&boshzjjg&6228480779736724674&0&
20072030020100515623&2ZPLVEL1J4QOEBWC&20200720&02000016&1818161735141&1818161735141&&0&1&10030&CNY&0040&boshzjjg&6217997900073030546&0&
20072030020100515624&UDLN43V9RZ0G6YLJ&20200720&02000016&1813988222092&1813988222092&&0&1&10030&CNY&0040&boshzjjg&6230523350002530776&0&
20072030020100515506&H6HOSZKMSBWBI9OO&20200720&02000016&1815969250481&1815969250481&&0&1&20060&CNY&0040&boshzjjg&6212262511001991102&0&
20072030020100515513&CJFJOV5A49VDUXF5&20200720&02000016&1813131233580&1813131233580&&0&1&10030&CNY&0040&boshzjjg&6228481268625339272&0&
20072030020100515685&0FOLTGFJYTU4I1KU&20200720&02000016&1813231500951&1813231500951&&0&1&10030&CNY&0040&boshzjjg&6230520650040854077&0&
20072030020100515518&4VTC6KYTRZUB7S1Q&20200720&02000016&1813946779996&1813946779996&&0&1&20060&CNY&0040&boshzjjg&6212260906002203667&0&
20072030020100515686&AOB7MGO12XIDMGGQ&20200720&02000016&1813009971181&1813009971181&&0&1&10030&CNY&0040&boshzjjg&6228272226029639070&0&
20072030020100515742&GVUL3F6XKC20JX78&20200720&02000016&1815716865625&1815716865625&&0&1&30090&CNY&0040&boshzjjg&6217855000043214923&0&
20072030020100515519&O45SJTANIGDT5AXS&20200720&02000016&1815389494945&1815389494945&&0&1&15045&CNY&0040&boshzjjg&6215592605003645908&0&
20072030020100515690&W3VZMD0GNDHSCP0M&20200720&02000016&1815227098333&1815227098333&&0&1&10030&CNY&0040&boshzjjg&6228481261798664410&0&
20072030020100515523&4ANIJDQ7KVQJHANM&20200720&02000016&1818313096871&1818313096871&&0&1&140421&CNY&0040&boshzjjg&6228483358596905173&0&
20072030020100515692&E45TVHHSL3WNGT4J&20200720&02000016&1813065172689&1813065172689&&0&1&12036&CNY&0040&boshzjjg&6217866500005332008&0&
20072030020100515526&KJLA31X19DHDAKUL&20200720&02000016&1813191758429&1813191758429&&0&1&10030&CNY&0040&boshzjjg&6217991240007416891&0&
20072030020100515748&4Y2K6ELP2JQDDQBA&20200720&02000016&1818746536689&1818746536689&&0&1&40120&CNY&0040&boshzjjg&6217992610004803524&0&
20072030020100515529&LBBKYNYEZ9I55AIR&20200720&02000016&1813587765311&1813587765311&&0&1&20060&CNY&0040&boshzjjg&6236681420015050297&0&
20072030020100515695&VRT1KSCRYKPRFD0S&20200720&02000016&1813784968001&1813784968001&&0&1&20060&CNY&0040&boshzjjg&6217855000023522337&0&
20072030020100515836&MBHLZFMKV4KVPIHF&20200720&02000016&1813709999208&1813709999208&&0&1&50150&CNY&0040&boshzjjg&6228250898033405676&0&
20072030020100515755&SIODOVFW2KB0TO85&20200720&02000016&1813832296893&1813832296893&&0&1&10030&CNY&0040&boshzjjg&6216605000008103157&0&
20072030020100515706&2DGW3YX6SUFQ076N&20200720&02000016&1815771836378&1815771836378&&0&1&14042&CNY&0040&boshzjjg&6215592605004136980&0&
20072030020100515838&RNAWA9ECUHEJY73K&20200720&02000016&1815887508592&1815887508592&&0&1&40120&CNY&0040&boshzjjg&6230523960006051478&0&
20072030020100515758&804G2JRD5O5K8N7F&20200720&02000016&1815200093418&1815200093418&&0&1&20060&CNY&0040&boshzjjg&6214670140000988976&0&
20072030020100515759&RM35Q41KP4DTIRC3&20200720&02000016&1815199992139&1815199992139&&0&1&50150&CNY&0040&boshzjjg&6222033006004654648&0&
20072030020100515841&Z4UD9AQWS9007R83&20200720&02000016&1815188796075&1815188796075&&0&1&50150&CNY&0040&boshzjjg&6222030409004028883&0&
20072030020100515843&SUGKLFSOIXF1IQE3&20200720&02000016&1813730509445&1813730509445&&0&1&10030&CNY&0040&boshzjjg&6228480659117817778&0&
20072030020100515845&BF53QGEPQ76EWBZP&20200720&02000016&1813164343454&1813164343454&&0&1&15045&CNY&0040&boshzjjg&6217868000010167687&0&
20072030020100515846&C2Y2Q9WXTZ85206L&20200720&02000016&1813398988138&1813398988138&&0&1&1003&CNY&0040&boshzjjg&6227003525310079120&0&
20072030020100515851&8UEGZPQJXE9LCY0L&20200720&02000016&1818009990778&1818009990778&&0&1&50150&CNY&0040&boshzjjg&6217233006000810358&0&
20072030020100515863&D4SBCVK0HDC2V98X&20200720&02000016&1800100000022&1800100000022&&0&1&200601&CNY&0040&boshzjjg&6212260409014547189&0&
20072030020100515777&YYJ6BL7F6TS04ZVN&20200720&02000016&1813191775000&1813191775000&&0&1&100300&CNY&0040&boshzjjg&6228480659144404376&0&
20072030020100515778&GE2UTMXFKN5O44FJ&20200720&02000016&1818345857865&1818345857865&&0&1&20060&CNY&0040&boshzjjg&6228412670034997919&0&
20072030020100515782&WGV6EBBB6I2JW8QR&20200720&02000016&1818674148199&1818674148199&&0&1&150451&CNY&0040&boshzjjg&6228483829038873773&0&
20072030020100515868&13NF0BP9G9CACIHG&20200720&02000016&1815184855733&1815184855733&&0&1&100300&CNY&0040&boshzjjg&6230523960012469870&0&
20072030020100515785&E2PK339R07WGDIGE&20200720&02000016&1813308821769&1813308821769&&0&1&155967&CNY&0040&boshzjjg&6236683970000107203&0&
20072030020100515726&EMNXTJG3T3LCDUZ3&20200720&02000016&1813887868883&1813887868883&&0&1&100300&CNY&0040&boshzjjg&6214993970005596&0&
20072030020100515789&R2GLCLK9D0Y47LHX&20200720&02000016&1815184848605&1815184848605&&0&1&90270&CNY&0040&boshzjjg&6228483966003082665&0&
20072030020100515886&QP6ZJY5TBQRQ9O2V&20200720&02000016&1818713290860&1818713290860&&0&1&20060&CNY&0040&boshzjjg&6228480010458467718&0&
20072030020100515892&RYJZZYNBOHT5D94D&20200720&02000016&1813577503685&1813577503685&&0&1&651955&CNY&0040&boshzjjg&6222082510000034051&0&
20072030020100515951&60R5F4TMULBL7OW4&20200720&02000016&1800100000221&1800100000221&&0&1&50150&CNY&0040&boshzjjg&6212260409014146438&0&
20072030020100515899&83XODEWJNW8QXL6G&20200720&02000016&1818331230111&1818331230111&&0&1&10030&CNY&0040&boshzjjg&6216695000011851371&0&
20072030020100515806&S70KY29WXP9DUBAT&20200720&02000016&1813031511388&1813031511388&&0&1&10030&CNY&0040&boshzjjg&6217000180011149501&0&
20072030020100515901&Z4ZDZFCZHLDKCSN3&20200720&02000016&1815804065247&1815804065247&&0&1&10030&CNY&0040&boshzjjg&6228480048986502473&0&
20072030020100515958&PU0MVDH0Z2TT3O0F&20200720&02000016&1813230331640&1813230331640&&0&1&10030&CNY&0040&boshzjjg&6228480649169025172&0&
20072030020100515906&ERUOPNP3M4O1UXQE&20200720&02000016&1815207962519&1815207962519&&0&1&100300&CNY&0040&boshzjjg&6226822200018047404&0&
20072030020100515960&Q43JXOA0BDF8E5O1&20200720&02000016&1815633362628&1815633362628&&0&1&10030&CNY&0040&boshzjjg& 6216695000010405609&0&
20072030020100515815&Z90KYQ16GTU2U055&20200720&02000016&1813785550440&1813785550440&&0&1&30090&CNY&0040&boshzjjg&6222020403024592509&0&
20072030020100515816&GGL3X520RPSGELQ1&20200720&02000016&1815511520473&1815511520473&&0&1&10030&CNY&0040&boshzjjg&6228230655150233363&0&
20072030020100515962&IWU3VLJ11ATZZE7E&20200720&02000016&1813191684413&1813191684413&&0&1&50150&CNY&0040&boshzjjg&6217000140024766428&0&
20072030020100515818&RMTY0R2F0ZVWSKT2&20200720&02000016&1818131516269&1818131516269&&0&1&20060&CNY&0040&boshzjjg&6228480659211340974&0&
20072030020100515911&FNZHVBWAEN6BDLC4&20200720&02000016&1817863386188&1817863386188&&0&1&50150&CNY&0040&boshzjjg&6217002240009933759&0&
20072030020100515917&672IW790L760FA0J&20200720&02000016&1813191684413&1813191684413&&0&1&5015&CNY&0040&boshzjjg&6217000140024766428&0&
20072030020100515824&6B3U4YFHGC8SPGUO&20200720&02000016&1817789888843&1817789888843&&0&1&20060&CNY&0040&boshzjjg&6222022201008354302&0&
20072030020100515920&UD3MCCEWN6Z8MEK4&20200720&02000016&1818691191808&1818691191808&&0&1&501504&CNY&0040&boshzjjg&6215583700004872469&0&
20072030020100515998&L7BY19KPVHVWWXHE&20200720&02000016&1815187507752&1815187507752&&0&1&50150&CNY&0040&boshzjjg&6212262511001960941&0&
20072030020100516049&0DAHYBZI00M0SGDE&20200720&02000016&1819987541980&1819987541980&&0&1&12036&CNY&0040&boshzjjg&6230520600054738872&0&
20072030020100516052&AIOF4G67QOXZXDZW&20200720&02000016&1818431266975&1818431266975&&0&1&10030&CNY&0040&boshzjjg&6217000140034044378&0&
20072030020100516151&Z0CD6RX9CO7GPD84&20200720&02000016&1818725226619&1818725226619&&0&1&20060&CNY&0040&boshzjjg&6228483968609868174&0&
20072030020100516001&PNG5570X8ZYZA0QE&20200720&02000016&1815887550134&1815887550134&&0&1&1003&CNY&0040&boshzjjg&6217003970000160544&0&
20072030020100516153&MDG3DDAZQ4HNYNO4&20200720&02000016&1813115388030&1813115388030&&0&1&10030&CNY&0040&boshzjjg&6217001050005109317&0&
20072030020100516011&Y764AUTNPPFOSKWX&20200720&02000016&1818088174982&1818088174982&&0&1&10030&CNY&0040&boshzjjg&6228483358609352975&0&
20072030020100516168&WNOI1R46OV7AXCVO&20200720&02000016&1813739822199&1813739822199&&0&1&10230&CNY&0040&boshzjjg&6230520650041673575&0&
20072030020100516023&7SQI2RYH0N62RRYF&20200720&02000016&1818137951359&1818137951359&&0&1&210631&CNY&0040&boshzjjg&6217002450009746032&0&
20072030020100516169&ME7ZBIJWBAAMJHJI&20200720&02000016&1813703283113&1813703283113&&0&1&30090&CNY&0040&boshzjjg&6228481268439092075&0&
20072030020100516031&KP2YGBX1QZZHTTUT&20200720&02000016&1817787967505&1817787967505&&0&1&150451&CNY&0040&boshzjjg&6230523350010921678&0&
20072030020100516087&SZ9YA7DOBZ2FF27E&20200720&02000016&1818087566024&1818087566024&&0&1&20060&CNY&0040&boshzjjg&6217003960000861399&0&
20072030020100516092&QCN2PVX3LBE4R4DP&20200720&02000016&1815045780767&1815045780767&&0&1&50150&CNY&0040&boshzjjg&6212260907001933650&0&
20072030020100516186&KQXNHAR6UMKZZB0Y&20200720&02000016&1813578268057&1813578268057&&0&1&30090&CNY&0040&boshzjjg&6217003970003416869&0&
20072030020100516104&NLISDYJ5F5ID7PE7&20200720&02000016&1815613265118&1815613265118&&0&1&1&CNY&0040&boshzjjg&6228481268884741077&0&
20072030020100516110&1NHSYW274WDT206L&20200720&02000016&1818909995887&1818909995887&&0&1&50150&CNY&0040&boshzjjg&6222033006001389313&0&
20072030020100516259&K0TRSBZ809J1U5FD&20200720&02000016&1815108646659&1815108646659&&0&1&20060&CNY&0040&boshzjjg&6228413353037590564&0&
20072030020100516209&915GHHIKKWWB6GYO&20200720&02000016&1813949291950&1813949291950&&0&1&200&CNY&0040&boshzjjg&6212261705012004548&0&
20072030020100516276&2MLDF3WKC9FKOBCI&20200720&02000016&1818313073286&1818313073286&&0&1&50150&CNY&0040&boshzjjg&6228483358065218272&0&
20072030020100516445&2J5CVMP37L0HNMHQ&20200720&02000016&1800100000094&1800100000094&&0&1&30090&CNY&0040&boshzjjg&6217000140036719878&0&
20072030020100516357&A6I4PH9RNLL9CZSY&20200720&02000016&1815951703440&1815951703440&&0&1&30090&CNY&0040&boshzjjg&6217002200016513150&0&
20072030020100516449&B77BEJCGCNBL0BUU&20200720&02000016&1813988238986&1813988238986&&0&1&30090&CNY&0040&boshzjjg&6230523350012901777&0&
20072030020100516364&K136O1TGS8K5D4V8&20200720&02000016&1800100000106&1800100000106&&0&1&120361&CNY&0040&boshzjjg&6228481749121580972&0&
20072030020100516372&VR368SHQ1Y6RML37&20200720&02000016&1818032527313&1818032527313&&0&1&100&CNY&0040&boshzjjg&6013825010014370000&0&
20072030020100516467&591KR6X1LT80I7J3&20200720&02000016&1800100000087&1800100000087&&0&1&120361&CNY&0040&boshzjjg&6228481749121574470&0&
20072030020100516379&4FPLMI5L9MQ4Z0MP&20200720&02000016&1818931236060&1818931236060&&0&1&23069&CNY&0040&boshzjjg&6212260409001636474&0&
20072030020100516327&AOA5R5HWDV8KQ6PS&20200720&02000016&1813997978230&1813997978230&&0&1&20060&CNY&0040&boshzjjg&6236682700004695551&0&
20072030020100516329&6U1S53T5DI4OXVO3&20200720&02000016&1813730157568&1813730157568&&0&1&20060&CNY&0040&boshzjjg&6228481269132560871&0&
20072030020100516330&13KYJN1Q89ILEGJJ&20200720&02000016&1817303121352&1817303121352&&0&1&20060&CNY&0040&boshzjjg&6212260409019068793&0&
20072030020100516481&8KI87V1XVOCS0SOL&20200720&02000016&1813992400727&1813992400727&&0&1&10030&CNY&0040&boshzjjg&6217977900044128894&0&
20072030020100516490&E2U5GHIWTH7MTPLN&20200720&02000016&1813582219081&1813582219081&&0&1&60180&CNY&0040&boshzjjg&6228451268006825473&0&
20072030020100516547&6DYOLDFWV78B2RGV&20200720&02000016&1800100000048&1800100000048&&0&1&130391&CNY&0040&boshzjjg&6217000140028374146&0&
20072030020100516498&F2BX5UL1WE9X4A8Y&20200720&02000016&1813483536053&1813483536053&&0&1&10030&CNY&0040&boshzjjg&6217000180005468214&0&
20072030020100516554&KHQW7146EIR268DJ&20200720&02000016&1813064860909&1813064860909&&0&1&20060&CNY&0040&boshzjjg&6228481985804145978&0&
20072030020100516556&OWVU35J60D0REY9D&20200720&02000016&1818531767801&1818531767801&&0&1&10030&CNY&0040&boshzjjg&6228480651622950616&0&
20072030020100516406&PH6FIOFIWEEYIRQ6&20200720&02000016&1815512524009&1815512524009&&0&1&20060&CNY&0040&boshzjjg&6228230655139870368&0&
20072030020100516560&6OE4SMBE5IUZ7NUY&20200720&02000016&1800100000104&1800100000104&&0&1&70210&CNY&0040&boshzjjg&6217933501713984&0&
20072030020100516510&RSCCPH8V080WKC71&20200720&02000016&1815512524008&1815512524008&&0&1&10030&CNY&0040&boshzjjg&6217000180044506966&0&
20072030020100516566&HPX2DNICCCY5UM6S&20200720&02000016&1815236299699&1815236299699&&0&1&100&CNY&0040&boshzjjg&6215591705000348521&0&
20072030020100516568&DHSSV624VX2F1F1J&20200720&02000016&1815946516599&1815946516599&&0&1&100300&CNY&0040&boshzjjg&6228480180374957314&0&
20072030020100516569&5P1B9AS2WLFNAF1H&20200720&02000016&1815940818417&1815940818417&&0&1&10130&CNY&0040&boshzjjg&6217000780000487802&0&
20072030020100516410&84QK18M52NAIK4D8&20200720&02000016&1813323299114&1813323299114&&0&1&20060&CNY&0040&boshzjjg&6217992610192977270&0&
20072030020100516579&2UVOQE33KK34VZFG&20200720&02000016&1813131595589&1813131595589&&0&1&50150&CNY&0040&boshzjjg&6228480658667097179&0&
20072030020100516424&DJGARUSUG6FUW48E&20200720&02000016&1813129593568&1813129593568&&0&1&40120&CNY&0040&boshzjjg&6230523440014533973&0&
20072030020100516634&M8F5TQCKLW4W8WTK&20200720&02000016&1813643393067&1813643393067&&0&1&40120&CNY&0040&boshzjjg&6217991340011953028&0&
20072030020100516636&GFP08GUOAZ2TSG85&20200720&02000016&1818617854952&1818617854952&&0&1&10030&CNY&0040&boshzjjg&6212260403021156779&0&
20072030020100516642&9HU1SPB2IRN3PGP6&20200720&02000016&1817642059933&1817642059933&&0&1&200601&CNY&0040&boshzjjg&6217000730030740100&0&
20072030020100516644&7SD8TA3T5STWA5GW&20200720&02000016&1813803283883&1813803283883&&0&1&11434&CNY&0040&boshzjjg&6214660140105271&0&
20072030020100516739&8SZYSS3Y0W5ENCRN&20200720&02000016&1817732411319&1817732411319&&0&1&20060&CNY&0040&boshzjjg&6217905000004169934&0&
20072030020100516645&T1PGZ99OIMIE27TL&20200720&02000016&1813803283883&1813803283883&&0&1&11434&CNY&0040&boshzjjg&6214660140105271&0&
20072030020100516596&4HPYYI3LNBFVX1WX&20200720&02000016&1813715622986&1813715622986&&0&1&10030&CNY&0040&boshzjjg&6230520100011676976&0&
20072030020100516646&M38QNLBPLO3GS8IG&20200720&02000016&1818149061051&1818149061051&&0&1&10030&CNY&0040&boshzjjg&6217004220011409921&0&
20072030020100516647&MMUCEDBCH4PYSOL0&20200720&02000016&1813803283883&1813803283883&&0&1&11434&CNY&0040&boshzjjg&6214660140105271&0&
20072030020100516740&KO206OPUK17UHNS5&20200720&02000016&1818855897042&1818855897042&&0&1&30090&CNY&0040&boshzjjg&6217993720003051402&0&
20072030020100516741&NH4ZGXWXAIOK5QOD&20200720&02000016&1817697226810&1817697226810&&0&1&20060&CNY&0040&boshzjjg&6215582714000602821&0&
20072030020100516599&BEYE8AXRNHQUR9Y7&20200720&02000016&1817679265331&1817679265331&&0&1&70210&CNY&0040&boshzjjg&6216611900007594185&0&
20072030020100516744&ZQAEP3P9SADGRLGL&20200720&02000016&1818730588858&1818730588858&&0&1&10030&CNY&0040&boshzjjg&6217000180014526994&0&
20072030020100516651&A57KRI3Y4O7YWGRT&20200720&02000016&1815502925058&1815502925058&&0&1&20060&CNY&0040&boshzjjg&6212263700001397795&0&
20072030020100516747&E3LJ3G5A76Q115ZP&20200720&02000016&1818132717939&1818132717939&&0&1&30090&CNY&0040&boshzjjg&6217000140026001923&0&
20072030020100516602&FX77L0RQFGDMO0YY&20200720&02000016&1815733826587&1815733826587&&0&1&40120&CNY&0040&boshzjjg&6228481269155360373&0&
20072030020100516655&WDK1IZN8HZCPJ3JG&20200720&02000016&1813803277987&1813803277987&&0&1&50150&CNY&0040&boshzjjg&6228481268946191279&0&
20072030020100516656&D7AGOYLXV6MZUWD2&20200720&02000016&1813472972651&1813472972651&&0&1&20060&CNY&0040&boshzjjg&9558820403001406380&0&
20072030020100516606&9WMHLCVR4C504V1F&20200720&02000016&1813582840507&1813582840507&&0&1&15045&CNY&0040&boshzjjg&6228480652512397116&0&
20072030020100516751&CQEEY8PULG9LOHS9&20200720&02000016&1813373121391&1813373121391&&0&1&200601&CNY&0040&boshzjjg&6228481268439947773&0&
20072030020100516664&7VGXFWLT0R139ZOI&20200720&02000016&1817777834168&1817777834168&&0&1&60180&CNY&0040&boshzjjg&6228480010710576116&0&
20072030020100516615&2K1Y0FO60YQJKC2X&20200720&02000016&1815613556396&1815613556396&&0&1&10030&CNY&0040&boshzjjg&6228480659215979777&0&
20072030020100516764&ZTTSBLYSBL08MKP1&20200720&02000016&1813761356728&1813761356728&&0&1&100300&CNY&0040&boshzjjg&6217001180014084613&0&
20072030020100516669&7D565G1QN5UMB5BQ&20200720&02000016&1813231508123&1813231508123&&0&1&50150&CNY&0040&boshzjjg&6217905000003669538&0&
20072030020100516670&DZCCI011HATN2O9E&20200720&02000016&1818031333310&1818031333310&&0&1&20060&CNY&0040&boshzjjg&6212260403021143991&0&
20072030020100516673&FY0ESSBWXKKZ9ZLV&20200720&02000016&1813463503191&1813463503191&&0&1&10030&CNY&0040&boshzjjg&6222030403007685450&0&
20072030020100516623&WBZ6PB97UGYZ20G5&20200720&02000016&1813479229801&1813479229801&&0&1&40120&CNY&0040&boshzjjg&6217002020061983177&0&
20072030020100516773&RL76E1SJ00RE7T2G&20200720&02000016&1818830203304&1818830203304&&0&1&40120&CNY&0040&boshzjjg&6215580409001570042&0&
20072030020100516694&KNO7NFVX5XZLLOJH&20200720&02000016&1818931232281&1818931232281&&0&1&10030&CNY&0040&boshzjjg&6217855000069310779&0&
20072030020100516782&9XR2BKHARA6RAYZ3&20200720&02000016&1813931234148&1813931234148&&0&1&50150&CNY&0040&boshzjjg&6217000140010318697&0&
20072030020100516788&1AWHYXRTA3MSI8W5&20200720&02000016&1815100269110&1815100269110&&0&1&200601&CNY&0040&boshzjjg&6228481268511222673&0&
20072030020100516701&5SUU6LQF741Y9NH5&20200720&02000016&1815334465219&1815334465219&&0&1&250752&CNY&0040&boshzjjg&6236684020000322953&0&
20072030020100516851&G0MPAVAT0G78YHLX&20200720&02000016&1813587758991&1813587758991&&0&1&10030&CNY&0040&boshzjjg&6228430338131279874&0&
20072030020100516713&N2GF2APWJZNUX2MW&20200720&02000016&1815727280047&1815727280047&&0&1&80240&CNY&0040&boshzjjg&6215581809006272545&0&
20072030020100516861&QCOHKF5EYMRT7T81&20200720&02000016&1815033223779&1815033223779&&0&1&3811&CNY&0040&boshzjjg&6228481262000815915&0&
20072030020100516721&9MXW1R647P6ZCGC8&20200720&02000016&1818696473625&1818696473625&&0&1&210130&CNY&0040&boshzjjg&6217002870015205550&0&
20072030020100516864&IJU653RI6XMORNN7&20200720&02000016&1815100500891&1815100500891&&0&1&20060&CNY&0040&boshzjjg&6222080403002514662&0&
20072030020100516809&FXXSBJIO9YGEOCMQ&20200720&02000016&1818931441806&1818931441806&&0&1&10030&CNY&0040&boshzjjg&6222030403007736303&0&
20072030020100516874&GKIWA0RMQNS6NKED&20200720&02000016&1815733288376&1815733288376&&0&1&60180&CNY&0040&boshzjjg&6228451268042868370&0&
20072030020100516890&7DHG6P3Q7B44T02R&20200720&02000016&1815758901497&1815758901497&&0&1&1003&CNY&0040&boshzjjg&6228483356140142160&0&
20072030020100517051&XUH6WN4WX2COCHVQ&20200720&02000016&1813936981199&1813936981199&&0&1&20060&CNY&0040&boshzjjg&6222600370004338518&0&
20072030020100516908&YV0NI9OJ9YJUCY2Z&20200720&02000016&1818774626308&1818774626308&&0&1&10030&CNY&0040&boshzjjg&6228480328660061172&0&
20072030020100516917&GZ1VQWHKOIDTQFFH&20200720&02000016&1815620030555&1815620030555&&0&1&120361&CNY&0040&boshzjjg&6222030302013325764&0&
20072030020100517074&A8YSGVDDQWFKSPBT&20200720&02000016&1818135104449&1818135104449&&0&1&70210&CNY&0040&boshzjjg&6217000260001787674&0&
20072030020100516928&PDIYGSIXHY9ABVZG&20200720&02000016&1800100000050&1800100000050&&0&1&30090&CNY&0040&boshzjjg&6228481269237824776&0&
20072030020100517090&HG988USE7ITUXKCY&20200720&02000016&1815512532000&1815512532000&&0&1&120361&CNY&0040&boshzjjg&6222080403002647884&0&
20072030020100517136&05B663TH7ZWM9LWX&20200720&02000016&1813945287113&1813945287113&&0&1&80240&CNY&0040&boshzjjg&6228480188421281471&0&
20072030020100517095&AFDCD1FX550XF75M&20200720&02000016&1815232640847&1815232640847&&0&1&60180&CNY&0040&boshzjjg&6228480659200859174&0&
20072030020100517142&NT17LMTNO057VDUX&20200720&02000016&1815350349372&1815350349372&&0&1&19057&CNY&0040&boshzjjg&6217906500041769082&0&
20072030020100517160&ERCRW78C4JRNG0LU&20200720&02000016&1817303221157&1817303221157&&0&1&2006&CNY&0040&boshzjjg&6216615002000800481&0&
20072030020100517114&1ZWAWYE9TOOL6FJ8&20200720&02000016&1817303221157&1817303221157&&0&1&2006&CNY&0040&boshzjjg&6216615002000800481&0&
20072030020100517245&MET3EJYEXE15KLC1&20200720&02000016&1813730190518&1813730190518&&0&1&60180&CNY&0040&boshzjjg&6222030409003835999&0&
20072030020100517170&CTFVS8GOYC35XGO0&20200720&02000016&1817761306261&1817761306261&&0&1&223971&CNY&0040&boshzjjg&6212261715005789963&0&
20072030020100517124&HNRDGREY65728GRS&20200720&02000016&1817303221157&1817303221157&&0&1&1003&CNY&0040&boshzjjg&6216615002000800481&0&
20072030020100517179&1B28HBQEFASZ9VBJ&20200720&02000016&1813231271852&1813231271852&&0&1&50150&CNY&0040&boshzjjg&6222030409005538716&0&
20072030020100517337&5EC8495A3N6OYG8V&20200720&02000016&1815717068675&1815717068675&&0&1&5015&CNY&0040&boshzjjg&6228482318716094879&0&
20072030020100517189&3R13DCPCGSWKFGNB&20200720&02000016&1818371587990&1818371587990&&0&1&100300&CNY&0040&boshzjjg&6228463828033893772&0&
20072030020100517219&2XIDODB0KPFELKGM&20200720&02000016&1813992579007&1813992579007&&0&1&190571&CNY&0040&boshzjjg&6217232607000392783&0&
20072030020100517221&6PKS2MJYRWEPERSM&20200720&02000016&1813483435916&1813483435916&&0&1&10030&CNY&0040&boshzjjg&6236680130002387492&0&
20072030020100517438&ERMI123L77RACCGH&20200720&02000016&1800100000237&1800100000237&&0&1&30090&CNY&0040&boshzjjg&6217681805871384&0&
20072030020100517454&LC259Q9Q8K0NCKPL&20200720&02000016&1818731299015&1818731299015&&0&1&100300&CNY&0040&boshzjjg&6228481269292040979&0&
20072030020100517543&NPWJBWPV47DTA24L&20200720&02000016&1800100000045&1800100000045&&0&1&20060&CNY&0040&boshzjjg&6228481268397400476&0&
20072030020100517470&QSVPABS1DEG4RVBV&20200720&02000016&1815133920808&1815133920808&&0&1&10030&CNY&0040&boshzjjg&6217855000011993987&0&
20072030020100517549&FD8HW45K8Q6F8B60&20200720&02000016&1813582233927&1813582233927&&0&1&30090&CNY&0040&boshzjjg&6217000140037793120&0&
20072030020100517510&MFCZCX2LSKKIGOB5&20200720&02000016&1815233745111&1815233745111&&0&1&40120&CNY&0040&boshzjjg&6222030409001568568&0&
20072030020100517515&YV7H1R8UGNITCB44&20200720&02000016&1815003129116&1815003129116&&0&1&20060&CNY&0040&boshzjjg&6212260409001671737&0&
20072030020100517659&NZW1MC2D2TDO625I&20200720&02000016&1813292419437&1813292419437&&0&1&100300&CNY&0040&boshzjjg&6217000180031332350&0&
20072030020100517588&TF63Y6291CS7O35F&20200720&02000016&1817631643762&1817631643762&&0&1&50150&CNY&0040&boshzjjg&6217000140035131869&0&
20072030020100517528&CWE6LHAYX0F5I6J4&20200720&02000016&1815232591002&1815232591002&&0&1&50150&CNY&0040&boshzjjg&6227000180890120309&0&
20072030020100517744&4ESISPV4N3JNCAHO&20200720&02000016&1813514213143&1813514213143&&0&1&1003&CNY&0040&boshzjjg&6222023301007974669&0&
20072030020100517749&T5EJMPHZQOVNIE0H&20200720&02000016&1813191775000&1813191775000&&0&1&10030&CNY&0040&boshzjjg&6228480659144404376&0&
20072030020100517758&SI1FVO0D88XBQ87O&20200720&02000016&1818079299846&1818079299846&&0&1&40120&CNY&0040&boshzjjg&6217002020063231252&0&
20072030020100517762&VLYHYNXIM7QFKF8M&20200720&02000016&1813070527319&1813070527319&&0&1&30090&CNY&0040&boshzjjg&6228490010015685214&0&
20072030020100517770&YRFRX8LD5ZFKHUBU&20200720&02000016&1815894443268&1815894443268&&0&1&30090&CNY&0040&boshzjjg&6212262511001333024&0&
20072030020100517772&CI4L1KWOFSCHIE64&20200720&02000016&1813988296912&1813988296912&&0&1&30090&CNY&0040&boshzjjg&6217997300072976379&0&
20072030020100517797&VY89DDUYODWSR6HQ&20200720&02000016&1813481184097&1813481184097&&0&1&170511&CNY&0040&boshzjjg&6228480831744917111&0&
20072090040021513876&20072090040021513876&20200720&02000016&1800100000100&1800100000100&&1&2&200000&CNY&0040&boshzjjg&6217002390008589373&0&
20072090040021513947&20072090040021513947&20200720&02000016&1815371172707&1815371172707&&1&2&200000&CNY&0040&boshzjjg&6230521980005427075&0&
20072090040021513956&20072090040021513956&20200720&02000016&1813898831243&1813898831243&&1&2&200000&CNY&0040&boshzjjg&6227000730340514400&0&
20072090040021513889&20072090040021513889&20200720&02000016&1813508750269&1813508750269&&1&2&200000&CNY&0040&boshzjjg&6217003960005693219&0&
20072090040021514039&20072090040021514039&20200720&02000016&1813846040455&1813846040455&&1&2&200000&CNY&0040&boshzjjg&6227001041410165654&0&
20072090040021513966&20072090040021513966&20200720&02000016&1818046671766&1818046671766&&1&2&200000&CNY&0040&boshzjjg&6221884280018439609&0&
20072090040021513900&20072090040021513900&20200720&02000016&1813578180881&1813578180881&&1&2&200000&CNY&0040&boshzjjg&6212262508000251298&0&
20072090040021513908&20072090040021513908&20200720&02000016&1813674277407&1813674277407&&1&2&400000&CNY&0040&boshzjjg&6216600400000577447&0&
20072090040021514066&20072090040021514066&20200720&02000016&1815517971188&1815517971188&&1&2&200000&CNY&0040&boshzjjg&6222031705000337643&0&
20072090040021513991&20072090040021513991&20200720&02000016&1818545789088&1818545789088&&1&2&200000&CNY&0040&boshzjjg&6222600370005145359&0&
20072090040021514071&20072090040021514071&20200720&02000016&1815535685977&1815535685977&&1&2&100&CNY&0040&boshzjjg&622908573003593811&0&
20072090040021513999&20072090040021513999&20200720&02000016&1818545789088&1818545789088&&1&2&200000&CNY&0040&boshzjjg&6222600370005145359&0&
20072090040021514070&20072090040021514070&20200720&02000016&1815033721326&1815033721326&&1&2&186000&CNY&0040&boshzjjg&6217000140035632445&0&
20072090040021514072&20072090040021514072&20200720&02000016&1818870559010&1818870559010&&1&2&200000&CNY&0040&boshzjjg&6228482328475598374&0&
20072090040021513924&20072090040021513924&20200720&02000016&1815226565837&1815226565837&&1&2&600000&CNY&0040&boshzjjg&6228480639302017772&0&
20072090040021513998&20072090040021513998&20200720&02000016&1815175359813&1815175359813&&1&2&200000&CNY&0040&boshzjjg&6217855000075144873&0&
20072090040021513925&20072090040021513925&20200720&02000016&1818545789088&1818545789088&&1&2&200000&CNY&0040&boshzjjg&6222600370005145359&0&
20072090040021513997&20072090040021513997&20200720&02000016&1813011521522&1813011521522&&1&2&196000&CNY&0040&boshzjjg&6228481262395632016&0&
20072090040021513923&20072090040021513923&20200720&02000016&1813284599625&1813284599625&&1&2&200000&CNY&0040&boshzjjg&6217001020000034539&0&
20072090040021514083&20072090040021514083&20200720&02000016&1818545789088&1818545789088&&1&2&200000&CNY&0040&boshzjjg&6222600370005145359&0&
20072090040021514137&20072090040021514137&20200720&02000016&1813708623823&1813708623823&&1&2&1000000&CNY&0040&boshzjjg&6230523350014046175&0&
20072090040021514142&20072090040021514142&20200720&02000016&1815129737661&1815129737661&&1&2&600000&CNY&0040&boshzjjg&6217004140008222246&0&
20072090040021514019&20072090040021514019&20200720&02000016&1815930758675&1815930758675&&1&2&1000000&CNY&0040&boshzjjg&6228271261260432373&0&
20072090040021514017&20072090040021514017&20200720&02000016&1815230968133&1815230968133&&1&2&195000&CNY&0040&boshzjjg&6217000180009652599&0&
20072090040021514141&20072090040021514141&20200720&02000016&1813891386808&1813891386808&&1&2&200000&CNY&0040&boshzjjg&6228482908679544371&0&
20072090040021514093&20072090040021514093&20200720&02000016&1815887545745&1815887545745&&1&2&1000000&CNY&0040&boshzjjg&6230523350013961572&0&
20072090040021514143&20072090040021514143&20200720&02000016&1815535685977&1815535685977&&1&2&195900&CNY&0040&boshzjjg&622908573003593811&0&
20072090040021514091&20072090040021514091&20200720&02000016&1813320455230&1813320455230&&1&2&200000&CNY&0040&boshzjjg&6228483358344570279&0&
20072090040021514024&20072090040021514024&20200720&02000016&1813903229313&1813903229313&&1&2&200000&CNY&0040&boshzjjg&6222030413001186314&0&
20072090040021514151&20072090040021514151&20200720&02000016&1813987508720&1813987508720&&1&2&800000&CNY&0040&boshzjjg&6228483968603253175&0&
20072090040021514109&20072090040021514109&20200720&02000016&1813608766620&1813608766620&&1&2&200000&CNY&0040&boshzjjg&6228483358606222874&0&
20072090040021514245&20072090040021514245&20200720&02000016&1813821118618&1813821118618&&1&2&200000&CNY&0040&boshzjjg&6228480028195978474&0&
20072090040021514127&20072090040021514127&20200720&02000016&1818903361766&1818903361766&&1&2&200000&CNY&0040&boshzjjg&6217000140012236731&0&
20072090040021514244&20072090040021514244&20200720&02000016&1813684681938&1813684681938&&1&2&200000&CNY&0040&boshzjjg&6228482228421754073&0&
20072090040021514126&20072090040021514126&20200720&02000016&1813891386808&1813891386808&&1&2&800000&CNY&0040&boshzjjg&6228482908679544371&0&
20072090040021514254&20072090040021514254&20200720&02000016&1815094217570&1815094217570&&1&2&800000&CNY&0040&boshzjjg&6228483960593970116&0&
20072090040021514253&20072090040021514253&20200720&02000016&1813576617667&1813576617667&&1&2&400000&CNY&0040&boshzjjg&6210812110000298780&0&
20072090040021514189&20072090040021514189&20200720&02000016&1813933289360&1813933289360&&1&2&200000&CNY&0040&boshzjjg&6222080409004893996&0&
20072090040021514264&20072090040021514264&20200720&02000016&1813909147787&1813909147787&&1&2&200000&CNY&0040&boshzjjg&6228482958374033873&0&
20072090040021514273&20072090040021514273&20200720&02000016&1815128488288&1815128488288&&1&2&600000&CNY&0040&boshzjjg&6217000140024157909&0&
20072090040021514346&20072090040021514346&20200720&02000016&1815129737661&1815129737661&&1&2&600000&CNY&0040&boshzjjg&6217004140008222246&0&
20072090040021514357&20072090040021514357&20200720&02000016&1813932262222&1813932262222&&1&2&195000&CNY&0040&boshzjjg&6222030409006703715&0&
20072090040021514208&20072090040021514208&20200720&02000016&1815605110960&1815605110960&&1&2&195000&CNY&0040&boshzjjg&6217993000395399226&0&
20072090040021514356&20072090040021514356&20200720&02000016&1813623115437&1813623115437&&1&2&600000&CNY&0040&boshzjjg&6228480630972514511&0&
20072090040021514215&20072090040021514215&20200720&02000016&1815032046841&1815032046841&&1&2&1000000&CNY&0040&boshzjjg&6212260402025429992&0&
20072090040021514367&20072090040021514367&20200720&02000016&1813099470902&1813099470902&&1&2&200000&CNY&0040&boshzjjg&6228483356011733568&0&
20072090040021514375&20072090040021514375&20200720&02000016&1818792337677&1818792337677&&1&2&200000&CNY&0040&boshzjjg&6216613600030495040&0&
20072090040021514442&20072090040021514442&20200720&02000016&1815727618323&1815727618323&&1&2&200000&CNY&0040&boshzjjg&6217906500041769199&0&
20072090040021514440&20072090040021514440&20200720&02000016&1813796790256&1813796790256&&1&2&200000&CNY&0040&boshzjjg&6210982600111154876&0&
20072090040021514441&20072090040021514441&20200720&02000016&1815279677914&1815279677914&&1&2&1000000&CNY&0040&boshzjjg&6222031509000685245&0&
20072090040021514396&20072090040021514396&20200720&02000016&1818725228843&1818725228843&&1&2&1000000&CNY&0040&boshzjjg&6228413963038663069&0&
20072090040021514403&20072090040021514403&20200720&02000016&1800100000242&1800100000242&&1&2&12000&CNY&0040&boshzjjg&6217000140010401857&0&
20072090040021514333&20072090040021514333&20200720&02000016&1813933167719&1813933167719&&1&2&500000&CNY&0040&boshzjjg&6236680130003699002&0&
20072090040021514467&20072090040021514467&20200720&02000016&1813099471977&1813099471977&&1&2&200000&CNY&0040&boshzjjg&6230523350015327871&0&
20072090040021514469&20072090040021514469&20200720&02000016&1813503874461&1813503874461&&1&2&190000&CNY&0040&boshzjjg&6212261714005212290&0&
20072090040021514468&20072090040021514468&20200720&02000016&1813393029437&1813393029437&&1&2&170000&CNY&0040&boshzjjg&6216695000006447904&0&
20072090040021514470&20072090040021514470&20200720&02000016&1818779946893&1818779946893&&1&2&500&CNY&0040&boshzjjg&6217231509001562623&0&
20072090040021514549&20072090040021514549&20200720&02000016&1813908757293&1813908757293&&1&2&800000&CNY&0040&boshzjjg&6222082510000158389&0&
20072090040021514641&20072090040021514641&20200720&02000016&1815096988545&1815096988545&&1&2&400000&CNY&0040&boshzjjg&6217003970002037419&0&
20072090040021514499&20072090040021514499&20200720&02000016&1813891386808&1813891386808&&1&2&900000&CNY&0040&boshzjjg&6228482908679544371&0&
20072090040021514498&20072090040021514498&20200720&02000016&1813306631796&1813306631796&&1&2&1000000&CNY&0040&boshzjjg&6221803320000833506&0&
20072090040021514651&20072090040021514651&20200720&02000016&1818645527797&1818645527797&&1&2&10000&CNY&0040&boshzjjg&6217001050003007299&0&
20072090040021514525&20072090040021514525&20200720&02000016&1813404512260&1813404512260&&1&2&200000&CNY&0040&boshzjjg&6222030806000198208&0&
20072090040021514668&20072090040021514668&20200720&02000016&1815045790917&1815045790917&&1&2&5000&CNY&0040&boshzjjg&6227001041010096119&0&
20072090040021514583&20072090040021514583&20200720&02000016&1815223491500&1815223491500&&1&2&200000&CNY&0040&boshzjjg&6228270476010644678&0&
20072090040021514528&20072090040021514528&20200720&02000016&1818932601038&1818932601038&&1&2&1000000&CNY&0040&boshzjjg&6228481009243462876&0&
20072090040021514692&20072090040021514692&20200720&02000016&1815620918665&1815620918665&&1&2&200000&CNY&0040&boshzjjg&6228480028181743577&0&
20072090040021514608&20072090040021514608&20200720&02000016&1813932238474&1813932238474&&1&2&8000&CNY&0040&boshzjjg&6228481269113851679&0&
20072090040021514702&20072090040021514702&20200720&02000016&1815586314943&1815586314943&&1&2&400000&CNY&0040&boshzjjg&6217002700001598876&0&
20072090040021514712&20072090040021514712&20200720&02000016&1813781682321&1813781682321&&1&2&200000&CNY&0040&boshzjjg&6217002470009736684&0&
20072090040021514620&20072090040021514620&20200720&02000016&1815969224688&1815969224688&&1&2&200000&CNY&0040&boshzjjg&6230523350008415774&0&
20072090040021514717&20072090040021514717&20200720&02000016&1815946685956&1815946685956&&1&2&200000&CNY&0040&boshzjjg&6228482686179848167&0&
20072090040021514728&20072090040021514728&20200720&02000016&1815128257987&1815128257987&&1&2&200000&CNY&0040&boshzjjg&6228481261853962410&0&
20072090040021514780&20072090040021514780&20200720&02000016&1813833495795&1813833495795&&1&2&1000000&CNY&0040&boshzjjg&6228411264505143079&0&
20072090040021514781&20072090040021514781&20200720&02000016&1818526471534&1818526471534&&1&2&196000&CNY&0040&boshzjjg&6228480028707086576&0&
20072090040021514778&20072090040021514778&20200720&02000016&1813832112715&1813832112715&&1&2&1000000&CNY&0040&boshzjjg&6210981210008322163&0&
20072090040021514632&20072090040021514632&20200720&02000016&1817642039238&1817642039238&&1&2&2200&CNY&0040&boshzjjg&6217850400010331988&0&
20072090040021514939&20072090040021514939&20200720&02000016&1813582840507&1813582840507&&1&2&190000&CNY&0040&boshzjjg&6228480652512397116&0&
20072090040021514942&20072090040021514942&20200720&02000016&1815631269429&1815631269429&&1&2&500&CNY&0040&boshzjjg&6228481269211054275&0&
20072090040021514790&20072090040021514790&20200720&02000016&1815925589060&1815925589060&&1&2&10000&CNY&0040&boshzjjg&6228483968610024577&0&
20072090040021514959&20072090040021514959&20200720&02000016&1815830219313&1815830219313&&1&2&200000&CNY&0040&boshzjjg&6217000140015555129&0&
20072090040021514891&null&20200720&02000016&1818792335305&1818792335305&&1&2&200000&CNY&0040&boshzjjg&6216603600000333918&0&
20072090040021514825&20072090040021514825&20200720&02000016&1813750050128&1813750050128&&1&2&1000000&CNY&0040&boshzjjg&6217232002000641746&0&
20072090040021514828&null&20200720&02000016&1818512403847&1818512403847&&1&2&10000&CNY&0040&boshzjjg&6212263301012797212&0&
20072090040021515040&20072090040021515040&20200720&02000016&1813936939588&1813936939588&&1&2&200000&CNY&0040&boshzjjg&6221882600038915654&0&
20072090040021515038&20072090040021515038&20200720&02000016&1813930812890&1813930812890&&1&2&400000&CNY&0040&boshzjjg&6217991340002876980&0&
20072090040021515036&20072090040021515036&20200720&02000016&1813837939615&1813837939615&&1&2&200000&CNY&0040&boshzjjg&6228480738661302674&0&
20072090040021514901&20072090040021514901&20200720&02000016&1815931209303&1815931209303&&1&2&1000000&CNY&0040&boshzjjg&6217855000038913950&0&
20072090040021514981&20072090040021514981&20200720&02000016&1819932910006&1819932910006&&1&2&200000&CNY&0040&boshzjjg&6230200591381327&0&
20072090040021514916&20072090040021514916&20200720&02000016&1813832271118&1813832271118&&1&2&1000000&CNY&0040&boshzjjg&6216605000005360495&0&
20072090040021514991&20072090040021514991&20200720&02000016&1815901317151&1815901317151&&1&2&200000&CNY&0040&boshzjjg&6226200102295152&0&
20072090040021515053&20072090040021515053&20200720&02000016&1817387537216&1817387537216&&1&2&200000&CNY&0040&boshzjjg&6230523350016530978&0&
20072090040021514990&20072090040021514990&20200720&02000016&1813663399658&1813663399658&&1&2&200000&CNY&0040&boshzjjg&6228451268028090478&0&
20072090040021515064&20072090040021515064&20200720&02000016&1815022287649&1815022287649&&1&2&200000&CNY&0040&boshzjjg&6228480028640910577&0&
20072090040021515074&20072090040021515074&20200720&02000016&1813231157315&1813231157315&&1&2&200000&CNY&0040&boshzjjg&6228480639105128677&0&
20072090040021515080&20072090040021515080&20200720&02000016&1813889283664&1813889283664&&1&2&200000&CNY&0040&boshzjjg&6228480049072033571&0&
20072090040021515013&20072090040021515013&20200720&02000016&1815987888742&1815987888742&&1&2&200000&CNY&0040&boshzjjg&6217003960002304620&0&
20072090040021515144&20072090040021515144&20200720&02000016&1813578201321&1813578201321&&1&2&400000&CNY&0040&boshzjjg&6217003970002285729&0&
20072090040021515243&20072090040021515243&20200720&02000016&1818713250590&1818713250590&&1&2&200000&CNY&0040&boshzjjg&6228481269177143773&0&
20072090040021515258&20072090040021515258&20200720&02000016&1815851523905&1815851523905&&1&2&500&CNY&0040&boshzjjg&6227002004830072230&0&
20072090040021515185&20072090040021515185&20200720&02000016&1815962571999&1815962571999&&1&2&1000000&CNY&0040&boshzjjg&6230520400211087077&0&
20072090040021515132&20072090040021515132&20200720&02000016&1818348909027&1818348909027&&1&2&900000&CNY&0040&boshzjjg&6228481269141809178&0&
20072090040021515183&20072090040021515183&20200720&02000016&1813832292293&1813832292293&&1&2&200000&CNY&0040&boshzjjg&6222020409006260528&0&
20072090040021515336&20072090040021515336&20200720&02000016&1818725397893&1818725397893&&1&2&1000000&CNY&0040&boshzjjg&6212262510001202940&0&
20072090040021515268&20072090040021515268&20200720&02000016&1813569282610&1813569282610&&1&2&190000&CNY&0040&boshzjjg&6222624120001884135&0&
20072090040021515199&20072090040021515199&20200720&02000016&1815929983139&1815929983139&&1&2&1000000&CNY&0040&boshzjjg&6222023700006024535&0&
20072090040021515285&20072090040021515285&20200720&02000016&1818970800693&1818970800693&&1&2&200000&CNY&0040&boshzjjg&6215581502000949677&0&
20072090040021515355&20072090040021515355&20200720&02000016&1813020813183&1813020813183&&1&2&200000&CNY&0040&boshzjjg&6212260409006693561&0&
20072090040021515226&20072090040021515226&20200720&02000016&1815851523905&1815851523905&&1&2&999500&CNY&0040&boshzjjg&6227002004830072230&0&
20072090040021515379&20072090040021515379&20200720&02000016&1813578290799&1813578290799&&1&2&200000&CNY&0040&boshzjjg&6228483351009893912&0&
20072090040021515391&20072090040021515391&20200720&02000016&1815861099820&1815861099820&&1&2&5000&CNY&0040&boshzjjg&6217001310008472538&0&
20072090040021515541&20072090040021515541&20200720&02000016&1813628894679&1813628894679&&1&2&200000&CNY&0040&boshzjjg&6228483358594425570&0&
20072090040021515405&20072090040021515405&20200720&02000016&1815231268197&1815231268197&&1&2&200000&CNY&0040&boshzjjg&6230521260022902073&0&
20072090040021515458&20072090040021515458&20200720&02000016&1813988285261&1813988285261&&1&2&200000&CNY&0040&boshzjjg&6230523350015104072&0&
20072090040021515598&20072090040021515598&20200720&02000016&1818633129536&1818633129536&&1&2&200000&CNY&0040&boshzjjg&6228480656424243169&0&
20072090040021515491&20072090040021515491&20200720&02000016&1818970800693&1818970800693&&1&2&300000&CNY&0040&boshzjjg&6215581502000949677&0&
20072090040021515655&20072090040021515655&20200720&02000016&1813343095977&1813343095977&&1&2&2600&CNY&0040&boshzjjg&6222080409001527738&0&
20072090040021515606&20072090040021515606&20200720&02000016&1819891308296&1819891308296&&1&2&5000&CNY&0040&boshzjjg&6228482908730100874&0&
20072090040021515667&20072090040021515667&20200720&02000016&1813987091886&1813987091886&&1&2&200000&CNY&0040&boshzjjg&6228483318036742578&0&
20072090040021515665&20072090040021515665&20200720&02000016&1813832825311&1813832825311&&1&2&200000&CNY&0040&boshzjjg&6217855000054359922&0&
20072090040021515669&20072090040021515669&20200720&02000016&1818225032580&1818225032580&&1&2&200000&CNY&0040&boshzjjg&6216693200004649095&0&
20072090040021515514&20072090040021515514&20200720&02000016&1818031191082&1818031191082&&1&2&1000000&CNY&0040&boshzjjg&6228480638530938379&0&
20072090040021515688&20072090040021515688&20200720&02000016&1815170823558&1815170823558&&1&2&200000&CNY&0040&boshzjjg&6227002112060275041&0&
20072090040021515744&20072090040021515744&20200720&02000016&1815022474986&1815022474986&&1&2&100&CNY&0040&boshzjjg&6228480028195241378&0&
20072090040021515757&20072090040021515757&20200720&02000016&1813398988138&1813398988138&&1&2&2000&CNY&0040&boshzjjg&6227003525310079120&0&
20072090040021515762&20072090040021515762&20200720&02000016&1815022474986&1815022474986&&1&2&200000&CNY&0040&boshzjjg&6228480028195241378&0&
20072090040021515709&20072090040021515709&20200720&02000016&1819187901601&1819187901601&&1&2&200000&CNY&0040&boshzjjg&6221887300017719863&0&
20072090040021515711&20072090040021515711&20200720&02000016&1813924642964&1813924642964&&1&2&1000000&CNY&0040&boshzjjg&6013822000569282380&0&
20072090040021515848&20072090040021515848&20200720&02000016&1815339748998&1815339748998&&1&2&5000&CNY&0040&boshzjjg&6217868500001050628&0&
20072090040021515779&20072090040021515779&20200720&02000016&1813472927911&1813472927911&&1&2&200000&CNY&0040&boshzjjg&6217000180001609191&0&
20072090040021515723&20072090040021515723&20200720&02000016&1818531509599&1818531509599&&1&2&980000&CNY&0040&boshzjjg&6217000180014569903&0&
20072090040021515883&20072090040021515883&20200720&02000016&1815387962515&1815387962515&&1&2&200000&CNY&0040&boshzjjg&6217002110000932334&0&
20072090040021515946&20072090040021515946&20200720&02000016&1813785266844&1813785266844&&1&2&15000&CNY&0040&boshzjjg&6228481268593691076&0&
20072090040021515945&20072090040021515945&20200720&02000016&1813166603992&1813166603992&&1&2&200000&CNY&0040&boshzjjg&6216690400002118605&0&
20072090040021515949&20072090040021515949&20200720&02000016&1815933783383&1815933783383&&1&2&400000&CNY&0040&boshzjjg&6228411264507554877&0&
20072090040021515910&20072090040021515910&20200720&02000016&1813089044403&1813089044403&&1&2&400000&CNY&0040&boshzjjg&6217905300000577142&0&
20072090040021515913&20072090040021515913&20200720&02000016&1813273202753&1813273202753&&1&2&200000&CNY&0040&boshzjjg&6212260409002112673&0&
20072090040021515932&20072090040021515932&20200720&02000016&1815132521332&1815132521332&&1&2&100&CNY&0040&boshzjjg&6212260403016621738&0&
20072090040021515983&20072090040021515983&20200720&02000016&1815100214010&1815100214010&&1&2&200000&CNY&0040&boshzjjg&6228271261252041679&0&
20072090040021516039&20072090040021516039&20200720&02000016&1813082369876&1813082369876&&1&2&1000000&CNY&0040&boshzjjg&6227000142500001857&0&
20072090040021515988&20072090040021515988&20200720&02000016&1813166603992&1813166603992&&1&2&600000&CNY&0040&boshzjjg&6216690400002118605&0&
20072090040021516148&20072090040021516148&20200720&02000016&1815132521332&1815132521332&&1&2&980000&CNY&0040&boshzjjg&6212260403016621738&0&
20072090040021516147&20072090040021516147&20200720&02000016&1813322451812&1813322451812&&1&2&200000&CNY&0040&boshzjjg&6227000732100125062&0&
20072090040021516056&20072090040021516056&20200720&02000016&1815882549497&1815882549497&&1&2&400000&CNY&0040&boshzjjg&6210984350003555701&0&
20072090040021516154&20072090040021516154&20200720&02000016&1815076425513&1815076425513&&1&2&1000000&CNY&0040&boshzjjg&6228481269267415172&0&
20072090040021516003&20072090040021516003&20200720&02000016&1813942463787&1813942463787&&1&2&1000000&CNY&0040&boshzjjg&6228481018944541573&0&
20072090040021516158&20072090040021516158&20200720&02000016&1813998244344&1813998244344&&1&2&800000&CNY&0040&boshzjjg&6228480040829747811&0&
20072090040021516068&20072090040021516068&20200720&02000016&1813962550058&1813962550058&&1&2&1000000&CNY&0040&boshzjjg&6228480409534038677&0&
20072090040021516025&20072090040021516025&20200720&02000016&1815933788608&1815933788608&&1&2&200000&CNY&0040&boshzjjg&6217855000045718756&0&
20072090040021516024&20072090040021516024&20200720&02000016&1813970955648&1813970955648&&1&2&199800&CNY&0040&boshzjjg&6230580000272257291&0&
20072090040021516085&20072090040021516085&20200720&02000016&1813803286181&1813803286181&&1&2&200000&CNY&0040&boshzjjg&6217000140013014087&0&
20072090040021516173&20072090040021516173&20200720&02000016&1813400389138&1813400389138&&1&2&200000&CNY&0040&boshzjjg&6228481268683830873&0&
20072090040021516033&20072090040021516033&20200720&02000016&1818233358181&1818233358181&&1&2&186000&CNY&0040&boshzjjg&6217000140031920588&0&
20072090040021516090&20072090040021516090&20200720&02000016&1819833287722&1819833287722&&1&2&1000000&CNY&0040&boshzjjg&6221801340000747847&0&
20072090040021516238&20072090040021516238&20200720&02000016&1815130290099&1815130290099&&1&2&1000000&CNY&0040&boshzjjg&6217000140009952753&0&
20072090040021516242&20072090040021516242&20200720&02000016&1813624030323&1813624030323&&1&2&205000&CNY&0040&boshzjjg&6228480040769373818&0&
20072090040021516120&20072090040021516120&20200720&02000016&1817734013098&1817734013098&&1&2&1000000&CNY&0040&boshzjjg&6217991270009327549&0&
20072090040021516213&20072090040021516213&20200720&02000016&1817838158103&1817838158103&&1&2&10000&CNY&0040&boshzjjg&6222031716002597159&0&
20072090040021516127&20072090040021516127&20200720&02000016&1817838158103&1817838158103&&1&2&990000&CNY&0040&boshzjjg&6222031716002597159&0&
20072090040021516221&20072090040021516221&20200720&02000016&1817642039238&1817642039238&&1&2&2000&CNY&0040&boshzjjg&6217850400010331988&0&
20072090040021516338&20072090040021516338&20200720&02000016&1813400164686&1813400164686&&1&2&198800&CNY&0040&boshzjjg&6217000140012931539&0&
20072090040021516337&20072090040021516337&20200720&02000016&1813398823718&1813398823718&&1&2&200000&CNY&0040&boshzjjg&6230523350015339074&0&
20072090040021516435&20072090040021516435&20200720&02000016&1815530524961&1815530524961&&1&2&200000&CNY&0040&boshzjjg&6228480659215429179&0&
20072090040021516440&20072090040021516440&20200720&02000016&1815930296195&1815930296195&&1&2&800000&CNY&0040&boshzjjg&6212260409010672304&0&
20072090040021516453&20072090040021516453&20200720&02000016&1813398988138&1813398988138&&1&2&186000&CNY&0040&boshzjjg&6227003525310079120&0&
20072090040021516317&20072090040021516317&20200720&02000016&1818788237107&1818788237107&&1&2&400000&CNY&0040&boshzjjg&6228483358585387672&0&
20072090040021516321&20072090040021516321&20200720&02000016&1813529538686&1813529538686&&1&2&200000&CNY&0040&boshzjjg&6212262511002220345&0&
20072090040021516322&20072090040021516322&20200720&02000016&1818045556220&1818045556220&&1&2&400000&CNY&0040&boshzjjg&6216696000006598028&0&
20072090040021516471&20072090040021516471&20200720&02000016&1813398988138&1813398988138&&1&2&186000&CNY&0040&boshzjjg&6227003525310079120&0&
20072090040021516475&20072090040021516475&20200720&02000016&1815103126127&1815103126127&&1&2&200000&CNY&0040&boshzjjg&6228451268044138772&0&
20072090040021516388&20072090040021516388&20200720&02000016&1818988221188&1818988221188&&1&2&200000&CNY&0040&boshzjjg&6217862700001614565&0&
20072090040021516534&20072090040021516534&20200720&02000016&1815942068866&1815942068866&&1&2&400000&CNY&0040&boshzjjg&6230520040060849878&0&
20072090040021516567&20072090040021516567&20200720&02000016&1818931236060&1818931236060&&1&2&20000&CNY&0040&boshzjjg&6212260409001636474&0&
20072090040021516585&20072090040021516585&20200720&02000016&1813618752773&1813618752773&&1&2&200000&CNY&0040&boshzjjg&6217232510000347841&0&
20072090040021516532&20072090040021516532&20200720&02000016&1815176657685&1815176657685&&1&2&200000&CNY&0040&boshzjjg&6228480659012870476&0&
20072090040021516648&20072090040021516648&20200720&02000016&1813842061716&1813842061716&&1&2&200&CNY&0040&boshzjjg&6227000731010122425&0&
20072090040021516605&20072090040021516605&20200720&02000016&1813730223396&1813730223396&&1&2&200000&CNY&0040&boshzjjg&6236680140002557275&0&
20072090040021516604&20072090040021516604&20200720&02000016&1813320455543&1813320455543&&1&2&200000&CNY&0040&boshzjjg&6230523350012604777&0&
20072090040021516653&20072090040021516653&20200720&02000016&1813897951201&1813897951201&&1&2&200000&CNY&0040&boshzjjg&6216690400002118613&0&
20072090040021516674&20072090040021516674&20200720&02000016&1818387588625&1818387588625&&1&2&1000000&CNY&0040&boshzjjg&6230523350003760471&0&
20072090040021516622&20072090040021516622&20200720&02000016&1815388826287&1815388826287&&1&2&200000&CNY&0040&boshzjjg&6230523350015425675&0&
20072090040021516683&20072090040021516683&20200720&02000016&1818732695797&1818732695797&&1&2&100&CNY&0040&boshzjjg&6212260410013802641&0&
20072090040021516630&20072090040021516630&20200720&02000016&1813842061716&1813842061716&&1&2&199800&CNY&0040&boshzjjg&6227000731010122425&0&
20072090040021516693&20072090040021516693&20200720&02000016&1813851015847&1813851015847&&1&2&170000&CNY&0040&boshzjjg&6228481989474308577&0&
20072090040021516786&20072090040021516786&20200720&02000016&1818164319032&1818164319032&&1&2&100000&CNY&0040&boshzjjg&6217993720034861464&0&
20072090040021516844&20072090040021516844&20200720&02000016&1813733396549&1813733396549&&1&2&180000&CNY&0040&boshzjjg&6217855000020232997&0&
20072090040021516795&20072090040021516795&20200720&02000016&1813082317966&1813082317966&&1&2&600000&CNY&0040&boshzjjg&6228481269293841276&0&
20072090040021516718&20072090040021516718&20200720&02000016&1813930893016&1813930893016&&1&2&100&CNY&0040&boshzjjg&6230521260025172575&0&
20072090040021516725&20072090040021516725&20200720&02000016&1815824461587&1815824461587&&1&2&169000&CNY&0040&boshzjjg&6228480321505768911&0&
20072090040021516723&20072090040021516723&20200720&02000016&1813840296571&1813840296571&&1&2&1000000&CNY&0040&boshzjjg&6228480049090939379&0&
20072090040021516724&20072090040021516724&20200720&02000016&1815631269429&1815631269429&&1&2&199500&CNY&0040&boshzjjg&6228481269211054275&0&
20072090040021516728&20072090040021516728&20200720&02000016&1815758901497&1815758901497&&1&2&1000&CNY&0040&boshzjjg&6228483356140142160&0&
20072090040021516813&20072090040021516813&20200720&02000016&1818132599585&1818132599585&&1&2&200000&CNY&0040&boshzjjg&6217000140041034610&0&
20072090040021516872&20072090040021516872&20200720&02000016&1817713243193&1817713243193&&1&2&190000&CNY&0040&boshzjjg&6217933575810252&0&
20072090040021516949&20072090040021516949&20200720&02000016&1815824461587&1815824461587&&1&2&1000&CNY&0040&boshzjjg&6228480321505768911&0&
20072090040021516948&20072090040021516948&20200720&02000016&1813940525739&1813940525739&&1&2&600000&CNY&0040&boshzjjg&6212263301011623393&0&
20072090040021516947&20072090040021516947&20200720&02000016&1813930893016&1813930893016&&1&2&999900&CNY&0040&boshzjjg&6230521260025172575&0&
20072090040021516899&20072090040021516899&20200720&02000016&1813988205870&1813988205870&&1&2&90000&CNY&0040&boshzjjg&6217003970001419030&0&
20072090040021517053&20072090040021517053&20200720&02000016&1815208808189&1815208808189&&1&2&400000&CNY&0040&boshzjjg&6228483350106186410&0&
20072090040021516974&20072090040021516974&20200720&02000016&1818672804273&1818672804273&&1&2&1000000&CNY&0040&boshzjjg&6228483829748876272&0&
20072090040021516984&20072090040021516984&20200720&02000016&1813235529250&1813235529250&&1&2&205000&CNY&0040&boshzjjg&6217995200285469455&0&
20072090040021517062&20072090040021517062&20200720&02000016&1818032090817&1818032090817&&1&2&1000000&CNY&0040&boshzjjg&6216615002004012257&0&
20072090040021517079&20072090040021517079&20200720&02000016&1817317022126&1817317022126&&1&2&200000&CNY&0040&boshzjjg&6217000140013966914&0&
20072090040021517078&20072090040021517078&20200720&02000016&1813661262290&1813661262290&&1&2&200000&CNY&0040&boshzjjg&6236680010001682780&0&
20072090040021517134&20072090040021517134&20200720&02000016&1813315519013&1813315519013&&1&2&980000&CNY&0040&boshzjjg&6212260403010428189&0&
20072090040021517017&20072090040021517017&20200720&02000016&1818741608136&1818741608136&&1&2&300000&CNY&0040&boshzjjg&6212260708008900761&0&
20072090040021517099&20072090040021517099&20200720&02000016&1815727394536&1815727394536&&1&2&110000&CNY&0040&boshzjjg&9559982200454824818&0&
20072090040021517098&20072090040021517098&20200720&02000016&1813597431025&1813597431025&&1&2&200000&CNY&0040&boshzjjg&6228483829169938270&0&
20072090040021517241&20072090040021517241&20200720&02000016&1815833339533&1815833339533&&1&2&1000000&CNY&0040&boshzjjg&6228481261446640515&0&
20072090040021517111&20072090040021517111&20200720&02000016&1815246263199&1815246263199&&1&2&200000&CNY&0040&boshzjjg&6217905300005337518&0&
20072090040021517155&20072090040021517155&20200720&02000016&1813988268895&1813988268895&&1&2&200000&CNY&0040&boshzjjg&6228483356275195868&0&
20072090040021517116&20072090040021517116&20200720&02000016&1813608764150&1813608764150&&1&2&200000&CNY&0040&boshzjjg&6228483358071129877&0&
20072090040021517244&20072090040021517244&20200720&02000016&1815758901497&1815758901497&&1&2&600000&CNY&0040&boshzjjg&6228483356140142160&0&
20072090040021517164&20072090040021517164&20200720&02000016&1813862285261&1813862285261&&1&2&200000&CNY&0040&boshzjjg&6236682000026570258&0&
20072090040021517246&20072090040021517246&20200720&02000016&1818662308075&1818662308075&&1&2&200000&CNY&0040&boshzjjg&6228272501244475678&0&
20072090040021517169&20072090040021517169&20200720&02000016&1815045765018&1815045765018&&1&2&200000&CNY&0040&boshzjjg&6217001040003472320&0&
20072090040021517127&20072090040021517127&20200720&02000016&1818672886728&1818672886728&&1&2&200000&CNY&0040&boshzjjg&6228483829170339674&0&
20072090040021517341&20072090040021517341&20200720&02000016&1813035366071&1813035366071&&1&2&200000&CNY&0040&boshzjjg&6217002700001821344&0&
20072090040021517268&20072090040021517268&20200720&02000016&1818970607159&1818970607159&&1&2&195000&CNY&0040&boshzjjg&6228480928729743072&0&
20072090040021517191&20072090040021517191&20200720&02000016&1815087508126&1815087508126&&1&2&1000000&CNY&0040&boshzjjg&6222032510000192496&0&
20072090040021517303&20072090040021517303&20200720&02000016&1813019305019&1813019305019&&1&2&200000&CNY&0040&boshzjjg&4563510400016122408&0&
20072090040021517391&20072090040021517391&20200720&02000016&1813472956675&1813472956675&&1&2&200000&CNY&0040&boshzjjg&6228480658445678977&0&
20072090040021517392&20072090040021517392&20200720&02000016&1818672886728&1818672886728&&1&2&600000&CNY&0040&boshzjjg&6228483829170339674&0&
20072090040021517439&20072090040021517439&20200720&02000016&1818809839165&1818809839165&&1&2&1000000&CNY&0040&boshzjjg&6217850400010426085&0&
20072090040021517325&20072090040021517325&20200720&02000016&1813035366071&1813035366071&&1&2&600000&CNY&0040&boshzjjg&6217002700001821344&0&
20072090040021517541&20072090040021517541&20200720&02000016&1813597431025&1813597431025&&1&2&400000&CNY&0040&boshzjjg&6228483829169938270&0&
20072090040021517418&20072090040021517418&20200720&02000016&1813661262290&1813661262290&&1&2&550000&CNY&0040&boshzjjg&6236680010001682780&0&
20072090040021517635&20072090040021517635&20200720&02000016&1813582501197&1813582501197&&1&2&980000&CNY&0040&boshzjjg&6013825010009905711&0&
20072090040021517557&20072090040021517557&20200720&02000016&1813831598921&1813831598921&&1&2&200000&CNY&0040&boshzjjg&6217685401339944&0&
20072090040021517490&20072090040021517490&20200720&02000016&1818669281955&1818669281955&&1&2&70000&CNY&0040&boshzjjg&6228480928633351574&0&
20072090040021517561&20072090040021517561&20200720&02000016&1819987633839&1819987633839&&1&2&1000000&CNY&0040&boshzjjg&6217003960005379900&0&
20072090040021517572&20072090040021517572&20200720&02000016&1818313049087&1818313049087&&1&2&200000&CNY&0040&boshzjjg&6228483358378772072&0&
20072090040021517573&20072090040021517573&20200720&02000016&1818731210312&1818731210312&&1&2&200000&CNY&0040&boshzjjg&6212260409000848070&0&
20072090040021517740&20072090040021517740&20200720&02000016&1815076292885&1815076292885&&1&2&200000&CNY&0040&boshzjjg&6236680140004801309&0&
20072090040021517685&20072090040021517685&20200720&02000016&1813930218482&1813930218482&&1&2&400000&CNY&0040&boshzjjg&6228481268511218077&0&
20072090040021517690&20072090040021517690&20200720&02000016&1813037283510&1813037283510&&1&2&1000000&CNY&0040&boshzjjg&6232086500003263166&0&
20072090040021517700&20072090040021517700&20200720&02000016&1818803122052&1818803122052&&1&2&200000&CNY&0040&boshzjjg&6212880409000046949&0&
20072090040021517705&20072090040021517705&20200720&02000016&1817612454011&1817612454011&&1&2&1000000&CNY&0040&boshzjjg&6210810730042658923&0&
20072090040021517714&20072090040021517714&20200720&02000016&1813887865773&1813887865773&&1&2&1000000&CNY&0040&boshzjjg&6228483358382242070&0&
20072090040021517844&20072090040021517844&20200720&02000016&1815241171965&1815241171965&&1&2&750000&CNY&0040&boshzjjg&6217992220026716439&0&
20072090040021517723&20072090040021517723&20200720&02000016&1818676362587&1818676362587&&1&2&1000000&CNY&0040&boshzjjg&6217002700005024150&0&
20072090040021517798&20072090040021517798&20200720&02000016&1815933553201&1815933553201&&1&2&100000&CNY&0040&boshzjjg&6212880409000272149&0&
