清算中心流水号&交易所流水号&业务发生日期&交易所代码&会员编码&资金账号&出入金方式&出入金类型&出入金发起方&发生金额&币种&银行代码&银行产品代码&银行帐号&状态&备注
20052290040021412858&20052290040021412858&20200522&02000016&1813674575508&1813674575508&&1&2&10000&CNY&0040&boshzjjg&6217001040005621239&0&
20052230020100412865&A8IJVN12Z2T09PUS&20200522&02000016&1815303121880&1815303121880&&0&1&2006&CNY&0040&boshzjjg&6217000140008538074&0&
20052230020100412810&RWY2SCWK98SAJZW3&20200522&02000016&1815038169553&1815038169553&&0&1&40120&CNY&0040&boshzjjg&6222620620028301066&0&
20052230020100412872&H7IZX7IN7XAIN639&20200522&02000016&1815356155658&1815356155658&&0&1&205115&CNY&0040&boshzjjg&6222031210000902306&0&
20052230020100412817&2YF0S8ASPIR06V10&20200522&02000016&1818833201891&1818833201891&&0&1&20060&CNY&0040&boshzjjg&6216730140000056207&0&
20052230020100412952&RSF62EDK45KB0ERE&20200522&02000016&1818057812357&1818057812357&&0&1&120&CNY&0040&boshzjjg&6222031210001020678&0&
20052230020100412879&1HKHC2C51F8N21YV&20200522&02000016&1800100000177&1800100000177&&0&1&149&CNY&0040&boshzjjg&6217001490003900459&0&
20052230020100412882&YBJ5H9GL4NCSDO2D&20200522&02000016&1800100000332&1800100000332&&0&1&190&CNY&0040&boshzjjg&6236681490002533969&0&
20052230020100412883&XWAWRA3SNW1N78TI&20200522&02000016&1813611017783&1813611017783&&0&1&10030&CNY&0040&boshzjjg&6212260200104174715&0&
20052230020100412955&BK2ENW9MHXL6L3DY&20200522&02000016&1815205889775&1815205889775&&0&1&65&CNY&0040&boshzjjg&6212261210001847536&0&
20052230020100412823&YK2QRSUGTIVZD9NJ&20200522&02000016&1817705788090&1817705788090&&0&1&122&CNY&0040&boshzjjg&6222031210001021569&0&
20052230020100412886&OX39VQZ4OGU6MFS6&20200522&02000016&1815057868317&1815057868317&&0&1&138&CNY&0040&boshzjjg&6212261210002881526&0&
20052230020100412827&L1GKSFPSCCL31Y5G&20200522&02000016&1800100000142&1800100000142&&0&1&50&CNY&0040&boshzjjg&6222081210003769776&0&
20052230020100412898&T0B5GS601N65H7UI&20200522&02000016&1818714555279&1818714555279&&0&1&20060&CNY&0040&boshzjjg&6013825311000638164&0&
20052230020100412902&DCPHOXVNJDNC7AM5&20200522&02000016&1815705193619&1815705193619&&0&1&10030&CNY&0040&boshzjjg&6228481059141104070&0&
20052230020100412908&3LEL9AK9J0I21J9R&20200522&02000016&1813840542929&1813840542929&&0&1&401203&CNY&0040&boshzjjg&6217001040008514977&0&
20052230020100412989&A4Y7CLNM5GMKC6UD&20200522&02000016&1818962075812&1818962075812&&0&1&601805&CNY&0040&boshzjjg&6228481985094841773&0&
20052230020100413160&67815WETBSL46J2N&20200522&02000016&1813584278719&1813584278719&&0&1&13841&CNY&0040&boshzjjg&6230520660061593777&0&
20052230020100413178&M8C4EKQGZZEQV6SP&20200522&02000016&1818891101268&1818891101268&&0&1&180541&CNY&0040&boshzjjg&6215592609002245231&0&
20052230020100413256&AYEH9AGL8G8MOJ6D&20200522&02000016&1800100000122&1800100000122&&0&1&1003&CNY&0040&boshzjjg&6228451268042593978&0&
20052230020100413280&I7FHGY79E3GO7HUM&20200522&02000016&1815911281296&1815911281296&&0&1&200&CNY&0040&boshzjjg&6217997300096189835&0&
20052230020100413219&KJ4DNHVAYMCYJLTY&20200522&02000016&1815924117387&1815924117387&&0&1&1003&CNY&0040&boshzjjg&6217993300085883731&0&
20052230020100413282&8A3ZCX5GG22CBQ76&20200522&02000016&1800000000001&1800000000001&&0&1&4012036&CNY&0040&boshzjjg&791914233700018&0&
20052230020100413226&I7VILQJD2HE2CVBH&20200522&02000016&1818667101556&1818667101556&&0&1&1003&CNY&0040&boshzjjg&6222031202006003064&0&
20052230020100413370&91816G5EALXR4LL1&20200522&02000016&1815933126808&1815933126808&&0&1&10030&CNY&0040&boshzjjg&6228481261924832113&0&
20052230020100413373&A8P8IK0JTGDGQPE4&20200522&02000016&1815333225923&1815333225923&&0&1&10030&CNY&0040&boshzjjg&6212260409019012403&0&
20052230020100413435&SACLTSGWCDHAKUFZ&20200522&02000016&1815268612201&1815268612201&&0&1&1003&CNY&0040&boshzjjg&6217856200041679064&0&
20052230020100413379&9FD8E9CU4E7Y1BBZ&20200522&02000016&1813932201758&1813932201758&&0&1&200601&CNY&0040&boshzjjg&6222030409004180148&0&
20052230020100413315&GR7CGJQZ49CNO7PL&20200522&02000016&1800100000261&1800100000261&&0&1&150451&CNY&0040&boshzjjg&6236682020000195104&0&
20052230020100413408&SZ01AZ9W5RI63S9H&20200522&02000016&1815933593100&1815933593100&&0&1&20060&CNY&0040&boshzjjg&6215580409003867826&0&
20052230020100413535&G0BLKMH35N6A9FOM&20200522&02000016&1815211571887&1815211571887&&0&1&70210&CNY&0040&boshzjjg&6228481691102790115&0&
20052230020100413482&0N3K32NDAWFHKFZG&20200522&02000016&1800000000001&1800000000001&&0&1&4012036&CNY&0040&boshzjjg&791914233700018&0&
20052230020100413547&P4JXI7HX089B3YQZ&20200522&02000016&1800000000001&1800000000001&&0&1&2006018&CNY&0040&boshzjjg&791914233700018&0&
20052230020100413495&QO0JDWNO48TNET4H&20200522&02000016&1813059618928&1813059618928&&0&1&501&CNY&0040&boshzjjg&6212261210000905269&0&
20052230020100413497&SZ7FC1ZGXOMMCZB8&20200522&02000016&1813867051385&1813867051385&&0&1&351&CNY&0040&boshzjjg&6228481088766324176&0&
20052230020100413558&X82PHWK8MLSGY9K4&20200522&02000016&1813098812743&1813098812743&&0&1&2657&CNY&0040&boshzjjg&6236682870009079521&0&
20052230020100413651&88RQRI6M2JDMOFTR&20200522&02000016&1817389175431&1817389175431&&0&1&2006&CNY&0040&boshzjjg&6222082607000252442&0&
20052230020100413517&VLPJK493RXL2NTC5&20200522&02000016&1817389175431&1817389175431&&0&1&200601&CNY&0040&boshzjjg&6222082607000252442&0&
20052230020100413709&WGEEU3ZS0K4VPQOJ&20200522&02000016&1813582217784&1813582217784&&0&1&10030&CNY&0040&boshzjjg&6228461268004891475&0&
20052230020100413625&M1KY7LAL8SCCGLTK&20200522&02000016&1818975225517&1818975225517&&0&1&3861&CNY&0040&boshzjjg&6227002930030104656&0&
20052230020100413792&OG13OT508PHLO76H&20200522&02000016&1815128477807&1815128477807&&0&1&10030&CNY&0040&boshzjjg&6236680140004022195&0&
20052230020100413630&KCI243BEFOK5BGK9&20200522&02000016&1818348907445&1818348907445&&0&1&10030&CNY&0040&boshzjjg&6222030409006084272&0&
20052230020100413950&4OF2S5UHGQWU9D7G&20200522&02000016&1800100000109&1800100000109&&0&1&10030&CNY&0040&boshzjjg&6228481268099506273&0&
20052230020100413873&HPVYV9AHWP36DYIV&20200522&02000016&1800100000347&1800100000347&&0&1&300&CNY&0040&boshzjjg&6228481268946635879&0&
20052230020100414064&2EQJIN098FBDXOK7&20200522&02000016&1815630231725&1815630231725&&0&1&30090&CNY&0040&boshzjjg&6222030402002241319&0&
20052230020100413889&8SX399EF80M9F8J3&20200522&02000016&1800100000048&1800100000048&&0&1&2006&CNY&0040&boshzjjg&6217000140028374146&0&
20052230020100413908&Q1DWR7MKZQTSBJGH&20200522&02000016&1815709151444&1815709151444&&0&1&401&CNY&0040&boshzjjg&6217004170001727701&0&
20052230020100414088&74D21JLJ8R2P3AE0&20200522&02000016&1800100000106&1800100000106&&0&1&401&CNY&0040&boshzjjg&6228481749121580972&0&
20052230020100413913&TQ9T1S3G65T2QY6K&20200522&02000016&1800100000106&1800100000106&&0&1&501&CNY&0040&boshzjjg&6228481749121580972&0&
20052230020100413920&HAO47UPKLHZ3T68I&20200522&02000016&1800100000087&1800100000087&&0&1&802&CNY&0040&boshzjjg&6228481749121574470&0&
20052230020100413921&GIQ7BGANH2KAVNPZ&20200522&02000016&1800100000087&1800100000087&&0&1&1003&CNY&0040&boshzjjg&6228481749121574470&0&
20052230020100414095&P8S1OCJXVXGYDJLE&20200522&02000016&1817614685531&1817614685531&&0&1&30090&CNY&0040&boshzjjg&6217992610207873787&0&
20052230020100414002&Y9L5ZMJW8STC0Q6Y&20200522&02000016&1800100000087&1800100000087&&0&1&1103&CNY&0040&boshzjjg&6228481749121574470&0&
20052230020100414003&MBM5G7SKOOHZ9RCO&20200522&02000016&1818746794204&1818746794204&&0&1&20060&CNY&0040&boshzjjg&6222020906004162366&0&
20052230020100414111&ET622PXXRVXDZXLD&20200522&02000016&1818049119039&1818049119039&&0&1&2006&CNY&0040&boshzjjg&6215512511040043833&0&
20052230020100414015&PIO34ICEZJ2KLCXY&20200522&02000016&1800100000104&1800100000104&&0&1&2006&CNY&0040&boshzjjg&6217933501713984&0&
20052230020100414134&SJP5QIARZO518OGX&20200522&02000016&1818091149039&1818091149039&&0&1&50150&CNY&0040&boshzjjg&6210814220003170213&0&
20052230020100414135&3L4K9RM9BFG3LE4F&20200522&02000016&1815291119145&1815291119145&&0&1&15045&CNY&0040&boshzjjg&6236684140003455632&0&
20052230020100414220&OR2A7VBWSRN7Z6HE&20200522&02000016&1813115642991&1813115642991&&0&1&10030&CNY&0040&boshzjjg&6212260906003871389&0&
20052230020100414306&6T1KDAF7GAQEGJBS&20200522&02000016&1815032238123&1815032238123&&0&1&100&CNY&0040&boshzjjg&6217000140016155226&0&
20052290040021412896&20052290040021412896&20200522&02000016&1815184848605&1815184848605&&1&2&200000&CNY&0040&boshzjjg&6228483966003082665&0&
20052290040021412970&20052290040021412970&20200522&02000016&1813587765311&1813587765311&&1&2&200&CNY&0040&boshzjjg&6236681420015050297&0&
20052290040021413342&20052290040021413342&20200522&02000016&1815911281296&1815911281296&&1&2&200&CNY&0040&boshzjjg&6217997300096189835&0&
20052290040021413333&20052290040021413333&20200522&02000016&1815397618643&1815397618643&&1&2&500&CNY&0040&boshzjjg&6212262318000704969&0&
20052290040021413539&20052290040021413539&20200522&02000016&1818733254139&1818733254139&&1&2&200000&CNY&0040&boshzjjg&6217000140029656848&0&
20052290040021413540&20052290040021413540&20200522&02000016&1815911281296&1815911281296&&1&2&195000&CNY&0040&boshzjjg&6217997300096189835&0&
20052290040021413432&20052290040021413432&20200522&02000016&1815397618643&1815397618643&&1&2&199500&CNY&0040&boshzjjg&6212262318000704969&0&
20052290040021413646&20052290040021413646&20200522&02000016&1813978866093&1813978866093&&1&2&200000&CNY&0040&boshzjjg&6214837719366936&0&
20052290040021413599&20052290040021413599&20200522&02000016&1813619647900&1813619647900&&1&2&1000&CNY&0040&boshzjjg&6217003860019630217&0&
20052290040021413768&20052290040021413768&20200522&02000016&1818725344782&1818725344782&&1&2&200000&CNY&0040&boshzjjg&6228483968611794772&0&
20052290040021413715&20052290040021413715&20200522&02000016&1815925561179&1815925561179&&1&2&200000&CNY&0040&boshzjjg&6230523960012571675&0&
20052290040021413801&20052290040021413801&20200522&02000016&1813633181332&1813633181332&&1&2&1000&CNY&0040&boshzjjg&6217000160005540212&0&
20052290040021413807&20052290040021413807&20200522&02000016&1800100000347&1800100000347&&1&2&500&CNY&0040&boshzjjg&6228481268946635879&0&
20052290040021414165&20052290040021414165&20200522&02000016&1815933229952&1815933229952&&1&2&200000&CNY&0040&boshzjjg&6215580409001571065&0&
20052290040021414388&20052290040021414388&20200522&02000016&1815946775111&1815946775111&&1&2&400000&CNY&0040&boshzjjg&6228412680007614813&0&
20052290040021414395&20052290040021414395&20200522&02000016&1815043594322&1815043594322&&1&2&200000&CNY&0040&boshzjjg&6228411864500643278&0&
20052290040021414221&20052290040021414221&20200522&02000016&1815032238123&1815032238123&&1&2&1000&CNY&0040&boshzjjg&6217000140016155226&0&
