清算中心流水号&交易所流水号&业务发生日期&交易所代码&会员编码&资金账号&出入金类型&发生金额&手续费金额&银行产品代码&备注
20060230020100423920&EPONEU7REUMQOD72&20200602&02000016&1815233123371&1815233123371&0&185456&556&boshzjjg&
20060230020100423924&XY5RUDBJ7DAJAQJV&20200602&02000016&1815957902628&1815957902628&0&207121&621&boshzjjg&
20060230020100423928&BOPPXIQCAE9W3125&20200602&02000016&1815382494511&1815382494511&0&214042&642&boshzjjg&
20060230020100423998&GSLSYU9TXJIUIX08&20200602&02000016&1818257932275&1818257932275&0&214142&642&boshzjjg&
20060230020100424062&YTB971YZIBRBSYLL&20200602&02000016&1817317025629&1817317025629&0&45135&135&boshzjjg&
20060230020100424063&JOUTCQY82Q78YN38&20200602&02000016&1813506593224&1813506593224&0&210130&630&boshzjjg&
20060230020100423929&LEEB08Z29RQBDLVH&20200602&02000016&1813129593568&1813129593568&0&188565&565&boshzjjg&
20060230020100423930&BFI3VUNXA42DKLSN&20200602&02000016&1813588336535&1813588336535&0&195586&586&boshzjjg&
20060230020100423931&I83FEY1AP6NAL4C2&20200602&02000016&1818758949435&1818758949435&0&148445&445&boshzjjg&
20060230020100424086&XYDDF4KB55P4SVEH&20200602&02000016&1813164990022&1813164990022&0&188565&565&boshzjjg&
20060230020100424156&BTV70TBH15UZ2A6A&20200602&02000016&1815305796690&1815305796690&0&203610&610&boshzjjg&
20060230020100424025&L0H3YJ5XGE8DGMJT&20200602&02000016&1815211571887&1815211571887&0&190571&571&boshzjjg&
20060230020100424165&S6JJUZOSUN34TUC1&20200602&02000016&1813684689700&1813684689700&0&59177&177&boshzjjg&
20060230020100424167&GZ6IPHJMAM16JZTG&20200602&02000016&1813516512882&1813516512882&0&20060&60&boshzjjg&
20060230020100424106&P0BT9UJACONCI1Q8&20200602&02000016&1815113380706&1815113380706&0&226680&680&boshzjjg&
20060230020100424250&I3K7WYENZZZI3JA9&20200602&02000016&1818667101556&1818667101556&0&200601&601&boshzjjg&
20060230020100424174&BY7EV5INALEKKU49&20200602&02000016&1815352338039&1815352338039&0&190571&571&boshzjjg&
20060230020100424128&L0M1ABLMFMWORJY5&20200602&02000016&1800100000057&1800100000057&0&35105&105&boshzjjg&
20060230020100424266&OBI29H6TQFU4ZLXH&20200602&02000016&1800100000057&1800100000057&0&5015&15&boshzjjg&
20060230020100424338&A2KSLGT4RDDDCH9B&20200602&02000016&1818958463402&1818958463402&0&200601&601&boshzjjg&
20060230020100424343&D282WCTDK0E5OAG2&20200602&02000016&1815257996892&1815257996892&0&200601&601&boshzjjg&
20060230020100424211&HJI041IWO71438JQ&20200602&02000016&1813988238986&1813988238986&0&50150&150&boshzjjg&
20060230020100424216&7QVKFNLCNM2JEO40&20200602&02000016&1813933229549&1813933229549&0&10030&30&boshzjjg&
20060230020100424220&RNHIOSFEXAUYV3CE&20200602&02000016&1813757090508&1813757090508&0&200601&601&boshzjjg&
20060230020100424328&7ULT0XL8BZLFVFEA&20200602&02000016&1818746794204&1818746794204&0&190571&571&boshzjjg&
20060230020100424453&AX5Q6XP5P951RST1&20200602&02000016&1817614685531&1817614685531&0&190571&571&boshzjjg&
20060230020100424469&MU14JUM1JGOD2UBR&20200602&02000016&1800100000189&1800100000189&0&28084&84&boshzjjg&
20060230020100424554&KWVFSL3D475X7T0C&20200602&02000016&1813191684413&1813191684413&0&10030&30&boshzjjg&
20060230020100424428&T3TGIJYTBNZE3VYZ&20200602&02000016&1818132717939&1818132717939&0&10030&30&boshzjjg&
20060230020100424556&S1ITGFOZF9CR5WRT&20200602&02000016&1818392967498&1818392967498&0&25075&75&boshzjjg&
20060230020100424505&V3J06SRFC2F73Y5D&20200602&02000016&1818049119039&1818049119039&0&5015&15&boshzjjg&
20060230020100424532&LW9I00XIHOC8ZIDA&20200602&02000016&1815045503182&1815045503182&0&200601&601&boshzjjg&
20060230020100424700&IIZHX5ANH3FNN5KX&20200602&02000016&1818932685729&1818932685729&0&371113&1113&boshzjjg&
20060230020100424762&8QP20E5RS58KU5GG&20200602&02000016&1818631220891&1818631220891&0&371113&1113&boshzjjg&
20060230020100424705&35EZSEAW4RYJKA76&20200602&02000016&1815987884158&1815987884158&0&7021&21&boshzjjg&
20060230020100424940&UUEN5SMYCJSK3VAJ&20200602&02000016&1813779583395&1813779583395&0&10030&30&boshzjjg&
20060230020100424800&AREVRREB83M5VGO7&20200602&02000016&1815057868078&1815057868078&0&59779&179&boshzjjg&
20060230020100424945&4MS4WRFI8FL9J670&20200602&02000016&1813559987851&1813559987851&0&185055&555&boshzjjg&
20060230020100424955&N5E15KF8F5ICEKVC&20200602&02000016&1813333799393&1813333799393&0&100300&300&boshzjjg&
20060230020100424815&AWUFWN0DWVBOFZ8H&20200602&02000016&1813333799393&1813333799393&0&100300&300&boshzjjg&
20060230020100424817&LR0HQL95UA8CE7CZ&20200602&02000016&1818869202035&1818869202035&0&100300&300&boshzjjg&
20060230020100424819&IAFDVEH2HJ51F53B&20200602&02000016&1818869202035&1818869202035&0&100300&300&boshzjjg&
20060230020100425140&GTQJ6S49IIEMLH9R&20200602&02000016&1800100000034&1800100000034&0&200601&601&boshzjjg&
20060230020100425021&SMK89FDTJ32XD3MF&20200602&02000016&1818379168116&1818379168116&0&200601&601&boshzjjg&
20060230020100425080&D3HLSW10WRZHIO1C&20200602&02000016&1813230203301&1813230203301&0&20060&60&boshzjjg&
20060230020100425086&ZEJYI14FKNGK5RXQ&20200602&02000016&1813006233652&1813006233652&0&200601&601&boshzjjg&
20060230020100425162&N89HECP4KCJXU8F2&20200602&02000016&1813333029656&1813333029656&0&36108&108&boshzjjg&
20060230020100425114&BPEQC2RNTRNJFQLR&20200602&02000016&1800100000182&1800100000182&0&401203&1203&boshzjjg&
20060230020100425213&20OYBTEBEZFICZRH&20200602&02000016&1800100000241&1800100000241&0&208024&624&boshzjjg&
20060230020100425229&QH65K0GUYMJ8ZZOP&20200602&02000016&1815857889599&1815857889599&0&401203&1203&boshzjjg&
20060230020100425318&ENRYQTM2R779J9QV&20200602&02000016&1815603255558&1815603255558&0&200601&601&boshzjjg&
20060230020100425425&LEE3KNWD74N7H3Q6&20200602&02000016&1815038169553&1815038169553&0&20060&60&boshzjjg&
20060230020100425495&M44GRTV7XAYVZ70Z&20200602&02000016&1800100000136&1800100000136&0&300902&902&boshzjjg&
20060230020100425496&UHJPCI09B84P3DHS&20200602&02000016&1800100000230&1800100000230&0&300902&902&boshzjjg&
20060230020100425504&KUPYJ5ARYW53DDHT&20200602&02000016&1813091257294&1813091257294&0&230692&692&boshzjjg&
20060230020100425878&3M9M7XQEEIAKC3V4&20200602&02000016&1813385849623&1813385849623&0&20060&60&boshzjjg&
20060230020100425879&68NMWDF2QKFIOXD8&20200602&02000016&1800100000057&1800100000057&0&20060&60&boshzjjg&
20060230020100425812&ARWWS0GB1QNW5NYQ&20200602&02000016&1800100000136&1800100000136&0&100300&300&boshzjjg&
20060230020100425815&4TYJC7BEINIPLLJS&20200602&02000016&1800100000272&1800100000272&0&401203&1203&boshzjjg&
20060230020100425897&U6PB0B08MXEAOI53&20200602&02000016&1800100000230&1800100000230&0&80240&240&boshzjjg&
20060230020100425926&CLL65T3HK1GX3YYA&20200602&02000016&1813796574791&1813796574791&0&10030&30&boshzjjg&
20060230020100425999&39Q5TC4G986JHT7C&20200602&02000016&1818669254642&1818669254642&0&10030&30&boshzjjg&
20060230020100426022&DVFIVOMBM532QDWZ&20200602&02000016&1818345857865&1818345857865&0&15045&45&boshzjjg&
20060230020100426179&KBP1IRWPSLCAGYM5&20200602&02000016&1813908822711&1813908822711&0&10030&30&boshzjjg&
20060230020100426127&ZJH3ZJA8B3RX8G4D&20200602&02000016&1817784230052&1817784230052&0&17051&51&boshzjjg&
20060230020100426192&LDDUYMVTMTDD1EMP&20200602&02000016&1800100000188&1800100000188&0&20060&60&boshzjjg&
20060230020100426390&DI8MN1E6OCHVTW28&20200602&02000016&1800100000109&1800100000109&0&10030&30&boshzjjg&
20060230020100426536&5FXD310WN9BOUYQC&20200602&02000016&1818191539413&1818191539413&0&40120&120&boshzjjg&
20060230020100426411&2EXMY3EJC0X2ON3R&20200602&02000016&1815136188661&1815136188661&0&185556&556&boshzjjg&
20060230020100426484&780GLM26X69FQSYD&20200602&02000016&1800100000122&1800100000122&0&1003&3&boshzjjg&
