清算中心流水号&交易所流水号&业务发生日期&交易所代码&会员编码&资金账号&出入金方式&出入金类型&出入金发起方&发生金额&币种&银行代码&银行产品代码&银行帐号&状态&备注
20092390040021774798&20092390040021774798&20200923&02000016&1813890304580&1813890304580&&1&2&10000&CNY&0040&boshzjjg&6228484098891134371&0&
20092390040021774799&20092390040021774799&20200923&02000016&1815196480386&1815196480386&&1&2&13000&CNY&0040&boshzjjg&6230943820000374569&0&
20092390040021774731&20092390040021774731&20200923&02000016&1817389291519&1817389291519&&1&2&200&CNY&0040&boshzjjg&6228482908724610573&0&
20092330020100775017&96RGPPEBU6PJ2XLY&20200923&02000016&1818988228277&1818988228277&&0&1&50150&CNY&0040&boshzjjg&6228483358609707475&0&
20092330020100775140&IAFKU2Z7LW3JCAFR&20200923&02000016&1815206011910&1815206011910&&0&1&170511&CNY&0040&boshzjjg&6217993900047485762&0&
20092330020100775142&JB1FM376A8W9L11Q&20200923&02000016&1815206083711&1815206083711&&0&1&70210&CNY&0040&boshzjjg&6217973900002147336&0&
20092330020100775026&9BOIHU7VOD4VGNTL&20200923&02000016&1818796539070&1818796539070&&0&1&10030&CNY&0040&boshzjjg&4340611320057743&0&
20092330020100775044&H0TIXAY24Q6L2CMD&20200923&02000016&1815969252992&1815969252992&&0&1&300902&CNY&0040&boshzjjg&6217003970003489270&0&
20092330020100775154&SFHXDEGXZW35O3NX&20200923&02000016&1800100000099&1800100000099&&0&1&55165&CNY&0040&boshzjjg&6236680140002035082&0&
20092330020100775155&FYF7VQ54PMAQSTRX&20200923&02000016&1818796539070&1818796539070&&0&1&180541&CNY&0040&boshzjjg&4340611320057743&0&
20092330020100775237&CXGF44II6XMFWXW1&20200923&02000016&1815245926355&1815245926355&&0&1&20060&CNY&0040&boshzjjg&6217001020000173592&0&
20092330020100775238&LVO8C2JETR5A7EV9&20200923&02000016&1813578201321&1813578201321&&0&1&300902&CNY&0040&boshzjjg&6217003970002285729&0&
20092330020100775239&DW0U1UXT35Q4WVH4&20200923&02000016&1813230823996&1813230823996&&0&1&100300&CNY&0040&boshzjjg&6222020403012247439&0&
20092330020100775240&J959KUU0E1U3ZO06&20200923&02000016&1815232640847&1815232640847&&0&1&90270&CNY&0040&boshzjjg&6228480659200859174&0&
20092330020100775243&7TOZVG7S5NHO1K3C&20200923&02000016&1815872425498&1815872425498&&0&1&2507&CNY&0040&boshzjjg&6214832734797819&0&
20092330020100775163&1O4108ZCACGTY6JX&20200923&02000016&1815187260610&1815187260610&&0&1&40120&CNY&0040&boshzjjg&6227003950310507856&0&
20092330020100775189&PF2FE4WH381Z19WH&20200923&02000016&1815709151444&1815709151444&&0&1&5015&CNY&0040&boshzjjg&6217004170001727701&0&
20092330020100775190&E7JX58JOQWNY343J&20200923&02000016&1813509153281&1813509153281&&0&1&5015&CNY&0040&boshzjjg&6228482968682166570&0&
20092330020100775049&93XG5M88UN8R333N&20200923&02000016&1813065174362&1813065174362&&0&1&10030&CNY&0040&boshzjjg&6217002020040593428&0&
20092330020100775196&P6A4CRAGZB69HT4J&20200923&02000016&1818910118777&1818910118777&&0&1&5015&CNY&0040&boshzjjg&6222080200014357696&0&
20092330020100775252&HORCFEWMOEPWQ9FN&20200923&02000016&1813930579794&1813930579794&&0&1&180541&CNY&0040&boshzjjg&6228230655470190962&0&
20092330020100775200&VYUL81R3E0XHCCXQ&20200923&02000016&1813988202057&1813988202057&&0&1&10030&CNY&0040&boshzjjg&6217003970002588692&0&
20092330020100775221&R44SRYZHC04UMSBT&20200923&02000016&1813936939588&1813936939588&&0&1&50150&CNY&0040&boshzjjg&6221882600038915654&0&
20092330020100775282&HQEROLCOLCV8LZYB&20200923&02000016&1813578264861&1813578264861&&0&1&7021&CNY&0040&boshzjjg&6228483358597332872&0&
20092330020100775283&WKYVSLW1I38R4Z37&20200923&02000016&1813324639668&1813324639668&&0&1&10030&CNY&0040&boshzjjg&6212960110000005918&0&
20092330020100775288&3LKXWXTKP2MEGQ2F&20200923&02000016&1818790595711&1818790595711&&0&1&20060&CNY&0040&boshzjjg&6212261704003541584&0&
20092330020100775070&B99II0IVLNC736ZL&20200923&02000016&1818869218211&1818869218211&&0&1&40120&CNY&0040&boshzjjg&6228483358602321571&0&
20092330020100775350&8CBGDRNGRALDJDVM&20200923&02000016&1813750050128&1813750050128&&0&1&30090&CNY&0040&boshzjjg&6217232002000641746&0&
20092330020100775079&M849YJI27149FYHR&20200923&02000016&1813988211117&1813988211117&&0&1&50150&CNY&0040&boshzjjg&6228483358580821972&0&
20092330020100775080&441UE4AUAMN98UBA&20200923&02000016&1815758966453&1815758966453&&0&1&50150&CNY&0040&boshzjjg&6217852700017217322&0&
20092330020100775329&BY7SJTIRYIOU8B3R&20200923&02000016&1813930292933&1813930292933&&0&1&1003&CNY&0040&boshzjjg&6228481268690850575&0&
20092330020100775441&YZ1V5LDH5SOQRZ03&20200923&02000016&1815175219511&1815175219511&&0&1&40120&CNY&0040&boshzjjg&6228481269255520173&0&
20092330020100775443&E99KPM19MIDG8RGP&20200923&02000016&1817516551290&1817516551290&&0&1&20060&CNY&0040&boshzjjg&6217000140039550700&0&
20092330020100775389&P93WCIXBZX2JOCXJ&20200923&02000016&1815100258404&1815100258404&&0&1&30090&CNY&0040&boshzjjg&6216605000008780905&0&
20092330020100775445&TRG90ZXXJR0HKJ18&20200923&02000016&1815130371519&1815130371519&&0&1&40120&CNY&0040&boshzjjg&6217000140026400430&0&
20092330020100775393&44FZAE7H7CGOFKN2&20200923&02000016&1815232210507&1815232210507&&0&1&10030&CNY&0040&boshzjjg&6228481269203650874&0&
20092330020100775451&BSNSZ8RYI83P7I64&20200923&02000016&1815758449560&1815758449560&&0&1&25075&CNY&0040&boshzjjg&6228483358272323675&0&
20092330020100775400&CXSVS3BZMFEGB57E&20200923&02000016&1815512532000&1815512532000&&0&1&100300&CNY&0040&boshzjjg&6222080403002647884&0&
20092330020100775402&1PEUIV5LTYQE7TNG&20200923&02000016&1815987884158&1815987884158&&0&1&20060&CNY&0040&boshzjjg&6228483358614081478&0&
20092330020100775458&DDHAFW5P8UX83IEW&20200923&02000016&1818920735520&1818920735520&&0&1&210631&CNY&0040&boshzjjg&6222621210011956271&0&
20092330020100775108&XSO48IJUTZ7JD7PV&20200923&02000016&1813578284427&1813578284427&&0&1&50150&CNY&0040&boshzjjg&6212262511001290539&0&
20092330020100775540&JZP3SIA0AUB5PMLF&20200923&02000016&1813378752638&1813378752638&&0&1&70210&CNY&0040&boshzjjg&6228483968416842578&0&
20092330020100775112&1DHXTK02YAN6TEOS&20200923&02000016&1815184914299&1815184914299&&0&1&1003009&CNY&0040&boshzjjg&6228483356275157165&0&
20092330020100775507&U9EGPWXK5GLO6738&20200923&02000016&1813988238986&1813988238986&&0&1&40120&CNY&0040&boshzjjg&6230523350012901777&0&
20092330020100775548&ZGAORWJBQRNN6460&20200923&02000016&1813988259242&1813988259242&&0&1&902708&CNY&0040&boshzjjg&6217003970000541628&0&
20092330020100775549&8MD975XRGVQ9WYCC&20200923&02000016&1818672841671&1818672841671&&0&1&30090&CNY&0040&boshzjjg&6221805200009474916&0&
20092330020100775550&YB7B75QM705PGGCB&20200923&02000016&1813808736598&1813808736598&&0&1&20060&CNY&0040&boshzjjg&6236683860001404446&0&
20092330020100775511&2KZQGV9WB1R3BTCN&20200923&02000016&1813997978230&1813997978230&&0&1&300902&CNY&0040&boshzjjg&6236682700004695551&0&
20092330020100775553&CT8SEURNO72XBSSO&20200923&02000016&1813988285261&1813988285261&&0&1&100300&CNY&0040&boshzjjg&6230523350015104072&0&
20092330020100775115&Z35BWYAXSO5MKX5M&20200923&02000016&1813578279988&1813578279988&&0&1&1003009&CNY&0040&boshzjjg&6217003970003642241&0&
20092330020100775562&M2ZI7ORKYVCW1HH0&20200923&02000016&1813114192298&1813114192298&&0&1&35707&CNY&0040&boshzjjg&6222032510000302178&0&
20092330020100775119&HRXO4RLSY8WI176D&20200923&02000016&1818787542627&1818787542627&&0&1&20060&CNY&0040&boshzjjg&6217997300009733638&0&
20092330020100775569&MO6E5SI6I9EAT7OV&20200923&02000016&1813114199139&1813114199139&&0&1&20060&CNY&0040&boshzjjg&6221807300007288348&0&
20092330020100775571&7CHS0H16JBZIAYVT&20200923&02000016&1815887650091&1815887650091&&0&1&46840&CNY&0040&boshzjjg&6217003960005725714&0&
20092330020100775642&AHJEGZOA5R49J2R5&20200923&02000016&1815908602315&1815908602315&&0&1&24072&CNY&0040&boshzjjg&6228483829749216478&0&
20092330020100775130&05LZ0JIVD8OLXS1E&20200923&02000016&1813517280906&1813517280906&&0&1&23069&CNY&0040&boshzjjg&6217002700002580873&0&
20092330020100775658&1NWN9L7AJ6A1YAUI&20200923&02000016&1813477460174&1813477460174&&0&1&23069&CNY&0040&boshzjjg&6236682700003989690&0&
20092330020100775616&HVQ2A9METS06N7BS&20200923&02000016&1813987590496&1813987590496&&0&1&20060&CNY&0040&boshzjjg&6212262510002082895&0&
20092330020100775746&7JCAG4NS1OF7520T&20200923&02000016&1815527487810&1815527487810&&0&1&20060&CNY&0040&boshzjjg&6230523820008342772&0&
20092330020100775618&7R273TJ5ZNUWUGOU&20200923&02000016&1815871922321&1815871922321&&0&1&20060&CNY&0040&boshzjjg&6228483829744797274&0&
20092330020100775620&QQKQM8NDSEFY3VDE&20200923&02000016&1813407208602&1813407208602&&0&1&20060&CNY&0040&boshzjjg&6210983000086305810&0&
20092330020100775678&9K8TMTQG882MKHU4&20200923&02000016&1817307284675&1817307284675&&0&1&23069&CNY&0040&boshzjjg&6236682700004047852&0&
20092330020100775629&RYCM14NYFP3ZKPE6&20200923&02000016&1813987520975&1813987520975&&0&1&50150&CNY&0040&boshzjjg&6222032510000328066&0&
20092330020100775750&SWSOQK4KPNL0E9MI&20200923&02000016&1815070483828&1815070483828&&0&1&200601&CNY&0040&boshzjjg&6217994370006201825&0&
20092330020100775856&IELEH7X467N4YNKT&20200923&02000016&1813832897608&1813832897608&&0&1&190571&CNY&0040&boshzjjg&6228480659137451475&0&
20092330020100775710&0NU0BZE4HDF11YPI&20200923&02000016&1815931283882&1815931283882&&0&1&10030&CNY&0040&boshzjjg&6230521260000333473&0&
20092330020100775862&RML25T7192OUZ2U6&20200923&02000016&1813988265616&1813988265616&&0&1&30090&CNY&0040&boshzjjg&6236683970000005167&0&
20092330020100775758&ZS6R90OVPX2397SZ&20200923&02000016&1818135104449&1818135104449&&0&1&15045&CNY&0040&boshzjjg&6217000260001787674&0&
20092330020100775712&34M2X0VRKMJRO72G&20200923&02000016&1818833231845&1818833231845&&0&1&200601&CNY&0040&boshzjjg&6222030409007161731&0&
20092330020100775714&VCMWKAP0X24V1QNU&20200923&02000016&1815770327841&1815770327841&&0&1&10030&CNY&0040&boshzjjg&6230523960006009575&0&
20092330020100775727&10PCVSM3GXDA7KKH&20200923&02000016&1813931396270&1813931396270&&0&1&1003&CNY&0040&boshzjjg&6212260409002247180&0&
20092330020100775732&AUKN7CVVJ84VGQ3E&20200923&02000016&1815709151444&1815709151444&&0&1&50150&CNY&0040&boshzjjg&6217004170001727701&0&
20092330020100775768&TCDQUE9KP6SH0T2P&20200923&02000016&1818714666630&1818714666630&&0&1&10030&CNY&0040&boshzjjg&6228482226155581365&0&
20092330020100775936&7A94IMLMZDH12VNC&20200923&02000016&1815833888894&1815833888894&&0&1&30090&CNY&0040&boshzjjg&6217000010131390505&0&
20092330020100775941&113ZKH9DVMBJP1CB&20200923&02000016&1818962075812&1818962075812&&0&1&1&CNY&0040&boshzjjg&6228481985094841773&0&
20092330020100775914&WJ05LPJC0D1NUQO9&20200923&02000016&1813663399658&1813663399658&&0&1&100300&CNY&0040&boshzjjg&6228451268028090478&0&
20092330020100775983&MHOGGBH1KM2JRQWF&20200923&02000016&1813903129945&1813903129945&&0&1&250752&CNY&0040&boshzjjg&6217000140006786535&0&
20092330020100775796&QG7HE07FPR2M51EN&20200923&02000016&1818003120392&1818003120392&&0&1&90270&CNY&0040&boshzjjg&6210810140000961774&0&
20092330020100776019&E7VH26N9Q0RZFPE2&20200923&02000016&1817773475957&1817773475957&&0&1&10030&CNY&0040&boshzjjg&6236682950001813653&0&
20092330020100776180&OK3CBZIR2AF1A9L7&20200923&02000016&1813080793849&1813080793849&&0&1&30090&CNY&0040&boshzjjg&6210810730022700372&0&
20092330020100776257&M4AILNDGO3K6ZQJA&20200923&02000016&1813359605105&1813359605105&&0&1&10030&CNY&0040&boshzjjg&6222080902001254139&0&
20092330020100776197&OI31DPX1FGM7L8SC&20200923&02000016&1818531229185&1818531229185&&0&1&10631&CNY&0040&boshzjjg&6222030409003364388&0&
20092330020100776371&Y7I8N2LNRFU869PP&20200923&02000016&1813578260698&1813578260698&&0&1&50150&CNY&0040&boshzjjg&6230523350015796679&0&
20092330020100776391&FIHN99UY8R291S40&20200923&02000016&1815945242348&1815945242348&&0&1&10030&CNY&0040&boshzjjg&6217230902002059734&0&
20092330020100776535&9H9KMPDBPJ84895Q&20200923&02000016&1818306969995&1818306969995&&0&1&401203&CNY&0040&boshzjjg&6217003970003542136&0&
20092330020100776537&TCHR1RE59JROTDV2&20200923&02000016&1815290503342&1815290503342&&0&1&100300&CNY&0040&boshzjjg&6217002450015334930&0&
20092330020100776545&G4TYEU3X79BR1WKR&20200923&02000016&1815030272277&1815030272277&&0&1&300&CNY&0040&boshzjjg&6228481261530862116&0&
20092330020100776295&338KBIBFUH8ACVEL&20200923&02000016&1818645910208&1818645910208&&0&1&40120&CNY&0040&boshzjjg&6217001020004405594&0&
20092330020100776551&0E1PI3Q4NCZMQ3FU&20200923&02000016&1813708627386&1813708627386&&0&1&10030&CNY&0040&boshzjjg&6212262511000889679&0&
20092330020100776563&00HYA24YXPDYMXHM&20200923&02000016&1813988259777&1813988259777&&0&1&20060&CNY&0040&boshzjjg&6228463358001475071&0&
20092330020100776530&TFZKVXH6VRBN034J&20200923&02000016&1813021341120&1813021341120&&0&1&10030&CNY&0040&boshzjjg&6228480028067658170&0&
20092330020100776593&P483GQSWVCQQS3F4&20200923&02000016&1813473209633&1813473209633&&0&1&10030&CNY&0040&boshzjjg&6217000140041054717&0&
20092330020100776652&BHABXXK2XA3FRFKI&20200923&02000016&1813932256061&1813932256061&&0&1&50150&CNY&0040&boshzjjg&6222080409001330703&0&
20092330020100776609&PARDMIEBL0RUGJDL&20200923&02000016&1815845821477&1815845821477&&0&1&60180&CNY&0040&boshzjjg&6217001020008511561&0&
20092330020100776320&Q88MK2Z2BP0OHCTS&20200923&02000016&1815128431807&1815128431807&&0&1&10030&CNY&0040&boshzjjg&6228481008718613674&0&
20092330020100776744&XY3MUS4EG36WQXHF&20200923&02000016&1813998848200&1813998848200&&0&1&120361&CNY&0040&boshzjjg&6222033301016892769&0&
20092330020100776785&L9H3GYPPOOKF28MP&20200923&02000016&1813183086586&1813183086586&&0&1&30090&CNY&0040&boshzjjg&6236682450000372181&0&
20092330020100776874&NI6LQIPTWW81OEPS&20200923&02000016&1815227280220&1815227280220&&0&1&411233&CNY&0040&boshzjjg&6222030408001750770&0&
20092330020100777064&R6801JUZNXWLQI1P&20200923&02000016&1815871840582&1815871840582&&0&1&401203&CNY&0040&boshzjjg&6217857600059130752&0&
20092330020100777016&MVD5YLK5JR6N5BX2&20200923&02000016&1815871840582&1815871840582&&0&1&48144&CNY&0040&boshzjjg&6217857600059130752&0&
20092330020100776896&X4E6FSG2JWWK099E&20200923&02000016&1813722958453&1813722958453&&0&1&10030&CNY&0040&boshzjjg&6217000140027160801&0&
20092330020100777068&I4OJ87P0R53FHTQV&20200923&02000016&1813908828722&1813908828722&&0&1&10030&CNY&0040&boshzjjg&6228480868611794173&0&
20092330020100776898&OZVEGW7P9DEY0ENR&20200923&02000016&1815871840582&1815871840582&&0&1&997993&CNY&0040&boshzjjg&6217857600059130752&0&
20092330020100777077&ATNN4Y0NITRH5AQX&20200923&02000016&1815871840582&1815871840582&&0&1&2607&CNY&0040&boshzjjg&6217857600059130752&0&
20092330020100777183&157UZFI6FWKWAJUZ&20200923&02000016&1813733376480&1813733376480&&0&1&6018&CNY&0040&boshzjjg&6228481266296383165&0&
20092330020100777187&LNJXGVKJKFFL8EM5&20200923&02000016&1818218726430&1818218726430&&0&1&20060&CNY&0040&boshzjjg&620522113790023894&0&
20092330020100777254&WBRXQYKI9EEEVZL2&20200923&02000016&1813703266345&1813703266345&&0&1&30090&CNY&0040&boshzjjg&6217991460004103645&0&
20092330020100776932&FSPIOAFN0KIFTGIZ&20200923&02000016&1800100000113&1800100000113&&0&1&100300&CNY&0040&boshzjjg&6217001040007991374&0&
20092330020100776933&304V61G9R5NI6PY1&20200923&02000016&1813988205292&1813988205292&&0&1&40120&CNY&0040&boshzjjg&6228483358596490879&0&
20092330020100777335&2TRDTUL6CGD991RH&20200923&02000016&1815887556876&1815887556876&&0&1&30090&CNY&0040&boshzjjg&6228483351168428013&0&
20092330020100777297&NRNB0EP8BUGTU5ND&20200923&02000016&1800100000104&1800100000104&&0&1&15045&CNY&0040&boshzjjg&6217933501713984&0&
20092330020100777311&E222BWD7E9C89FFN&20200923&02000016&1818640583537&1818640583537&&0&1&20060&CNY&0040&boshzjjg&6214830242282472&0&
20092390040021774730&20092390040021774730&20200923&02000016&1813505013254&1813505013254&&1&2&152000&CNY&0040&boshzjjg&6217001830036559865&0&
20092390040021774809&20092390040021774809&20200923&02000016&1813072356643&1813072356643&&1&2&198000&CNY&0040&boshzjjg&6214850231517258&0&
20092390040021774812&20092390040021774812&20200923&02000016&1815901437386&1815901437386&&1&2&350000&CNY&0040&boshzjjg&6212260200054312869&0&
20092390040021774972&20092390040021774972&20200923&02000016&1813932667847&1813932667847&&1&2&198000&CNY&0040&boshzjjg&6222020410005360491&0&
20092390040021775473&20092390040021775473&20200923&02000016&1817830861541&1817830861541&&1&2&198000&CNY&0040&boshzjjg&6217003760117478008&0&
20092390040021775105&20092390040021775105&20200923&02000016&1813987547992&1813987547992&&1&2&200000&CNY&0040&boshzjjg&6222032510000133557&0&
20092390040021775572&20092390040021775572&20200923&02000016&1813585591428&1813585591428&&1&2&200000&CNY&0040&boshzjjg&6217001210015523812&0&
20092390040021775610&20092390040021775610&20200923&02000016&1815826902596&1815826902596&&1&2&200&CNY&0040&boshzjjg&6228483829039990675&0&
20092390040021775684&20092390040021775684&20200923&02000016&1815826902596&1815826902596&&1&2&1000000&CNY&0040&boshzjjg&6228483829039990675&0&
20092390040021775865&20092390040021775865&20200923&02000016&1818603120081&1818603120081&&1&2&200000&CNY&0040&boshzjjg&6217000140005232937&0&
20092390040021775868&20092390040021775868&20200923&02000016&1813578206076&1813578206076&&1&2&500&CNY&0040&boshzjjg&6230523350010137275&0&
20092390040021776060&20092390040021776060&20200923&02000016&1813982575721&1813982575721&&1&2&198000&CNY&0040&boshzjjg&6215582310002310636&0&
20092390040021776098&20092390040021776098&20200923&02000016&1815045985321&1815045985321&&1&2&200000&CNY&0040&boshzjjg&6217001020001655407&0&
20092390040021776367&20092390040021776367&20200923&02000016&1813910617829&1813910617829&&1&2&198000&CNY&0040&boshzjjg&6228480018555863374&0&
20092390040021776274&20092390040021776274&20200923&02000016&1817737928666&1817737928666&&1&2&1000000&CNY&0040&boshzjjg&6222021705016628995&0&
20092390040021776538&20092390040021776538&20200923&02000016&1818032371120&1818032371120&&1&2&198000&CNY&0040&boshzjjg&6230521740025990571&0&
20092390040021776693&20092390040021776693&20200923&02000016&1818309867368&1818309867368&&1&2&1000000&CNY&0040&boshzjjg&6228480048597047272&0&
20092390040021776737&20092390040021776737&20200923&02000016&1818707228279&1818707228279&&1&2&1000&CNY&0040&boshzjjg&6228483829383639373&0&
20092390040021776752&20092390040021776752&20200923&02000016&1813887992125&1813887992125&&1&2&100&CNY&0040&boshzjjg&6228483318519565470&0&
20092390040021776753&20092390040021776753&20200923&02000016&1818707228279&1818707228279&&1&2&999000&CNY&0040&boshzjjg&6228483829383639373&0&
20092390040021776839&20092390040021776839&20200923&02000016&1815201118685&1815201118685&&1&2&198000&CNY&0040&boshzjjg&6212260200009390655&0&
20092390040021776728&20092390040021776728&20200923&02000016&1813887992125&1813887992125&&1&2&2500000&CNY&0040&boshzjjg&6228483318519565470&0&
20092390040021776946&20092390040021776946&20200923&02000016&1815682671354&1815682671354&&1&2&198000&CNY&0040&boshzjjg&6228483638418337972&0&
20092390040021776864&20092390040021776864&20200923&02000016&1818210727424&1818210727424&&1&2&198000&CNY&0040&boshzjjg&6228480018195767779&0&
20092390040021777044&20092390040021777044&20200923&02000016&1818395294911&1818395294911&&1&2&198000&CNY&0040&boshzjjg&6212262902013487348&0&
20092390040021777052&20092390040021777052&20200923&02000016&1813931396270&1813931396270&&1&2&4000&CNY&0040&boshzjjg&6212260409002247180&0&
20092390040021777018&20092390040021777018&20200923&02000016&1818326529286&1818326529286&&1&2&198000&CNY&0040&boshzjjg&6217983761000021610&0&
20092390040021777097&20092390040021777097&20200923&02000016&1813766612128&1813766612128&&1&2&198000&CNY&0040&boshzjjg&6013825323000505913&0&
20092390040021776918&20092390040021776918&20200923&02000016&1813793490008&1813793490008&&1&2&198000&CNY&0040&boshzjjg&6236682270000172039&0&
20092390040021777172&20092390040021777172&20200923&02000016&1816630320596&1816630320596&&1&2&200000&CNY&0040&boshzjjg&6228481748322103576&0&
20092390040021776922&20092390040021776922&20200923&02000016&1813983906980&1813983906980&&1&2&198000&CNY&0040&boshzjjg&6222023100045436198&0&
20092390040021777184&20092390040021777184&20200923&02000016&1815369341689&1815369341689&&1&2&200000&CNY&0040&boshzjjg&6217855000075336644&0&
20092390040021777242&20092390040021777242&20200923&02000016&1817363130934&1817363130934&&1&2&198000&CNY&0040&boshzjjg&6212260412009990760&0&
20092390040021777194&20092390040021777194&20200923&02000016&1813681050622&1813681050622&&1&2&198000&CNY&0040&boshzjjg&6228480018889220275&0&
20092390040021777255&20092390040021777255&20200923&02000016&1813716611835&1813716611835&&1&2&198000&CNY&0040&boshzjjg&6230520010040016575&0&
20092390040021777261&20092390040021777261&20200923&02000016&1815070907580&1815070907580&&1&2&100&CNY&0040&boshzjjg&6230520920046953672&0&
20092390040021777341&20092390040021777341&20200923&02000016&1815070907580&1815070907580&&1&2&1000000&CNY&0040&boshzjjg&6230520920046953672&0&
20092390040021777360&20092390040021777360&20200923&02000016&1813508395951&1813508395951&&1&2&198000&CNY&0040&boshzjjg&6222023100046564196&0&
20092390040021777442&20092390040021777442&20200923&02000016&1815214670369&1815214670369&&1&2&200000&CNY&0040&boshzjjg&6222020907003476187&0&
20092390040021777365&20092390040021777365&20200923&02000016&1813319117922&1813319117922&&1&2&200000&CNY&0040&boshzjjg&6217853600021027114&0&
20092390040021777320&20092390040021777320&20200923&02000016&1815801266393&1815801266393&&1&2&200000&CNY&0040&boshzjjg&6217000010096428860&0&
