清算中心流水号&交易所流水号&业务发生日期&交易所代码&会员编码&资金账号&出入金方式&出入金类型&出入金发起方&发生金额&币种&银行代码&银行产品代码&银行帐号&状态&备注
20070990040021491140&20070990040021491140&20200709&02000016&1818838880828&1818838880828&&1&2&200000&CNY&0040&boshzjjg&6212261705020237015&0&
20070990040021491107&20070990040021491107&20200709&02000016&1813388820863&1813388820863&&1&2&200000&CNY&0040&boshzjjg&6217003970003565368&0&
20070990040021491108&20070990040021491108&20200709&02000016&1813730509445&1813730509445&&1&2&980000&CNY&0040&boshzjjg&6228480659117817778&0&
20070990040021491236&20070990040021491236&20200709&02000016&1815910441686&1815910441686&&1&2&100&CNY&0040&boshzjjg&6228481269148021876&0&
20070990040021491237&20070990040021491237&20200709&02000016&1815933913379&1815933913379&&1&2&200000&CNY&0040&boshzjjg&6217000140037136791&0&
20070990040021491104&20070990040021491104&20200709&02000016&1800100000116&1800100000116&&1&2&150000&CNY&0040&boshzjjg&6228410250554276317&0&
20070930020100491154&7A5VPQBMAIAU58EU&20200709&02000016&1815245431805&1815245431805&&0&1&100300&CNY&0040&boshzjjg&6222622380000218428&0&
20070930020100491253&4GZPWBL7EJ98N6RS&20200709&02000016&1813836685281&1813836685281&&0&1&30090&CNY&0040&boshzjjg&6222622380000869378&0&
20070930020100491156&I2DCJEZUN6OHP1LB&20200709&02000016&1815830799079&1815830799079&&0&1&200601&CNY&0040&boshzjjg&6216605000007107837&0&
20070930020100491121&I3AY5MXWREKCO6IK&20200709&02000016&1813370555380&1813370555380&&0&1&10030&CNY&0040&boshzjjg&6228480258142932072&0&
20070930020100491157&AN2K23NM3IMSNZZ2&20200709&02000016&1815032494099&1815032494099&&0&1&90270&CNY&0040&boshzjjg&6222030409005757910&0&
20070930020100491255&HPBGOWV2H335KDMS&20200709&02000016&1815246489748&1815246489748&&0&1&10030&CNY&0040&boshzjjg&6212260904007862686&0&
20070930020100491158&N3FB03XW2ILU3WUU&20200709&02000016&1813604685553&1813604685553&&0&1&20060&CNY&0040&boshzjjg&6217001040008930421&0&
20070930020100491122&6QOPCI88AXH0KX61&20200709&02000016&1813733371391&1813733371391&&0&1&200601&CNY&0040&boshzjjg&6217865000004169601&0&
20070930020100491123&7XFWSZCTXRAQU03I&20200709&02000016&1815845182230&1815845182230&&0&1&10030&CNY&0040&boshzjjg&6217992610151656378&0&
20070930020100491159&AAUQA07P9DDQGIJI&20200709&02000016&1813582628539&1813582628539&&0&1&200601&CNY&0040&boshzjjg&6228481269287371975&0&
20070930020100491257&QKWAP3JS4XUD1L1U&20200709&02000016&1818945101437&1818945101437&&0&1&10030&CNY&0040&boshzjjg&6222620410010698723&0&
20070930020100491260&8RERQPJUV9WEM68S&20200709&02000016&1815524873254&1815524873254&&0&1&10030&CNY&0040&boshzjjg&6230580000278650515&0&
20070930020100491261&1UNDP8WKUV3B84Z0&20200709&02000016&1813953133822&1813953133822&&0&1&10030&CNY&0040&boshzjjg&6228480256165687763&0&
20070930020100491162&1H45G8UUWJVJK9O2&20200709&02000016&1813909114265&1813909114265&&0&1&300902&CNY&0040&boshzjjg&6228482921044212517&0&
20070930020100491168&E3WD55AZVUWPHJUB&20200709&02000016&1817631643762&1817631643762&&0&1&20060&CNY&0040&boshzjjg&6217000140035131869&0&
20070930020100491173&UZI2JST5LF6ARUWR&20200709&02000016&1818713290860&1818713290860&&0&1&30090&CNY&0040&boshzjjg&6228480010458467718&0&
20070930020100491341&0SUZC1LLHG9O34BG&20200709&02000016&1815709151444&1815709151444&&0&1&15045&CNY&0040&boshzjjg&6217004170001727701&0&
20070930020100491343&TCGDTC2PS4C6DQO6&20200709&02000016&1818468025462&1818468025462&&0&1&20060&CNY&0040&boshzjjg&6228483968612650775&0&
20070930020100491181&OVU38CHE4NQKFYK7&20200709&02000016&1818788201666&1818788201666&&0&1&190571&CNY&0040&boshzjjg&6228483358596549179&0&
20070930020100491182&5EMK3W3HL6B8P8J9&20200709&02000016&1813379416382&1813379416382&&0&1&10030&CNY&0040&boshzjjg&6214483001100086904&0&
20070930020100491344&23DZFXIQXNEUEDNO&20200709&02000016&1818313096871&1818313096871&&0&1&250752&CNY&0040&boshzjjg&6228483358596905173&0&
20070930020100491283&MKAX91WP5DGGNP1C&20200709&02000016&1813820546821&1813820546821&&0&1&50150&CNY&0040&boshzjjg&6228480020849517212&0&
20070930020100491186&J4XI0PMS6P228MI8&20200709&02000016&1818669281955&1818669281955&&0&1&80240&CNY&0040&boshzjjg&6228480928633351574&0&
20070930020100491285&L163MBXX5CJ9B9T7&20200709&02000016&1813577500356&1813577500356&&0&1&50150&CNY&0040&boshzjjg&6212262510000520615&0&
20070930020100491345&IM0EOD0GQN2T3EX6&20200709&02000016&1817787967505&1817787967505&&0&1&70210&CNY&0040&boshzjjg&6230523350010921678&0&
20070930020100491346&BBBHRT339A2QDDVS&20200709&02000016&1800100000041&1800100000041&&0&1&140421&CNY&0040&boshzjjg&6228481268439100175&0&
20070930020100491195&NFJUTVBA1QYN25RW&20200709&02000016&1815208819237&1815208819237&&0&1&10030&CNY&0040&boshzjjg&6230523350004508275&0&
20070930020100491294&5OBOGWJLRQXP95LF&20200709&02000016&1813832212723&1813832212723&&0&1&40120&CNY&0040&boshzjjg&6228481269242965275&0&
20070930020100491299&MEXA3XDZ127LAWOB&20200709&02000016&1815925440402&1815925440402&&0&1&110330&CNY&0040&boshzjjg&6228483350665504912&0&
20070930020100491302&05M2YBVYXLYNX843&20200709&02000016&1815687588895&1815687588895&&0&1&120361&CNY&0040&boshzjjg&6228483358274317477&0&
20070930020100491366&0LG0JZ1AIAHMLAV0&20200709&02000016&1818669296269&1818669296269&&0&1&50150&CNY&0040&boshzjjg&6230523350001042476&0&
20070930020100491317&BYTQFIE2KCDLZ6AI&20200709&02000016&1818032526472&1818032526472&&0&1&20060&CNY&0040&boshzjjg&6222030403005785591&0&
20070930020100491318&DCKJR1P9MS2Y0JQ3&20200709&02000016&1815930897190&1815930897190&&0&1&15045&CNY&0040&boshzjjg&6228480659178470772&0&
20070930020100491322&G8QY4NUFG4F8ZF4B&20200709&02000016&1813911318605&1813911318605&&0&1&10030&CNY&0040&boshzjjg&6013820100012313840&0&
20070930020100491324&HQU05RSDX5I8C2QU&20200709&02000016&1813785222268&1813785222268&&0&1&20060&CNY&0040&boshzjjg&6228481268948566478&0&
20070930020100491377&I5QOQC4IF5XQRZM2&20200709&02000016&1815170899237&1815170899237&&0&1&20060&CNY&0040&boshzjjg&6217002110000855436&0&
20070930020100491228&FUTP03YZRRUS5BSM&20200709&02000016&1813324639668&1813324639668&&0&1&5015&CNY&0040&boshzjjg&6212960110000005918&0&
20070930020100491389&YNH60Z8OS2AZKI4X&20200709&02000016&1813979604271&1813979604271&&0&1&10030&CNY&0040&boshzjjg&6228482318718525474&0&
20070930020100491229&8QRMFAHS647OIT17&20200709&02000016&1815076235183&1815076235183&&0&1&40120&CNY&0040&boshzjjg&6228480659132065874&0&
20070930020100491395&SCUV1PYE37EJKT9R&20200709&02000016&1815100269110&1815100269110&&0&1&50150&CNY&0040&boshzjjg&6228481268511222673&0&
20070930020100491442&37SD7YRB9316XPWO&20200709&02000016&1813463503191&1813463503191&&0&1&10030&CNY&0040&boshzjjg&6222030403007685450&0&
20070930020100491537&0O7O51FAZ7EMNEC0&20200709&02000016&1800100000071&1800100000071&&0&1&20060&CNY&0040&boshzjjg&6228272226027369472&0&
20070930020100491399&OTMANQF0MQWMQOXK&20200709&02000016&1815208756608&1815208756608&&0&1&120361&CNY&0040&boshzjjg&6212262510001366117&0&
20070930020100491540&P3N8YPB65NP3SHZH&20200709&02000016&1818875037395&1818875037395&&0&1&10230&CNY&0040&boshzjjg&6228480479009445673&0&
20070930020100491402&CHV9XKZMZAWHOQBZ&20200709&02000016&1800100000125&1800100000125&&0&1&20060&CNY&0040&boshzjjg&4340610140347896&0&
20070930020100491403&7DMC1CYYC3MPRBHK&20200709&02000016&1815636926050&1815636926050&&0&1&15045&CNY&0040&boshzjjg&6217992610170530364&0&
20070930020100491542&4WRMMM3NSIQZSFSX&20200709&02000016&1813478653378&1813478653378&&0&1&50150&CNY&0040&boshzjjg&6228480568011405673&0&
20070930020100491543&JX1AJCAXEU1ZVS25&20200709&02000016&1817845057266&1817845057266&&0&1&10030&CNY&0040&boshzjjg&6217992610222099277&0&
20070930020100491449&O72BG4ULB087P23F&20200709&02000016&1813932525581&1813932525581&&0&1&10030&CNY&0040&boshzjjg&6222030403007280369&0&
20070930020100491544&8XLC7WVROEPNJ37L&20200709&02000016&1800100000060&1800100000060&&0&1&70210&CNY&0040&boshzjjg&6228480198414160970&0&
20070930020100491545&UBA61SLUM3IQVNI4&20200709&02000016&1813988205870&1813988205870&&0&1&100300&CNY&0040&boshzjjg&6217003970001419030&0&
20070930020100491546&Y8LAM16HFHJENX8G&20200709&02000016&1818331534443&1818331534443&&0&1&40120&CNY&0040&boshzjjg&6217000180046539940&0&
20070930020100491412&HGZRVKIVLX9FB3WB&20200709&02000016&1800100000063&1800100000063&&0&1&200601&CNY&0040&boshzjjg&6228482680558013519&0&
20070930020100491415&UOON93U2S2GPQRI2&20200709&02000016&1818987538596&1818987538596&&0&1&60180&CNY&0040&boshzjjg&6217003960001582077&0&
20070930020100491456&N3J0FOWO7S4QAKWB&20200709&02000016&1813731798775&1813731798775&&0&1&50150&CNY&0040&boshzjjg&6228480649169179276&0&
20070930020100491457&SYEB02YAYY6CFL8B&20200709&02000016&1813796574791&1813796574791&&0&1&20060&CNY&0040&boshzjjg&6217001070003885148&0&
20070930020100491419&L2OAS101ZRSUXO5U&20200709&02000016&1813315292608&1813315292608&&0&1&10030&CNY&0040&boshzjjg&6210810140000140106&0&
20070930020100491420&FO1R3EQKSE439HVD&20200709&02000016&1815818598480&1815818598480&&0&1&40120&CNY&0040&boshzjjg&6230520120003213679&0&
20070930020100491554&3L22LB2DRCSVWIT2&20200709&02000016&1815045780980&1815045780980&&0&1&10030&CNY&0040&boshzjjg&6228482680606993613&0&
20070930020100491555&2409UMNOESLK9HA7&20200709&02000016&1813082311311&1813082311311&&0&1&32096&CNY&0040&boshzjjg&6228481269123313074&0&
20070930020100491426&SEJ4H8ODV0DWSX0A&20200709&02000016&1818690049591&1818690049591&&0&1&30090&CNY&0040&boshzjjg&6228480231197014211&0&
20070930020100491463&97Z8WSASMP48UJ2A&20200709&02000016&1815146194700&1815146194700&&0&1&10030&CNY&0040&boshzjjg&6212260907002391791&0&
20070930020100491465&EWV0L1ID07O1NPY4&20200709&02000016&1813231500951&1813231500951&&0&1&20060&CNY&0040&boshzjjg&6230520650040854077&0&
20070930020100491428&1NNMFXBL2HE15M3Y&20200709&02000016&1818161735141&1818161735141&&0&1&205616&CNY&0040&boshzjjg&6217997900073030546&0&
20070930020100491431&47N77DW33QLUKXGG&20200709&02000016&1815208896655&1815208896655&&0&1&30090&CNY&0040&boshzjjg&6228483350109027017&0&
20070930020100491470&0YJBGLJN0UTZIL4V&20200709&02000016&1815232607038&1815232607038&&0&1&20060&CNY&0040&boshzjjg&6228480652067343614&0&
20070930020100491433&38JLPY1AC1WLNAFW&20200709&02000016&1813343028920&1813343028920&&0&1&60180&CNY&0040&boshzjjg&6217855000036002541&0&
20070930020100491565&93WPMNVUVM8QMEZD&20200709&02000016&1818335259239&1818335259239&&0&1&10030&CNY&0040&boshzjjg&6212260504007260822&0&
20070930020100491635&ERGHW3NZVQI80160&20200709&02000016&1818131268984&1818131268984&&0&1&250752&CNY&0040&boshzjjg&6227000140130119677&0&
20070930020100491642&SKQLOWJKZ4CEMU27&20200709&02000016&1815127498151&1815127498151&&0&1&20060&CNY&0040&boshzjjg&6217000140030569147&0&
20070930020100491481&W2C4Z6JCINDU1PUK&20200709&02000016&1813430915786&1813430915786&&0&1&19157&CNY&0040&boshzjjg&6230523820008516078&0&
20070930020100491582&RUS4QB5FAG5OVXDE&20200709&02000016&1816689634186&1816689634186&&0&1&10030&CNY&0040&boshzjjg&6217232201004854152&0&
20070930020100491660&HQXTIL3XQTD08ED4&20200709&02000016&1813840542929&1813840542929&&0&1&180541&CNY&0040&boshzjjg&6217001040008514977&0&
20070930020100491592&42T3A7MBTEUG4HIX&20200709&02000016&1813031511388&1813031511388&&0&1&10030&CNY&0040&boshzjjg&6217000180011149501&0&
20070930020100491596&PRPIJUQ5ZBTLLOSB&20200709&02000016&1817689826169&1817689826169&&0&1&10030&CNY&0040&boshzjjg&6213360159902334672&0&
20070930020100491664&OAV1GD8S3GVE2LDG&20200709&02000016&1815389494945&1815389494945&&0&1&220661&CNY&0040&boshzjjg&6215592605003645908&0&
20070930020100491498&PQZVV3CSZN81ZR8R&20200709&02000016&1813235522109&1813235522109&&0&1&100300&CNY&0040&boshzjjg&4563517612300638286&0&
20070930020100491600&82MORQQ55RETXGJM&20200709&02000016&1813709999208&1813709999208&&0&1&50150&CNY&0040&boshzjjg&6228250898033405676&0&
20070930020100491500&ZCMEPPVX5K6ABILG&20200709&02000016&1815187541886&1815187541886&&0&1&40120&CNY&0040&boshzjjg&6212262510002416168&0&
20070930020100491604&37KYTJ715KDL3M5D&20200709&02000016&1818674148199&1818674148199&&0&1&280842&CNY&0040&boshzjjg&6228483829038873773&0&
20070930020100491605&G4VRD1H56OO7PWLS&20200709&02000016&1813191758429&1813191758429&&0&1&20060&CNY&0040&boshzjjg&6217991240007416891&0&
20070930020100491670&XE434YW4SF7E6ZLN&20200709&02000016&1815570046829&1815570046829&&0&1&10030&CNY&0040&boshzjjg&6214837943710115&0&
20070930020100491606&BI0IL95700M29TG1&20200709&02000016&1815208999328&1815208999328&&0&1&10030&CNY&0040&boshzjjg&6230520150011399475&0&
20070930020100491674&ZVY0LJYBNN8KO8XQ&20200709&02000016&1813909852916&1813909852916&&0&1&11434&CNY&0040&boshzjjg&6222033400007501767&0&
20070930020100491608&1AN40DSX0LXYA7U8&20200709&02000016&1813582238836&1813582238836&&0&1&20060&CNY&0040&boshzjjg&6217000140039977259&0&
20070930020100491609&6NF2GI20AMB25UPC&20200709&02000016&1813785550440&1813785550440&&0&1&20060&CNY&0040&boshzjjg&6222020403024592509&0&
20070930020100491676&ZUW201KE3H6EOM0J&20200709&02000016&1815771836378&1815771836378&&0&1&240722&CNY&0040&boshzjjg&6215592605004136980&0&
20070930020100491615&P4DDP7CDECWD241X&20200709&02000016&1813089950930&1813089950930&&0&1&10030&CNY&0040&boshzjjg&6217992610095631354&0&
20070930020100491624&72WHN1HVSAO55T6F&20200709&02000016&1815215907729&1815215907729&&0&1&50150&CNY&0040&boshzjjg&6217002700008809391&0&
20070930020100491689&H5EK5K5LBSN5MGPJ&20200709&02000016&1813722424859&1813722424859&&0&1&40120&CNY&0040&boshzjjg&6217855000072262215&0&
20070930020100491691&YEX88H6RLNL0OGLF&20200709&02000016&1815837935909&1815837935909&&0&1&200601&CNY&0040&boshzjjg&6217994930003845310&0&
20070930020100491514&F221G9O8WWU04MDF&20200709&02000016&1818233313819&1818233313819&&0&1&200601&CNY&0040&boshzjjg&6216605000008806940&0&
20070930020100491629&0Q2615PIKS2NSDT7&20200709&02000016&1800100000031&1800100000031&&0&1&150451&CNY&0040&boshzjjg&6230521260013799371&0&
20070930020100491696&06RPWG0TZTHGJQG7&20200709&02000016&1818131516269&1818131516269&&0&1&10030&CNY&0040&boshzjjg&6228480659211340974&0&
20070930020100491632&QGAGUMVCIEJQ1IZA&20200709&02000016&1813932256061&1813932256061&&0&1&30090&CNY&0040&boshzjjg&6222080409001330703&0&
20070930020100491736&U6NWJKMG0X58LZCO&20200709&02000016&1800100000140&1800100000140&&0&1&20060&CNY&0040&boshzjjg&6212260409010694019&0&
20070930020100491747&NXT6GXDN62T7BQW0&20200709&02000016&1813769055559&1813769055559&&0&1&60180&CNY&0040&boshzjjg&6212262510000846770&0&
20070930020100491751&TABUEHEE51Y6G3HD&20200709&02000016&1813400222805&1813400222805&&0&1&50150&CNY&0040&boshzjjg&6228271261246978671&0&
20070930020100491759&187L0VMS2B2ZQH5W&20200709&02000016&1818779946893&1818779946893&&0&1&10030&CNY&0040&boshzjjg&6217231509001562623&0&
20070930020100491839&RMZIS9N7LHZC0N07&20200709&02000016&1813832296893&1813832296893&&0&1&10030&CNY&0040&boshzjjg&6216605000008103157&0&
20070930020100491770&XK7LYV51IS9IT9G5&20200709&02000016&1813483536053&1813483536053&&0&1&10030&CNY&0040&boshzjjg&6217000180005468214&0&
20070930020100491730&D1RISQ0FBVSGX2RM&20200709&02000016&1800100000345&1800100000345&&0&1&20060&CNY&0040&boshzjjg&6236680140002089998&0&
20070930020100491731&8EUNPR97WXCODKEW&20200709&02000016&1813846055840&1813846055840&&0&1&25576&CNY&0040&boshzjjg&4367421041460035508&0&
20070930020100491843&MWYINIYVVHIK287D&20200709&02000016&1813577503685&1813577503685&&0&1&401203&CNY&0040&boshzjjg&6222082510000034051&0&
20070930020100491844&YKSFZNIF2DA51GRS&20200709&02000016&1813780323381&1813780323381&&0&1&100300&CNY&0040&boshzjjg&6217991340025582813&0&
20070930020100491772&VCITOQ77IMCPXM79&20200709&02000016&1813930801797&1813930801797&&0&1&130391&CNY&0040&boshzjjg&6228481268832533378&0&
20070930020100491847&Q1FW0NY26A66JO0T&20200709&02000016&1800100000211&1800100000211&&0&1&20060&CNY&0040&boshzjjg&6215580409000671346&0&
20070930020100491944&C49J1O5X47MG2TT3&20200709&02000016&1815931895927&1815931895927&&0&1&40120&CNY&0040&boshzjjg&6217000140034130391&0&
20070930020100491852&J9Z6TF9H9X1F3RV9&20200709&02000016&1813577525294&1813577525294&&0&1&20060&CNY&0040&boshzjjg&6217003960003627946&0&
20070930020100491853&QDOS9Z137C67HGTR&20200709&02000016&1818532109882&1818532109882&&0&1&190571&CNY&0040&boshzjjg&6230523820002267777&0&
20070930020100491947&39ESP11GVP1BG6R7&20200709&02000016&1800100000022&1800100000022&&0&1&200601&CNY&0040&boshzjjg&6212260409014547189&0&
20070930020100491958&0EO01H8T7A7VKIZK&20200709&02000016&1815184848605&1815184848605&&0&1&60180&CNY&0040&boshzjjg&6228483966003082665&0&
20070930020100491789&J72IKW1YDF3NDY43&20200709&02000016&1818617854952&1818617854952&&0&1&15045&CNY&0040&boshzjjg&6212260403021156779&0&
20070930020100491960&58VDAHQHB11P0GV2&20200709&02000016&1818834581128&1818834581128&&0&1&10030&CNY&0040&boshzjjg&6227001540050020699&0&
20070930020100491794&VYMVL2QOK19YNXRW&20200709&02000016&1815184855733&1815184855733&&0&1&70210&CNY&0040&boshzjjg&6230523960012469870&0&
20070930020100491795&QSNYMW09JSL6AN05&20200709&02000016&1818871383962&1818871383962&&0&1&190571&CNY&0040&boshzjjg&6217995200197285064&0&
20070930020100491966&8FK5XFPW6TW9S1WF&20200709&02000016&1818137951359&1818137951359&&0&1&200601&CNY&0040&boshzjjg&6217002450009746032&0&
20070930020100491862&FBM78GEABOCTCNQT&20200709&02000016&1818210293990&1818210293990&&0&1&10030&CNY&0040&boshzjjg&6236683320015427180&0&
20070930020100491873&IESLIJOE5DOLP9AJ&20200709&02000016&1818962060606&1818962060606&&0&1&19057&CNY&0040&boshzjjg&6228481980808931010&0&
20070930020100491810&QY0RQXBZX4SQV3YX&20200709&02000016&1800100000043&1800100000043&&0&1&571715&CNY&0040&boshzjjg&6228480190737213818&0&
20070930020100491874&5JDTB9GU24QJPWUL&20200709&02000016&1813731284037&1813731284037&&0&1&10030&CNY&0040&boshzjjg&6217991340030408996&0&
20070930020100491985&MWWNU7G6VL90QZ9V&20200709&02000016&1815561743759&1815561743759&&0&1&11033&CNY&0040&boshzjjg&6228482688418322475&0&
20070930020100491816&Y111C46B0PJ06RKS&20200709&02000016&1818921860818&1818921860818&&0&1&15045&CNY&0040&boshzjjg&6228431989604774772&0&
20070930020100491882&2XCQ90TAS5236MTT&20200709&02000016&1815161960908&1815161960908&&0&1&15045&CNY&0040&boshzjjg&6236681320001941667&0&
20070930020100491990&TL3M788H33SN389G&20200709&02000016&1815042400515&1815042400515&&0&1&11033&CNY&0040&boshzjjg&6215583400006811017&0&
20070930020100491819&QGBKI9Y4UDATJ50R&20200709&02000016&1815672770921&1815672770921&&0&1&190571&CNY&0040&boshzjjg&6217857000020004741&0&
20070930020100491820&946TDDXWI726OZZ7&20200709&02000016&1813266662096&1813266662096&&0&1&15045&CNY&0040&boshzjjg&6217582000047574488&0&
20070930020100491991&ZOU1E0GPI4IRE3YH&20200709&02000016&1818187582339&1818187582339&&0&1&10030&CNY&0040&boshzjjg&6230523960012293072&0&
20070930020100491821&9GJ2L8UYJP3J9Q5A&20200709&02000016&1800100000050&1800100000050&&0&1&90270&CNY&0040&boshzjjg&6228481269237824776&0&
20070930020100491889&K8SVMYAQE4VNW5T6&20200709&02000016&1813932211661&1813932211661&&0&1&10030&CNY&0040&boshzjjg&6212260409009915227&0&
20070930020100491994&2IXPC082DTXQ53B6&20200709&02000016&1818674146599&1818674146599&&0&1&160481&CNY&0040&boshzjjg&6228483828878286773&0&
20070930020100491995&B3D7UN4UFTS3SHLY&20200709&02000016&1815940818417&1815940818417&&0&1&10230&CNY&0040&boshzjjg&6217000780000487802&0&
20070930020100491891&Q5VV8WNXK1MZ4G6T&20200709&02000016&1813578294167&1813578294167&&0&1&200601&CNY&0040&boshzjjg&6217003970003247470&0&
20070930020100491996&QKCOYF4SWP7B6UE2&20200709&02000016&1815887508589&1815887508589&&0&1&20060&CNY&0040&boshzjjg&6212262510001682521&0&
20070930020100491827&XM27Y1NWCAOSNG5E&20200709&02000016&1800100000080&1800100000080&&0&1&50150&CNY&0040&boshzjjg&6217855300030279677&0&
20070930020100492002&S20KXQD3WULUFU8M&20200709&02000016&1817789888843&1817789888843&&0&1&10030&CNY&0040&boshzjjg&6222022201008354302&0&
20070930020100492012&WD4YICE9P2XAYKY3&20200709&02000016&1813703283113&1813703283113&&0&1&1003&CNY&0040&boshzjjg&6228481268439092075&0&
20070930020100492017&A1F1I7EWG3X5LHWD&20200709&02000016&1815894443268&1815894443268&&0&1&40120&CNY&0040&boshzjjg&6212262511001333024&0&
20070930020100491911&HTIT9MVHD0DH4B0B&20200709&02000016&1815094234737&1815094234737&&0&1&40120&CNY&0040&boshzjjg&6217003960001035332&0&
20070930020100492026&VNF5MPNAFDU2LSSS&20200709&02000016&1818730588858&1818730588858&&0&1&10030&CNY&0040&boshzjjg&6217000180014526994&0&
20070930020100491923&HQSFYO8QJ3B78Y0F&20200709&02000016&1818689707602&1818689707602&&0&1&10030&CNY&0040&boshzjjg&6228480158299224671&0&
20070930020100492067&68IPG5MSL02LA49U&20200709&02000016&1819931216183&1819931216183&&0&1&10030&CNY&0040&boshzjjg&6217000140006136178&0&
20070930020100491932&Y4JOC4PM259GVDSQ&20200709&02000016&1800100000122&1800100000122&&0&1&120361&CNY&0040&boshzjjg&6228451268042593978&0&
20070930020100492069&QL3H0OEYNGB6Q1HI&20200709&02000016&1815038169553&1815038169553&&0&1&33099&CNY&0040&boshzjjg&6222620620028301066&0&
20070930020100492140&BNSVGW7LLUA621WQ&20200709&02000016&1813429897976&1813429897976&&0&1&60180&CNY&0040&boshzjjg&6217857600056687507&0&
20070930020100492076&X4YAP8P76TLJXOLY&20200709&02000016&1818330218859&1818330218859&&0&1&30090&CNY&0040&boshzjjg&6228481269217496777&0&
20070930020100492077&HA5X13E5YOMEXRCR&20200709&02000016&1818889422056&1818889422056&&0&1&15045&CNY&0040&boshzjjg&6228410150025333913&0&
20070930020100492238&KAXKEQ86TC1ZM7EQ&20200709&02000016&1813472972651&1813472972651&&0&1&30090&CNY&0040&boshzjjg&9558820403001406380&0&
20070930020100492079&9VPDGF520RAIV9VM&20200709&02000016&1818132723583&1818132723583&&0&1&180541&CNY&0040&boshzjjg&6228480648923575977&0&
20070930020100492080&RLC3EGQTTZL0N3KJ&20200709&02000016&1815128811803&1815128811803&&0&1&200601&CNY&0040&boshzjjg&6217855000062672985&0&
20070930020100492148&K8D6R7FCKL4Q3PV7&20200709&02000016&1818909995887&1818909995887&&0&1&50150&CNY&0040&boshzjjg&6222033006001389313&0&
20070930020100492241&7L8LPPGM5GTDJGJM&20200709&02000016&1818976770088&1818976770088&&0&1&10030&CNY&0040&boshzjjg&6212262201024968523&0&
20070930020100492243&KJ6GCQA8RTM5CFYL&20200709&02000016&1813477499698&1813477499698&&0&1&250752&CNY&0040&boshzjjg&6217995200287473349&0&
20070930020100492087&XCZ3HST7AW3XLP7G&20200709&02000016&1817325423850&1817325423850&&0&1&10030&CNY&0040&boshzjjg&6212260409010000191&0&
20070930020100492161&QVL44AIB0EIU3Z21&20200709&02000016&1813477449008&1813477449008&&0&1&200601&CNY&0040&boshzjjg&6217995200035291662&0&
20070930020100492113&QE3M01QNO9RZVQSH&20200709&02000016&1818972629432&1818972629432&&0&1&220661&CNY&0040&boshzjjg&6217995200225194049&0&
20070930020100492175&QDT43VS7UNK5PR90&20200709&02000016&1813513061187&1813513061187&&0&1&25075&CNY&0040&boshzjjg&6228450658030449178&0&
20070930020100492118&CGPNUR76ZWIEQ14C&20200709&02000016&1813587758991&1813587758991&&0&1&24072&CNY&0040&boshzjjg&6228430338131279874&0&
20070930020100492271&UNGT6XH4TJ2O9ZFK&20200709&02000016&1813661262290&1813661262290&&0&1&290872&CNY&0040&boshzjjg&6236680010001682780&0&
20070930020100492125&2M84C3JXDBUDTJD2&20200709&02000016&1815972280790&1815972280790&&0&1&130391&CNY&0040&boshzjjg&6236682660002898450&0&
20070930020100492272&ASRWIJGS7ONWQOJ8&20200709&02000016&1813597431025&1813597431025&&0&1&100300&CNY&0040&boshzjjg&6228483829169938270&0&
20070930020100492182&5ZJ62EL2OX9Y92XZ&20200709&02000016&1800100000361&1800100000361&&0&1&10030&CNY&0040&boshzjjg&6217855000069267581&0&
20070930020100492183&2ZLHCEZ1B831Y1HR&20200709&02000016&1815586314943&1815586314943&&0&1&50150&CNY&0040&boshzjjg&6217002700001598876&0&
20070930020100492133&MPIXTLUEI5AFLVCD&20200709&02000016&1813323228902&1813323228902&&0&1&100300&CNY&0040&boshzjjg&6236680140001843411&0&
20070930020100492348&SDVKILHWJODH8LA5&20200709&02000016&1813687258341&1813687258341&&0&1&100300&CNY&0040&boshzjjg&6236682700003002080&0&
20070930020100492299&GJQ26KYMX5QVKS1I&20200709&02000016&1818288188088&1818288188088&&0&1&1003009&CNY&0040&boshzjjg&4367423970030033718&0&
20070930020100492213&MECNMWSEGY3A6DFC&20200709&02000016&1815933126808&1815933126808&&0&1&30090&CNY&0040&boshzjjg&6228481261924832113&0&
20070930020100492302&0UCVRP8U6U0LYWMW&20200709&02000016&1813831522789&1813831522789&&0&1&10030&CNY&0040&boshzjjg&6217000180004322685&0&
20070930020100492216&VHTT6BK9ZEBV1ACZ&20200709&02000016&1813988266069&1813988266069&&0&1&100300&CNY&0040&boshzjjg&6217003970001256606&0&
20070930020100492356&MOLZ6KD7I5P5RTAP&20200709&02000016&1815333225923&1815333225923&&0&1&30090&CNY&0040&boshzjjg&6212260409019012403&0&
20070930020100492223&X3VMO7RUJ752Z5T5&20200709&02000016&1813961081945&1813961081945&&0&1&60180&CNY&0040&boshzjjg&6228483422865691714&0&
20070930020100492370&H3V4YV6I2F10WZ18&20200709&02000016&1813578268057&1813578268057&&0&1&40120&CNY&0040&boshzjjg&6217003970003416869&0&
20070930020100492438&E6GFZVXSNMHWHG27&20200709&02000016&1813970601152&1813970601152&&0&1&110330&CNY&0040&boshzjjg&5240942110023944&0&
20070930020100492383&QJU29HXCSE2RJV9Y&20200709&02000016&1800100000048&1800100000048&&0&1&100300&CNY&0040&boshzjjg&6217000140028374146&0&
20070930020100492440&BZURDJ5AXY8MUCNN&20200709&02000016&1815133232674&1815133232674&&0&1&20060&CNY&0040&boshzjjg&6228481269291377877&0&
20070930020100492403&K9PZ4WWKU3YDKJK2&20200709&02000016&1818132565769&1818132565769&&0&1&20060&CNY&0040&boshzjjg&6212880409000244080&0&
20070930020100492454&32JQQKVHVNH277E2&20200709&02000016&1818132758604&1818132758604&&0&1&80240&CNY&0040&boshzjjg&6228481268440158675&0&
20070930020100492470&M3BLWUICYX7N6XFJ&20200709&02000016&1818714555279&1818714555279&&0&1&50150&CNY&0040&boshzjjg&6013825311000638164&0&
20070930020100492560&2UE35ZLNI2JXL59D&20200709&02000016&1818604681909&1818604681909&&0&1&10030&CNY&0040&boshzjjg&6217992610209647056&0&
20070930020100492486&7PFF437DTNU2NHR0&20200709&02000016&1818732695797&1818732695797&&0&1&10030&CNY&0040&boshzjjg&6212260410013802641&0&
20070930020100492493&BIGUC52M58LR1BAK&20200709&02000016&1815334341131&1815334341131&&0&1&100300&CNY&0040&boshzjjg&6217003970002037427&0&
20070930020100492579&5YWAXJVMNDYOOEU9&20200709&02000016&1813730198476&1813730198476&&0&1&70210&CNY&0040&boshzjjg&6217000140023541459&0&
20070930020100492499&QVD9PL1FL2RE92KO&20200709&02000016&1818931232281&1818931232281&&0&1&20060&CNY&0040&boshzjjg&6217855000069310779&0&
20070930020100492503&5R961J1LDB5IRO3X&20200709&02000016&1819931210376&1819931210376&&0&1&50150&CNY&0040&boshzjjg&6228481268296769575&0&
20070930020100492642&B17PKY23NPMWWWLE&20200709&02000016&1813315427245&1813315427245&&0&1&50150&CNY&0040&boshzjjg&6228481269120727672&0&
20070930020100492660&V2LIORVUCLEXKTSS&20200709&02000016&1818371587990&1818371587990&&0&1&90270&CNY&0040&boshzjjg&6228463828033893772&0&
20070930020100492663&WZYE1V3NDBRL6TPJ&20200709&02000016&1815716865625&1815716865625&&0&1&30090&CNY&0040&boshzjjg&6217855000043214923&0&
20070930020100492532&543S8Q1DMSL8ENWM&20200709&02000016&1813064860909&1813064860909&&0&1&10030&CNY&0040&boshzjjg&6228481985804145978&0&
20070930020100492533&4TPFIKHHUH81OT3P&20200709&02000016&1813619405650&1813619405650&&0&1&50150&CNY&0040&boshzjjg&6228481439237393078&0&
20070930020100492740&SUPNJWGCLWG6DA63&20200709&02000016&1813998824209&1813998824209&&0&1&110330&CNY&0040&boshzjjg&6217000730019400783&0&
20070930020100492681&VKG5NRADVUH2977K&20200709&02000016&1818931441806&1818931441806&&0&1&10030&CNY&0040&boshzjjg&6222030403007736303&0&
20070930020100492834&P48WVOMD9BVHZ19W&20200709&02000016&1815690228885&1815690228885&&0&1&200601&CNY&0040&boshzjjg&6228481269208300079&0&
20070930020100492769&LTTRDVS76J3AEKZ1&20200709&02000016&1815951703440&1815951703440&&0&1&110330&CNY&0040&boshzjjg&6217002200016513150&0&
20070930020100492702&XF5E5P9DZYP5TGA0&20200709&02000016&1815368486928&1815368486928&&0&1&80240&CNY&0040&boshzjjg&6222082510000337827&0&
20070930020100492847&9I9C4VT2VO7USW3Z&20200709&02000016&1800100000340&1800100000340&&0&1&100300&CNY&0040&boshzjjg&6217002020076391689&0&
20070930020100492848&DP4GXF4V9CF56QY8&20200709&02000016&1815512532000&1815512532000&&0&1&100300&CNY&0040&boshzjjg&6222080403002647884&0&
20070930020100492704&JNFKST8Y846E93UD&20200709&02000016&1813584278719&1813584278719&&0&1&4914&CNY&0040&boshzjjg&6230520660061593777&0&
20070930020100492851&I9JIOAQ4B7YL06G9&20200709&02000016&1815303121880&1815303121880&&0&1&100300&CNY&0040&boshzjjg&6217000140008538074&0&
20070930020100492859&DAVH3MZXJESPEM3E&20200709&02000016&1813870832718&1813870832718&&0&1&30090&CNY&0040&boshzjjg&6217002020063414361&0&
20070930020100492789&0RJ4ZXFBT0Q9KAQK&20200709&02000016&1815170031559&1815170031559&&0&1&240722&CNY&0040&boshzjjg&6217002020065102162&0&
20070930020100492797&UYXFLFGORIG8K44Y&20200709&02000016&1818962075812&1818962075812&&0&1&10030&CNY&0040&boshzjjg&6228481985094841773&0&
20070930020100492807&6VH1FHKDV758UGOH&20200709&02000016&1813698809219&1813698809219&&0&1&214643&CNY&0040&boshzjjg&6214833713838061&0&
20070930020100492882&4OGK7LVZO4HFBI0V&20200709&02000016&1815803241520&1815803241520&&0&1&50150&CNY&0040&boshzjjg&6228482121972921714&0&
20070930020100492939&QY0L3GWEUL1HG8XQ&20200709&02000016&1815030230206&1815030230206&&0&1&100300&CNY&0040&boshzjjg&6228481269246185771&0&
20070930020100492944&XTVRC0TAAX50Y1J6&20200709&02000016&1815033779933&1815033779933&&0&1&30090&CNY&0040&boshzjjg&6217000140034587533&0&
20070930020100492897&0BE5XFT7A2M7A8OR&20200709&02000016&1813483500680&1813483500680&&0&1&10030&CNY&0040&boshzjjg&6228480659145462878&0&
20070930020100493041&1UWMY05XTB3EC50O&20200709&02000016&1815097408526&1815097408526&&0&1&10130&CNY&0040&boshzjjg&6217855000063369987&0&
20070930020100493057&NKX4MQYVRWH8O0BI&20200709&02000016&1818468150535&1818468150535&&0&1&30090&CNY&0040&boshzjjg&6228480861114941912&0&
20070930020100492922&GIVUN1HZQAWO4XQY&20200709&02000016&1813992400727&1813992400727&&0&1&50150&CNY&0040&boshzjjg&6217977900044128894&0&
20070930020100492923&FQJOA29WVBW9WGMW&20200709&02000016&1813400267349&1813400267349&&0&1&10130&CNY&0040&boshzjjg&6217865000008146647&0&
20070930020100492931&X7I9RODPJQJVEV3E&20200709&02000016&1814736438192&1814736438192&&0&1&210130&CNY&0040&boshzjjg&6228483968589345672&0&
20070930020100492997&ASBWNFBHLK2ESOI0&20200709&02000016&1800100000087&1800100000087&&0&1&150451&CNY&0040&boshzjjg&6228481749121574470&0&
20070930020100493146&Z0YNU9AOZZP2KBC5&20200709&02000016&1813313124191&1813313124191&&0&1&100300&CNY&0040&boshzjjg&6228451266001426461&0&
20070930020100493085&NW89IML34OW4HBMM&20200709&02000016&1800100000106&1800100000106&&0&1&80240&CNY&0040&boshzjjg&6228481749121580972&0&
20070930020100493017&9MMEV3BVPR9V8D0L&20200709&02000016&1818311265676&1818311265676&&0&1&10030&CNY&0040&boshzjjg&6217991340028028178&0&
20070930020100493125&NOFSP2VFNRSKL8CK&20200709&02000016&1813483293913&1813483293913&&0&1&100300&CNY&0040&boshzjjg&6217000140018241396&0&
20070930020100493349&GGV6X8VOALCXSEE7&20200709&02000016&1818630239398&1818630239398&&0&1&11033&CNY&0040&boshzjjg&6221881340024031825&0&
20070930020100493204&VGS8QLCYMRY02MD8&20200709&02000016&1813619647900&1813619647900&&0&1&90270&CNY&0040&boshzjjg&6217003860019630217&0&
20070930020100493267&9VV77X5983BZCL7S&20200709&02000016&1815931775090&1815931775090&&0&1&11033&CNY&0040&boshzjjg&6216615002001917052&0&
20070930020100493280&HMPPRSRAW65AT1V3&20200709&02000016&1815232640847&1815232640847&&0&1&30090&CNY&0040&boshzjjg&6228480659200859174&0&
20070930020100493230&05BFQEMH92RLNT26&20200709&02000016&1818507222058&1818507222058&&0&1&10030&CNY&0040&boshzjjg&6228483829749170675&0&
20070930020100493386&SR1KL771DJ5ZUYXM&20200709&02000016&1818233358282&1818233358282&&0&1&10130&CNY&0040&boshzjjg&6236680140003081960&0&
20070930020100493298&O7CZMAX0ATSYHGLI&20200709&02000016&1813903128198&1813903128198&&0&1&80240&CNY&0040&boshzjjg&6228481268090586571&0&
20070930020100493434&MZOVKI8YKBW130PS&20200709&02000016&1815630880329&1815630880329&&0&1&10130&CNY&0040&boshzjjg&4563515005004515888&0&
20070930020100493308&929U6JAARU8QB9H7&20200709&02000016&1813803277987&1813803277987&&0&1&110330&CNY&0040&boshzjjg&6228481268946191279&0&
20070930020100493450&IZ228JBWJZVA8W38&20200709&02000016&1800100000067&1800100000067&&0&1&40120&CNY&0040&boshzjjg&9551002756000704419&0&
20070930020100493404&GEBBDLG7UTHI1PFX&20200709&02000016&1815903327688&1815903327688&&0&1&30090&CNY&0040&boshzjjg&6227000143210282613&0&
20070930020100493405&LFPZ9INL48JYJJMC&20200709&02000016&1813628873717&1813628873717&&0&1&100300&CNY&0040&boshzjjg&6228483358274928976&0&
20070930020100493323&LND9QOX46KQ7V1VK&20200709&02000016&1813887868883&1813887868883&&0&1&200601&CNY&0040&boshzjjg&6214993970005596&0&
20070930020100493537&3WM3V2CBOY3J149M&20200709&02000016&1815925589060&1815925589060&&0&1&10030&CNY&0040&boshzjjg&6228483968610024577&0&
20070930020100493560&EW0OHJEJWI0ZNGRD&20200709&02000016&1800100000104&1800100000104&&0&1&80240&CNY&0040&boshzjjg&6217933501713984&0&
20070930020100493509&PS7SM5LI91FIPAFP&20200709&02000016&1813779597882&1813779597882&&0&1&60180&CNY&0040&boshzjjg&6227004630301848480&0&
20070930020100493653&U38S8OPP8V4T5OAS&20200709&02000016&1815128992230&1815128992230&&0&1&100300&CNY&0040&boshzjjg&6222030409003708410&0&
20070930020100493655&I48CT23EUA44ZCBC&20200709&02000016&1815033223779&1815033223779&&0&1&13039&CNY&0040&boshzjjg&6228481262000815915&0&
20070930020100493675&VPOA2X0FGKRL7BRP&20200709&02000016&1815222123742&1815222123742&&0&1&100300&CNY&0040&boshzjjg&6230520650042982579&0&
20070930020100493691&WTQNUHJJCUJA8NO1&20200709&02000016&1815733288376&1815733288376&&0&1&60180&CNY&0040&boshzjjg&6228451268042868370&0&
20070930020100493697&9GTU5E0NLFOTUMJ4&20200709&02000016&1813578228698&1813578228698&&0&1&60180&CNY&0040&boshzjjg&6236683970000307621&0&
20070930020100493698&XMXKVGOJFLCGTL9F&20200709&02000016&1813459258085&1813459258085&&0&1&6459&CNY&0040&boshzjjg&6227001935200426814&0&
20070930020100493704&3J5BJ71KLYAJ5W8P&20200709&02000016&1813903228890&1813903228890&&0&1&20060&CNY&0040&boshzjjg&4367420140818834371&0&
20070930020100493764&IGYXR3682P0FKPD5&20200709&02000016&1800100000341&1800100000341&&0&1&40120&CNY&0040&boshzjjg&6228481269044421774&0&
20070930020100493721&MJVT4XO1VL5015XI&20200709&02000016&1813619405650&1813619405650&&0&1&50150&CNY&0040&boshzjjg&6228481439237393078&0&
20070930020100493861&IKJY2TMOQXEFHWJA&20200709&02000016&1815969227585&1815969227585&&0&1&45135&CNY&0040&boshzjjg&6230523350004299172&0&
20070930020100493863&RLRQ6X3TLWG26NB1&20200709&02000016&1813503229712&1813503229712&&0&1&40120&CNY&0040&boshzjjg&6212260409008055702&0&
20070930020100493872&80RHDCZQ8N4AKA2E&20200709&02000016&1800100000073&1800100000073&&0&1&90270&CNY&0040&boshzjjg&6228482688416581072&0&
20070930020100493801&BBB197OOJ2LPAM4K&20200709&02000016&1813582840507&1813582840507&&0&1&10030&CNY&0040&boshzjjg&6228480652512397116&0&
20070930020100493802&LKBJ3UA9ELMIYO4C&20200709&02000016&1815146155010&1815146155010&&0&1&50150&CNY&0040&boshzjjg&6228482688416580975&0&
20070930020100493955&SOXX31RXTM0LPFKI&20200709&02000016&1818045367971&1818045367971&&0&1&20060&CNY&0040&boshzjjg&6228482680712102216&0&
20070930020100493964&387RA2XMTJN37JS8&20200709&02000016&1813933221582&1813933221582&&0&1&10030&CNY&0040&boshzjjg&6217000140016984757&0&
20070930020100493819&M0L4B4QH0HNWFLA6&20200709&02000016&1818729936598&1818729936598&&0&1&21765&CNY&0040&boshzjjg&6227004143490146997&0&
20070930020100493820&U12HYSYHNORWV7T8&20200709&02000016&1818633328800&1818633328800&&0&1&10030&CNY&0040&boshzjjg&6228480656235877262&0&
20070930020100493891&U4244PF6XK9WB2ZZ&20200709&02000016&1813582840507&1813582840507&&0&1&5015&CNY&0040&boshzjjg&6228480652512397116&0&
20070930020100493827&YZYIPXHCS0O0TYYR&20200709&02000016&1813961081945&1813961081945&&0&1&20060&CNY&0040&boshzjjg&6228483422865691714&0&
20070930020100493897&0EH5AQ34U2LGVGAN&20200709&02000016&1815045503182&1815045503182&&0&1&30090&CNY&0040&boshzjjg&6227001071550159001&0&
20070930020100493829&NH5RMAICWB4TVFUD&20200709&02000016&1818746794204&1818746794204&&0&1&80240&CNY&0040&boshzjjg&6222020906004162366&0&
20070930020100493906&EAVUVEA5MD86VJ3F&20200709&02000016&1813191775000&1813191775000&&0&1&50150&CNY&0040&boshzjjg&6228480659144404376&0&
20070930020100493987&07EA0D21JCU3O99R&20200709&02000016&1815003129116&1815003129116&&0&1&20060&CNY&0040&boshzjjg&6212260409001671737&0&
20070930020100493992&2BGZFMCN4X5RQKIA&20200709&02000016&1813578273333&1813578273333&&0&1&300902&CNY&0040&boshzjjg&6228453358003254872&0&
20070930020100494046&JY274QJ1MC38JOMZ&20200709&02000016&1815946631777&1815946631777&&0&1&20060&CNY&0040&boshzjjg&6217992610114376478&0&
20070930020100494048&EZ271XWM786CR5KZ&20200709&02000016&1813320119811&1813320119811&&0&1&31394&CNY&0040&boshzjjg&6222620290006644315&0&
20070930020100493920&BLGJ5VSUVW2QO80C&20200709&02000016&1815887550134&1815887550134&&0&1&2006&CNY&0040&boshzjjg&6217003970000160544&0&
20070930020100494006&YH1B5ZBK6PE0H467&20200709&02000016&1813320119811&1813320119811&&0&1&280842&CNY&0040&boshzjjg&6222620290006644315&0&
20070930020100494015&0G5YEL1ZFR9T9G8J&20200709&02000016&1815930239024&1815930239024&&0&1&20060&CNY&0040&boshzjjg&6228481269243308178&0&
20070930020100494063&OF2DB47TEH35BX4B&20200709&02000016&1813931360238&1813931360238&&0&1&20060&CNY&0040&boshzjjg&6217000140033508985&0&
20070930020100494031&WUY91XORQM68LPSZ&20200709&02000016&1818830207028&1818830207028&&0&1&40120&CNY&0040&boshzjjg&6228481269203553078&0&
20070930020100494259&3ARDRJMUC9O2VX3G&20200709&02000016&1817508751568&1817508751568&&0&1&200601&CNY&0040&boshzjjg&6217003960004160038&0&
20070930020100494262&7FURLE0Z5LU8148U&20200709&02000016&1817508751568&1817508751568&&0&1&9528&CNY&0040&boshzjjg&6217003960004160038&0&
20070930020100494283&9CG5SIP1CDU5NLVK&20200709&02000016&1813483564692&1813483564692&&0&1&10030&CNY&0040&boshzjjg&6217000180019627284&0&
20070930020100494291&WKOPWGER0IK33TDR&20200709&02000016&1800100000196&1800100000196&&0&1&30090&CNY&0040&boshzjjg&6217991340014163898&0&
20070930020100494204&XBLHXRN41R0QO0FK&20200709&02000016&1815699680001&1815699680001&&0&1&10030&CNY&0040&boshzjjg&6217992610177941150&0&
20070930020100494295&IUYMA6US8LEY55I5&20200709&02000016&1813766708898&1813766708898&&0&1&10030&CNY&0040&boshzjjg&6222020906003936786&0&
20070930020100494302&PTNM5LCZGA20ZRST&20200709&02000016&1815570319902&1815570319902&&0&1&200601&CNY&0040&boshzjjg&6228482328732794170&0&
20070930020100494303&52ZKELHMH74NBUT4&20200709&02000016&1813722255068&1813722255068&&0&1&10030&CNY&0040&boshzjjg&6228481268540555077&0&
20070930020100494306&U06OCCU2M9AWLAU3&20200709&02000016&1815579647169&1815579647169&&0&1&20060&CNY&0040&boshzjjg&6217002110005451819&0&
20070990040021491032&20070990040021491032&20200709&02000016&1800100000116&1800100000116&&1&2&10000&CNY&0040&boshzjjg&6228410250554276317&0&
20070990040021491033&20070990040021491033&20200709&02000016&1815045780767&1815045780767&&1&2&200000&CNY&0040&boshzjjg&6212260907001933650&0&
20070990040021491115&20070990040021491115&20200709&02000016&1818908820122&1818908820122&&1&2&200000&CNY&0040&boshzjjg&6230523350009043070&0&
20070990040021491245&20070990040021491245&20200709&02000016&1815146871098&1815146871098&&1&2&200000&CNY&0040&boshzjjg&6221802610008390595&0&
20070990040021491120&20070990040021491120&20200709&02000016&1818045917011&1818045917011&&1&2&200000&CNY&0040&boshzjjg&6217001020007380471&0&
20070990040021491170&20070990040021491170&20200709&02000016&1815702129504&1815702129504&&1&2&200000&CNY&0040&boshzjjg&6236562110000275470&0&
20070990040021491279&20070990040021491279&20200709&02000016&1815033721326&1815033721326&&1&2&196000&CNY&0040&boshzjjg&6217000140035632445&0&
20070990040021491178&20070990040021491178&20200709&02000016&1813988265053&1813988265053&&1&2&800000&CNY&0040&boshzjjg&6217003970002193907&0&
20070990040021491189&20070990040021491189&20200709&02000016&1815930736308&1815930736308&&1&2&200000&CNY&0040&boshzjjg&6228481269125979674&0&
20070990040021491203&20070990040021491203&20200709&02000016&1813400389138&1813400389138&&1&2&200000&CNY&0040&boshzjjg&6228481268683830873&0&
20070990040021491368&20070990040021491368&20200709&02000016&1813319331113&1813319331113&&1&2&1000000&CNY&0040&boshzjjg&6221804350000283286&0&
20070990040021491216&20070990040021491216&20200709&02000016&1813373021662&1813373021662&&1&2&200000&CNY&0040&boshzjjg&6222080409004479697&0&
20070990040021491381&20070990040021491381&20200709&02000016&1813782009340&1813782009340&&1&2&10000&CNY&0040&boshzjjg&6228482688419113675&0&
20070990040021491547&20070990040021491547&20200709&02000016&1815130312658&1815130312658&&1&2&190000&CNY&0040&boshzjjg&6230580000291923527&0&
20070990040021491451&20070990040021491451&20200709&02000016&1813782009340&1813782009340&&1&2&780000&CNY&0040&boshzjjg&6228482688419113675&0&
20070990040021491409&20070990040021491409&20200709&02000016&1813730441093&1813730441093&&1&2&1000000&CNY&0040&boshzjjg&6228481269279917777&0&
20070990040021491548&20070990040021491548&20200709&02000016&1818002410808&1818002410808&&1&2&200000&CNY&0040&boshzjjg&6214831242175567&0&
20070990040021491452&20070990040021491452&20200709&02000016&1815096682406&1815096682406&&1&2&800000&CNY&0040&boshzjjg&6217003970002404809&0&
20070990040021491560&20070990040021491560&20200709&02000016&1815810658435&1815810658435&&1&2&200000&CNY&0040&boshzjjg&6216615002003860649&0&
20070990040021491561&20070990040021491561&20200709&02000016&1815910441686&1815910441686&&1&2&200000&CNY&0040&boshzjjg&6228481269148021876&0&
20070990040021491429&20070990040021491429&20200709&02000016&1818962072211&1818962072211&&1&2&200000&CNY&0040&boshzjjg&6228481989278665370&0&
20070990040021491466&20070990040021491466&20200709&02000016&1813820546821&1813820546821&&1&2&200000&CNY&0040&boshzjjg&6228480020849517212&0&
20070990040021491502&20070990040021491502&20200709&02000016&1813633226787&1813633226787&&1&2&5000&CNY&0040&boshzjjg&6217230409000055995&0&
20070990040021491667&20070990040021491667&20200709&02000016&1813628897307&1813628897307&&1&2&200000&CNY&0040&boshzjjg&6212262511000803472&0&
20070990040021491510&20070990040021491510&20200709&02000016&1818088176980&1818088176980&&1&2&200000&CNY&0040&boshzjjg&6230523350004703074&0&
20070990040021491687&20070990040021491687&20200709&02000016&1815130450371&1815130450371&&1&2&200000&CNY&0040&boshzjjg&6228481269208411777&0&
20070990040021491511&20070990040021491511&20200709&02000016&1818603320930&1818603320930&&1&2&200000&CNY&0040&boshzjjg&6228481269237902473&0&
20070990040021491722&20070990040021491722&20200709&02000016&1815227098333&1815227098333&&1&2&10000&CNY&0040&boshzjjg&6228481261798664410&0&
20070990040021491762&20070990040021491762&20200709&02000016&1815188796075&1815188796075&&1&2&200000&CNY&0040&boshzjjg&6222030409004028883&0&
20070990040021491761&20070990040021491761&20200709&02000016&1815146681834&1815146681834&&1&2&200000&CNY&0040&boshzjjg&6228480188451939071&0&
20070990040021491937&20070990040021491937&20200709&02000016&1813029758688&1813029758688&&1&2&200000&CNY&0040&boshzjjg&6228480180630217313&0&
20070990040021491861&20070990040021491861&20200709&02000016&1818272057600&1818272057600&&1&2&200000&CNY&0040&boshzjjg&6210985200034308662&0&
20070990040021491992&20070990040021491992&20200709&02000016&1813808788999&1813808788999&&1&2&200000&CNY&0040&boshzjjg&6228483358604716075&0&
20070990040021492048&20070990040021492048&20200709&02000016&1815861099820&1815861099820&&1&2&10000&CNY&0040&boshzjjg&6217001310008472538&0&
20070990040021491921&20070990040021491921&20200709&02000016&1817779636075&1817779636075&&1&2&1000000&CNY&0040&boshzjjg&6236681830005235627&0&
20070990040021492027&20070990040021492027&20200709&02000016&1813933286024&1813933286024&&1&2&200000&CNY&0040&boshzjjg&6222020409009473771&0&
20070990040021491920&20070990040021491920&20200709&02000016&1815930296196&1815930296196&&1&2&200000&CNY&0040&boshzjjg&6222030409002206200&0&
20070990040021492075&20070990040021492075&20200709&02000016&1815512595393&1815512595393&&1&2&1700&CNY&0040&boshzjjg&6226195301284009&0&
20070990040021492074&20070990040021492074&20200709&02000016&1813931205191&1813931205191&&1&2&200000&CNY&0040&boshzjjg&6222020409027711541&0&
20070990040021492239&20070990040021492239&20200709&02000016&1818760038371&1818760038371&&1&2&300000&CNY&0040&boshzjjg&6217001880006567315&0&
20070990040021492146&20070990040021492146&20200709&02000016&1813979604853&1813979604853&&1&2&400000&CNY&0040&boshzjjg&6232086500014934581&0&
20070990040021492164&20070990040021492164&20200709&02000016&1818696301799&1818696301799&&1&2&160000&CNY&0040&boshzjjg&6228483829384391974&0&
20070990040021492252&20070990040021492252&20200709&02000016&1813836685281&1813836685281&&1&2&5000&CNY&0040&boshzjjg&6222622380000869378&0&
20070990040021492100&20070990040021492100&20200709&02000016&1813320061039&1813320061039&&1&2&7000&CNY&0040&boshzjjg&6228482318150774770&0&
20070990040021492270&20070990040021492270&20200709&02000016&1818903327969&1818903327969&&1&2&8000&CNY&0040&boshzjjg&6214830158268663&0&
20070990040021492269&20070990040021492269&20200709&02000016&1813231508123&1813231508123&&1&2&1000&CNY&0040&boshzjjg&6217905000003669538&0&
20070990040021492334&20070990040021492334&20200709&02000016&1813673128038&1813673128038&&1&2&195000&CNY&0040&boshzjjg&6228481266180496164&0&
20070990040021492310&20070990040021492310&20200709&02000016&1813569282610&1813569282610&&1&2&150000&CNY&0040&boshzjjg&6222624120001884135&0&
20070990040021492372&20070990040021492372&20200709&02000016&1815126963815&1815126963815&&1&2&200000&CNY&0040&boshzjjg&6217902700004471866&0&
20070990040021492434&20070990040021492434&20200709&02000016&1815045749881&1815045749881&&1&2&2000&CNY&0040&boshzjjg&6228482670574074215&0&
20070990040021492321&20070990040021492321&20200709&02000016&1818141755128&1818141755128&&1&2&100&CNY&0040&boshzjjg&6226621901581213&0&
20070990040021492381&20070990040021492381&20200709&02000016&1815727618323&1815727618323&&1&2&200000&CNY&0040&boshzjjg&6217906500041769199&0&
20070990040021492326&20070990040021492326&20200709&02000016&1818085888288&1818085888288&&1&2&3000&CNY&0040&boshzjjg&6212262410004870522&0&
20070990040021492397&20070990040021492397&20200709&02000016&1813930833053&1813930833053&&1&2&170000&CNY&0040&boshzjjg&6210810140000144322&0&
20070990040021492536&20070990040021492536&20200709&02000016&1818141755128&1818141755128&&1&2&199000&CNY&0040&boshzjjg&6226621901581213&0&
20070990040021492407&20070990040021492407&20200709&02000016&1818053143677&1818053143677&&1&2&210000&CNY&0040&boshzjjg&6228480251376548417&0&
20070990040021492458&20070990040021492458&20200709&02000016&1818909341350&1818909341350&&1&2&193200&CNY&0040&boshzjjg&6217858500000556973&0&
20070990040021492457&20070990040021492457&20200709&02000016&1818774626308&1818774626308&&1&2&200000&CNY&0040&boshzjjg&6228480328660061172&0&
20070990040021492562&20070990040021492562&20200709&02000016&1818003228206&1818003228206&&1&2&200000&CNY&0040&boshzjjg&6228481268630913574&0&
20070990040021492563&20070990040021492563&20200709&02000016&1818640583537&1818640583537&&1&2&200000&CNY&0040&boshzjjg&6214830242282472&0&
20070990040021492431&20070990040021492431&20200709&02000016&1813930857226&1813930857226&&1&2&200000&CNY&0040&boshzjjg&6228481266530859467&0&
20070990040021492491&20070990040021492491&20200709&02000016&1817751565108&1817751565108&&1&2&180000&CNY&0040&boshzjjg&6228481988222307477&0&
20070990040021492584&20070990040021492584&20200709&02000016&1818909341350&1818909341350&&1&2&2000&CNY&0040&boshzjjg&6217858500000556973&0&
20070990040021492583&20070990040021492583&20200709&02000016&1813810239227&1813810239227&&1&2&3600&CNY&0040&boshzjjg&6228460018003542079&0&
20070990040021492591&20070990040021492591&20200709&02000016&1815921807241&1815921807241&&1&2&200000&CNY&0040&boshzjjg&6228481985573802676&0&
20070990040021492741&20070990040021492741&20200709&02000016&1818931382088&1818931382088&&1&2&200000&CNY&0040&boshzjjg&6222080409002890200&0&
20070990040021492632&20070990040021492632&20200709&02000016&1815368491912&1815368491912&&1&2&200000&CNY&0040&boshzjjg&6228483968078551970&0&
20070990040021492753&20070990040021492753&20200709&02000016&1813401719739&1813401719739&&1&2&800000&CNY&0040&boshzjjg&6214835154026981&0&
20070990040021492633&20070990040021492633&20200709&02000016&1818903327969&1818903327969&&1&2&7200&CNY&0040&boshzjjg&6214830158268663&0&
20070990040021492689&20070990040021492689&20200709&02000016&1815027888990&1815027888990&&1&2&200000&CNY&0040&boshzjjg&6228481266294801267&0&
20070990040021492767&20070990040021492767&20200709&02000016&1818531222131&1818531222131&&1&2&10000&CNY&0040&boshzjjg&6217000140012949192&0&
20070990040021492703&20070990040021492703&20200709&02000016&1818010518352&1818010518352&&1&2&400000&CNY&0040&boshzjjg&6216613100004116029&0&
20070990040021492778&20070990040021492778&20200709&02000016&1818287504406&1818287504406&&1&2&200000&CNY&0040&boshzjjg&6212823962505247776&0&
20070990040021492862&20070990040021492862&20200709&02000016&1815861099820&1815861099820&&1&2&190000&CNY&0040&boshzjjg&6217001310008472538&0&
20070990040021492861&20070990040021492861&20200709&02000016&1815845961600&1815845961600&&1&2&200000&CNY&0040&boshzjjg&4340621022780286&0&
20070990040021492873&20070990040021492873&20200709&02000016&1813633226787&1813633226787&&1&2&185000&CNY&0040&boshzjjg&6217230409000055995&0&
20070990040021492724&20070990040021492724&20200709&02000016&1813979604727&1813979604727&&1&2&1000000&CNY&0040&boshzjjg&6217994350008173156&0&
20070990040021492810&20070990040021492810&20200709&02000016&1818313472920&1818313472920&&1&2&800000&CNY&0040&boshzjjg&6228483358604616077&0&
20070990040021492941&20070990040021492941&20200709&02000016&1815080215648&1815080215648&&1&2&1000000&CNY&0040&boshzjjg&6216607000027404303&0&
20070990040021492946&20070990040021492946&20200709&02000016&1818179664397&1818179664397&&1&2&200000&CNY&0040&boshzjjg&6212261509002524626&0&
20070990040021492945&20070990040021492945&20200709&02000016&1815303323096&1815303323096&&1&2&200000&CNY&0040&boshzjjg&6228481269293491676&0&
20070990040021492888&20070990040021492888&20200709&02000016&1817614015933&1817614015933&&1&2&200000&CNY&0040&boshzjjg&6228480048930530976&0&
20070990040021492823&20070990040021492823&20200709&02000016&1818331186688&1818331186688&&1&2&200000&CNY&0040&boshzjjg&6230210510055712&0&
20070990040021492831&20070990040021492831&20200709&02000016&1815830830384&1815830830384&&1&2&500&CNY&0040&boshzjjg&6228481269180531170&0&
20070990040021492963&20070990040021492963&20200709&02000016&1813897364446&1813897364446&&1&2&1000000&CNY&0040&boshzjjg&6217000490003917231&0&
20070990040021493052&20070990040021493052&20200709&02000016&1813333879889&1813333879889&&1&2&200000&CNY&0040&boshzjjg&6228480738215504775&0&
20070990040021492969&20070990040021492969&20200709&02000016&1815830830384&1815830830384&&1&2&199500&CNY&0040&boshzjjg&6228481269180531170&0&
20070990040021493080&20070990040021493080&20200709&02000016&1813042892304&1813042892304&&1&2&200000&CNY&0040&boshzjjg&6217857600051779606&0&
20070990040021493086&20070990040021493086&20200709&02000016&1815845320444&1815845320444&&1&2&800000&CNY&0040&boshzjjg&6215580907001057555&0&
20070990040021493150&20070990040021493150&20200709&02000016&1818531222093&1818531222093&&1&2&200000&CNY&0040&boshzjjg&6221801340001088654&0&
20070990040021493099&20070990040021493099&20200709&02000016&1815830268520&1815830268520&&1&2&500&CNY&0040&boshzjjg&6213361269903682273&0&
20070990040021493109&20070990040021493109&20200709&02000016&1815369277662&1815369277662&&1&2&200000&CNY&0040&boshzjjg&6236680140002099625&0&
20070990040021493166&20070990040021493166&20200709&02000016&1813604028951&1813604028951&&1&2&205000&CNY&0040&boshzjjg&6217000730031113026&0&
20070990040021493120&20070990040021493120&20200709&02000016&1815084163666&1815084163666&&1&2&200000&CNY&0040&boshzjjg&6215340302200041983&0&
20070990040021493030&20070990040021493030&20200709&02000016&1816740191131&1816740191131&&1&2&200000&CNY&0040&boshzjjg&6222081402003264615&0&
20070990040021493123&20070990040021493123&20200709&02000016&1813407206491&1813407206491&&1&2&800000&CNY&0040&boshzjjg&6213363826674898160&0&
20070990040021493179&20070990040021493179&20200709&02000016&1815830268520&1815830268520&&1&2&199500&CNY&0040&boshzjjg&6213361269903682273&0&
20070990040021493126&20070990040021493126&20200709&02000016&1818208471819&1818208471819&&1&2&1000000&CNY&0040&boshzjjg&6212262403007033727&0&
20070990040021493239&20070990040021493239&20200709&02000016&1813042892304&1813042892304&&1&2&800000&CNY&0040&boshzjjg&6217857600051779606&0&
20070990040021493240&20070990040021493240&20200709&02000016&1814784685555&1814784685555&&1&2&400000&CNY&0040&boshzjjg&6217855300005049576&0&
20070990040021493194&20070990040021493194&20200709&02000016&1814784685555&1814784685555&&1&2&200000&CNY&0040&boshzjjg&6217855300005049576&0&
20070990040021493253&20070990040021493253&20200709&02000016&1815170047910&1815170047910&&1&2&200000&CNY&0040&boshzjjg&6228482318309465775&0&
20070990040021493345&20070990040021493345&20200709&02000016&1818945101437&1818945101437&&1&2&10000&CNY&0040&boshzjjg&6222620410010698723&0&
20070990040021493199&20070990040021493199&20200709&02000016&1813767988121&1813767988121&&1&2&100000&CNY&0040&boshzjjg&6217002020060157484&0&
20070990040021493347&20070990040021493347&20200709&02000016&1813979635126&1813979635126&&1&2&1000000&CNY&0040&boshzjjg&6228452318048846679&0&
20070990040021493352&20070990040021493352&20200709&02000016&1818161839483&1818161839483&&1&2&200&CNY&0040&boshzjjg&6227001590501653200&0&
20070990040021493265&20070990040021493265&20200709&02000016&1813755657889&1813755657889&&1&2&100000&CNY&0040&boshzjjg&6227002020410044282&0&
20070990040021493210&20070990040021493210&20200709&02000016&1813360507804&1813360507804&&1&2&400000&CNY&0040&boshzjjg&6217975200014830146&0&
20070990040021493274&20070990040021493274&20200709&02000016&1818524248205&1818524248205&&1&2&400000&CNY&0040&boshzjjg&6230580000244692286&0&
20070990040021493273&20070990040021493273&20200709&02000016&1813011926892&1813011926892&&1&2&200000&CNY&0040&boshzjjg&6215580409004004114&0&
20070990040021493215&20070990040021493215&20200709&02000016&1813755657889&1813755657889&&1&2&900000&CNY&0040&boshzjjg&6227002020410044282&0&
20070990040021493291&20070990040021493291&20200709&02000016&1813767988121&1813767988121&&1&2&900000&CNY&0040&boshzjjg&6217002020060157484&0&
20070990040021493300&20070990040021493300&20200709&02000016&1813483299066&1813483299066&&1&2&200000&CNY&0040&boshzjjg&6228481266305135861&0&
20070990040021493443&20070990040021493443&20200709&02000016&1813600061738&1813600061738&&1&2&200000&CNY&0040&boshzjjg&6222023602067698969&0&
20070990040021493410&20070990040021493410&20200709&02000016&1815619623000&1815619623000&&1&2&180000&CNY&0040&boshzjjg&6228482908693037170&0&
20070990040021493326&20070990040021493326&20200709&02000016&1813577941087&1813577941087&&1&2&200&CNY&0040&boshzjjg&6230523310023159278&0&
20070990040021493542&20070990040021493542&20200709&02000016&1813577941087&1813577941087&&1&2&200000&CNY&0040&boshzjjg&6230523310023159278&0&
20070990040021493543&20070990040021493543&20200709&02000016&1815830939425&1815830939425&&1&2&1000000&CNY&0040&boshzjjg&6222030409002118207&0&
20070990040021493648&20070990040021493648&20200709&02000016&1815045790917&1815045790917&&1&2&2000&CNY&0040&boshzjjg&6227001041010096119&0&
20070990040021493503&20070990040021493503&20200709&02000016&1818746705277&1818746705277&&1&2&200000&CNY&0040&boshzjjg&6217001040005817258&0&
20070990040021493649&20070990040021493649&20200709&02000016&1815632218558&1815632218558&&1&2&3000&CNY&0040&boshzjjg&6217000140012460182&0&
20070990040021493570&20070990040021493570&20200709&02000016&1813731241229&1813731241229&&1&2&1000000&CNY&0040&boshzjjg&6228481269224434779&0&
20070990040021493582&20070990040021493582&20200709&02000016&1818214662231&1818214662231&&1&2&200000&CNY&0040&boshzjjg&6212262510000861431&0&
20070990040021493666&20070990040021493666&20200709&02000016&1815969243361&1815969243361&&1&2&3000&CNY&0040&boshzjjg&6221807300002224926&0&
20070990040021493589&20070990040021493589&20200709&02000016&1818632260972&1818632260972&&1&2&195000&CNY&0040&boshzjjg&6212260409014453008&0&
20070990040021493520&20070990040021493520&20200709&02000016&1813398823718&1813398823718&&1&2&200000&CNY&0040&boshzjjg&6230523350015339074&0&
20070990040021493526&20070990040021493526&20200709&02000016&1818987500186&1818987500186&&1&2&200000&CNY&0040&boshzjjg&6217003960004058208&0&
20070990040021493618&20070990040021493618&20200709&02000016&1813930885981&1813930885981&&1&2&1000000&CNY&0040&boshzjjg&6212250409000035555&0&
20070990040021493620&20070990040021493620&20200709&02000016&1815230282596&1815230282596&&1&2&200000&CNY&0040&boshzjjg&6217000140016939173&0&
20070990040021493747&20070990040021493747&20200709&02000016&1813400164686&1813400164686&&1&2&200000&CNY&0040&boshzjjg&6217000140012931539&0&
20070990040021493708&20070990040021493708&20200709&02000016&1813131215896&1813131215896&&1&2&200000&CNY&0040&boshzjjg&6228481261660497915&0&
20070990040021493778&20070990040021493778&20200709&02000016&1813601213177&1813601213177&&1&2&200000&CNY&0040&boshzjjg&6228451266043197765&0&
20070990040021493780&20070990040021493780&20200709&02000016&1815933020208&1815933020208&&1&2&200000&CNY&0040&boshzjjg&6215695000012619530&0&
20070990040021493945&20070990040021493945&20200709&02000016&1818331156778&1818331156778&&1&2&200000&CNY&0040&boshzjjg&6222020409010395849&0&
20070990040021493796&20070990040021493796&20200709&02000016&1813730198476&1813730198476&&1&2&200000&CNY&0040&boshzjjg&6217000140023541459&0&
20070990040021493962&20070990040021493962&20200709&02000016&1815930255473&1815930255473&&1&2&200000&CNY&0040&boshzjjg&6217000140041048800&0&
20070990040021493971&20070990040021493971&20200709&02000016&1815242043624&1815242043624&&1&2&205000&CNY&0040&boshzjjg&6222620310006919085&0&
20070990040021493914&20070990040021493914&20200709&02000016&1813473233949&1813473233949&&1&2&200000&CNY&0040&boshzjjg&6216665000000764474&0&
20070990040021494042&20070990040021494042&20200709&02000016&1813708629226&1813708629226&&1&2&200000&CNY&0040&boshzjjg&6230523350015338977&0&
20070990040021494009&20070990040021494009&20200709&02000016&1815184975106&1815184975106&&1&2&200000&CNY&0040&boshzjjg&6230523350015326675&0&
20070990040021493933&20070990040021493933&20200709&02000016&1813879674226&1813879674226&&1&2&200000&CNY&0040&boshzjjg&6217002110007956047&0&
20070990040021494058&20070990040021494058&20200709&02000016&1813368793212&1813368793212&&1&2&200000&CNY&0040&boshzjjg&6221887471000025111&0&
20070990040021494016&20070990040021494016&20200709&02000016&1813988265317&1813988265317&&1&2&200000&CNY&0040&boshzjjg&6228483358581825774&0&
20070990040021494072&20070990040021494072&20200709&02000016&1815758449560&1815758449560&&1&2&140000&CNY&0040&boshzjjg&6228483358272323675&0&
20070990040021494091&20070990040021494091&20200709&02000016&1813809349928&1813809349928&&1&2&200000&CNY&0040&boshzjjg&6212262709000149041&0&
20070990040021494096&20070990040021494096&20200709&02000016&1819188162577&1819188162577&&1&2&200000&CNY&0040&boshzjjg&6212262511002032054&0&
20070990040021494172&20070990040021494172&20200709&02000016&1813378821223&1813378821223&&1&2&200000&CNY&0040&boshzjjg&6230523350015326774&0&
20070990040021494253&20070990040021494253&20200709&02000016&1813292949555&1813292949555&&1&2&600000&CNY&0040&boshzjjg&6221881340023167539&0&
20070990040021494107&20070990040021494107&20200709&02000016&1818132730301&1818132730301&&1&2&191000&CNY&0040&boshzjjg&6215580409001640449&0&
20070990040021494119&20070990040021494119&20200709&02000016&1813846299036&1813846299036&&1&2&200000&CNY&0040&boshzjjg&4367420990229022770&0&
20070990040021494122&20070990040021494122&20200709&02000016&1813315355181&1813315355181&&1&2&195000&CNY&0040&boshzjjg&6212260404005797729&0&
20070990040021494196&20070990040021494196&20200709&02000016&1815933020208&1815933020208&&1&2&200000&CNY&0040&boshzjjg&6215695000012619530&0&
20070990040021494126&20070990040021494126&20200709&02000016&1813988241681&1813988241681&&1&2&1000000&CNY&0040&boshzjjg&6228483350924950310&0&
20070990040021494292&20070990040021494292&20200709&02000016&1819116014591&1819116014591&&1&2&200000&CNY&0040&boshzjjg&6222032510000192629&0&
20070990040021494296&20070990040021494296&20200709&02000016&1815108644971&1815108644971&&1&2&200000&CNY&0040&boshzjjg&6228483358465956976&0&
20070990040021494338&20070990040021494338&20200709&02000016&1815081208098&1815081208098&&1&2&200000&CNY&0040&boshzjjg&6213361269905062276&0&
20070990040021494304&20070990040021494304&20200709&02000016&1817735225783&1817735225783&&1&2&200000&CNY&0040&boshzjjg&6228480918122104774&0&
20070990040021494210&20070990040021494210&20200709&02000016&1813932238474&1813932238474&&1&2&120000&CNY&0040&boshzjjg&6228481269113851679&0&
20070990040021494308&20070990040021494308&20200709&02000016&1813979604271&1813979604271&&1&2&200000&CNY&0040&boshzjjg&6228482318718525474&0&
20070990040021494214&20070990040021494214&20200709&02000016&1818332818094&1818332818094&&1&2&200000&CNY&0040&boshzjjg&6212810409000322469&0&
20070990040021494343&20070990040021494343&20200709&02000016&1815079616806&1815079616806&&1&2&200000&CNY&0040&boshzjjg&6227002112060310921&0&
2020070901575087&null&20200709&02000016&1813928869510&1813928869510&&1&2&200000&CNY&0040&boshzjjg&6228480086936632974&0&
