清算中心流水号&交易所流水号&业务发生日期&交易所代码&会员编码&资金账号&出入金方式&出入金类型&出入金发起方&发生金额&币种&银行代码&银行产品代码&银行帐号&状态&备注
20063090040021462861&20063090040021462861&20200630&02000016&1813529538686&1813529538686&&1&2&10000&CNY&0040&boshzjjg&6212262511002220345&0&
20063090040021462785&20063090040021462785&20200630&02000016&1818249480111&1818249480111&&1&2&400000&CNY&0040&boshzjjg&6215580907001321407&0&
20063090040021462864&20063090040021462864&20200630&02000016&1818313096871&1818313096871&&1&2&30000&CNY&0040&boshzjjg&6228483358596905173&0&
20063090040021462782&20063090040021462782&20200630&02000016&1800100000116&1800100000116&&1&2&20000&CNY&0040&boshzjjg&6228410250554276317&0&
20063030020100462880&33JYX2P3BN9M37B2&20200630&02000016&1813931267078&1813931267078&&0&1&30090&CNY&0040&boshzjjg&6228411264507692974&0&
20063030020100462956&9CURF470Y4KXDRDP&20200630&02000016&1813836685281&1813836685281&&0&1&20060&CNY&0040&boshzjjg&6222622380000869378&0&
20063030020100462811&HUNIITZ8MD6SCWBZ&20200630&02000016&1813785266844&1813785266844&&0&1&12036&CNY&0040&boshzjjg&6228481268593691076&0&
20063030020100462923&1BANGTQFMG93DUP9&20200630&02000016&1815633298879&1815633298879&&0&1&20060&CNY&0040&boshzjjg&6226200204208467&0&
20063030020100462995&K10YPLENWF5KJYMW&20200630&02000016&1818165477289&1818165477289&&0&1&20060&CNY&0040&boshzjjg&6235733600000210804&0&
20063030020100462932&XQ66O3Z5AJB7SDKG&20200630&02000016&1813894477032&1813894477032&&0&1&20060&CNY&0040&boshzjjg&6217992400062959487&0&
20063030020100463063&V42J3CW4ZEI3YKM5&20200630&02000016&1813931358252&1813931358252&&0&1&20060&CNY&0040&boshzjjg&6227000148210056461&0&
20063030020100463135&RNLCYWY78UHIFV73&20200630&02000016&1813785222268&1813785222268&&0&1&15045&CNY&0040&boshzjjg&6228481268948566478&0&
20063030020100463137&FAQLUVLGLJAA6ETN&20200630&02000016&1813908822711&1813908822711&&0&1&12036&CNY&0040&boshzjjg&6228483358379095879&0&
20063030020100463142&YLP17PE2A0NP4HZZ&20200630&02000016&1815932548856&1815932548856&&0&1&50150&CNY&0040&boshzjjg&6217000180001177959&0&
20063030020100463085&4XTV15HPTZ5DQGVD&20200630&02000016&1815929113628&1815929113628&&0&1&100300&CNY&0040&boshzjjg&6228481008543004172&0&
20063030020100463096&2U9LMW8EBXF7CX3Z&20200630&02000016&1817304211987&1817304211987&&0&1&10030&CNY&0040&boshzjjg&6217992340002158842&0&
20063030020100463100&G6SV6URM5IO89ZIY&20200630&02000016&1813997996613&1813997996613&&0&1&110330&CNY&0040&boshzjjg&6222081813003263128&0&
20063030020100463024&V5T5MVLDEDVNGHXH&20200630&02000016&1813066542463&1813066542463&&0&1&250752&CNY&0040&boshzjjg&6228480048962458070&0&
20063030020100463106&NTX1YDU0GP205D9E&20200630&02000016&1815346666882&1815346666882&&0&1&190571&CNY&0040&boshzjjg&6214832729527825&0&
20063030020100463029&D4RQNVHN97PUEQ7N&20200630&02000016&1818689707602&1818689707602&&0&1&10030&CNY&0040&boshzjjg&6228480158299224671&0&
20063030020100463240&ONFOGO4JBIQI4TQN&20200630&02000016&1818889422056&1818889422056&&0&1&25075&CNY&0040&boshzjjg&6228410150025333913&0&
20063030020100463242&JQOMYMT9ZCV3Y21Y&20200630&02000016&1818161735141&1818161735141&&0&1&10030&CNY&0040&boshzjjg&6217997900073030546&0&
20063030020100463243&DUXZBP0HKFWDPKY5&20200630&02000016&1818875037395&1818875037395&&0&1&7422&CNY&0040&boshzjjg&6228480479009445673&0&
20063030020100463122&DRFNLRVTN74D94KK&20200630&02000016&1813903228890&1813903228890&&0&1&20060&CNY&0040&boshzjjg&4367420140818834371&0&
20063030020100463195&535GZWKNP4KV730O&20200630&02000016&1800100000080&1800100000080&&0&1&45937&CNY&0040&boshzjjg&6217855300030279677&0&
20063030020100463252&Q6F94296665CY52R&20200630&02000016&1815184597495&1815184597495&&0&1&30090&CNY&0040&boshzjjg&6217001070010192868&0&
20063030020100463199&3I9S8IUWRFCU4N5C&20200630&02000016&1818976770088&1818976770088&&0&1&20060&CNY&0040&boshzjjg&6212262201024968523&0&
20063030020100463337&R2N6ZV4GJPII2LBL&20200630&02000016&1818210293990&1818210293990&&0&1&10030&CNY&0040&boshzjjg&6236683320015427180&0&
20063030020100463275&K32SSJGM8HKCAMWN&20200630&02000016&1818674148199&1818674148199&&0&1&140421&CNY&0040&boshzjjg&6228483829038873773&0&
20063030020100463219&YF1M9VQIGIV3FML3&20200630&02000016&1813796541908&1813796541908&&0&1&10030&CNY&0040&boshzjjg&6217992610168596948&0&
20063030020100463278&CNZO74UHPXKTOZK2&20200630&02000016&1815389494945&1815389494945&&0&1&10030&CNY&0040&boshzjjg&6215592605003645908&0&
20063030020100463357&1AUHPLQG3EWYJIL7&20200630&02000016&1815208999328&1815208999328&&0&1&10030&CNY&0040&boshzjjg&6230520150011399475&0&
20063030020100463361&ZMLY05ZSEKRRF2MK&20200630&02000016&1813796586326&1813796586326&&0&1&10030&CNY&0040&boshzjjg&6217001070012158248&0&
20063030020100463226&MAW7GG4MA39IE5T1&20200630&02000016&1818645566788&1818645566788&&0&1&35105&CNY&0040&boshzjjg&6216695300006103063&0&
20063030020100463364&5MLDVDYAAB3ORWIQ&20200630&02000016&1815771836378&1815771836378&&0&1&10030&CNY&0040&boshzjjg&6215592605004136980&0&
20063030020100463296&908B176DVI7WO1MC&20200630&02000016&1817689826169&1817689826169&&0&1&10030&CNY&0040&boshzjjg&6213360159902334672&0&
20063030020100463440&0J0NLWH2SU4B1ZFO&20200630&02000016&1813703151462&1813703151462&&0&1&30090&CNY&0040&boshzjjg&6217855000054129564&0&
20063030020100463320&W5XBO91278N9O82D&20200630&02000016&1813463503191&1813463503191&&0&1&10030&CNY&0040&boshzjjg&6222030403007685450&0&
20063030020100463322&2CLYV6T89QMPMY8P&20200630&02000016&1818046671766&1818046671766&&0&1&50150&CNY&0040&boshzjjg&6221884280018439609&0&
20063030020100463409&9J4KXIPJGH7F4T2S&20200630&02000016&1813932525581&1813932525581&&0&1&10030&CNY&0040&boshzjjg&6222030403007280369&0&
20063030020100463477&AO4PJU6125311MBZ&20200630&02000016&1818468150535&1818468150535&&0&1&40120&CNY&0040&boshzjjg&6228480861114941912&0&
20063030020100463490&0SGVQA1VL7K4YI6Y&20200630&02000016&1813669212329&1813669212329&&0&1&100300&CNY&0040&boshzjjg&6221888040002479482&0&
20063030020100463493&ONHHCNXF0WRWJ880&20200630&02000016&1813731798775&1813731798775&&0&1&50150&CNY&0040&boshzjjg&6228480649169179276&0&
20063030020100463431&Y4RG349DYCP063Z0&20200630&02000016&1813683131563&1813683131563&&0&1&30090&CNY&0040&boshzjjg&6228481009189128077&0&
20063030020100463432&H8MI8JY8UQ6LT38M&20200630&02000016&1800100000170&1800100000170&&0&1&50150&CNY&0040&boshzjjg&6228481268627847777&0&
20063030020100463507&5PL9C9QIZG917KYJ&20200630&02000016&1813932256061&1813932256061&&0&1&20060&CNY&0040&boshzjjg&6222080409001330703&0&
20063030020100463509&MEDDTSV41LZTJFD9&20200630&02000016&1813694033282&1813694033282&&0&1&30090&CNY&0040&boshzjjg&6228481858102284379&0&
20063030020100463650&Q0MGCDVGHC58EMTH&20200630&02000016&1815561743759&1815561743759&&0&1&10030&CNY&0040&boshzjjg&6228482688418322475&0&
20063030020100463655&FW2BF55PC2PC1N9H&20200630&02000016&1815832285526&1815832285526&&0&1&40120&CNY&0040&boshzjjg&6212260409007071536&0&
20063030020100463669&3NG44Y8T2NJXOS4A&20200630&02000016&1813940061166&1813940061166&&0&1&200601&CNY&0040&boshzjjg&6228460048014710977&0&
20063030020100463682&APRO1XZQJT5251QY&20200630&02000016&1813730476179&1813730476179&&0&1&50150&CNY&0040&boshzjjg&6228481268441778372&0&
20063030020100463610&S347X9HABTB4F5FL&20200630&02000016&1815161960908&1815161960908&&0&1&17051&CNY&0040&boshzjjg&6236681320001941667&0&
20063030020100463614&DRLVDQ8F9DMJY1KP&20200630&02000016&1818233291091&1818233291091&&0&1&70210&CNY&0040&boshzjjg&6217855000076462316&0&
20063030020100463616&VTR9TBPNC1T9P8HV&20200630&02000016&1815187580133&1815187580133&&0&1&191574&CNY&0040&boshzjjg&6217003960001087598&0&
20063030020100463712&NX4SD0XIP4Q6ANJW&20200630&02000016&1818331088485&1818331088485&&0&1&70210&CNY&0040&boshzjjg&6222030409003978880&0&
20063030020100463719&DCDEGE6WTQ54OP4W&20200630&02000016&1815388839989&1815388839989&&0&1&100300&CNY&0040&boshzjjg&6217862700000739454&0&
20063030020100463729&T4X3ZT4PJ3PGAA1U&20200630&02000016&1813230203301&1813230203301&&0&1&40120&CNY&0040&boshzjjg&6217855000016648222&0&
20063030020100463794&VS2WMVXSPKGAZBQD&20200630&02000016&1818669296269&1818669296269&&0&1&200601&CNY&0040&boshzjjg&6230523350001042476&0&
20063030020100463959&2FQ51I7KJHFUV264&20200630&02000016&1815032925000&1815032925000&&0&1&210631&CNY&0040&boshzjjg&6228480658999329670&0&
20063030020100463814&DWP9IKD2A5NHQEDB&20200630&02000016&1813383626357&1813383626357&&0&1&20060&CNY&0040&boshzjjg&6228481266482264062&0&
20063030020100463881&XBT6B8V4CBJ0ICRA&20200630&02000016&1813730157568&1813730157568&&0&1&20060&CNY&0040&boshzjjg&6228481269132560871&0&
20063030020100463978&4GSHFZ1R61VNXPSJ&20200630&02000016&1817303121352&1817303121352&&0&1&10030&CNY&0040&boshzjjg&6212260409019068793&0&
20063030020100464036&EOANKQ19QL629TC1&20200630&02000016&1813990752155&1813990752155&&0&1&10030&CNY&0040&boshzjjg&6230523350013669571&0&
20063030020100463925&TPFPBDPSPRREFBEX&20200630&02000016&1815832267413&1815832267413&&0&1&20060&CNY&0040&boshzjjg&6222080409000809582&0&
20063030020100464029&Z6UT90KBFUDE8DHF&20200630&02000016&1818909995887&1818909995887&&0&1&50150&CNY&0040&boshzjjg&6222033006001389313&0&
20063030020100464068&TMI8X492QE94ABOU&20200630&02000016&1815133232674&1815133232674&&0&1&30090&CNY&0040&boshzjjg&6228481269291377877&0&
20063030020100464070&QPJ4PHG1G3295YMZ&20200630&02000016&1815853623056&1815853623056&&0&1&40120&CNY&0040&boshzjjg&6228480291537890811&0&
20063030020100464238&XUB8IFEO9BF3NDHJ&20200630&02000016&1813988222092&1813988222092&&0&1&10030&CNY&0040&boshzjjg&6230523350002530776&0&
20063030020100464241&ASS79HOYBHF5DUDG&20200630&02000016&1817732266277&1817732266277&&0&1&100300&CNY&0040&boshzjjg&6228481262349094115&0&
20063030020100464303&167Y1YDFG3EBCHPW&20200630&02000016&1813945860022&1813945860022&&0&1&397191&CNY&0040&boshzjjg&6217000010123344932&0&
20063030020100464211&F1FMUIJRI9476MOB&20200630&02000016&1813587765311&1813587765311&&0&1&100&CNY&0040&boshzjjg&6236681420015050297&0&
20063030020100464229&YEHTKAJVSYCTOBCC&20200630&02000016&1813739822199&1813739822199&&0&1&10030&CNY&0040&boshzjjg&6230520650041673575&0&
20063030020100464434&F73MMOU9GES4YN2L&20200630&02000016&1818934819900&1818934819900&&0&1&20060&CNY&0040&boshzjjg&6216696200010203462&0&
20063030020100464383&1QXNWIAOBKY57Z97&20200630&02000016&1813988238986&1813988238986&&0&1&30090&CNY&0040&boshzjjg&6230523350012901777&0&
20063030020100464419&3ZNU08QUHEYHTRRH&20200630&02000016&1813607196765&1813607196765&&0&1&50150&CNY&0040&boshzjjg&6228480059835911377&0&
20063030020100464575&AGJXK3KIQB8OKSZO&20200630&02000016&1813556430912&1813556430912&&0&1&30090&CNY&0040&boshzjjg&6222082003002115920&0&
20063030020100464428&4CRK8HCXPQ2W9BC2&20200630&02000016&1815208999328&1815208999328&&0&1&2908&CNY&0040&boshzjjg&6230520150011399475&0&
20063030020100464485&BTASCWJOET9XDKHE&20200630&02000016&1813510564251&1813510564251&&0&1&30090&CNY&0040&boshzjjg&6217007200008195755&0&
20063030020100464492&5MBR3EINL77LO9IY&20200630&02000016&1815208808189&1815208808189&&0&1&40120&CNY&0040&boshzjjg&6228483350106186410&0&
20063030020100464601&OJ4356TS51VHI3CM&20200630&02000016&1813513121930&1813513121930&&0&1&80240&CNY&0040&boshzjjg&6013825002007063429&0&
20063030020100464519&YX3G8LXIEFYDN3NG&20200630&02000016&1813545932491&1813545932491&&0&1&10030&CNY&0040&boshzjjg&6228453828123642370&0&
20063030020100464611&JUXPS5DAFJK1U0RX&20200630&02000016&1800100000094&1800100000094&&0&1&1003&CNY&0040&boshzjjg&6217000140036719878&0&
20063030020100464839&XLUPAAK4M9W72LV0&20200630&02000016&1815933126808&1815933126808&&0&1&20060&CNY&0040&boshzjjg&6228481261924832113&0&
20063030020100464717&LFMU3O15H8BRLEJ4&20200630&02000016&1815613502427&1815613502427&&0&1&100&CNY&0040&boshzjjg&6231562800348242&0&
20063030020100464812&QXSXV23ZH4U1WK9N&20200630&02000016&1813587765311&1813587765311&&0&1&100&CNY&0040&boshzjjg&6236681420015050297&0&
20063030020100464991&TZORKYG8966VMRH8&20200630&02000016&1818940967978&1818940967978&&0&1&20060&CNY&0040&boshzjjg&6221502223000134244&0&
20063030020100464999&TXENG5IEH0WQ2V2W&20200630&02000016&1813628842075&1813628842075&&0&1&20060&CNY&0040&boshzjjg&6228483358606381670&0&
20063030020100465053&QTD64Z3MHZ7C85QU&20200630&02000016&1815271903817&1815271903817&&0&1&30090&CNY&0040&boshzjjg&6228270051257148475&0&
20063030020100465060&U28CMNAHPYJ2D0E7&20200630&02000016&1818909995887&1818909995887&&0&1&10030&CNY&0040&boshzjjg&6222033006001389313&0&
20063030020100465159&P3Q5OLD2CFXBUSL0&20200630&02000016&1800100000064&1800100000064&&0&1&10030&CNY&0040&boshzjjg&6228481269164514978&0&
20063030020100465082&2MIBM7F9I0KWTA7J&20200630&02000016&1818630239398&1818630239398&&0&1&8024&CNY&0040&boshzjjg&6221881340024031825&0&
20063030020100465025&DGZ60V9LV6H5579C&20200630&02000016&1815232607038&1815232607038&&0&1&10030&CNY&0040&boshzjjg&6228480652067343614&0&
20063030020100465085&8SDR6RS0IMRTZC60&20200630&02000016&1818313472920&1818313472920&&0&1&20060&CNY&0040&boshzjjg&6228483358604616077&0&
20063030020100465165&4H0J47W8ODYV1JFR&20200630&02000016&1800100000027&1800100000027&&0&1&10030&CNY&0040&boshzjjg&6216606500013856904&0&
20063030020100465237&065IF2J43MR3VIWG&20200630&02000016&1813031511388&1813031511388&&0&1&10030&CNY&0040&boshzjjg&6217000180011149501&0&
20063030020100465175&JGP0N1BEJIB6CZOR&20200630&02000016&1813478653378&1813478653378&&0&1&30090&CNY&0040&boshzjjg&6228480568011405673&0&
20063030020100465241&YHG1WEE6HSSUN27N&20200630&02000016&1813230331640&1813230331640&&0&1&10030&CNY&0040&boshzjjg&6228480649169025172&0&
20063030020100465190&QWFVKUBFPE1ONU6U&20200630&02000016&1815633362628&1815633362628&&0&1&10030&CNY&0040&boshzjjg& 6216695000010405609&0&
20063030020100465116&62TK7EB5FDF8CDZK&20200630&02000016&1815818598480&1815818598480&&0&1&20060&CNY&0040&boshzjjg&6230520120003213679&0&
20063030020100465264&V5VI74KLLP5GZ5OR&20200630&02000016&1813831522789&1813831522789&&0&1&10030&CNY&0040&boshzjjg&6217000180004322685&0&
20063030020100465273&3B56HKBBYNMNNA05&20200630&02000016&1818634009284&1818634009284&&0&1&10030&CNY&0040&boshzjjg&4340610180411321&0&
20063030020100465209&R38NK0UPGXUIB06U&20200630&02000016&1819931217298&1819931217298&&0&1&30090&CNY&0040&boshzjjg&6222020409009790406&0&
20063030020100465217&JIH5ZBTE0IFZX3AN&20200630&02000016&1813407259698&1813407259698&&0&1&200601&CNY&0040&boshzjjg&6215697600007268041&0&
20063030020100465434&MSF4REKCDNL091RW&20200630&02000016&1817789888843&1817789888843&&0&1&10030&CNY&0040&boshzjjg&6222022201008354302&0&
20063030020100465374&3HP9G1V0TZ4UJO99&20200630&02000016&1813909852916&1813909852916&&0&1&10260&CNY&0040&boshzjjg&6222033400007501767&0&
20063030020100465550&7K1VDI2YGMU75XA9&20200630&02000016&1818103121030&1818103121030&&0&1&10030&CNY&0040&boshzjjg&6236680140002963580&0&
20063030020100465481&4Y2LS5WVOQM7EPQT&20200630&02000016&1815175228012&1815175228012&&0&1&20060&CNY&0040&boshzjjg&6228481269185401577&0&
20063030020100465552&8QXUKKNBA951C4CG&20200630&02000016&1800100000027&1800100000027&&0&1&180541&CNY&0040&boshzjjg&6216606500013856904&0&
20063030020100465510&XHV93RBGJKLI7E1I&20200630&02000016&1813831588800&1813831588800&&0&1&70210&CNY&0040&boshzjjg&6217000180002169047&0&
20063030020100465717&R3F21ZQ8ZTW4KP8C&20200630&02000016&1815951703440&1815951703440&&0&1&15045&CNY&0040&boshzjjg&6217002200016513150&0&
20063030020100465936&M8JFN4G6X5L3W36K&20200630&02000016&1818903380276&1818903380276&&0&1&10030&CNY&0040&boshzjjg&6228480651703319012&0&
20063030020100465855&Q8QIY3DXTRHBWEB1&20200630&02000016&1818088167118&1818088167118&&0&1&10030&CNY&0040&boshzjjg&6230523350013666874&0&
20063030020100465863&G972ZRKQT1MX8223&20200630&02000016&1815512595393&1815512595393&&0&1&40120&CNY&0040&boshzjjg&6226195301284009&0&
20063030020100465968&Z9GVIDVNBQ5U2W1F&20200630&02000016&1815369219199&1815369219199&&0&1&10030&CNY&0040&boshzjjg&6217991340030530997&0&
20063030020100466026&7SFTJGHS4QP0B6WD&20200630&02000016&1813988247562&1813988247562&&0&1&70210&CNY&0040&boshzjjg&6212262511001634553&0&
20063030020100466092&4DYWL7IZCR8JA2QT&20200630&02000016&1818931232281&1818931232281&&0&1&15045&CNY&0040&boshzjjg&6217855000069310779&0&
20063030020100466179&O1DNYUVG7S1I6AOL&20200630&02000016&1813785550440&1813785550440&&0&1&10030&CNY&0040&boshzjjg&6222020403024592509&0&
20063030020100466245&ZTX40OSK0ZK1X2GW&20200630&02000016&1815972280790&1815972280790&&0&1&50150&CNY&0040&boshzjjg&6236682660002898450&0&
20063030020100466180&20W6B6U3OESFFUQL&20200630&02000016&1815887508589&1815887508589&&0&1&10030&CNY&0040&boshzjjg&6212262510001682521&0&
20063030020100466185&D3HXZHMCR8IXGJW9&20200630&02000016&1818187582339&1818187582339&&0&1&10030&CNY&0040&boshzjjg&6230523960012293072&0&
20063030020100466100&0JC5BW992UZ47X7U&20200630&02000016&1813577525294&1813577525294&&0&1&10030&CNY&0040&boshzjjg&6217003960003627946&0&
20063030020100466102&MS0AKE5NXTH66F8A&20200630&02000016&1815246489748&1815246489748&&0&1&20060&CNY&0040&boshzjjg&6212260904007862686&0&
20063030020100466201&X3VWTO8XGPJYWOMS&20200630&02000016&1813370555380&1813370555380&&0&1&30090&CNY&0040&boshzjjg&6228480258142932072&0&
20063030020100466121&HC59KN2NHGUY7V04&20200630&02000016&1813472297749&1813472297749&&0&1&100&CNY&0040&boshzjjg&6228481269128247673&0&
20063030020100466214&5PS9YBH435NLI66Y&20200630&02000016&1815837935868&1815837935868&&0&1&210631&CNY&0040&boshzjjg&6210812450000594485&0&
20063030020100466130&7RQLG3M6J3SIK9JZ&20200630&02000016&1813803283883&1813803283883&&0&1&11434&CNY&0040&boshzjjg&6214660140105271&0&
20063030020100466308&WECKOGZCZJDRORBK&20200630&02000016&1800100000340&1800100000340&&0&1&100300&CNY&0040&boshzjjg&6217002020076391689&0&
20063030020100466329&JVP2EB6O6K1HSEV6&20200630&02000016&1815184855733&1815184855733&&0&1&40120&CNY&0040&boshzjjg&6230523960012469870&0&
20063030020100466385&LFKTAQ6N1XLCUP0K&20200630&02000016&1815951703440&1815951703440&&0&1&10030&CNY&0040&boshzjjg&6217002200016513150&0&
20063030020100466553&XLLBMCVQJ3F07KR2&20200630&02000016&1813315236132&1813315236132&&0&1&20060&CNY&0040&boshzjjg&6235010151300125775&0&
20063030020100466556&IJ5RHQY60QMZQGES&20200630&02000016&1813584278719&1813584278719&&0&1&7321&CNY&0040&boshzjjg&6230520660061593777&0&
20063030020100466390&9K28GEEJLQG5FRS0&20200630&02000016&1815245431805&1815245431805&&0&1&20060&CNY&0040&boshzjjg&6222622380000218428&0&
20063030020100466394&YCC9Q6X8Z8LOYTUQ&20200630&02000016&1813082311311&1813082311311&&0&1&8024&CNY&0040&boshzjjg&6228481269123313074&0&
20063030020100466580&KENS1JOCJGPRBN07&20200630&02000016&1813343521285&1813343521285&&0&1&30090&CNY&0040&boshzjjg&6213363829900086378&0&
20063030020100466506&QY6CHCA6BGCOFJ1Q&20200630&02000016&1815512532000&1815512532000&&0&1&100300&CNY&0040&boshzjjg&6222080403002647884&0&
20063030020100466418&9RWL38P8KR1YG24R&20200630&02000016&1818945765909&1818945765909&&0&1&40120&CNY&0040&boshzjjg&6221802610007105754&0&
20063030020100466585&DFPVUI6QVA39DH2F&20200630&02000016&1815232640847&1815232640847&&0&1&50150&CNY&0040&boshzjjg&6228480659200859174&0&
20063030020100466426&IJV8RXQY4QZYA5JR&20200630&02000016&1814784685555&1814784685555&&0&1&40120&CNY&0040&boshzjjg&6217855300005049576&0&
20063030020100466613&I01RI2AAFZIMU204&20200630&02000016&1813578201088&1813578201088&&0&1&10030&CNY&0040&boshzjjg&6217003970001716211&0&
20063030020100466530&RTYUR1YT7I9BG9DE&20200630&02000016&1800100000358&1800100000358&&0&1&10030&CNY&0040&boshzjjg&6217992610007794647&0&
20063030020100466533&PC97BXD44T55SSVG&20200630&02000016&1818732695797&1818732695797&&0&1&10030&CNY&0040&boshzjjg&6212260410013802641&0&
20063030020100466616&3ABYQQPJZEL9U72R&20200630&02000016&1813846055840&1813846055840&&0&1&13941&CNY&0040&boshzjjg&4367421041460035508&0&
20063030020100466836&UYU51I5NH8MFQD2X&20200630&02000016&1815930276335&1815930276335&&0&1&10030&CNY&0040&boshzjjg&6222080409003770310&0&
20063030020100466844&U5K9S77Y9R77GA76&20200630&02000016&1815903327688&1815903327688&&0&1&10130&CNY&0040&boshzjjg&6227000143210282613&0&
20063030020100466713&JGY86RISBD15C1T0&20200630&02000016&1815227788236&1815227788236&&0&1&10030&CNY&0040&boshzjjg&6217855000005841713&0&
20063030020100466888&HE7K5QZ3WBYABER5&20200630&02000016&1813472972651&1813472972651&&0&1&11033&CNY&0040&boshzjjg&9558820403001406380&0&
20063030020100466903&OFWEBDYX3WO18BV6&20200630&02000016&1818731521085&1818731521085&&0&1&100300&CNY&0040&boshzjjg&6228230655260666668&0&
20063030020100466941&NJJ6QDO9P9GPAHVK&20200630&02000016&1818103143885&1818103143885&&0&1&100300&CNY&0040&boshzjjg&6212260411002686409&0&
20063030020100466912&WHXC1KL4MD5B9XST&20200630&02000016&1800100000060&1800100000060&&0&1&10030&CNY&0040&boshzjjg&6228480198414160970&0&
20063030020100466919&3GA6D3BZYLTZH331&20200630&02000016&1813730198476&1813730198476&&0&1&30090&CNY&0040&boshzjjg&6217000140023541459&0&
20063030020100466920&B42UN9L7JLK2QS2M&20200630&02000016&1815334465219&1815334465219&&0&1&170511&CNY&0040&boshzjjg&6236684020000322953&0&
20063030020100466951&8NMYKG7X4BRIIQ4L&20200630&02000016&1800100000048&1800100000048&&0&1&100300&CNY&0040&boshzjjg&6217000140028374146&0&
20063030020100467048&NSNBS9M2W07KE3K4&20200630&02000016&1815931775090&1815931775090&&0&1&15045&CNY&0040&boshzjjg&6216615002001917052&0&
20063030020100467081&5N36VQ0NSUAW7KOH&20200630&02000016&1815502925058&1815502925058&&0&1&10030&CNY&0040&boshzjjg&6212263700001397795&0&
20063030020100467214&QQBLF5VOQJBSJ33R&20200630&02000016&1818742493073&1818742493073&&0&1&100300&CNY&0040&boshzjjg&6228480040464950019&0&
20063030020100467223&K1AEXW6NQRCPW87O&20200630&02000016&1813780538684&1813780538684&&0&1&50150&CNY&0040&boshzjjg&9558800403100478003&0&
20063030020100467126&L55MMUMY7E8PJD0M&20200630&02000016&1818987916981&1818987916981&&0&1&100300&CNY&0040&boshzjjg&6217004020003203179&0&
20063030020100467133&TDTDYG4P9FJRIXI3&20200630&02000016&1815232591002&1815232591002&&0&1&50150&CNY&0040&boshzjjg&6227000180890120309&0&
20063030020100467361&VVZFURM7CRMFILO9&20200630&02000016&1813578288004&1813578288004&&0&1&20060&CNY&0040&boshzjjg&6217212511000078828&0&
20063030020100467472&JBAZPFNPKX1MK3MQ&20200630&02000016&1818931441806&1818931441806&&0&1&15045&CNY&0040&boshzjjg&6222030403007736303&0&
20063030020100467391&2ZJ1Z7Z0MG9ALX2N&20200630&02000016&1815613556396&1815613556396&&0&1&20060&CNY&0040&boshzjjg&6228480659215979777&0&
20063030020100467396&M1M4BSB0R9LDHMHU&20200630&02000016&1813945860022&1813945860022&&0&1&200601&CNY&0040&boshzjjg&6217000010123344932&0&
20063030020100467315&L9K81AWFHZQGWU9L&20200630&02000016&1813231500951&1813231500951&&0&1&15045&CNY&0040&boshzjjg&6230520650040854077&0&
20063030020100467321&GP7ADXCK5LQSQD9S&20200630&02000016&1813846717749&1813846717749&&0&1&30090&CNY&0040&boshzjjg&6228482668266454471&0&
20063030020100467545&VWPDQPXW22OPTSUS&20200630&02000016&1818730588858&1818730588858&&0&1&15045&CNY&0040&boshzjjg&6217000180014526994&0&
20063030020100467524&QJKKN5QDK87Q0OP5&20200630&02000016&1815100500891&1815100500891&&0&1&30090&CNY&0040&boshzjjg&6222080403002514662&0&
20063030020100467562&IVQJT3A62V0AQ5KY&20200630&02000016&1817331503933&1817331503933&&0&1&50150&CNY&0040&boshzjjg&6230520650020456976&0&
20063030020100467738&6NPB3TWV8J88IFSY&20200630&02000016&1815633917679&1815633917679&&0&1&50150&CNY&0040&boshzjjg&6216725000000187492&0&
20063030020100467740&L9M1IOR2JOS2QMTF&20200630&02000016&1817866568244&1817866568244&&0&1&100300&CNY&0040&boshzjjg&6230523350012707877&0&
20063030020100467742&GY68TNPX16SMNA6B&20200630&02000016&1818669254642&1818669254642&&0&1&80240&CNY&0040&boshzjjg&6217232511000071217&0&
20063030020100467745&XEAY8XWSGJN4GSOJ&20200630&02000016&1818669254642&1818669254642&&0&1&10030&CNY&0040&boshzjjg&6217232511000071217&0&
20063030020100467675&O80Y6UBXL2GE2ACS&20200630&02000016&1818514573135&1818514573135&&0&1&50150&CNY&0040&boshzjjg&6228481269236496675&0&
20063030020100467594&RB95GTRS9TZ0D5YT&20200630&02000016&1800100000087&1800100000087&&0&1&168&CNY&0040&boshzjjg&6228481749121574470&0&
20063090040021462730&20063090040021462730&20200630&02000016&1813961959185&1813961959185&&1&2&800000&CNY&0040&boshzjjg&6228481988039225078&0&
20063090040021462862&20063090040021462862&20200630&02000016&1813940459085&1813940459085&&1&2&180000&CNY&0040&boshzjjg&6225882405481471&0&
20063090040021462783&20063090040021462783&20200630&02000016&1813731660124&1813731660124&&1&2&200000&CNY&0040&boshzjjg&6216695000002505127&0&
20063090040021462729&20063090040021462729&20200630&02000016&1813587765311&1813587765311&&1&2&3600&CNY&0040&boshzjjg&6236681420015050297&0&
20063090040021462863&20063090040021462863&20200630&02000016&1815921012597&1815921012597&&1&2&10000&CNY&0040&boshzjjg&6228480038164699977&0&
20063090040021462731&20063090040021462731&20200630&02000016&1815921012597&1815921012597&&1&2&10000&CNY&0040&boshzjjg&6228480038164699977&0&
20063090040021462784&20063090040021462784&20200630&02000016&1814787853587&1814787853587&&1&2&200000&CNY&0040&boshzjjg&6216612700005035481&0&
20063090040021462884&20063090040021462884&20200630&02000016&1818010518350&1818010518350&&1&2&800000&CNY&0040&boshzjjg&6222600530010881823&0&
20063090040021462831&20063090040021462831&20200630&02000016&1815170845976&1815170845976&&1&2&1000000&CNY&0040&boshzjjg&6217211509001667368&0&
20063090040021462924&20063090040021462924&20200630&02000016&1813578240493&1813578240493&&1&2&200000&CNY&0040&boshzjjg&6217862700000662144&0&
20063090040021463134&20063090040021463134&20200630&02000016&1816689634186&1816689634186&&1&2&999000&CNY&0040&boshzjjg&6217232201004854152&0&
20063090040021463062&20063090040021463062&20200630&02000016&1813576846550&1813576846550&&1&2&200000&CNY&0040&boshzjjg&6217002110008044629&0&
20063090040021463143&20063090040021463143&20200630&02000016&1813722424859&1813722424859&&1&2&400000&CNY&0040&boshzjjg&6217855000072262215&0&
20063090040021463144&20063090040021463144&20200630&02000016&1815393981086&1815393981086&&1&2&200000&CNY&0040&boshzjjg&6217003970000355391&0&
20063090040021463083&20063090040021463083&20200630&02000016&1817325423850&1817325423850&&1&2&500&CNY&0040&boshzjjg&6212260409010000191&0&
20063090040021463155&20063090040021463155&20200630&02000016&1813766275577&1813766275577&&1&2&1000000&CNY&0040&boshzjjg&6228482318084842677&0&
20063090040021463160&20063090040021463160&20200630&02000016&1817192939341&1817192939341&&1&2&200000&CNY&0040&boshzjjg&6230520040019132277&0&
20063090040021463021&20063090040021463021&20200630&02000016&1817325423850&1817325423850&&1&2&195500&CNY&0040&boshzjjg&6212260409010000191&0&
20063090040021463248&20063090040021463248&20200630&02000016&1800100000063&1800100000063&&1&2&8900&CNY&0040&boshzjjg&6228482680558013519&0&
20063090040021463365&20063090040021463365&20200630&02000016&1815712555457&1815712555457&&1&2&200000&CNY&0040&boshzjjg&6222030409004695558&0&
20063090040021463289&20063090040021463289&20200630&02000016&1813587758991&1813587758991&&1&2&200000&CNY&0040&boshzjjg&6228430338131279874&0&
20063090040021463383&20063090040021463383&20200630&02000016&1813707962158&1813707962158&&1&2&1000000&CNY&0040&boshzjjg&6228482318735468773&0&
20063090040021463311&20063090040021463311&20200630&02000016&1815232209902&1815232209902&&1&2&400000&CNY&0040&boshzjjg&6217855000072262223&0&
20063090040021463384&20063090040021463384&20200630&02000016&1817731252779&1817731252779&&1&2&196000&CNY&0040&boshzjjg&6228481268396525075&0&
20063090040021463441&20063090040021463441&20200630&02000016&1813808788999&1813808788999&&1&2&10000&CNY&0040&boshzjjg&6228483358604716075&0&
20063090040021463410&20063090040021463410&20200630&02000016&1813931386960&1813931386960&&1&2&10000&CNY&0040&boshzjjg&6217000140006323651&0&
20063090040021463543&20063090040021463543&20200630&02000016&1813988567037&1813988567037&&1&2&200000&CNY&0040&boshzjjg&6236683950001184013&0&
20063090040021463503&20063090040021463503&20200630&02000016&1813931238248&1813931238248&&1&2&100&CNY&0040&boshzjjg&6228481260947768312&0&
20063090040021463502&20063090040021463502&20200630&02000016&1813161708337&1813161708337&&1&2&195100&CNY&0040&boshzjjg&6217000140023533928&0&
20063090040021463649&20063090040021463649&20200630&02000016&1813997953437&1813997953437&&1&2&200000&CNY&0040&boshzjjg&6213363829900696176&0&
20063090040021463686&20063090040021463686&20200630&02000016&1815871603029&1815871603029&&1&2&790000&CNY&0040&boshzjjg&6228480779736724674&0&
20063090040021463725&20063090040021463725&20200630&02000016&1813931238248&1813931238248&&1&2&199900&CNY&0040&boshzjjg&6228481260947768312&0&
20063090040021463797&20063090040021463797&20200630&02000016&1815932548856&1815932548856&&1&2&7000&CNY&0040&boshzjjg&6217000180001177959&0&
20063090040021463796&20063090040021463796&20200630&02000016&1815199992139&1815199992139&&1&2&999200&CNY&0040&boshzjjg&6222033006004654648&0&
20063090040021463862&20063090040021463862&20200630&02000016&1813945860022&1813945860022&&1&2&400000&CNY&0040&boshzjjg&6217000010123344932&0&
20063090040021463968&20063090040021463968&20200630&02000016&1815199992139&1815199992139&&1&2&800&CNY&0040&boshzjjg&6222033006004654648&0&
20063090040021463828&20063090040021463828&20200630&02000016&1813933221582&1813933221582&&1&2&195100&CNY&0040&boshzjjg&6217000140016984757&0&
20063090040021463932&20063090040021463932&20200630&02000016&1818732221628&1818732221628&&1&2&180000&CNY&0040&boshzjjg&6217000140027144870&0&
20063090040021464263&null&20200630&02000016&1815137614144&1815137614144&&1&2&195000&CNY&0040&boshzjjg&6228482398538071578&0&
20063090040021464183&null&20200630&02000016&1813933217166&1813933217166&&1&2&800000&CNY&0040&boshzjjg&6217991340022740497&0&
20063090040021464269&null&20200630&02000016&1818979627512&1818979627512&&1&2&1000000&CNY&0040&boshzjjg&6236562110001491183&0&
20063090040021464195&null&20200630&02000016&1813988262688&1813988262688&&1&2&800000&CNY&0040&boshzjjg&6212262511000580492&0&
20063090040021464338&20063090040021464338&20200630&02000016&1818678057828&1818678057828&&1&2&200000&CNY&0040&boshzjjg&6212261607016161805&0&
20063090040021464320&20063090040021464320&20200630&02000016&1813931214281&1813931214281&&1&2&10000&CNY&0040&boshzjjg&6228461260013069011&0&
20063090040021464545&20063090040021464545&20200630&02000016&1813628852297&1813628852297&&1&2&200000&CNY&0040&boshzjjg&6217003970001697460&0&
20063090040021464503&20063090040021464503&20200630&02000016&1813987515001&1813987515001&&1&2&200000&CNY&0040&boshzjjg&6217997300080891768&0&
20063090040021464616&20063090040021464616&20200630&02000016&1813628875776&1813628875776&&1&2&200000&CNY&0040&boshzjjg&6230523350011881970&0&
20063090040021464775&20063090040021464775&20200630&02000016&1813936839459&1813936839459&&1&2&400000&CNY&0040&boshzjjg&6217001020014138862&0&
20063090040021464957&20063090040021464957&20200630&02000016&1815613502427&1815613502427&&1&2&24500&CNY&0040&boshzjjg&6231562800348242&0&
20063090040021464913&20063090040021464913&20200630&02000016&1813012058379&1813012058379&&1&2&200000&CNY&0040&boshzjjg&6228481261926323111&0&
20063090040021465147&20063090040021465147&20200630&02000016&1813988274451&1813988274451&&1&2&200000&CNY&0040&boshzjjg&6228483358197629172&0&
20063090040021465215&20063090040021465215&20200630&02000016&1813582238836&1813582238836&&1&2&1000000&CNY&0040&boshzjjg&6217000140039977259&0&
20063090040021465216&20063090040021465216&20200630&02000016&1815997422775&1815997422775&&1&2&10000&CNY&0040&boshzjjg&6216607600003251485&0&
20063090040021465290&20063090040021465290&20200630&02000016&1818879714520&1818879714520&&1&2&1000000&CNY&0040&boshzjjg&6215581509003247488&0&
20063090040021465365&20063090040021465365&20200630&02000016&1813584278719&1813584278719&&1&2&15000&CNY&0040&boshzjjg&6230520660061593777&0&
20063090040021465366&20063090040021465366&20200630&02000016&1815031281951&1815031281951&&1&2&200000&CNY&0040&boshzjjg&6228481269047287974&0&
20063090040021465461&20063090040021465461&20200630&02000016&1813582623427&1813582623427&&1&2&200000&CNY&0040&boshzjjg&6217000140014130130&0&
20063090040021465396&20063090040021465396&20200630&02000016&1815227098333&1815227098333&&1&2&800000&CNY&0040&boshzjjg&6228481261798664410&0&
20063090040021465736&20063090040021465736&20200630&02000016&1813953133822&1813953133822&&1&2&1000000&CNY&0040&boshzjjg&6228480256165687763&0&
20063090040021465833&20063090040021465833&20200630&02000016&1815845182230&1815845182230&&1&2&1000000&CNY&0040&boshzjjg&6217992610151656378&0&
20063090040021465983&20063090040021465983&20200630&02000016&1813080793849&1813080793849&&1&2&1000000&CNY&0040&boshzjjg&6210810730022700372&0&
20063090040021466071&20063090040021466071&20200630&02000016&1818803126206&1818803126206&&1&2&200000&CNY&0040&boshzjjg&4367420140038202151&0&
20063090040021466248&20063090040021466248&20200630&02000016&1813472297749&1813472297749&&1&2&200000&CNY&0040&boshzjjg&6228481269128247673&0&
20063090040021466095&20063090040021466095&20200630&02000016&1818640583537&1818640583537&&1&2&200000&CNY&0040&boshzjjg&6214830242282472&0&
20063090040021466254&20063090040021466254&20200630&02000016&1815175219511&1815175219511&&1&2&7000&CNY&0040&boshzjjg&6228481269255520173&0&
20063090040021466191&20063090040021466191&20200630&02000016&1818993303292&1818993303292&&1&2&200000&CNY&0040&boshzjjg&6217004280009870112&0&
20063090040021466111&20063090040021466111&20200630&02000016&1815614976824&1815614976824&&1&2&800000&CNY&0040&boshzjjg&6228480651962941217&0&
20063090040021466451&20063090040021466451&20200630&02000016&1815940272518&1815940272518&&1&2&205000&CNY&0040&boshzjjg&6210810730041751349&0&
20063090040021466450&20063090040021466450&20200630&02000016&1815128257987&1815128257987&&1&2&200000&CNY&0040&boshzjjg&6228481261853962410&0&
20063090040021466321&20063090040021466321&20200630&02000016&1813430915786&1813430915786&&1&2&200000&CNY&0040&boshzjjg&6230523820008516078&0&
20063090040021466473&20063090040021466473&20200630&02000016&1813373121391&1813373121391&&1&2&200000&CNY&0040&boshzjjg&6228481268439947773&0&
20063090040021466474&20063090040021466474&20200630&02000016&1813820546821&1813820546821&&1&2&200000&CNY&0040&boshzjjg&6228480020849517212&0&
20063090040021466571&20063090040021466571&20200630&02000016&1815003326193&1815003326193&&1&2&200000&CNY&0040&boshzjjg&6228481262086400418&0&
20063090040021466519&20063090040021466519&20200630&02000016&1813393322187&1813393322187&&1&2&400000&CNY&0040&boshzjjg&6222080409002700458&0&
20063090040021466734&20063090040021466734&20200630&02000016&1815022287649&1815022287649&&1&2&200000&CNY&0040&boshzjjg&6228480028640910577&0&
20063090040021466620&20063090040021466620&20200630&02000016&1813545997023&1813545997023&&1&2&100000&CNY&0040&boshzjjg&6215581809005782213&0&
20063090040021466770&20063090040021466770&20200630&02000016&1813759210281&1813759210281&&1&2&1000000&CNY&0040&boshzjjg&6212262511000725394&0&
20063090040021466876&20063090040021466876&20200630&02000016&1815879694283&1815879694283&&1&2&200000&CNY&0040&boshzjjg&6212261509002808771&0&
20063090040021466947&20063090040021466947&20200630&02000016&1813833011132&1813833011132&&1&2&200000&CNY&0040&boshzjjg&6222080409004860573&0&
20063090040021467042&20063090040021467042&20200630&02000016&1815614201777&1815614201777&&1&2&600000&CNY&0040&boshzjjg&6236680140001026470&0&
20063090040021466958&20063090040021466958&20200630&02000016&1818931287322&1818931287322&&1&2&200000&CNY&0040&boshzjjg&6222621360000937418&0&
20063090040021466984&20063090040021466984&20200630&02000016&1815216284718&1815216284718&&1&2&799700&CNY&0040&boshzjjg&6222031509000684594&0&
20063090040021467170&20063090040021467170&20200630&02000016&1815979688244&1815979688244&&1&2&200000&CNY&0040&boshzjjg&6217002110000246172&0&
20063090040021467172&20063090040021467172&20200630&02000016&1813483536053&1813483536053&&1&2&1000&CNY&0040&boshzjjg&6217000180005468214&0&
20063090040021467184&20063090040021467184&20200630&02000016&1813945860022&1813945860022&&1&2&200000&CNY&0040&boshzjjg&6217000010123344932&0&
20063090040021467093&20063090040021467093&20200630&02000016&1813483536053&1813483536053&&1&2&979000&CNY&0040&boshzjjg&6217000180005468214&0&
20063090040021467104&20063090040021467104&20200630&02000016&1818045917011&1818045917011&&1&2&200000&CNY&0040&boshzjjg&6217001020007380471&0&
20063090040021467115&20063090040021467115&20200630&02000016&1818804596623&1818804596623&&1&2&100000&CNY&0040&boshzjjg&6217001020003435584&0&
20063090040021467232&20063090040021467232&20200630&02000016&1818087566024&1818087566024&&1&2&195000&CNY&0040&boshzjjg&6217003960000861399&0&
20063090040021467449&20063090040021467449&20200630&02000016&1818790595711&1818790595711&&1&2&195000&CNY&0040&boshzjjg&6212261704003541584&0&
20063090040021467352&20063090040021467352&20200630&02000016&1813872998100&1813872998100&&1&2&600000&CNY&0040&boshzjjg&6228413824518024570&0&
20063090040021467475&20063090040021467475&20200630&02000016&1813759236489&1813759236489&&1&2&400000&CNY&0040&boshzjjg&6228483350574417511&0&
20063090040021467397&20063090040021467397&20200630&02000016&1813324639668&1813324639668&&1&2&190000&CNY&0040&boshzjjg&6212960110000005918&0&
20063090040021467322&20063090040021467322&20200630&02000016&1818313073286&1818313073286&&1&2&1000000&CNY&0040&boshzjjg&6228483358065218272&0&
20063090040021467504&20063090040021467504&20200630&02000016&1813733367682&1813733367682&&1&2&500&CNY&0040&boshzjjg&6222030409006631551&0&
20063090040021467535&20063090040021467535&20200630&02000016&1813065172689&1813065172689&&1&2&200000&CNY&0040&boshzjjg&6217866500005332008&0&
20063090040021467520&20063090040021467520&20200630&02000016&1813733367682&1813733367682&&1&2&199500&CNY&0040&boshzjjg&6222030409006631551&0&
20063090040021467530&20063090040021467530&20200630&02000016&1815946516599&1815946516599&&1&2&200000&CNY&0040&boshzjjg&6228480180374957314&0&
20063090040021467563&20063090040021467563&20200630&02000016&1813483500680&1813483500680&&1&2&1000&CNY&0040&boshzjjg&6228480659145462878&0&
20063090040021467568&20063090040021467568&20200630&02000016&1813483500680&1813483500680&&1&2&979000&CNY&0040&boshzjjg&6228480659145462878&0&
20063090040021467571&20063090040021467571&20200630&02000016&1815871922595&1815871922595&&1&2&1000000&CNY&0040&boshzjjg&6228453828173080075&0&
20063090040021467667&20063090040021467667&20200630&02000016&1817779639002&1817779639002&&1&2&1000000&CNY&0040&boshzjjg&6222031509000196565&0&
20063090040021467678&20063090040021467678&20200630&02000016&1818207221619&1818207221619&&1&2&600000&CNY&0040&boshzjjg&6215581809006280639&0&
