20200603|02000016|91218652|1813576268031|1813576268031|20200511000080|B3UHWVR2|1|0|18600|18600|10|0|0|0|0|0|0|0|0|0|1|0|0|20200603151200
20200603|02000016|91218630|1815025007693|1815025007693|20200511000080|B3UHWVR2|1|0|18600|18600|10|0|0|558|0|0|0|0|0|0|1|0|0|20200603150351
20200603|02000016|91218503|1813722239497|1813722239497|20200511000080|B3UHWVR2|1|0|18600|18600|10|0|0|558|0|0|0|0|0|0|1|0|0|20200603145857
20200603|02000016|91218502|1815933583199|1815933583199|20200511000080|B3UHWVR2|1|0|18600|18600|10|0|0|558|0|0|0|0|0|0|1|0|0|20200603145856
20200603|02000016|91218483|1818746705277|1818746705277|20200511000080|B3UHWVR2|1|0|18600|18600|10|0|0|558|0|0|0|0|0|0|1|0|0|20200603145838
20200603|02000016|91218484|1815840520719|1815840520719|20200511000080|B3UHWVR2|1|0|18600|18600|10|0|0|558|0|0|0|0|0|0|1|0|0|20200603145838
20200603|02000016|91218476|1818617767958|1818617767958|20200511000080|B3UHWVR2|1|0|18600|18600|10|0|0|558|0|0|0|0|0|0|1|0|0|20200603145822
20200603|02000016|91218468|1815830833884|1815830833884|20200511000080|B3UHWVR2|1|0|18600|18600|10|0|0|558|0|0|0|0|0|0|1|0|0|20200603145753
20200603|02000016|91218467|1813633226787|1813633226787|20200511000080|B3UHWVR2|1|0|18600|18600|10|0|0|558|0|0|0|0|0|0|1|0|0|20200603145749
20200603|02000016|91218463|1813833293648|1813833293648|20200511000080|B3UHWVR2|1|0|18600|18600|10|0|0|558|0|0|0|0|0|0|1|0|0|20200603145720
20200603|02000016|91218462|1818690049591|1818690049591|20200511000080|B3UHWVR2|1|0|18600|18600|10|0|0|558|0|0|0|0|0|0|1|0|0|20200603145707
20200603|02000016|91218457|1800100000040|1800100000040|20200511000080|B3UHWVR2|1|0|18600|18600|10|0|0|558|0|0|0|0|0|0|1|0|0|20200603145646
20200603|02000016|91218458|1818830207028|1818830207028|20200511000080|B3UHWVR2|1|0|18600|18600|10|0|0|558|0|0|0|0|0|0|1|0|0|20200603145646
20200603|02000016|91218456|1813908813212|1813908813212|20200511000080|B3UHWVR2|1|0|18600|18600|10|0|0|558|0|0|0|0|0|0|1|0|0|20200603145638
20200603|02000016|91218451|1815097439866|1815097439866|20200511000080|B3UHWVR2|1|0|18600|18600|10|0|0|558|0|0|0|0|0|0|1|0|0|20200603145633
20200603|02000016|91218447|1815045780767|1815045780767|20200511000080|B3UHWVR2|1|0|18600|18600|10|0|0|558|0|0|0|0|0|0|1|0|0|20200603145615
20200603|02000016|91218443|1818524494313|1818524494313|20200511000080|B3UHWVR2|1|0|18600|18600|10|0|0|558|0|0|0|0|0|0|1|0|0|20200603145611
20200603|02000016|91218436|1800100000087|1800100000087|20200511000080|B3UHWVR2|1|0|18600|18600|10|0|0|558|0|0|0|0|0|0|1|0|0|20200603145602
20200603|02000016|91218435|1813643325475|1813643325475|20200511000080|B3UHWVR2|1|0|18600|18600|10|0|0|558|0|0|0|0|0|0|1|0|0|20200603145548
20200603|02000016|91218431|1815075218679|1815075218679|20200511000080|B3UHWVR2|1|0|18600|18600|10|0|0|558|0|0|0|0|0|0|1|0|0|20200603145539
20200603|02000016|91218430|1815933526748|1815933526748|20200511000080|B3UHWVR2|1|0|18600|18600|10|0|0|558|0|0|0|0|0|0|1|0|0|20200603145537
20200603|02000016|91218423|1813946850664|1813946850664|20200511000080|B3UHWVR2|1|0|18600|18600|10|0|0|558|0|0|0|0|0|0|1|0|0|20200603145527
20200603|02000016|91218416|1818908752966|1818908752966|20200511000080|B3UHWVR2|1|0|18600|18600|10|0|0|558|0|0|0|0|0|0|1|0|0|20200603145518
20200603|02000016|91218409|1815132437141|1815132437141|20200511000080|B3UHWVR2|1|0|18600|18600|10|0|0|558|0|0|0|0|0|0|1|0|0|20200603145458
20200603|02000016|91218408|1813552368668|1813552368668|20200511000080|B3UHWVR2|1|0|18600|18600|10|0|0|558|0|0|0|0|0|0|1|0|0|20200603145457
20200603|02000016|91218398|1819187901601|1819187901601|20200511000080|B3UHWVR2|1|0|18600|18600|10|0|0|558|0|0|0|0|0|0|1|0|0|20200603145421
20200603|02000016|91218394|1815333221545|1815333221545|20200511000080|B3UHWVR2|1|0|18600|18600|10|0|0|558|0|0|0|0|0|0|1|0|0|20200603145413
20200603|02000016|91218393|1815201189518|1815201189518|20200511000080|B3UHWVR2|1|0|18600|18600|10|0|0|558|0|0|0|0|0|0|1|0|0|20200603145409
20200603|02000016|91218392|1815946740910|1815946740910|20200511000080|B3UHWVR2|1|0|18600|18600|10|0|0|558|0|0|0|0|0|0|1|0|0|20200603145406
20200603|02000016|91218365|1818833239911|1818833239911|20200511000080|B3UHWVR2|1|0|18600|18600|10|0|0|558|0|0|0|0|0|0|1|0|0|20200603145338
20200603|02000016|91218350|1818742493073|1818742493073|20200511000080|B3UHWVR2|1|0|18600|18600|10|0|0|558|0|0|0|0|0|0|1|0|0|20200603145325
20200603|02000016|91218349|1813513061187|1813513061187|20200511000080|B3UHWVR2|1|0|18600|18600|10|0|0|558|0|0|0|0|0|0|1|0|0|20200603145323
20200603|02000016|91218345|1815184848605|1815184848605|20200511000080|B3UHWVR2|1|0|18600|18600|10|0|0|558|0|0|0|0|0|0|1|0|0|20200603145318
20200603|02000016|91218343|1815524196086|1815524196086|20200511000080|B3UHWVR2|1|0|18600|18600|10|0|0|558|0|0|0|0|0|0|1|0|0|20200603145317
20200603|02000016|91218344|1818746710622|1818746710622|20200511000080|B3UHWVR2|1|0|18600|18600|10|0|0|558|0|0|0|0|0|0|1|0|0|20200603145317
20200603|02000016|91218327|1815227006003|1815227006003|20200511000080|B3UHWVR2|1|0|18600|18600|10|0|0|558|0|0|0|0|0|0|1|0|0|20200603145255
20200603|02000016|91218326|1818032308691|1818032308691|20200511000080|B3UHWVR2|1|0|18600|18600|10|0|0|558|0|0|0|0|0|0|1|0|0|20200603145247
20200603|02000016|91218319|1815246230377|1815246230377|20200511000080|B3UHWVR2|1|0|18600|18600|10|0|0|558|0|0|0|0|0|0|1|0|0|20200603145233
20200603|02000016|91218315|1818103143885|1818103143885|20200511000080|B3UHWVR2|1|0|18600|18600|10|0|0|558|0|0|0|0|0|0|1|0|0|20200603145224
20200603|02000016|91218308|1815313179127|1815313179127|20200511000080|B3UHWVR2|1|0|18600|18600|10|0|0|558|0|0|0|0|0|0|1|0|0|20200603145212
20200603|02000016|91218304|1813578198508|1813578198508|20200511000080|B3UHWVR2|1|0|18600|18600|10|0|0|558|0|0|0|0|0|0|1|0|0|20200603145209
20200603|02000016|91218300|1813611017783|1813611017783|20200511000080|B3UHWVR2|1|0|18600|18600|10|0|0|558|0|0|0|0|0|0|1|0|0|20200603145202
20200603|02000016|91218293|1813731660124|1813731660124|20200511000080|B3UHWVR2|1|0|18600|18600|10|0|0|558|0|0|0|0|0|0|1|0|0|20200603145156
20200603|02000016|91218256|1813400350306|1813400350306|20200511000080|B3UHWVR2|1|0|18600|18600|10|0|0|558|0|0|0|0|0|0|1|0|0|20200603145127
20200603|02000016|91218241|1815308750767|1815308750767|20200511000080|B3UHWVR2|1|0|18600|18600|10|0|0|558|0|0|0|0|0|0|1|0|0|20200603145113
20200603|02000016|91218240|1800100000138|1800100000138|20200511000080|B3UHWVR2|1|0|18600|18600|10|0|0|558|0|0|0|0|0|0|1|0|0|20200603145112
20200603|02000016|91218222|1813722978286|1813722978286|20200511000080|B3UHWVR2|1|0|18600|18600|10|0|0|558|0|0|0|0|0|0|1|0|0|20200603145056
20200603|02000016|91218209|1818313096871|1818313096871|20200511000080|B3UHWVR2|1|0|18600|18600|10|0|0|558|0|0|0|0|0|0|1|0|0|20200603145016
20200603|02000016|91218208|1815176239151|1815176239151|20200511000080|B3UHWVR2|1|0|18600|18600|10|0|0|558|0|0|0|0|0|0|1|0|0|20200603145000
20200603|02000016|91218207|1818733254139|1818733254139|20200511000080|B3UHWVR2|1|0|18600|18600|10|0|0|558|0|0|0|0|0|0|1|0|0|20200603144957
20200603|02000016|91218206|1813309116156|1813309116156|20200511000080|B3UHWVR2|1|0|18600|18600|10|0|0|558|0|0|0|0|0|0|1|0|0|20200603144944
20200603|02000016|91218202|1813733374049|1813733374049|20200511000080|B3UHWVR2|1|0|18600|18600|10|0|0|558|0|0|0|0|0|0|1|0|0|20200603144938
20200603|02000016|91218195|1800100000100|1800100000100|20200511000080|B3UHWVR2|1|0|18600|18600|10|0|0|558|0|0|0|0|0|0|1|0|0|20200603144931
20200603|02000016|91218185|1800100000245|1800100000245|20200511000080|B3UHWVR2|1|0|18600|18600|10|0|0|558|0|0|0|0|0|0|1|0|0|20200603144914
20200603|02000016|91218184|1813331310643|1813331310643|20200511000080|B3UHWVR2|1|0|18600|18600|10|0|0|558|0|0|0|0|0|0|1|0|0|20200603144907
20200603|02000016|91218180|1818806080965|1818806080965|20200511000080|B3UHWVR2|1|0|18600|18600|10|0|0|558|0|0|0|0|0|0|1|0|0|20200603144859
20200603|02000016|91218179|1815030230206|1815030230206|20200511000080|B3UHWVR2|1|0|18600|18600|10|0|0|558|0|0|0|0|0|0|1|0|0|20200603144855
20200603|02000016|91218174|1818788201666|1818788201666|20200511000080|B3UHWVR2|1|0|18600|18600|10|0|0|558|0|0|0|0|0|0|1|0|0|20200603144847
20200603|02000016|91218175|1813483293913|1813483293913|20200511000080|B3UHWVR2|1|0|18600|18600|10|0|0|558|0|0|0|0|0|0|1|0|0|20200603144847
20200603|02000016|91218173|1800100000084|1800100000084|20200511000080|B3UHWVR2|1|0|18600|18600|10|0|0|558|0|0|0|0|0|0|1|0|0|20200603144846
20200603|02000016|91218172|1815733826587|1815733826587|20200511000080|B3UHWVR2|1|0|18600|18600|10|0|0|558|0|0|0|0|0|0|1|0|0|20200603144840
20200603|02000016|91218159|1813643393067|1813643393067|20200511000080|B3UHWVR2|1|0|18600|18600|10|0|0|558|0|0|0|0|0|0|1|0|0|20200603144809
20200603|02000016|91218155|1813520802238|1813520802238|20200511000080|B3UHWVR2|1|0|18600|18600|10|0|0|558|0|0|0|0|0|0|1|0|0|20200603144806
20200603|02000016|91218145|1815100258404|1815100258404|20200511000080|B3UHWVR2|1|0|18600|18600|10|0|0|558|0|0|0|0|0|0|1|0|0|20200603144749
20200603|02000016|91218130|1815146155010|1815146155010|20200511000080|B3UHWVR2|1|0|18600|18600|10|0|0|558|0|0|0|0|0|0|1|0|0|20200603144728
20200603|02000016|91218131|1813180214668|1813180214668|20200511000080|B3UHWVR2|1|0|18600|18600|10|0|0|558|0|0|0|0|0|0|1|0|0|20200603144728
20200603|02000016|91218120|1815368486928|1815368486928|20200511000080|B3UHWVR2|1|0|18600|18600|10|0|0|558|0|0|0|0|0|0|1|0|0|20200603144702
20200603|02000016|91218119|1813641226784|1813641226784|20200511000080|B3UHWVR2|1|0|18600|18600|10|0|0|558|0|0|0|0|0|0|1|0|0|20200603144652
20200603|02000016|91218115|1818932692236|1818932692236|20200511000080|B3UHWVR2|1|0|18600|18600|8|2|0|558|0|0|0|0|0|0|1|0|0|20200603144650
20200603|02000016|91218105|1815132271576|1815132271576|20200511000080|B3UHWVR2|1|0|18600|18600|10|0|0|558|0|0|0|0|0|0|1|0|0|20200603144634
20200603|02000016|91218104|1818674146599|1818674146599|20200511000080|B3UHWVR2|1|0|18600|18600|10|0|0|558|0|0|0|0|0|0|1|0|0|20200603144631
20200603|02000016|91218103|1815931229982|1815931229982|20200511000080|B3UHWVR2|1|0|18600|18600|10|0|0|558|0|0|0|0|0|0|1|0|0|20200603144628
20200603|02000016|91218095|1813586496690|1813586496690|20200511000080|B3UHWVR2|1|0|18600|18600|10|0|0|558|0|0|0|0|0|0|1|0|0|20200603144620
20200603|02000016|91218096|1818306969995|1818306969995|20200511000080|B3UHWVR2|1|0|18600|18600|10|0|0|558|0|0|0|0|0|0|1|0|0|20200603144620
20200603|02000016|91218088|1818746954345|1818746954345|20200511000080|B3UHWVR2|1|0|18600|18600|10|0|0|558|0|0|0|0|0|0|1|0|0|20200603144608
20200603|02000016|91218078|1815630231725|1815630231725|20200511000080|B3UHWVR2|1|0|18600|18600|10|0|0|558|0|0|0|0|0|0|1|0|0|20200603144554
20200603|02000016|91218070|1818633279312|1818633279312|20200511000080|B3UHWVR2|1|0|18600|18600|10|0|0|558|0|0|0|0|0|0|1|0|0|20200603144534
20200603|02000016|91218069|1818674148199|1818674148199|20200511000080|B3UHWVR2|1|0|18600|18600|10|0|0|558|0|0|0|0|0|0|1|0|0|20200603144526
20200603|02000016|91218068|1813945860022|1813945860022|20200511000080|B3UHWVR2|1|0|18600|18600|10|0|0|558|0|0|0|0|0|0|1|0|0|20200603144524
20200603|02000016|91218058|1818731866982|1818731866982|20200511000080|B3UHWVR2|1|0|18600|18600|10|0|0|558|0|0|0|0|0|0|1|0|0|20200603144505
20200603|02000016|91218057|1815933593100|1815933593100|20200511000080|B3UHWVR2|1|0|18600|18600|10|0|0|558|0|0|0|0|0|0|1|0|0|20200603144503
20200603|02000016|91218056|1813731798775|1813731798775|20200511000080|B3UHWVR2|1|0|18600|18600|10|0|0|558|0|0|0|0|0|0|1|0|0|20200603144501
20200603|02000016|91218051|1815287565721|1815287565721|20200511000080|B3UHWVR2|1|0|18600|18600|10|0|0|558|0|0|0|0|0|0|1|0|0|20200603144451
20200603|02000016|91218050|1813887865192|1813887865192|20200511000080|B3UHWVR2|1|0|18600|18600|10|0|0|558|0|0|0|0|0|0|1|0|0|20200603144448
20200603|02000016|91218046|1813931360238|1813931360238|20200511000080|B3UHWVR2|1|0|18600|18600|10|0|0|558|0|0|0|0|0|0|1|0|0|20200603144439
20200603|02000016|91218045|1815227060395|1815227060395|20200511000080|B3UHWVR2|1|0|18600|18600|10|0|0|558|0|0|0|0|0|0|1|0|0|20200603144430
20200603|02000016|91218038|1815818598480|1815818598480|20200511000080|B3UHWVR2|1|0|18600|18600|10|0|0|558|0|0|0|0|0|0|1|0|0|20200603144422
20200603|02000016|91218031|1800100000116|1800100000116|20200511000080|B3UHWVR2|1|0|18600|18600|10|0|0|558|0|0|0|0|0|0|1|0|0|20200603144418
20200603|02000016|91218012|1818729483918|1818729483918|20200511000080|B3UHWVR2|1|0|18600|18600|10|0|0|558|0|0|0|0|0|0|1|0|0|20200603144346
20200603|02000016|91218011|1813931362643|1813931362643|20200511000080|B3UHWVR2|1|0|18600|18600|10|0|0|558|0|0|0|0|0|0|1|0|0|20200603144342
20200603|02000016|91218010|1815032236912|1815032236912|20200511000080|B3UHWVR2|1|0|18600|18600|10|0|0|558|0|0|0|0|0|0|1|0|0|20200603144339
20200603|02000016|91218009|1818908820016|1818908820016|20200511000080|B3UHWVR2|1|0|18600|18600|10|0|0|558|0|0|0|0|0|0|1|0|0|20200603144338
20200603|02000016|91218008|1817516551290|1817516551290|20200511000080|B3UHWVR2|1|0|18600|18600|10|0|0|558|0|0|0|0|0|0|1|0|0|20200603144336
20200603|02000016|91218001|1815208756608|1815208756608|20200511000080|B3UHWVR2|1|0|18600|18600|10|0|0|558|0|0|0|0|0|0|1|0|0|20200603144327
20200603|02000016|91217988|1813730238225|1813730238225|20200511000080|B3UHWVR2|1|0|18600|18600|10|0|0|558|0|0|0|0|0|0|1|0|0|20200603144258
20200603|02000016|91217984|1813292419437|1813292419437|20200511000080|B3UHWVR2|1|0|18600|18600|10|0|0|558|0|0|0|0|0|0|1|0|0|20200603144256
20200603|02000016|91217980|1813572181691|1813572181691|20200511000080|B3UHWVR2|1|0|18600|18600|10|0|0|558|0|0|0|0|0|0|1|0|0|20200603144255
20200603|02000016|91217979|1818335259239|1818335259239|20200511000080|B3UHWVR2|1|0|18600|18600|10|0|0|558|0|0|0|0|0|0|1|0|0|20200603144253
20200603|02000016|91217966|1800100000118|1800100000118|20200511000080|B3UHWVR2|1|0|18600|18600|10|0|0|558|0|0|0|0|0|0|1|0|0|20200603144236
20200603|02000016|91217965|1818311265676|1818311265676|20200511000080|B3UHWVR2|1|0|18600|18600|10|0|0|558|0|0|0|0|0|0|1|0|0|20200603144232
20200603|02000016|91217964|1813603282298|1813603282298|20200511000080|B3UHWVR2|1|0|18600|18600|10|0|0|558|0|0|0|0|0|0|1|0|0|20200603144224
20200603|02000016|91217963|1813653226824|1813653226824|20200511000080|B3UHWVR2|1|0|18600|18600|10|0|0|558|0|0|0|0|0|0|1|0|0|20200603144223
20200603|02000016|91217956|1813398818422|1813398818422|20200511000080|B3UHWVR2|1|0|18600|18600|10|0|0|558|0|0|0|0|0|0|1|0|0|20200603144212
20200603|02000016|91217955|1815097746135|1815097746135|20200511000080|B3UHWVR2|1|0|18600|18600|10|0|0|558|0|0|0|0|0|0|1|0|0|20200603144210
20200603|02000016|91217947|1813474353192|1813474353192|20200511000080|B3UHWVR2|1|0|18600|18600|10|0|0|558|0|0|0|0|0|0|1|0|0|20200603144207
20200603|02000016|91217948|1813663315968|1813663315968|20200511000080|B3UHWVR2|1|0|18600|18600|10|0|0|558|0|0|0|0|0|0|1|0|0|20200603144207
20200603|02000016|91217943|1813759236567|1813759236567|20200511000080|B3UHWVR2|1|0|18600|18600|10|0|0|558|0|0|0|0|0|0|1|0|0|20200603144158
20200603|02000016|91217930|1800100000071|1800100000071|20200511000080|B3UHWVR2|1|0|18600|18600|10|0|0|558|0|0|0|0|0|0|1|0|0|20200603144139
20200603|02000016|91217923|1800100000021|1800100000021|20200511000080|B3UHWVR2|1|0|18600|18600|10|0|0|558|0|0|0|0|0|0|1|0|0|20200603144118
20200603|02000016|91217920|1818187948426|1818187948426|20200511000080|B3UHWVR2|1|0|18600|18600|10|0|0|558|0|0|0|0|0|0|1|0|0|20200603144115
20200603|02000016|91217921|1815911281296|1815911281296|20200511000080|B3UHWVR2|1|0|18600|18600|10|0|0|558|0|0|0|0|0|0|1|0|0|20200603144115
20200603|02000016|91217922|1813463442485|1813463442485|20200511000080|B3UHWVR2|1|0|18600|18600|10|0|0|558|0|0|0|0|0|0|1|0|0|20200603144115
20200603|02000016|91217919|1815133217875|1815133217875|20200511000080|B3UHWVR2|1|0|18600|18600|10|0|0|558|0|0|0|0|0|0|1|0|0|20200603144112
20200603|02000016|91217918|1800100000117|1800100000117|20200511000080|B3UHWVR2|1|0|18600|18600|10|0|0|558|0|0|0|0|0|0|1|0|0|20200603144109
20200603|02000016|91217904|1815257296726|1815257296726|20200511000080|B3UHWVR2|1|0|18600|18600|10|0|0|558|0|0|0|0|0|0|1|0|0|20200603144052
20200603|02000016|91217897|1800100000022|1800100000022|20200511000080|B3UHWVR2|1|0|18600|18600|10|0|0|558|0|0|0|0|0|0|1|0|0|20200603144033
20200603|02000016|91217898|1818387548855|1818387548855|20200511000080|B3UHWVR2|1|0|18600|18600|10|0|0|558|0|0|0|0|0|0|1|0|0|20200603144033
20200603|02000016|91217896|1813234540281|1813234540281|20200511000080|B3UHWVR2|1|0|18600|18600|10|0|0|558|0|0|0|0|0|0|1|0|0|20200603144032
20200603|02000016|91217895|1800100000122|1800100000122|20200511000080|B3UHWVR2|1|0|18600|18600|10|0|0|558|0|0|0|0|0|0|1|0|0|20200603144023
20200603|02000016|91217890|1815129878708|1815129878708|20200511000080|B3UHWVR2|1|0|18600|18600|10|0|0|558|0|0|0|0|0|0|1|0|0|20200603144013
20200603|02000016|91217877|1815032494099|1815032494099|20200511000080|B3UHWVR2|1|0|18600|18600|10|0|0|558|0|0|0|0|0|0|1|0|0|20200603143951
20200603|02000016|91217866|1813335335656|1813335335656|20200511000080|B3UHWVR2|1|0|18600|18600|10|0|0|558|0|0|0|0|0|0|1|0|0|20200603143934
20200603|02000016|91217865|1818788207781|1818788207781|20200511000080|B3UHWVR2|1|0|18600|18600|10|0|0|558|0|0|0|0|0|0|1|0|0|20200603143924
20200603|02000016|91217864|1813472972651|1813472972651|20200511000080|B3UHWVR2|1|0|18600|18600|10|0|0|558|0|0|0|0|0|0|1|0|0|20200603143923
20200603|02000016|91217863|1813582233927|1813582233927|20200511000080|B3UHWVR2|1|0|18600|18600|10|0|0|558|0|0|0|0|0|0|1|0|0|20200603143921
20200603|02000016|91217862|1813308821971|1813308821971|20200511000080|B3UHWVR2|1|0|18600|18600|10|0|0|558|0|0|0|0|0|0|1|0|0|20200603143920
20200603|02000016|91217861|1815094645884|1815094645884|20200511000080|B3UHWVR2|1|0|18600|18600|10|0|0|558|0|0|0|0|0|0|1|0|0|20200603143918
20200603|02000016|91217857|1818164646890|1818164646890|20200511000080|B3UHWVR2|1|0|18600|18600|10|0|0|558|0|0|0|0|0|0|1|0|0|20200603143907
20200603|02000016|91217856|1815130268126|1815130268126|20200511000080|B3UHWVR2|1|0|18600|18600|10|0|0|558|0|0|0|0|0|0|1|0|0|20200603143904
20200603|02000016|91217855|1813991898100|1813991898100|20200511000080|B3UHWVR2|1|0|18600|18600|10|0|0|558|0|0|0|0|0|0|1|0|0|20200603143903
20200603|02000016|91217836|1813582219081|1813582219081|20200511000080|B3UHWVR2|1|0|18600|18600|10|0|0|558|0|0|0|0|0|0|1|0|0|20200603143835
20200603|02000016|91217832|1813264095514|1813264095514|20200511000080|B3UHWVR2|1|0|18600|18600|10|0|0|558|0|0|0|0|0|0|1|0|0|20200603143816
20200603|02000016|91217825|1818669296269|1818669296269|20200511000080|B3UHWVR2|1|0|18600|18600|10|0|0|558|0|0|0|0|0|0|1|0|0|20200603143807
20200603|02000016|91217824|1813466192760|1813466192760|20200511000080|B3UHWVR2|1|0|18600|18600|10|0|0|558|0|0|0|0|0|0|1|0|0|20200603143803
20200603|02000016|91217823|1818165273182|1818165273182|20200511000080|B3UHWVR2|1|0|18600|18600|10|0|0|558|0|0|0|0|0|0|1|0|0|20200603143802
20200603|02000016|91217813|1815146194700|1815146194700|20200511000080|B3UHWVR2|1|0|18600|18600|10|0|0|558|0|0|0|0|0|0|1|0|0|20200603143746
20200603|02000016|91217809|1813908822711|1813908822711|20200511000080|B3UHWVR2|1|0|18600|18600|10|0|0|558|0|0|0|0|0|0|1|0|0|20200603143745
20200603|02000016|91217807|1813846055840|1813846055840|20200511000080|B3UHWVR2|1|0|18600|18600|10|0|0|558|0|0|0|0|0|0|1|0|0|20200603143740
20200603|02000016|91217802|1813932223643|1813932223643|20200511000080|B3UHWVR2|1|0|18600|18600|10|0|0|558|0|0|0|0|0|0|1|0|0|20200603143727
20200603|02000016|91217803|1815175219511|1815175219511|20200511000080|B3UHWVR2|1|0|18600|18600|10|0|0|558|0|0|0|0|0|0|1|0|0|20200603143727
20200603|02000016|91217795|1815388839989|1815388839989|20200511000080|B3UHWVR2|1|0|18600|18600|10|0|0|558|0|0|0|0|0|0|1|0|0|20200603143711
20200603|02000016|91217794|1813324561701|1813324561701|20200511000080|B3UHWVR2|1|0|18600|18600|10|0|0|558|0|0|0|0|0|0|1|0|0|20200603143704
20200603|02000016|91217776|1815045780980|1815045780980|20200511000080|B3UHWVR2|1|0|18600|18600|10|0|0|558|0|0|0|0|0|0|1|0|0|20200603143641
20200603|02000016|91217777|1813730451279|1813730451279|20200511000080|B3UHWVR2|1|0|18600|18600|10|0|0|558|0|0|0|0|0|0|1|0|0|20200603143641
20200603|02000016|91217775|1818820305412|1818820305412|20200511000080|B3UHWVR2|1|0|18600|18600|10|0|0|558|0|0|0|0|0|0|1|0|0|20200603143637
20200603|02000016|91217768|1813988259242|1813988259242|20200511000080|B3UHWVR2|1|0|18600|18600|10|0|0|558|0|0|0|0|0|0|1|0|0|20200603143617
20200603|02000016|91217767|1818691191808|1818691191808|20200511000080|B3UHWVR2|1|0|18600|18600|10|0|0|558|0|0|0|0|0|0|1|0|0|20200603143554
20200603|02000016|91217763|1813988271457|1813988271457|20200511000080|B3UHWVR2|1|0|18600|18600|10|0|0|558|0|0|0|0|0|0|1|0|0|20200603143547
20200603|02000016|91217762|1817631643762|1817631643762|20200511000080|B3UHWVR2|1|0|18600|18600|10|0|0|558|0|0|0|0|0|0|1|0|0|20200603143544
20200603|02000016|91217758|1800100000067|1800100000067|20200511000080|B3UHWVR2|1|0|18600|18600|10|0|0|558|0|0|0|0|0|0|1|0|0|20200603143540
20200603|02000016|91217748|1813633389021|1813633389021|20200511000080|B3UHWVR2|1|0|18600|18600|10|0|0|558|0|0|0|0|0|0|1|0|0|20200603143521
20200603|02000016|91217732|1813643126078|1813643126078|20200511000080|B3UHWVR2|1|0|18600|18600|10|0|0|558|0|0|0|0|0|0|1|0|0|20200603143427
20200603|02000016|91217728|1815894436377|1815894436377|20200511000080|B3UHWVR2|1|0|18600|18600|10|0|0|558|0|0|0|0|0|0|1|0|0|20200603143403
20200603|02000016|91217724|1800100000063|1800100000063|20200511000080|B3UHWVR2|1|0|18600|18600|10|0|0|558|0|0|0|0|0|0|1|0|0|20200603143313
20200603|02000016|91217717|1813887902815|1813887902815|20200511000080|B3UHWVR2|1|0|18600|18600|10|0|0|558|0|0|0|0|0|0|1|0|0|20200603143246
20200603|02000016|91217712|1813785432993|1813785432993|20200511000080|B3UHWVR2|1|0|18600|18600|10|0|0|558|0|0|0|0|0|0|1|0|0|20200603143200
20200603|02000016|91217702|1813478653378|1813478653378|20200511000080|B3UHWVR2|1|0|18600|18600|10|0|0|558|0|0|0|0|0|0|1|0|0|20200603143120
20200603|02000016|91217701|1815925561179|1815925561179|20200511000080|B3UHWVR2|1|0|18600|18600|10|0|0|558|0|0|0|0|0|0|1|0|0|20200603143116
20200603|02000016|91217700|1813466173625|1813466173625|20200511000080|B3UHWVR2|1|0|18600|18600|10|0|0|558|0|0|0|0|0|0|1|0|0|20200603143102
20200603|02000016|91217690|1815245436282|1815245436282|20200511000080|B3UHWVR2|1|0|18600|18600|10|0|0|558|0|0|0|0|0|0|1|0|0|20200603143031
20200603|02000016|91217686|1815246290569|1815246290569|20200511000080|B3UHWVR2|1|0|18600|18600|10|0|0|558|0|0|0|0|0|0|1|0|0|20200603143002
20200603|02000016|91217685|1818725344782|1818725344782|20200511000080|B3UHWVR2|1|0|18600|18600|10|0|0|558|0|0|0|0|0|0|1|0|0|20200603142959
20200603|02000016|91217675|1815025068429|1815025068429|20200511000080|B3UHWVR2|1|0|18600|18600|10|0|0|558|0|0|0|0|0|0|1|0|0|20200603142838
20200603|02000016|91217671|1800100000125|1800100000125|20200511000080|B3UHWVR2|1|0|18600|18600|10|0|0|558|0|0|0|0|0|0|1|0|0|20200603142749
20200603|02000016|91217661|1815288130560|1815288130560|20200511000080|B3UHWVR2|1|0|18600|18600|10|0|0|558|0|0|0|0|0|0|1|0|0|20200603142652
20200603|02000016|91217660|1813638362781|1813638362781|20200511000080|B3UHWVR2|1|0|18600|18600|10|0|0|558|0|0|0|0|0|0|1|0|0|20200603142633
20200603|02000016|91217659|1818908826659|1818908826659|20200511000080|B3UHWVR2|1|0|18600|18600|10|0|0|558|0|0|0|0|0|0|1|0|0|20200603142237
20200603|02000016|91217658|1813832935461|1813832935461|20200511000080|B3UHWVR2|1|0|18600|18600|3|7|0|558|0|0|0|0|0|0|1|0|0|20200603142227
20200603|02000016|91217657|1813304035066|1813304035066|20200511000080|B3UHWVR2|1|0|18600|18600|10|0|0|558|0|0|0|0|0|0|1|0|0|20200603142116
20200603|02000016|91217656|1818730588858|1818730588858|20200511000080|B3UHWVR2|1|0|18600|18600|10|0|0|558|0|0|0|0|0|0|1|0|0|20200603142108
20200603|02000016|91217655|1815907052137|1815907052137|20200511000080|B3UHWVR2|1|0|18600|18600|5|0|0|279|0|0|0|0|0|0|1|0|0|20200603142107
20200603|02000016|91217654|1813378816227|1813378816227|20200511000080|B3UHWVR2|1|0|18600|18600|10|0|0|558|0|0|0|0|0|0|1|0|0|20200603142053
20200603|02000016|91217649|1815070964165|1815070964165|20200511000080|B3UHWVR2|1|0|18600|18600|2|0|0|111|0|0|0|0|0|0|1|0|0|20200603142008
20200603|02000016|91217645|1813846011141|1813846011141|20200511000080|B3UHWVR2|1|0|18600|18600|4|6|0|558|0|0|0|0|0|0|1|0|0|20200603141944
20200603|02000016|91217643|1815879317904|1815879317904|20200511000080|B3UHWVR2|1|0|18600|18600|10|0|0|558|0|0|0|0|0|0|1|0|0|20200603141920
20200603|02000016|91217636|1818093392935|1818093392935|20200511000080|B3UHWVR2|1|0|18600|18600|10|0|0|558|0|0|0|0|0|0|1|0|0|20200603141849
20200603|02000016|91217635|1818923668819|1818923668819|20200511000080|B3UHWVR2|1|0|18600|18600|10|0|0|558|0|0|0|0|0|0|1|0|0|20200603141842
20200603|02000016|91217634|1813324023246|1813324023246|20200511000080|B3UHWVR2|1|0|18600|18600|10|0|0|558|0|0|0|0|0|0|1|0|0|20200603141839
20200603|02000016|91217633|1818746535653|1818746535653|20200511000080|B3UHWVR2|1|0|18600|18600|10|0|0|558|0|0|0|0|0|0|1|0|0|20200603141824
20200603|02000016|91217622|1815070002292|1815070002292|20200511000080|B3UHWVR2|1|0|18600|18600|10|0|0|558|0|0|0|0|0|0|1|0|0|20200603141737
20200603|02000016|91217618|1813091586900|1813091586900|20200511000080|B3UHWVR2|1|0|18600|18600|10|0|0|558|0|0|0|0|0|0|1|0|0|20200603141633
20200603|02000016|91217614|1800100000085|1800100000085|20200511000080|B3UHWVR2|1|0|18600|18600|10|0|0|558|0|0|0|0|0|0|1|0|0|20200603141603
20200603|02000016|91217607|1818646771261|1818646771261|20200511000080|B3UHWVR2|1|0|18600|18600|10|0|0|558|0|0|0|0|0|0|1|0|0|20200603141531
20200603|02000016|91217606|1800100000341|1800100000341|20200511000080|B3UHWVR2|1|0|18600|18600|10|0|0|558|0|0|0|0|0|0|1|0|0|20200603141517
20200603|02000016|91217599|1818921860818|1818921860818|20200511000080|B3UHWVR2|1|0|18600|18600|10|0|0|558|0|0|0|0|0|0|1|0|0|20200603141455
20200603|02000016|91217598|1813238826869|1813238826869|20200511000080|B3UHWVR2|1|0|18600|18600|10|0|0|558|0|0|0|0|0|0|1|0|0|20200603141434
20200603|02000016|91217597|1800100000109|1800100000109|20200511000080|B3UHWVR2|1|0|18600|18600|10|0|0|558|0|0|0|0|0|0|1|0|0|20200603141432
20200603|02000016|91217590|1800100000154|1800100000154|20200511000080|B3UHWVR2|1|0|18600|18600|10|0|0|558|0|0|0|0|0|0|1|0|0|20200603141347
20200603|02000016|91217586|1813840542929|1813840542929|20200511000080|B3UHWVR2|1|0|18600|18600|10|0|0|558|0|0|0|0|0|0|1|0|0|20200603141333
20200603|02000016|91217582|1813731691285|1813731691285|20200511000080|B3UHWVR2|1|0|18600|18600|10|0|0|558|0|0|0|0|0|0|1|0|0|20200603141302
20200603|02000016|91217575|1813582246755|1813582246755|20200511000080|B3UHWVR2|1|0|18600|18600|10|0|0|558|0|0|0|0|0|0|1|0|0|20200603141146
20200603|02000016|91217574|1815949672286|1815949672286|20200511000080|B3UHWVR2|1|0|18600|18600|10|0|0|558|0|0|0|0|0|0|1|0|0|20200603141137
20200603|02000016|91217570|1818091149039|1818091149039|20200511000080|B3UHWVR2|1|0|18600|18600|10|0|0|558|0|0|0|0|0|0|1|0|0|20200603141117
20200603|02000016|91217566|1800100000031|1800100000031|20200511000080|B3UHWVR2|1|0|18600|18600|10|0|0|558|0|0|0|0|0|0|1|0|0|20200603141053
20200603|02000016|91217562|1818049119039|1818049119039|20200511000080|B3UHWVR2|1|0|18600|18600|10|0|0|558|0|0|0|0|0|0|1|0|0|20200603141024
20200603|02000016|91217558|1815291119145|1815291119145|20200511000080|B3UHWVR2|1|0|18600|18600|10|0|0|558|0|0|0|0|0|0|1|0|0|20200603140901
20200603|02000016|91217554|1818875037395|1818875037395|20200511000080|B3UHWVR2|1|0|18600|18600|10|0|0|558|0|0|0|0|0|0|1|0|0|20200603140717
20200603|02000016|91217550|1815100500891|1815100500891|20200511000080|B3UHWVR2|1|0|18600|18600|10|0|0|558|0|0|0|0|0|0|1|0|0|20200603140005
20200603|02000016|91217549|1813145491363|1813145491363|20200511000080|B3UHWVR2|1|0|18600|18600|10|0|0|558|0|0|0|0|0|0|1|0|0|20200603135936
20200603|02000016|91217548|1813363243535|1813363243535|20200511000080|B3UHWVR2|1|0|18600|18600|10|0|0|558|0|0|0|0|0|0|1|0|0|20200603135902
20200603|02000016|91217547|1818187582339|1818187582339|20200511000080|B3UHWVR2|1|0|18600|18600|10|0|0|558|0|0|0|0|0|0|1|0|0|20200603135833
20200603|02000016|91217543|1815929113628|1815929113628|20200511000080|B3UHWVR2|1|0|18600|18600|10|0|0|558|0|0|0|0|0|0|1|0|0|20200603135744
20200603|02000016|91217541|1815070004787|1815070004787|20200511000080|B3UHWVR2|1|0|18600|18600|10|0|0|558|0|0|0|0|0|0|1|0|0|20200603135448
20200603|02000016|91217540|1813623333299|1813623333299|20200511000080|B3UHWVR2|1|0|18600|18600|10|0|0|558|0|0|0|0|0|0|1|0|0|20200603135334
20200603|02000016|91217538|1813131286769|1813131286769|20200511000080|B3UHWVR2|1|0|18600|18600|10|0|0|558|0|0|0|0|0|0|1|0|0|20200603135254
20200603|02000016|91217534|1813739822199|1813739822199|20200511000080|B3UHWVR2|1|0|18600|18600|10|0|0|558|0|0|0|0|0|0|1|0|0|20200603135235
20200603|02000016|91217530|1813730445441|1813730445441|20200511000080|B3UHWVR2|1|0|18600|18600|10|0|0|558|0|0|0|0|0|0|1|0|0|20200603135145
20200603|02000016|91217526|1815544957559|1815544957559|20200511000080|B3UHWVR2|1|0|18600|18600|10|0|0|558|0|0|0|0|0|0|1|0|0|20200603135042
20200603|02000016|91217522|1813930833053|1813930833053|20200511000080|B3UHWVR2|1|0|18600|18600|10|0|0|558|0|0|0|0|0|0|1|0|0|20200603134928
20200603|02000016|91217518|1818203492787|1818203492787|20200511000080|B3UHWVR2|1|0|18600|18600|10|0|0|558|0|0|0|0|0|0|1|0|0|20200603134856
20200603|02000016|91217517|1818669254642|1818669254642|20200511000080|B3UHWVR2|1|0|18600|18600|10|0|0|558|0|0|0|0|0|0|1|0|0|20200603134850
20200603|02000016|91217512|1815210697195|1815210697195|20200511000080|B3UHWVR2|1|0|18600|18600|10|0|0|558|0|0|0|0|0|0|1|0|0|20200603134651
20200603|02000016|91217511|1815187507752|1815187507752|20200511000080|B3UHWVR2|1|0|18600|18600|10|0|0|558|0|0|0|0|0|0|1|0|0|20200603134650
20200603|02000016|91217510|1813578258275|1813578258275|20200511000080|B3UHWVR2|1|0|18600|18600|10|0|0|558|0|0|0|0|0|0|1|0|0|20200603134645
20200603|02000016|91217509|1815845320444|1815845320444|20200511000080|B3UHWVR2|1|0|18600|18600|10|0|0|558|0|0|0|0|0|0|1|0|0|20200603134640
20200603|02000016|91217505|1815682951846|1815682951846|20200511000080|B3UHWVR2|1|0|18600|18600|10|0|0|558|0|0|0|0|0|0|1|0|0|20200603134618
20200603|02000016|91217504|1813633181332|1813633181332|20200511000080|B3UHWVR2|1|0|18600|18600|10|0|0|558|0|0|0|0|0|0|1|0|0|20200603134617
20200603|02000016|91217503|1813908821930|1813908821930|20200511000080|B3UHWVR2|1|0|18600|18600|10|0|0|558|0|0|0|0|0|0|1|0|0|20200603134559
20200603|02000016|91217496|1818631228121|1818631228121|20200511000080|B3UHWVR2|1|0|18600|18600|10|0|0|558|0|0|0|0|0|0|1|0|0|20200603134507
20200603|02000016|91217494|1813836555299|1813836555299|20200511000080|B3UHWVR2|1|0|18600|18600|10|0|0|558|0|0|0|0|0|0|1|0|0|20200603134433
20200603|02000016|91217490|1815887508589|1815887508589|20200511000080|B3UHWVR2|1|0|18600|18600|10|0|0|558|0|0|0|0|0|0|1|0|0|20200603134411
20200603|02000016|91217486|1813577525294|1813577525294|20200511000080|B3UHWVR2|1|0|18600|18600|10|0|0|558|0|0|0|0|0|0|1|0|0|20200603134225
20200603|02000016|91217484|1815946775111|1815946775111|20200511000080|B3UHWVR2|1|0|18600|18600|10|0|0|558|0|0|0|0|0|0|1|0|0|20200603134152
20200603|02000016|91217483|1813473428282|1813473428282|20200511000080|B3UHWVR2|1|0|18600|18600|10|0|0|558|0|0|0|0|0|0|1|0|0|20200603134135
20200603|02000016|91217473|1813709230552|1813709230552|20200511000080|B3UHWVR2|1|0|18600|18600|10|0|0|558|0|0|0|0|0|0|1|0|0|20200603134114
20200603|02000016|91217471|1815079696414|1815079696414|20200511000080|B3UHWVR2|1|0|18600|18600|10|0|0|558|0|0|0|0|0|0|1|0|0|20200603134107
20200603|02000016|91217472|1813779597882|1813779597882|20200511000080|B3UHWVR2|1|0|18600|18600|10|0|0|558|0|0|0|0|0|0|1|0|0|20200603134107
20200603|02000016|91217470|1813831284573|1813831284573|20200511000080|B3UHWVR2|1|0|18600|18600|10|0|0|558|0|0|0|0|0|0|1|0|0|20200603134041
20200603|02000016|91217462|1813831270832|1813831270832|20200511000080|B3UHWVR2|1|0|18600|18600|10|0|0|558|0|0|0|0|0|0|1|0|0|20200603133931
20200603|02000016|91217458|1813400336006|1813400336006|20200511000080|B3UHWVR2|1|0|18600|18600|10|0|0|558|0|0|0|0|0|0|1|0|0|20200603133858
20200603|02000016|91217453|1815333221709|1815333221709|20200511000080|B3UHWVR2|1|0|18600|18600|10|0|0|558|0|0|0|0|0|0|1|0|0|20200603133833
20200603|02000016|91217452|1813608767593|1813608767593|20200511000080|B3UHWVR2|1|0|18600|18600|10|0|0|558|0|0|0|0|0|0|1|0|0|20200603133818
20200603|02000016|91217445|1815930284881|1815930284881|20200511000080|B3UHWVR2|1|0|18600|18600|10|0|0|558|0|0|0|0|0|0|1|0|0|20200603133634
20200603|02000016|91217438|1813576641198|1813576641198|20200511000080|B3UHWVR2|1|0|18600|18600|8|2|0|558|0|0|0|0|0|0|1|0|0|20200603133148
20200603|02000016|91217436|1813636870153|1813636870153|20200511000080|B3UHWVR2|1|0|18600|18600|10|0|0|558|0|0|0|0|0|0|1|0|0|20200603132932
20200603|02000016|91217435|1813970039068|1813970039068|20200511000080|B3UHWVR2|1|0|18600|18600|10|0|0|558|0|0|0|0|0|0|1|0|0|20200603132907
20200603|02000016|91217434|1800100000048|1800100000048|20200511000080|B3UHWVR2|1|0|18600|18600|10|0|0|558|0|0|0|0|0|0|1|0|0|20200603132831
20200603|02000016|91217426|1813237785798|1813237785798|20200511000080|B3UHWVR2|1|0|18600|18600|10|0|0|558|0|0|0|0|0|0|1|0|0|20200603132801
20200603|02000016|91217422|1815687588895|1815687588895|20200511000080|B3UHWVR2|1|0|18600|18600|10|0|0|558|0|0|0|0|0|0|1|0|0|20200603132705
20200603|02000016|91217420|1813930238016|1813930238016|20200511000080|B3UHWVR2|1|0|18600|18600|10|0|0|558|0|0|0|0|0|0|1|0|0|20200603132637
20200603|02000016|91217419|1813796925201|1813796925201|20200511000080|B3UHWVR2|1|0|18600|18600|10|0|0|558|0|0|0|0|0|0|1|0|0|20200603132634
20200603|02000016|91217410|1813065128288|1813065128288|20200511000080|B3UHWVR2|1|0|18600|18600|10|0|0|558|0|0|0|0|0|0|1|0|0|20200603132503
20200603|02000016|91217409|1818846735652|1818846735652|20200511000080|B3UHWVR2|1|0|18600|18600|10|0|0|558|0|0|0|0|0|0|1|0|0|20200603132456
20200603|02000016|91217402|1813324536769|1813324536769|20200511000080|B3UHWVR2|1|0|18600|18600|10|0|0|558|0|0|0|0|0|0|1|0|0|20200603132418
20200603|02000016|91217398|1818159856122|1818159856122|20200511000080|B3UHWVR2|1|0|18600|18600|10|0|0|558|0|0|0|0|0|0|1|0|0|20200603132345
20200603|02000016|91217391|1815350001169|1815350001169|20200511000080|B3UHWVR2|1|0|18600|18600|10|0|0|558|0|0|0|0|0|0|1|0|0|20200603132256
20200603|02000016|91217390|1813555055525|1813555055525|20200511000080|B3UHWVR2|1|0|18600|18600|10|0|0|558|0|0|0|0|0|0|1|0|0|20200603132238
20200603|02000016|91217386|1813998824209|1813998824209|20200511000080|B3UHWVR2|1|0|18600|18600|10|0|0|558|0|0|0|0|0|0|1|0|0|20200603132040
20200603|02000016|91217385|1818962075812|1818962075812|20200511000080|B3UHWVR2|1|0|18600|18600|10|0|0|558|0|0|0|0|0|0|1|0|0|20200603132024
20200603|02000016|91217378|1817167993679|1817167993679|20200511000080|B3UHWVR2|1|0|18600|18600|10|0|0|558|0|0|0|0|0|0|1|0|0|20200603131932
20200603|02000016|91217374|1815830939311|1815830939311|20200511000080|B3UHWVR2|1|0|18600|18600|10|0|0|558|0|0|0|0|0|0|1|0|0|20200603131716
20200603|02000016|91217373|1813190040355|1813190040355|20200511000080|B3UHWVR2|1|0|18600|18600|10|0|0|558|0|0|0|0|0|0|1|0|0|20200603131639
20200603|02000016|91217366|1813767188659|1813767188659|20200511000080|B3UHWVR2|1|0|18600|18600|10|0|0|558|0|0|0|0|0|0|1|0|0|20200603131501
20200603|02000016|91217362|1800100000060|1800100000060|20200511000080|B3UHWVR2|1|0|18600|18600|10|0|0|558|0|0|0|0|0|0|1|0|0|20200603131332
20200603|02000016|91217352|1813669212329|1813669212329|20200511000080|B3UHWVR2|1|0|18600|18600|10|0|0|558|0|0|0|0|0|0|1|0|0|20200603131222
20200603|02000016|91217351|1815245431805|1815245431805|20200511000080|B3UHWVR2|1|0|18600|18600|10|0|0|558|0|0|0|0|0|0|1|0|0|20200603130956
20200603|02000016|91217347|1818891101268|1818891101268|20200511000080|B3UHWVR2|1|0|18600|18600|10|0|0|558|0|0|0|0|0|0|1|0|0|20200603130813
20200603|02000016|91217346|1813832293322|1813832293322|20200511000080|B3UHWVR2|1|0|18600|18600|10|0|0|558|0|0|0|0|0|0|1|0|0|20200603130757
20200603|02000016|91217345|1813064860909|1813064860909|20200511000080|B3UHWVR2|1|0|18600|18600|10|0|0|558|0|0|0|0|0|0|1|0|0|20200603130741
20200603|02000016|91217344|1815288116989|1815288116989|20200511000080|B3UHWVR2|1|0|18600|18600|10|0|0|558|0|0|0|0|0|0|1|0|0|20200603130740
20200603|02000016|91217343|1813513121930|1813513121930|20200511000080|B3UHWVR2|1|0|18600|18600|10|0|0|558|0|0|0|0|0|0|1|0|0|20200603130737
20200603|02000016|91217324|1815933321253|1815933321253|20200511000080|B3UHWVR2|1|0|18600|18600|10|0|0|558|0|0|0|0|0|0|1|0|0|20200603130435
20200603|02000016|91217319|1818132727138|1818132727138|20200511000080|B3UHWVR2|1|0|18600|18600|10|0|0|558|0|0|0|0|0|0|1|0|0|20200603130312
20200603|02000016|91217317|1818903380276|1818903380276|20200511000080|B3UHWVR2|1|0|18600|18600|10|0|0|558|0|0|0|0|0|0|1|0|0|20200603130307
20200603|02000016|91217318|1818131201300|1818131201300|20200511000080|B3UHWVR2|1|0|18600|18600|10|0|0|558|0|0|0|0|0|0|1|0|0|20200603130307
20200603|02000016|91217311|1813832526017|1813832526017|20200511000080|B3UHWVR2|1|0|18600|18600|10|0|0|558|0|0|0|0|0|0|1|0|0|20200603130244
20200603|02000016|91217310|1818159800103|1818159800103|20200511000080|B3UHWVR2|1|0|18600|18600|10|0|0|558|0|0|0|0|0|0|1|0|0|20200603130232
20200603|02000016|91217305|1813098067177|1813098067177|20200511000080|B3UHWVR2|1|0|18600|18600|10|0|0|558|0|0|0|0|0|0|1|0|0|20200603130201
20200603|02000016|91217298|1815932548856|1815932548856|20200511000080|B3UHWVR2|1|0|18600|18600|10|0|0|558|0|0|0|0|0|0|1|0|0|20200603130130
20200603|02000016|91217296|1815613502427|1815613502427|20200511000080|B3UHWVR2|1|0|18600|18600|10|0|0|558|0|0|0|0|0|0|1|0|0|20200603130112
20200603|02000016|91217295|1818903125539|1818903125539|20200511000080|B3UHWVR2|1|0|18600|18600|10|0|0|558|0|0|0|0|0|0|1|0|0|20200603130109
20200603|02000016|91217290|1819871238258|1819871238258|20200511000080|B3UHWVR2|1|0|18600|18600|10|0|0|558|0|0|0|0|0|0|1|0|0|20200603112622
20200603|02000016|91217288|1818331534443|1818331534443|20200511000080|B3UHWVR2|1|0|18600|18600|10|0|0|558|0|0|0|0|0|0|1|0|0|20200603112338
20200603|02000016|91217287|1815033223779|1815033223779|20200511000080|B3UHWVR2|1|0|18600|18600|10|0|0|558|0|0|0|0|0|0|1|0|0|20200603112224
20200603|02000016|91217286|1819987524663|1819987524663|20200511000080|B3UHWVR2|1|0|18600|18600|10|0|0|558|0|0|0|0|0|0|1|0|0|20200603112130
20200603|02000016|91217279|1818788224059|1818788224059|20200511000080|B3UHWVR2|1|0|18600|18600|10|0|0|558|0|0|0|0|0|0|1|0|0|20200603111131
20200603|02000016|91217278|1813987956640|1813987956640|20200511000080|B3UHWVR2|1|0|18600|18600|10|0|0|558|0|0|0|0|0|0|1|0|0|20200603111020
20200603|02000016|91217277|1815353070080|1815353070080|20200511000080|B3UHWVR2|1|0|18600|18600|10|0|0|558|0|0|0|0|0|0|1|0|0|20200603111004
20200603|02000016|91217273|1813933207826|1813933207826|20200511000080|B3UHWVR2|1|0|18600|18600|10|0|0|558|0|0|0|0|0|0|1|0|0|20200603110949
20200603|02000016|91217269|1818987916981|1818987916981|20200511000080|B3UHWVR2|1|0|18600|18600|10|0|0|558|0|0|0|0|0|0|1|0|0|20200603110851
20200603|02000016|91217265|1818729936598|1818729936598|20200511000080|B3UHWVR2|1|0|18600|18600|10|0|0|558|0|0|0|0|0|0|1|0|0|20200603110746
20200603|02000016|91217261|1818103125352|1818103125352|20200511000080|B3UHWVR2|1|0|18600|18600|10|0|0|558|0|0|0|0|0|0|1|0|0|20200603110643
20200603|02000016|91217260|1813385849623|1813385849623|20200511000080|B3UHWVR2|1|0|18600|18600|10|0|0|558|0|0|0|0|0|0|1|0|0|20200603110233
20200603|02000016|91217259|1813932256061|1813932256061|20200511000080|B3UHWVR2|1|0|18600|18600|10|0|0|558|0|0|0|0|0|0|1|0|0|20200603110206
20200603|02000016|91217251|1800100000027|1800100000027|20200511000080|B3UHWVR2|1|0|18600|18600|10|0|0|558|0|0|0|0|0|0|1|0|0|20200603105236
20200603|02000016|91217250|1800100000025|1800100000025|20200511000080|B3UHWVR2|1|0|18600|18600|10|0|0|558|0|0|0|0|0|0|1|0|0|20200603105150
20200603|02000016|91217246|1813909114265|1813909114265|20200511000080|B3UHWVR2|1|0|18600|18600|10|0|0|558|0|0|0|0|0|0|1|0|0|20200603105017
20200603|02000016|91217245|1800100000134|1800100000134|20200511000080|B3UHWVR2|1|0|18600|18600|10|0|0|558|0|0|0|0|0|0|1|0|0|20200603104957
20200603|02000016|91217244|1813808781900|1813808781900|20200511000080|B3UHWVR2|1|0|18600|18600|10|0|0|558|0|0|0|0|0|0|1|0|0|20200603104940
20200603|02000016|91217240|1813992186412|1813992186412|20200511000080|B3UHWVR2|1|0|18600|18600|10|0|0|558|0|0|0|0|0|0|1|0|0|20200603104919
20200603|02000016|91217236|1813466135914|1813466135914|20200511000080|B3UHWVR2|1|0|18600|18600|10|0|0|558|0|0|0|0|0|0|1|0|0|20200603104645
20200603|02000016|91217235|1815837935909|1815837935909|20200511000080|B3UHWVR2|1|0|18600|18600|10|0|0|558|0|0|0|0|0|0|1|0|0|20200603104447
20200603|02000016|91217234|1813593926195|1813593926195|20200511000080|B3UHWVR2|1|0|18600|18600|10|0|0|558|0|0|0|0|0|0|1|0|0|20200603104122
20200603|02000016|91217233|1813628842075|1813628842075|20200511000080|B3UHWVR2|1|0|18600|18600|10|0|0|558|0|0|0|0|0|0|1|0|0|20200603104100
20200603|02000016|91217232|1818606548783|1818606548783|20200511000080|B3UHWVR2|1|0|18600|18600|10|0|0|558|0|0|0|0|0|0|1|0|0|20200603103955
20200603|02000016|91217231|1815334465219|1815334465219|20200511000080|B3UHWVR2|1|0|18600|18600|10|0|0|558|0|0|0|0|0|0|1|0|0|20200603103823
20200603|02000016|91217230|1813368815583|1813368815583|20200511000080|B3UHWVR2|1|0|18600|18600|10|0|0|558|0|0|0|0|0|0|1|0|0|20200603103804
20200603|02000016|91217228|1819187939328|1819187939328|20200511000080|B3UHWVR2|1|0|18600|18600|10|0|0|558|0|0|0|0|0|0|1|0|0|20200603103721
20200603|02000016|91217227|1818987916256|1818987916256|20200511000080|B3UHWVR2|1|0|18600|18600|10|0|0|558|0|0|0|0|0|0|1|0|0|20200603103641
20200603|02000016|91217225|1815368798533|1815368798533|20200511000080|B3UHWVR2|1|0|18600|18600|10|0|0|558|0|0|0|0|0|0|1|0|0|20200603103531
20200603|02000016|91217224|1813845158388|1813845158388|20200511000080|B3UHWVR2|1|0|18600|18600|10|0|0|558|0|0|0|0|0|0|1|0|0|20200603103429
20200603|02000016|91217223|1815727285279|1815727285279|20200511000080|B3UHWVR2|1|0|18600|18600|10|0|0|558|0|0|0|0|0|0|1|0|0|20200603103408
20200603|02000016|91217222|1815187541886|1815187541886|20200511000080|B3UHWVR2|1|0|18600|18600|10|0|0|558|0|0|0|0|0|0|1|0|0|20200603103244
20200603|02000016|91217218|1815925591567|1815925591567|20200511000080|B3UHWVR2|1|0|18600|18600|10|0|0|558|0|0|0|0|0|0|1|0|0|20200603103142
20200603|02000016|91217217|1815287133896|1815287133896|20200511000080|B3UHWVR2|1|0|18600|18600|10|0|0|558|0|0|0|0|0|0|1|0|0|20200603103133
20200603|02000016|91217207|1813958157143|1813958157143|20200511000080|B3UHWVR2|1|0|18600|18600|10|0|0|558|0|0|0|0|0|0|1|0|0|20200603102957
20200603|02000016|91217206|1815140671196|1815140671196|20200511000080|B3UHWVR2|1|0|18600|18600|10|0|0|558|0|0|0|0|0|0|1|0|0|20200603102943
20200603|02000016|91217205|1813673797843|1813673797843|20200511000080|B3UHWVR2|1|0|18600|18600|10|0|0|558|0|0|0|0|0|0|1|0|0|20200603102917
20200603|02000016|91217204|1818032526472|1818032526472|20200511000080|B3UHWVR2|1|0|18600|18600|10|0|0|558|0|0|0|0|0|0|1|0|0|20200603102910
20200603|02000016|91217203|1818629039483|1818629039483|20200511000080|B3UHWVR2|1|0|18600|18600|10|0|0|558|0|0|0|0|0|0|1|0|0|20200603102820
20200603|02000016|91217202|1813429398439|1813429398439|20200511000080|B3UHWVR2|1|0|18600|18600|4|6|0|558|0|0|0|0|0|0|1|0|0|20200603102807
20200603|02000016|91217201|1815031298030|1815031298030|20200511000080|B3UHWVR2|1|0|18600|18600|10|0|0|558|0|0|0|0|0|0|1|0|0|20200603102733
20200603|02000016|91217200|1815840063631|1815840063631|20200511000080|B3UHWVR2|1|0|18600|18600|10|0|0|558|0|0|0|0|0|0|1|0|0|20200603102715
20200603|02000016|91217196|1817503250596|1817503250596|20200511000080|B3UHWVR2|1|0|18600|18600|10|0|0|558|0|0|0|0|0|0|1|0|0|20200603102647
20200603|02000016|91217195|1813988238986|1813988238986|20200511000080|B3UHWVR2|1|0|18600|18600|10|0|0|558|0|0|0|0|0|0|1|0|0|20200603102638
20200603|02000016|91217191|1815538816005|1815538816005|20200511000080|B3UHWVR2|1|0|18600|18600|10|0|0|558|0|0|0|0|0|0|1|0|0|20200603102605
20200603|02000016|91217190|1813904881393|1813904881393|20200511000080|B3UHWVR2|1|0|18600|18600|10|0|0|558|0|0|0|0|0|0|1|0|0|20200603102554
20200603|02000016|91217189|1813313124191|1813313124191|20200511000080|B3UHWVR2|1|0|18600|18600|10|0|0|558|0|0|0|0|0|0|1|0|0|20200603102540
20200603|02000016|91217185|1813578288004|1813578288004|20200511000080|B3UHWVR2|1|0|18600|18600|10|0|0|558|0|0|0|0|0|0|1|0|0|20200603102517
20200603|02000016|91217181|1813769999509|1813769999509|20200511000080|B3UHWVR2|1|0|18600|18600|10|0|0|558|0|0|0|0|0|0|1|0|0|20200603102431
20200603|02000016|91217180|1813932525581|1813932525581|20200511000080|B3UHWVR2|1|0|18600|18600|10|0|0|558|0|0|0|0|0|0|1|0|0|20200603102420
20200603|02000016|91217172|1818908820122|1818908820122|20200511000080|B3UHWVR2|1|0|18600|18600|10|0|0|558|0|0|0|0|0|0|1|0|0|20200603102345
20200603|02000016|91217173|1813578273333|1813578273333|20200511000080|B3UHWVR2|1|0|18600|18600|10|0|0|558|0|0|0|0|0|0|1|0|0|20200603102345
20200603|02000016|91217168|1815907005758|1815907005758|20200511000080|B3UHWVR2|1|0|18600|18600|10|0|0|558|0|0|0|0|0|0|1|0|0|20200603102306
20200603|02000016|91217161|1813330597481|1813330597481|20200511000080|B3UHWVR2|1|0|18600|18600|10|0|0|558|0|0|0|0|0|0|1|0|0|20200603102234
20200603|02000016|91217158|1813576284540|1813576284540|20200511000080|B3UHWVR2|1|0|18600|18600|10|0|0|558|0|0|0|0|0|0|1|0|0|20200603102206
20200603|02000016|91217151|1818979143369|1818979143369|20200511000080|B3UHWVR2|1|0|18600|18600|10|0|0|558|0|0|0|0|0|0|1|0|0|20200603102114
20200603|02000016|91217145|1815368948672|1815368948672|20200511000080|B3UHWVR2|1|0|18600|18600|10|0|0|558|0|0|0|0|0|0|1|0|0|20200603102054
20200603|02000016|91217135|1818987538596|1818987538596|20200511000080|B3UHWVR2|1|0|18600|18600|10|0|0|558|0|0|0|0|0|0|1|0|0|20200603101915
20200603|02000016|91217133|1818787516848|1818787516848|20200511000080|B3UHWVR2|1|0|18600|18600|10|0|0|558|0|0|0|0|0|0|1|0|0|20200603101859
20200603|02000016|91217124|1815866353002|1815866353002|20200511000080|B3UHWVR2|1|0|18600|18600|10|0|0|558|0|0|0|0|0|0|1|0|0|20200603101759
20200603|02000016|91217120|1815331520336|1815331520336|20200511000080|B3UHWVR2|1|0|18600|18600|10|0|0|558|0|0|0|0|0|0|1|0|0|20200603101648
20200603|02000016|91217119|1813335339191|1813335339191|20200511000080|B3UHWVR2|1|0|18600|18600|10|0|0|558|0|0|0|0|0|0|1|0|0|20200603101637
20200603|02000016|91217118|1815350622072|1815350622072|20200511000080|B3UHWVR2|1|0|18600|18600|10|0|0|558|0|0|0|0|0|0|1|0|0|20200603101559
20200603|02000016|91217111|1813769055559|1813769055559|20200511000080|B3UHWVR2|1|0|18600|18600|10|0|0|558|0|0|0|0|0|0|1|0|0|20200603101544
20200603|02000016|91217109|1813066713691|1813066713691|20200511000080|B3UHWVR2|1|0|18600|18600|10|0|0|558|0|0|0|0|0|0|1|0|0|20200603101533
20200603|02000016|91217102|1813333029656|1813333029656|20200511000080|B3UHWVR2|1|0|18600|18600|10|0|0|558|0|0|0|0|0|0|1|0|0|20200603101457
20200603|02000016|91217101|1813841311816|1813841311816|20200511000080|B3UHWVR2|1|0|18600|18600|10|0|0|558|0|0|0|0|0|0|1|0|0|20200603101454
20200603|02000016|91217100|1813035964466|1813035964466|20200511000080|B3UHWVR2|1|0|18600|18600|10|0|0|558|0|0|0|0|0|0|1|0|0|20200603101439
20200603|02000016|91217095|1813730190518|1813730190518|20200511000080|B3UHWVR2|1|0|18600|18600|10|0|0|558|0|0|0|0|0|0|1|0|0|20200603101411
20200603|02000016|91217090|1818306924682|1818306924682|20200511000080|B3UHWVR2|1|0|18600|18600|10|0|0|558|0|0|0|0|0|0|1|0|0|20200603101308
20200603|02000016|91217089|1813703283113|1813703283113|20200511000080|B3UHWVR2|1|0|18600|18600|10|0|0|558|0|0|0|0|0|0|1|0|0|20200603101155
20200603|02000016|91217085|1813577542946|1813577542946|20200511000080|B3UHWVR2|1|0|18600|18600|10|0|0|558|0|0|0|0|0|0|1|0|0|20200603101140
20200603|02000016|91217084|1818687924557|1818687924557|20200511000080|B3UHWVR2|1|0|18600|18600|10|0|0|558|0|0|0|0|0|0|1|0|0|20200603101115
20200603|02000016|91217083|1818826447446|1818826447446|20200511000080|B3UHWVR2|1|0|18600|18600|10|0|0|558|0|0|0|0|0|0|1|0|0|20200603101100
20200603|02000016|91217074|1800100000053|1800100000053|20200511000080|B3UHWVR2|1|0|18600|18600|10|0|0|558|0|0|0|0|0|0|1|0|0|20200603100848
20200603|02000016|91217070|1813796445877|1813796445877|20200511000080|B3UHWVR2|1|0|18600|18600|10|0|0|558|0|0|0|0|0|0|1|0|0|20200603100748
20200603|02000016|91217069|1817732266277|1817732266277|20200511000080|B3UHWVR2|1|0|18600|18600|10|0|0|558|0|0|0|0|0|0|1|0|0|20200603100725
20200603|02000016|91217068|1813021088510|1813021088510|20200511000080|B3UHWVR2|1|0|18600|18600|8|2|0|558|0|0|0|0|0|0|1|0|0|20200603100718
20200603|02000016|91217066|1819937271172|1819937271172|20200511000080|B3UHWVR2|1|0|18600|18600|10|0|0|558|0|0|0|0|0|0|1|0|0|20200603100713
20200603|02000016|91217067|1813832256871|1813832256871|20200511000080|B3UHWVR2|1|0|18600|18600|10|0|0|558|0|0|0|0|0|0|1|0|0|20200603100713
20200603|02000016|91217065|1813385213554|1813385213554|20200511000080|B3UHWVR2|1|0|18600|18600|10|0|0|558|0|0|0|0|0|0|1|0|0|20200603100712
20200603|02000016|91217061|1813770855951|1813770855951|20200511000080|B3UHWVR2|1|0|18600|18600|10|0|0|558|0|0|0|0|0|0|1|0|0|20200603100643
20200603|02000016|91217057|1818889422056|1818889422056|20200511000080|B3UHWVR2|1|0|18600|18600|10|0|0|558|0|0|0|0|0|0|1|0|0|20200603100630
20200603|02000016|91217053|1818802455863|1818802455863|20200511000080|B3UHWVR2|1|0|18600|18600|10|0|0|558|0|0|0|0|0|0|1|0|0|20200603100552
20200603|02000016|91217052|1800100000347|1800100000347|20200511000080|B3UHWVR2|1|0|18600|18600|10|0|0|558|0|0|0|0|0|0|1|0|0|20200603100541
20200603|02000016|91217051|1815170031559|1815170031559|20200511000080|B3UHWVR2|1|0|18600|18600|10|0|0|558|0|0|0|0|0|0|1|0|0|20200603100445
20200603|02000016|91217047|1800100000036|1800100000036|20200511000080|B3UHWVR2|1|0|18600|18600|10|0|0|558|0|0|0|0|0|0|1|0|0|20200603100343
20200603|02000016|91217043|1800100000046|1800100000046|20200511000080|B3UHWVR2|1|0|18600|18600|10|0|0|558|0|0|0|0|0|0|1|0|0|20200603100242
20200603|02000016|91217039|1815108647893|1815108647893|20200511000080|B3UHWVR2|1|0|18600|18600|10|0|0|558|0|0|0|0|0|0|1|0|0|20200603100208
20200603|02000016|91217035|1818288950291|1818288950291|20200511000080|B3UHWVR2|1|0|18600|18600|10|0|0|558|0|0|0|0|0|0|1|0|0|20200603100142
20200603|02000016|91217030|1813310933838|1813310933838|20200511000080|B3UHWVR2|1|0|18600|18600|2|0|0|111|0|0|0|0|0|0|1|0|0|20200603100057
20200603|02000016|91217029|1815670742888|1815670742888|20200511000080|B3UHWVR2|1|0|18600|18600|10|0|0|558|0|0|0|0|0|0|1|0|0|20200603100039
20200603|02000016|91217028|1818987517957|1818987517957|20200511000080|B3UHWVR2|1|0|18600|18600|10|0|0|558|0|0|0|0|0|0|1|0|0|20200603095934
20200603|02000016|91217027|1813545997023|1813545997023|20200511000080|B3UHWVR2|1|0|18600|18600|10|0|0|558|0|0|0|0|0|0|1|0|0|20200603095837
20200603|02000016|91217026|1813661262290|1813661262290|20200511000080|B3UHWVR2|1|0|18600|18600|10|0|0|558|0|0|0|0|0|0|1|0|0|20200603095727
20200603|02000016|91217025|1818206761891|1818206761891|20200511000080|B3UHWVR2|1|0|18600|18600|10|0|0|558|0|0|0|0|0|0|1|0|0|20200603095620
20200603|02000016|91217023|1813887868883|1813887868883|20200511000080|B3UHWVR2|1|0|18600|18600|10|0|0|558|0|0|0|0|0|0|1|0|0|20200603095605
20200603|02000016|91217021|1815586314943|1815586314943|20200511000080|B3UHWVR2|1|0|18600|18600|10|0|0|558|0|0|0|0|0|0|1|0|0|20200603095553
20200603|02000016|91217017|1815334341131|1815334341131|20200511000080|B3UHWVR2|1|0|18600|18600|10|0|0|558|0|0|0|0|0|0|1|0|0|20200603095529
20200603|02000016|91217010|1813949280669|1813949280669|20200511000080|B3UHWVR2|1|0|18600|18600|10|0|0|558|0|0|0|0|0|0|1|0|0|20200603095310
20200603|02000016|91217007|1815038169553|1815038169553|20200511000080|B3UHWVR2|1|0|18600|18600|10|0|0|558|0|0|0|0|0|0|1|0|0|20200603095214
20200603|02000016|91217005|1815671191786|1815671191786|20200511000080|B3UHWVR2|1|0|18600|18600|10|0|0|558|0|0|0|0|0|0|1|0|0|20200603095130
20200603|02000016|91217004|1815837935868|1815837935868|20200511000080|B3UHWVR2|1|0|18600|18600|10|0|0|558|0|0|0|0|0|0|1|0|0|20200603095002
20200603|02000016|91217003|1815303121880|1815303121880|20200511000080|B3UHWVR2|1|0|18600|18600|10|0|0|558|0|0|0|0|0|0|1|0|0|20200603094928
20200603|02000016|91217002|1815887555058|1815887555058|20200511000080|B3UHWVR2|1|0|18600|18600|10|0|0|558|0|0|0|0|0|0|1|0|0|20200603094919
20200603|02000016|91217001|1815838593992|1815838593992|20200511000080|B3UHWVR2|1|0|18600|18600|10|0|0|558|0|0|0|0|0|0|1|0|0|20200603094835
20200603|02000016|91216995|1818309859106|1818309859106|20200511000080|B3UHWVR2|1|0|18600|18600|10|0|0|558|0|0|0|0|0|0|1|0|0|20200603094731
20200603|02000016|91216994|1813988267556|1813988267556|20200511000080|B3UHWVR2|1|0|18600|18600|10|0|0|558|0|0|0|0|0|0|1|0|0|20200603094723
20200603|02000016|91216993|1818088155607|1818088155607|20200511000080|B3UHWVR2|1|0|18600|18600|10|0|0|558|0|0|0|0|0|0|1|0|0|20200603094636
20200603|02000016|91216992|1815142051751|1815142051751|20200511000080|B3UHWVR2|1|0|18600|18600|10|0|0|558|0|0|0|0|0|0|1|0|0|20200603094626
20200603|02000016|91216991|1813987510903|1813987510903|20200511000080|B3UHWVR2|1|0|18600|18600|10|0|0|558|0|0|0|0|0|0|1|0|0|20200603094622
20200603|02000016|91216990|1813988266069|1813988266069|20200511000080|B3UHWVR2|1|0|18600|18600|10|0|0|558|0|0|0|0|0|0|1|0|0|20200603094620
20200603|02000016|91216989|1815033779933|1815033779933|20200511000080|B3UHWVR2|1|0|18600|18600|2|0|0|111|0|0|0|0|0|0|1|0|0|20200603094603
20200603|02000016|91216988|1813171908620|1813171908620|20200511000080|B3UHWVR2|1|0|18600|18600|10|0|0|558|0|0|0|0|0|0|1|0|0|20200603094600
20200603|02000016|91216987|1815987504832|1815987504832|20200511000080|B3UHWVR2|1|0|18600|18600|10|0|0|558|0|0|0|0|0|0|1|0|0|20200603094550
20200603|02000016|91216986|1813657964642|1813657964642|20200511000080|B3UHWVR2|1|0|18600|18600|10|0|0|558|0|0|0|0|0|0|1|0|0|20200603094543
20200603|02000016|91216985|1813831723408|1813831723408|20200511000080|B3UHWVR2|1|0|18600|18600|10|0|0|558|0|0|0|0|0|0|1|0|0|20200603094523
20200603|02000016|91216984|1818288560316|1818288560316|20200511000080|B3UHWVR2|1|0|18600|18600|10|0|0|558|0|0|0|0|0|0|1|0|0|20200603094512
20200603|02000016|91216983|1813755450920|1813755450920|20200511000080|B3UHWVR2|1|0|18600|18600|10|0|0|558|0|0|0|0|0|0|1|0|0|20200603094444
20200603|02000016|91216982|1813486694384|1813486694384|20200511000080|B3UHWVR2|1|0|18600|18600|10|0|0|558|0|0|0|0|0|0|1|0|0|20200603094406
20200603|02000016|91216981|1815946109858|1815946109858|20200511000080|B3UHWVR2|1|0|18600|18600|10|0|0|558|0|0|0|0|0|0|1|0|0|20200603094400
20200603|02000016|91216980|1813308821769|1813308821769|20200511000080|B3UHWVR2|1|0|18600|18600|10|0|0|558|0|0|0|0|0|0|1|0|0|20200603094332
20200603|02000016|91216976|1813190099140|1813190099140|20200511000080|B3UHWVR2|1|0|18600|18600|10|0|0|558|0|0|0|0|0|0|1|0|0|20200603094248
20200603|02000016|91216977|1818993303292|1818993303292|20200511000080|B3UHWVR2|1|0|18600|18600|10|0|0|558|0|0|0|0|0|0|1|0|0|20200603094248
20200603|02000016|91216975|1818976770088|1818976770088|20200511000080|B3UHWVR2|1|0|18600|18600|10|0|0|558|0|0|0|0|0|0|1|0|0|20200603094240
20200603|02000016|91216971|1813889877508|1813889877508|20200511000080|B3UHWVR2|1|0|18600|18600|10|0|0|558|0|0|0|0|0|0|1|0|0|20200603094159
20200603|02000016|91216970|1815176213410|1815176213410|20200511000080|B3UHWVR2|1|0|18600|18600|10|0|0|558|0|0|0|0|0|0|1|0|0|20200603094152
20200603|02000016|91216966|1815871938967|1815871938967|20200511000080|B3UHWVR2|1|0|18600|18600|10|0|0|558|0|0|0|0|0|0|1|0|0|20200603094139
20200603|02000016|91216965|1815925589060|1815925589060|20200511000080|B3UHWVR2|1|0|18600|18600|10|0|0|558|0|0|0|0|0|0|1|0|0|20200603094135
20200603|02000016|91216959|1813473122412|1813473122412|20200511000080|B3UHWVR2|1|0|18600|18600|10|0|0|558|0|0|0|0|0|0|1|0|0|20200603094031
20200603|02000016|91216958|1813808788999|1813808788999|20200511000080|B3UHWVR2|1|0|18600|18600|10|0|0|558|0|0|0|0|0|0|1|0|0|20200603093930
20200603|02000016|91216957|1815869087947|1815869087947|20200511000080|B3UHWVR2|1|0|18600|18600|10|0|0|558|0|0|0|0|0|0|1|0|0|20200603093913
20200603|02000016|91216955|1813663328201|1813663328201|20200511000080|B3UHWVR2|1|0|18600|18600|10|0|0|558|0|0|0|0|0|0|1|0|0|20200603093842
20200603|02000016|91216954|1813674575508|1813674575508|20200511000080|B3UHWVR2|1|0|18600|18600|10|0|0|558|0|0|0|0|0|0|1|0|0|20200603093827
20200603|02000016|91216943|1815232607038|1815232607038|20200511000080|B3UHWVR2|1|0|18600|18600|10|0|0|558|0|0|0|0|0|0|1|0|0|20200603093747
20200603|02000016|91216942|1815771836378|1815771836378|20200511000080|B3UHWVR2|1|0|18600|18600|10|0|0|558|0|0|0|0|0|0|1|0|0|20200603093744
20200603|02000016|91216937|1815222123742|1815222123742|20200511000080|B3UHWVR2|1|0|18600|18600|10|0|0|558|0|0|0|0|0|0|1|0|0|20200603093717
20200603|02000016|91216936|1818834581128|1818834581128|20200511000080|B3UHWVR2|1|0|18600|18600|10|0|0|558|0|0|0|0|0|0|1|0|0|20200603093700
20200603|02000016|91216935|1815389494945|1815389494945|20200511000080|B3UHWVR2|1|0|18600|18600|10|0|0|558|0|0|0|0|0|0|1|0|0|20200603093654
20200603|02000016|91216933|1818931232281|1818931232281|20200511000080|B3UHWVR2|1|0|18600|18600|10|0|0|558|0|0|0|0|0|0|1|0|0|20200603093645
20200603|02000016|91216932|1813582628539|1813582628539|20200511000080|B3UHWVR2|1|0|18600|18600|10|0|0|558|0|0|0|0|0|0|1|0|0|20200603093616
20200603|02000016|91216931|1818210293990|1818210293990|20200511000080|B3UHWVR2|1|0|18600|18600|10|0|0|558|0|0|0|0|0|0|1|0|0|20200603093604
20200603|02000016|91216930|1815029688272|1815029688272|20200511000080|B3UHWVR2|1|0|18600|18600|10|0|0|558|0|0|0|0|0|0|1|0|0|20200603093550
20200603|02000016|91216926|1813733371391|1813733371391|20200511000080|B3UHWVR2|1|0|18600|18600|10|0|0|558|0|0|0|0|0|0|1|0|0|20200603093532
20200603|02000016|91216925|1815102200735|1815102200735|20200511000080|B3UHWVR2|1|0|18600|18600|10|0|0|558|0|0|0|0|0|0|1|0|0|20200603093514
20200603|02000016|91216924|1818165477289|1818165477289|20200511000080|B3UHWVR2|1|0|18600|18600|10|0|0|558|0|0|0|0|0|0|1|0|0|20200603093501
20200603|02000016|91216923|1813555046898|1813555046898|20200511000080|B3UHWVR2|1|0|18600|18600|10|0|0|558|0|0|0|0|0|0|1|0|0|20200603093455
20200603|02000016|91216922|1815232640847|1815232640847|20200511000080|B3UHWVR2|1|0|18600|18600|10|0|0|558|0|0|0|0|0|0|1|0|0|20200603093454
20200603|02000016|91216921|1818468025462|1818468025462|20200511000080|B3UHWVR2|1|0|18600|18600|10|0|0|558|0|0|0|0|0|0|1|0|0|20200603093441
20200603|02000016|91216917|1815830799079|1815830799079|20200511000080|B3UHWVR2|1|0|18600|18600|10|0|0|558|0|0|0|0|0|0|1|0|0|20200603093436
20200603|02000016|91216916|1818934819900|1818934819900|20200511000080|B3UHWVR2|1|0|18600|18600|10|0|0|558|0|0|0|0|0|0|1|0|0|20200603093432
20200603|02000016|91216915|1818830240357|1818830240357|20200511000080|B3UHWVR2|1|0|18600|18600|10|0|0|558|0|0|0|0|0|0|1|0|0|20200603093428
20200603|02000016|91216911|1818220730920|1818220730920|20200511000080|B3UHWVR2|1|0|18600|18600|10|0|0|558|0|0|0|0|0|0|1|0|0|20200603093416
20200603|02000016|91216910|1813108558609|1813108558609|20200511000080|B3UHWVR2|1|0|18600|18600|10|0|0|558|0|0|0|0|0|0|1|0|0|20200603093412
20200603|02000016|91216909|1813463503191|1813463503191|20200511000080|B3UHWVR2|1|0|18600|18600|10|0|0|558|0|0|0|0|0|0|1|0|0|20200603093409
20200603|02000016|91216908|1818731901468|1818731901468|20200511000080|B3UHWVR2|1|0|18600|18600|10|0|0|558|0|0|0|0|0|0|1|0|0|20200603093358
20200603|02000016|91216907|1813633388288|1813633388288|20200511000080|B3UHWVR2|1|0|18600|18600|10|0|0|558|0|0|0|0|0|0|1|0|0|20200603093353
20200603|02000016|91216903|1815087509852|1815087509852|20200511000080|B3UHWVR2|1|0|18600|18600|10|0|0|558|0|0|0|0|0|0|1|0|0|20200603093345
20200603|02000016|91216902|1815512532000|1815512532000|20200511000080|B3UHWVR2|1|0|18600|18600|10|0|0|558|0|0|0|0|0|0|1|0|0|20200603093325
20200603|02000016|91216901|1818088174982|1818088174982|20200511000080|B3UHWVR2|1|0|18600|18600|10|0|0|558|0|0|0|0|0|0|1|0|0|20200603093318
20200603|02000016|91216900|1813909852916|1813909852916|20200511000080|B3UHWVR2|1|0|18600|18600|10|0|0|558|0|0|0|0|0|0|1|0|0|20200603093305
20200603|02000016|91216898|1813577500356|1813577500356|20200511000080|B3UHWVR2|1|0|18600|18600|10|0|0|558|0|0|0|0|0|0|1|0|0|20200603093255
20200603|02000016|91216887|1813722213362|1813722213362|20200511000080|B3UHWVR2|1|0|18600|18600|10|0|0|558|0|0|0|0|0|0|1|0|0|20200603093203
20200603|02000016|91216886|1817642059933|1817642059933|20200511000080|B3UHWVR2|1|0|18600|18600|10|0|0|558|0|0|0|0|0|0|1|0|0|20200603093145
20200603|02000016|91216885|1813224207506|1813224207506|20200511000080|B3UHWVR2|1|0|18600|18600|10|0|0|558|0|0|0|0|0|0|1|0|0|20200603093118
20200603|02000016|91216883|1813988205870|1813988205870|20200511000080|B3UHWVR2|1|0|18600|18600|10|0|0|558|0|0|0|0|0|0|1|0|0|20200603093113
20200603|02000016|91216882|1813230823996|1813230823996|20200511000080|B3UHWVR2|1|0|18600|18600|10|0|0|558|0|0|0|0|0|0|1|0|0|20200603093107
20200603|02000016|91216881|1815256323299|1815256323299|20200511000080|B3UHWVR2|1|0|18600|18600|10|0|0|558|0|0|0|0|0|0|1|0|0|20200603092151
20200603|02000016|91216880|1815256323299|1815256323299|20200511000080|B3UHWVR2|1|0|18600|18600|10|0|0|558|0|0|0|0|0|0|1|0|0|20200603092136
20200603|02000016|91216879|1815256323299|1815256323299|20200511000080|B3UHWVR2|1|0|18600|18600|10|0|0|558|0|0|0|0|0|0|1|0|0|20200603092121
20200603|02000016|91216878|1815256323299|1815256323299|20200511000080|B3UHWVR2|1|0|18600|18600|10|0|0|558|0|0|0|0|0|0|1|0|0|20200603092112
20200603|02000016|91216877|1815256323299|1815256323299|20200511000080|B3UHWVR2|1|0|18600|18600|10|0|0|558|0|0|0|0|0|0|1|0|0|20200603092057
20200603|02000016|91216876|1815256323299|1815256323299|20200511000080|B3UHWVR2|1|0|18600|18600|10|0|0|558|0|0|0|0|0|0|1|0|0|20200603092046
20200603|02000016|91216875|1815256323299|1815256323299|20200511000080|B3UHWVR2|1|0|18600|18600|10|0|0|558|0|0|0|0|0|0|1|0|0|20200603092037
20200603|02000016|91216874|1815256323299|1815256323299|20200511000080|B3UHWVR2|1|0|18600|18600|10|0|0|558|0|0|0|0|0|0|1|0|0|20200603092029
20200603|02000016|91216873|1815256323299|1815256323299|20200511000080|B3UHWVR2|1|0|18600|18600|10|0|0|558|0|0|0|0|0|0|1|0|0|20200603092019
20200603|02000016|91216872|1815256323299|1815256323299|20200511000080|B3UHWVR2|1|0|18600|18600|10|0|0|558|0|0|0|0|0|0|1|0|0|20200603092010
20200603|02000016|91216871|1815256323299|1815256323299|20200511000080|B3UHWVR2|1|0|18600|18600|10|0|0|558|0|0|0|0|0|0|1|0|0|20200603091959
