20200922|02000016|912912616|1813091586900|1813091586900|20200904000084|D8N5K98B|1|0|18600|18600|7|0|0|0|0|0|0|0|0|0|1|0|0|20200922181053|1600704000
20200922|02000016|912912613|1813091586900|1813091586900|20200904000084|D8N5K98B|1|0|18600|18600|97|0|0|0|0|0|0|0|0|0|1|0|0|20200922171536|1600704000
20200922|02000016|912912612|1815256323299|1815256323299|20200511000080|B3UHWVR2|1|0|18600|18600|36|0|0|0|0|0|0|0|0|0|1|0|0|20200922171423|1600704000
