清算中心流水号&交易所流水号&业务发生日期&交易所代码&会员编码&资金账号&出入金方式&出入金类型&出入金发起方&发生金额&币种&银行代码&银行产品代码&银行帐号&状态&备注
20042030010100821326&1ZTSIKT179Y5LASX&20200420&02000134&1813558749848&1813558749848&&1&1&10000&CNY&0040&boshzjjg&622468000107381150&0&
20042030020100821328&W3BGACJKU3L5H162&20200420&02000134&1813558749848&1813558749848&&0&1&10030&CNY&0040&boshzjjg&622468000107381150&0&
20042030010100821331&34GPLLU17N1SKSRU&20200420&02000134&1817538719135&1817538719135&&1&1&20000&CNY&0040&boshzjjg&622468001020019869&0&
20042030010100821332&F5LYJWOCEWQCN3D0&20200420&02000134&1817538719135&1817538719135&&1&1&20000&CNY&0040&boshzjjg&622468001020019869&0&
20042030020100821335&NKMNDZ9OU69NTAX1&20200420&02000134&1817538719135&1817538719135&&0&1&40120&CNY&0040&boshzjjg&622468001020019869&0&
20042030010100821338&HCVJRKGPRT2BXLVK&20200420&02000134&1817538719135&1817538719135&&1&1&5000&CNY&0040&boshzjjg&622468001020019869&0&
20042030020100821340&Z5OMP0BNL9AMEMMG&20200420&02000134&1817538719135&1817538719135&&0&1&3009&CNY&0040&boshzjjg&622468001020019869&0&
20042030020100821342&XKX3LL2VG41AVWSA&20200420&02000134&1817538719135&1817538719135&&0&1&2006&CNY&0040&boshzjjg&622468001020019869&0&
