清算中心流水号&交易所流水号&业务发生日期&交易所代码&会员编码&资金账号&出入金类型&发生金额&手续费金额&银行产品代码&备注
20070130020100467617&58YLKT8QCWNG2LX5&20200701&02000016&1815951703440&1815951703440&0&10030&30&boshzjjg&
20070130020100467823&Z9RGWCSURQ8Z6DR3&20200701&02000016&1815043594322&1815043594322&0&40120&120&boshzjjg&
20070130020100467826&GO2RG0NPM5BABH4I&20200701&02000016&1818345857865&1818345857865&0&20060&60&boshzjjg&
20070130020100467842&DAJOWZ0SIG6SGMEQ&20200701&02000016&1815231216025&1815231216025&0&17151&51&boshzjjg&
20070130020100467733&T260PUSJQIKQ9FX5&20200701&02000016&1813832565805&1813832565805&0&185556&556&boshzjjg&
20070130020100468040&1FZUR7LDAZYTJVHM&20200701&02000016&1818032526472&1818032526472&0&50150&150&boshzjjg&
20070130020100468049&JKKMY66MKOGL4BBK&20200701&02000016&1818713290860&1818713290860&0&30090&90&boshzjjg&
20070130020100467879&9L0HYOU2SHFG0EM4&20200701&02000016&1818468025462&1818468025462&0&10030&30&boshzjjg&
20070130020100467978&LZMAHD4S9RW6WD0F&20200701&02000016&1818468025462&1818468025462&0&10030&30&boshzjjg&
20070130020100467980&4OG9B90V2F6D8X95&20200701&02000016&1813082311311&1813082311311&0&40120&120&boshzjjg&
20070130020100467891&16VP7OJ1RR6ZRIJ2&20200701&02000016&1813577500356&1813577500356&0&20060&60&boshzjjg&
20070130020100467893&PDH8SZADHBBM5KZL&20200701&02000016&1818908752966&1818908752966&0&200601&601&boshzjjg&
20070130020100467988&UOPERW1SJ4GDBDGQ&20200701&02000016&1813577500356&1813577500356&0&10030&30&boshzjjg&
20070130020100467994&3OGWTXWRVBQJ0X1S&20200701&02000016&1813230823996&1813230823996&0&50150&150&boshzjjg&
20070130020100467906&X6USOSNF3T2AWVYW&20200701&02000016&1800100000094&1800100000094&0&50150&150&boshzjjg&
20070130020100468000&FGRFNSTR0COM1E2J&20200701&02000016&1818689707602&1818689707602&0&10030&30&boshzjjg&
20070130020100468076&K0FKHGKQKWLZJ1RI&20200701&02000016&1813932211661&1813932211661&0&30090&90&boshzjjg&
20070130020100468079&N8QOLKQPO45ZVJTJ&20200701&02000016&1800100000071&1800100000071&0&70210&210&boshzjjg&
20070130020100467908&BENIAB60SKOMC6LS&20200701&02000016&1800100000060&1800100000060&0&60180&180&boshzjjg&
20070130020100468080&HYO2WM7YGKDM8076&20200701&02000016&1800100000213&1800100000213&0&70210&210&boshzjjg&
20070130020100468013&KYOK1EQTT8Q9SKJQ&20200701&02000016&1818889422056&1818889422056&0&10030&30&boshzjjg&
20070130020100467920&42Q4D33C540U8WNJ&20200701&02000016&1817304211987&1817304211987&0&10030&30&boshzjjg&
20070130020100468020&BN2ZOG6FFL1XXUU8&20200701&02000016&1813931358252&1813931358252&0&20060&60&boshzjjg&
20070130020100468092&EPU14DQRAEAU4Q7R&20200701&02000016&1813478653378&1813478653378&0&40120&120&boshzjjg&
20070130020100468095&CIP1HK0M8678ZFHQ&20200701&02000016&1813393192793&1813393192793&0&9929&29&boshzjjg&
20070130020100467926&Y8A4014ACKQZPQRI&20200701&02000016&1800100000028&1800100000028&0&45135&135&boshzjjg&
20070130020100468026&8XFLV9FBL0CPQDAF&20200701&02000016&1815046592512&1815046592512&0&50150&150&boshzjjg&
20070130020100467928&1WCRA1YKTHXQTV9K&20200701&02000016&1813393192793&1813393192793&0&8024&24&boshzjjg&
20070130020100467929&LCMMSIRV5U3IQFQI&20200701&02000016&1818976770088&1818976770088&0&20060&60&boshzjjg&
20070130020100468137&M8P1VUWQ4A6IQOGJ&20200701&02000016&1815389494945&1815389494945&0&10030&30&boshzjjg&
20070130020100468104&JF3DOJ616CXNJFB5&20200701&02000016&1813266662096&1813266662096&0&10030&30&boshzjjg&
20070130020100468236&WWQQP04RDSEYB3B3&20200701&02000016&1818161735141&1818161735141&0&10030&30&boshzjjg&
20070130020100468237&HK8VV5AUZLLBKSCS&20200701&02000016&1813129593568&1813129593568&0&21464&64&boshzjjg&
20070130020100468107&WRI8806S2G6ELG7H&20200701&02000016&1813191684413&1813191684413&0&70210&210&boshzjjg&
20070130020100468238&9ANFV5XNO7VDE71K&20200701&02000016&1815204682299&1815204682299&0&10030&30&boshzjjg&
20070130020100468139&LENH4YW367T6MZRU&20200701&02000016&1800100000358&1800100000358&0&10030&30&boshzjjg&
20070130020100468110&LIPB88IXEJ61D7F0&20200701&02000016&1800100000031&1800100000031&0&120361&361&boshzjjg&
20070130020100468144&OUNK6HV80CIQ2LHM&20200701&02000016&1815771836378&1815771836378&0&10030&30&boshzjjg&
20070130020100468242&91HT5Q78F5OWZHEL&20200701&02000016&1815933126808&1815933126808&0&30090&90&boshzjjg&
20070130020100468154&HWOO6FKLID41ALLK&20200701&02000016&1818507776297&1818507776297&0&120361&361&boshzjjg&
20070130020100468244&R1HDNY2W3BSKIB12&20200701&02000016&1813657964642&1813657964642&0&60180&180&boshzjjg&
20070130020100468342&QAA3SU7KWIOZ872N&20200701&02000016&1815045790917&1815045790917&0&15045&45&boshzjjg&
20070130020100468352&16O883PG090ACO3U&20200701&02000016&1818210293990&1818210293990&0&40120&120&boshzjjg&
20070130020100468186&V1TL49YYZRMN6JEO&20200701&02000016&1813503121483&1813503121483&0&30090&90&boshzjjg&
20070130020100468284&7DTPS7VUOLVQQXOJ&20200701&02000016&1815933739943&1815933739943&0&80240&240&boshzjjg&
20070130020100468191&7S1O91MW1MTRGQEK&20200701&02000016&1813089950930&1813089950930&0&20060&60&boshzjjg&
20070130020100468368&CC3OJ4UUZ7QRLFPE&20200701&02000016&1815712514778&1815712514778&0&50150&150&boshzjjg&
20070130020100468369&WDKJDUYKU0U1GT5J&20200701&02000016&1818714555279&1818714555279&0&50150&150&boshzjjg&
20070130020100468299&7429HKNK7YTDS4XV&20200701&02000016&1813909852916&1813909852916&0&10230&30&boshzjjg&
20070130020100468378&2RSA7YP4TJL98J4J&20200701&02000016&1813231508123&1813231508123&0&45135&135&boshzjjg&
20070130020100468196&OILILT2L58E29ANY&20200701&02000016&1818331534443&1818331534443&0&70210&210&boshzjjg&
20070130020100468397&7QAHLM765T29EZPL&20200701&02000016&1818604681909&1818604681909&0&30090&90&boshzjjg&
20070130020100468402&SY3QDWWBG7HX2JYP&20200701&02000016&1813979604271&1813979604271&0&10030&30&boshzjjg&
20070130020100468318&GCLHN1X8KQRS3KF1&20200701&02000016&1813940061166&1813940061166&0&200601&601&boshzjjg&
20070130020100468319&CWOKX0D3VCV1FG40&20200701&02000016&1813555055525&1813555055525&0&20060&60&boshzjjg&
20070130020100468214&KZ161YUP5AWYPB0P&20200701&02000016&1818103121030&1818103121030&0&20060&60&boshzjjg&
20070130020100468404&MOWKHHORR592GOX9&20200701&02000016&1813785222268&1813785222268&0&15045&45&boshzjjg&
20070130020100468406&4EWDOMCWAOPK7MWA&20200701&02000016&1813842006737&1813842006737&0&20060&60&boshzjjg&
20070130020100468325&SYFLDW61CL9KPSI2&20200701&02000016&1813904881393&1813904881393&0&10030&30&boshzjjg&
20070130020100468328&JXKUZ3VWJFIANSTP&20200701&02000016&1815175228012&1815175228012&0&20060&60&boshzjjg&
20070130020100468409&O3XQ7279Y2QZ5XU6&20200701&02000016&1813930238016&1813930238016&0&15045&45&boshzjjg&
20070130020100468412&EAUUJOYJ8W2XZTEE&20200701&02000016&1817689826169&1817689826169&0&10030&30&boshzjjg&
20070130020100468414&D19Q95BKORPF00VB&20200701&02000016&1818002496102&1818002496102&0&20060&60&boshzjjg&
20070130020100468332&I0T3AS0757GJWD4X&20200701&02000016&1815911281296&1815911281296&0&200601&601&boshzjjg&
20070130020100468435&8CSAM5KJ9I4XP5G0&20200701&02000016&1815045749881&1815045749881&0&20060&60&boshzjjg&
20070130020100468415&3R0EQGM82DTX3355&20200701&02000016&1815846883366&1815846883366&0&10030&30&boshzjjg&
20070130020100468457&G2N32X5ENJ2PDY65&20200701&02000016&1813628894679&1813628894679&0&150451&451&boshzjjg&
20070130020100468645&69O8IBBEPU0ZWAD3&20200701&02000016&1813323228902&1813323228902&0&90270&270&boshzjjg&
20070130020100468648&GVBW36DCKL23919S&20200701&02000016&1818313073286&1818313073286&0&601805&1805&boshzjjg&
20070130020100468649&LLH0NPGKQ3ITUXW3&20200701&02000016&1815630158606&1815630158606&0&40120&120&boshzjjg&
20070130020100468462&0I9RHEUXYW8NV91G&20200701&02000016&1813349569303&1813349569303&0&10030&30&boshzjjg&
20070130020100468549&PK89E0SGUL3VPN7M&20200701&02000016&1818633328800&1818633328800&0&11434&34&boshzjjg&
20070130020100468678&NLHAUHEDUO1PT2T1&20200701&02000016&1815227098333&1815227098333&0&601805&1805&boshzjjg&
20070130020100468490&N9788TOT151KA4DY&20200701&02000016&1813400336006&1813400336006&0&40120&120&boshzjjg&
20070130020100468583&A35UNIMI4RES910K&20200701&02000016&1813463503191&1813463503191&0&10030&30&boshzjjg&
20070130020100468584&Z321NYQTGRG4PK1B&20200701&02000016&1818962060606&1818962060606&0&80240&240&boshzjjg&
20070130020100468683&7JVZFSQJ9DA1QF4J&20200701&02000016&1813932525581&1813932525581&0&10030&30&boshzjjg&
20070130020100468687&45MTC04ASKSZ6QM3&20200701&02000016&1818313482200&1818313482200&0&20060&60&boshzjjg&
20070130020100468589&W0EM2PTS7L7A95L8&20200701&02000016&1818032580086&1818032580086&0&40120&120&boshzjjg&
20070130020100468496&GLH0T3C5U291DW8F&20200701&02000016&1818921860818&1818921860818&0&30090&90&boshzjjg&
20070130020100468592&F7ZJ0K5O8TY25SR7&20200701&02000016&1815232607038&1815232607038&0&10030&30&boshzjjg&
20070130020100468498&XNJ1WDL6W62EU1BZ&20200701&02000016&1813324561701&1813324561701&0&120361&361&boshzjjg&
20070130020100468689&0U9X47YA8D74WDP4&20200701&02000016&1815042400515&1815042400515&0&28585&85&boshzjjg&
20070130020100468694&L93M43OLMTFUFURO&20200701&02000016&1818233358282&1818233358282&0&10130&30&boshzjjg&
20070130020100468502&TF6UD7QYRAGO8B4G&20200701&02000016&1818940967978&1818940967978&0&30090&90&boshzjjg&
20070130020100468601&JGQ3ZM1KPMGTT934&20200701&02000016&1813191775000&1813191775000&0&100300&300&boshzjjg&
20070130020100468603&FPV144804BHUMJ3N&20200701&02000016&1815940818417&1815940818417&0&10030&30&boshzjjg&
20070130020100468504&VC8CDSDZOFVC91WT&20200701&02000016&1813932256061&1813932256061&0&10030&30&boshzjjg&
20070130020100468701&YBOJXYQ344NHJPDB&20200701&02000016&1800100000022&1800100000022&0&150451&451&boshzjjg&
20070130020100468707&Q7TDPWGG1GJ02GCG&20200701&02000016&1817317033540&1817317033540&0&20060&60&boshzjjg&
20070130020100468708&2N5GQS7M3DJ9UXMB&20200701&02000016&1813031511388&1813031511388&0&20060&60&boshzjjg&
20070130020100468518&RF92J9S6I2C2FQ3Q&20200701&02000016&1815133232674&1815133232674&0&10030&30&boshzjjg&
20070130020100468519&69YGULTXUG89Z6Q2&20200701&02000016&1813315427245&1813315427245&0&30090&90&boshzjjg&
20070130020100468618&6IDHKQW4Z5CNZUIQ&20200701&02000016&1813400267349&1813400267349&0&10130&30&boshzjjg&
20070130020100468711&7OIWG0ZFK20X3O3X&20200701&02000016&1800100000043&1800100000043&0&752256&2256&boshzjjg&
20070130020100468712&ZLYQBN2THWL7A7HD&20200701&02000016&1813230331640&1813230331640&0&10030&30&boshzjjg&
20070130020100468713&I23PZUHPUEPV7PB2&20200701&02000016&1815931895927&1815931895927&0&20060&60&boshzjjg&
20070130020100468714&A3A8STC0B6IIXUH6&20200701&02000016&1813766708898&1813766708898&0&10030&30&boshzjjg&
20070130020100468620&6JZ3PXIJFLNW5ADD&20200701&02000016&1813578288004&1813578288004&0&30090&90&boshzjjg&
20070130020100468527&V3SRO196R911WJYM&20200701&02000016&1815633362628&1815633362628&0&10030&30&boshzjjg&
20070130020100468625&SGCJA1C32TT3UO54&20200701&02000016&1813831522789&1813831522789&0&10030&30&boshzjjg&
20070130020100468530&HP4RMGYQW7YPTOE0&20200701&02000016&1813846055840&1813846055840&0&27081&81&boshzjjg&
20070130020100468630&04WKJIMQ13NOP4IT&20200701&02000016&1818634009284&1818634009284&0&10030&30&boshzjjg&
20070130020100468532&CTKPL55ITJ5WD2YT&20200701&02000016&1813840542929&1813840542929&0&130391&391&boshzjjg&
20070130020100468738&BJPF9V1ZYYWD4HQD&20200701&02000016&1813730229934&1813730229934&0&30090&90&boshzjjg&
20070130020100468739&IJRCG15UUC051GB2&20200701&02000016&1815208999328&1815208999328&0&25075&75&boshzjjg&
20070130020100468730&FAMIQ8DN98T6FJOQ&20200701&02000016&1818746710622&1818746710622&0&50150&150&boshzjjg&
20070130020100468741&ZTV3FMBC6172DN77&20200701&02000016&1813931380155&1813931380155&0&30090&90&boshzjjg&
20070130020100468851&FC80LRLJ74W59EH9&20200701&02000016&1800100000361&1800100000361&0&18054&54&boshzjjg&
20070130020100468854&MXC3QXJZJ9HNG8O1&20200701&02000016&1818220730920&1818220730920&0&120361&361&boshzjjg&
20070130020100468947&GB2P8OUNI2V2D9WV&20200701&02000016&1815128811803&1815128811803&0&10030&30&boshzjjg&
20070130020100468761&RX9IC7TVAO5M2LG2&20200701&02000016&1818690049591&1818690049591&0&50150&150&boshzjjg&
20070130020100468948&FGMZO5CPNSXIEGOJ&20200701&02000016&1815630880329&1815630880329&0&10130&30&boshzjjg&
20070130020100468763&C6H5I1DOYXNR4K5S&20200701&02000016&1813082311311&1813082311311&0&11033&33&boshzjjg&
20070130020100468861&FVX58JE80P1OQRGL&20200701&02000016&1813513061187&1813513061187&0&30090&90&boshzjjg&
20070130020100468871&L3KWBCL2W69FB1SE&20200701&02000016&1815933739942&1815933739942&0&20060&60&boshzjjg&
20070130020100468957&9DNMLHCHZCACHD72&20200701&02000016&1800100000087&1800100000087&0&521&1&boshzjjg&
20070130020100468776&T3536G9382AWV3UR&20200701&02000016&1815903327688&1815903327688&0&55265&165&boshzjjg&
20070130020100468796&2F9ERKD7XZFJRXHL&20200701&02000016&1818507792116&1818507792116&0&30090&90&boshzjjg&
20070130020100468897&FVZY7CRNGQJ9O7SG&20200701&02000016&1815930239024&1815930239024&0&20060&60&boshzjjg&
20070130020100468900&Y1J7N83LAXDVRJ87&20200701&02000016&1815352338039&1815352338039&0&30090&90&boshzjjg&
20070130020100468901&MJ2VMT11Y7RBVFTW&20200701&02000016&1813604685553&1813604685553&0&30090&90&boshzjjg&
20070130020100468903&RA563YAWX8XBD2O7&20200701&02000016&1815184974413&1815184974413&0&190571&571&boshzjjg&
20070130020100468905&96XCDRIAQPRCA5NC&20200701&02000016&1813998824209&1813998824209&0&100300&300&boshzjjg&
20070130020100468811&NUC170DU5S2S3W3V&20200701&02000016&1813346190092&1813346190092&0&100300&300&boshzjjg&
20070130020100468916&3QDHG88AWWDEFPRL&20200701&02000016&1800100000106&1800100000106&0&180541&541&boshzjjg&
20070130020100468813&Q7KLRWS04H9XEGVZ&20200701&02000016&1813152026763&1813152026763&0&451354&1354&boshzjjg&
20070130020100468817&DXH6WVA4CEBNFD5M&20200701&02000016&1815387777905&1815387777905&0&110330&330&boshzjjg&
20070130020100469034&2JCE4GKNETV6T2RG&20200701&02000016&1813578222161&1813578222161&0&107923&323&boshzjjg&
20070130020100469049&ATFKRRCS8TYZI62Q&20200701&02000016&1815699680001&1815699680001&0&10030&30&boshzjjg&
20070130020100469050&VMHLXPKPTCTVQ6FK&20200701&02000016&1813683131563&1813683131563&0&30090&90&boshzjjg&
20070130020100469051&EIPWLCK1BG2MNZHC&20200701&02000016&1813879606751&1813879606751&0&90270&270&boshzjjg&
20070130020100469145&EL7ATI0ZTSOCQL5P&20200701&02000016&1815184848605&1815184848605&0&60180&180&boshzjjg&
20070130020100469147&4AX995VOG3LOFQOC&20200701&02000016&1813619647900&1813619647900&0&100300&300&boshzjjg&
20070130020100469052&09KL054KTGMCLOZV&20200701&02000016&1813988238986&1813988238986&0&40120&120&boshzjjg&
20070130020100469054&P3SEGCCG41MLUBOD&20200701&02000016&1800100000063&1800100000063&0&100300&300&boshzjjg&
20070130020100469031&Q4QFYAVYEI5GP0T7&20200701&02000016&1818604681909&1818604681909&0&3009&9&boshzjjg&
20070130020100469159&6375GVUFGHCQ3Y5I&20200701&02000016&1815184855733&1815184855733&0&30090&90&boshzjjg&
20070130020100469249&H63NZJ7WK8EKS050&20200701&02000016&1818787586472&1818787586472&0&20060&60&boshzjjg&
20070130020100469093&TQTI2AQDMK977OCR&20200701&02000016&1813619405650&1813619405650&0&100300&300&boshzjjg&
20070130020100469195&88EAAEF17DW4EJSL&20200701&02000016&1815771836378&1815771836378&0&20060&60&boshzjjg&
20070130020100469293&1S8MZKPVRCMC36OZ&20200701&02000016&1815512532000&1815512532000&0&50150&150&boshzjjg&
20070130020100469294&MXKK2ORNGSWSK87R&20200701&02000016&1813988222092&1813988222092&0&10030&30&boshzjjg&
20070130020100469305&4NKL2JDB6YMS6GJR&20200701&02000016&1818908820016&1818908820016&0&100300&300&boshzjjg&
20070130020100469311&ZG88QJ6596CF6YND&20200701&02000016&1817789888843&1817789888843&0&10030&30&boshzjjg&
20070130020100469131&KBOP5R14CCT7B5ZC&20200701&02000016&1813315236132&1813315236132&0&10030&30&boshzjjg&
20070130020100469341&6LVM9NX1JIOT9AIC&20200701&02000016&1813191775000&1813191775000&0&10030&30&boshzjjg&
20070130020100469225&C8NRJ4SG8BJ3R7FE&20200701&02000016&1813988224020&1813988224020&0&10030&30&boshzjjg&
20070130020100469325&UZ9LVND4GTZ8HHYN&20200701&02000016&1815232640847&1815232640847&0&50150&150&boshzjjg&
20070130020100469443&PLYOX2MDLJWVRQ8D&20200701&02000016&1813587765311&1813587765311&0&11835&35&boshzjjg&
20070130020100469540&Y9OQ9HQPT9V4BT0Q&20200701&02000016&1813578268057&1813578268057&0&30090&90&boshzjjg&
20070130020100469556&VB5S3XJXI3S5XDCK&20200701&02000016&1813398828698&1813398828698&0&10030&30&boshzjjg&
20070130020100469379&H8TMI7HQIH28VS8G&20200701&02000016&1815045503182&1815045503182&0&30090&90&boshzjjg&
20070130020100469468&ELD6I1WNP7IBONMY&20200701&02000016&1815969236033&1815969236033&0&20060&60&boshzjjg&
20070130020100469480&OJB1W0IDAV1F0POL&20200701&02000016&1818746535653&1818746535653&0&10030&30&boshzjjg&
20070130020100469577&3WB0PFOXPUDQPIID&20200701&02000016&1815945537804&1815945537804&0&40120&120&boshzjjg&
20070130020100469404&0BSVTRUM1G5EMGZ2&20200701&02000016&1815502925058&1815502925058&0&10030&30&boshzjjg&
20070130020100469587&J39NWM9T4ZTHDKSU&20200701&02000016&1813587765311&1813587765311&0&3009&9&boshzjjg&
20070130020100469496&8B3UIBIUMEIMABZZ&20200701&02000016&1818031333310&1818031333310&0&15045&45&boshzjjg&
20070130020100469504&N3O9BOYII8PH9AHD&20200701&02000016&1818060529819&1818060529819&0&40120&120&boshzjjg&
20070130020100469614&YWUW7A1ED4T7WR0T&20200701&02000016&1818875037395&1818875037395&0&10130&30&boshzjjg&
20070130020100469620&XPL0V7PGOHDWDOGL&20200701&02000016&1815094665586&1815094665586&0&10030&30&boshzjjg&
20070130020100469621&L7Q5LB0Q8NVYJZWC&20200701&02000016&1813991898100&1813991898100&0&50150&150&boshzjjg&
20070130020100469530&YIE6JGKWJP2UKIE0&20200701&02000016&1815512595393&1815512595393&0&20060&60&boshzjjg&
20070130020100469627&NUKHETP4O01ZRXOU&20200701&02000016&1813988222217&1813988222217&0&50150&150&boshzjjg&
20070130020100469639&RQ2YDOB468NE2KRQ&20200701&02000016&1815287133896&1815287133896&0&80240&240&boshzjjg&
20070130020100469533&VZGI82CA0UTFYDNE&20200701&02000016&1813709999208&1813709999208&0&50150&150&boshzjjg&
20070130020100469844&FQRNQ5LXWBAL80LP&20200701&02000016&1813987515001&1813987515001&0&10030&30&boshzjjg&
20070130020100469672&B6BTQZH2AV7AMX1A&20200701&02000016&1800100000085&1800100000085&0&50150&150&boshzjjg&
20070130020100469781&8O0IF9FIGF9K969T&20200701&02000016&1818741608136&1818741608136&0&100300&300&boshzjjg&
20070130020100469703&OPHN8JOA4W8RV3GU&20200701&02000016&1815727394536&1815727394536&0&100300&300&boshzjjg&
20070130020100469785&SFHAMCQM4MNZ7R22&20200701&02000016&1818531577125&1818531577125&0&10030&30&boshzjjg&
20070130020100469717&VKMKJBDQY463TED2&20200701&02000016&1818962075812&1818962075812&0&100300&300&boshzjjg&
20070130020100469958&S93HH47RCO9SGATP&20200701&02000016&1815887550134&1815887550134&0&100300&300&boshzjjg&
20070130020100470037&CK98Y1FK8SA9A5TJ&20200701&02000016&1813803277987&1813803277987&0&40120&120&boshzjjg&
20070130020100470134&Z0L42R6390ZKZNYT&20200701&02000016&1815003129116&1815003129116&0&20060&60&boshzjjg&
20070130020100470053&0R1W6PBV5CF307CJ&20200701&02000016&1815512257375&1815512257375&0&3009&9&boshzjjg&
20070130020100470094&YBRJLLMTGHZMR78X&20200701&02000016&1815670742888&1815670742888&0&150451&451&boshzjjg&
20070130020100470184&VYNI45S1CGON1K6W&20200701&02000016&1813739822199&1813739822199&0&10030&30&boshzjjg&
20070130020100470436&AVNV53COGO3B2FSU&20200701&02000016&1818633952021&1818633952021&0&30090&90&boshzjjg&
20070130020100470353&PIZGJ10W4BG4M6A4&20200701&02000016&1817692236913&1817692236913&0&20060&60&boshzjjg&
20070130020100470358&A80XN3ING4ZPXWK5&20200701&02000016&1815108633866&1815108633866&0&401203&1203&boshzjjg&
20070130020100470316&4EUEVDJOJYV81KBG&20200701&02000016&1815208896655&1815208896655&0&30090&90&boshzjjg&
20070130020100470383&E5R6TNLAAD1VMY6H&20200701&02000016&1813628842075&1813628842075&0&1003&3&boshzjjg&
20070130020100470539&QCF7QL5P12Z62TKU&20200701&02000016&1815561743759&1815561743759&0&10030&30&boshzjjg&
20070130020100470493&N4RAZ12MNFX1VTJC&20200701&02000016&1817642059933&1817642059933&0&20060&60&boshzjjg&
20070130020100470579&I647PLXH70Q990C2&20200701&02000016&1815969210109&1815969210109&0&20060&60&boshzjjg&
20070130020100470504&M214HQDLB9V2T9BC&20200701&02000016&1813988219076&1813988219076&0&20060&60&boshzjjg&
20070130020100470641&CCVBMOA0ZFEZYKFH&20200701&02000016&1813577503685&1813577503685&0&501504&1504&boshzjjg&
20070130020100470646&5OP0HFSV4JEB3XS3&20200701&02000016&1818834581128&1818834581128&0&10030&30&boshzjjg&
20070130020100470598&ZQE03OWW9TTHGDX7&20200701&02000016&1818674148199&1818674148199&0&120361&361&boshzjjg&
20070130020100470527&RZSU4ZH3GU3GU5VV&20200701&02000016&1818132758604&1818132758604&0&10030&30&boshzjjg&
20070130020100470530&MPJ0YJJ3V8ZFQIM0&20200701&02000016&1815672770921&1815672770921&0&200601&601&boshzjjg&
20070130020100470610&1IF87QFXUR4V7Y9A&20200701&02000016&1813503229712&1813503229712&0&10030&30&boshzjjg&
20070130020100470612&7RFYOJAG4FVFDK4L&20200701&02000016&1813235522109&1813235522109&0&60180&180&boshzjjg&
20070130020100470615&ZFCFAY1H5JBHCGBV&20200701&02000016&1813545932491&1813545932491&0&20060&60&boshzjjg&
20070130020100470742&WAKRTLNS5EN1NVQI&20200701&02000016&1815045503182&1815045503182&0&20060&60&boshzjjg&
20070130020100470675&TXY8LNO2KWVITS5L&20200701&02000016&1813064860909&1813064860909&0&10030&30&boshzjjg&
20070130020100470748&VNI7P2MGTR64RZVL&20200701&02000016&1818733245321&1818733245321&0&60180&180&boshzjjg&
20070130020100470685&P5MGAL8SRYD5001K&20200701&02000016&1818187582339&1818187582339&0&10030&30&boshzjjg&
20070130020100470840&BK5S9M9WTYMHNHTN&20200701&02000016&1817612456397&1817612456397&0&100300&300&boshzjjg&
20070130020100470760&UOHR05JV6ETSK8GT&20200701&02000016&1813577525294&1813577525294&0&10030&30&boshzjjg&
20070130020100470691&ZITZVP186LOIU87U&20200701&02000016&1813825724130&1813825724130&0&50150&150&boshzjjg&
20070130020100470695&650O881AB4727EVI&20200701&02000016&1815887508589&1815887508589&0&10030&30&boshzjjg&
20070130020100470766&SXUKH4L8BLCKBYZU&20200701&02000016&1813385213554&1813385213554&0&100300&300&boshzjjg&
20070130020100470706&WA278GX52ID90HDA&20200701&02000016&1813088421577&1813088421577&0&200601&601&boshzjjg&
20070130020100470718&Z1T9YH6MUCERXKQD&20200701&02000016&1819912156726&1819912156726&0&40120&120&boshzjjg&
20070130020100470896&5SZR3DYIKC8WR6ZR&20200701&02000016&1813082360764&1813082360764&0&70210&210&boshzjjg&
20070130020100470819&2MK7TBOIMWEIMZ58&20200701&02000016&1800100000064&1800100000064&0&10030&30&boshzjjg&
20070130020100470964&OAEXSCROQMKWJTDL&20200701&02000016&1813731660124&1813731660124&0&30090&90&boshzjjg&
20070130020100470829&4WMO1JWZZ0MIEILW&20200701&02000016&1818934819900&1818934819900&0&20060&60&boshzjjg&
20070130020100470985&A82QSOVQMSXFH5D1&20200701&02000016&1815142051751&1815142051751&0&270812&812&boshzjjg&
20070130020100470928&PPAS3OGR36O2UDKD&20200701&02000016&1815818598480&1815818598480&0&30090&90&boshzjjg&
20070130020100471057&C57Y1KRE8J02XH3U&20200701&02000016&1813393327863&1813393327863&0&60180&180&boshzjjg&
20070130020100471135&SI8GS6UPX321X7GO&20200701&02000016&1818279612960&1818279612960&0&5015&15&boshzjjg&
20070130020100470996&JP6K9R5H2MV9HIWQ&20200701&02000016&1813472972651&1813472972651&0&15045&45&boshzjjg&
20070130020100471070&4WONRQ26HVLSZGXF&20200701&02000016&1815045780767&1815045780767&0&20060&60&boshzjjg&
20070130020100471143&S1PFWP1Q7IB4MNBM&20200701&02000016&1815140671196&1815140671196&0&60180&180&boshzjjg&
20070130020100471147&RBW7ZO2N85BDOYAG&20200701&02000016&1813231500951&1813231500951&0&15045&45&boshzjjg&
20070130020100471075&MWM1ZN5LR09M7CO1&20200701&02000016&1818872629912&1818872629912&0&100300&300&boshzjjg&
20070130020100471151&GAMCGQ001GXU65FN&20200701&02000016&1813191758429&1813191758429&0&12036&36&boshzjjg&
20070130020100471153&KG9IWH3HAIBWAON6&20200701&02000016&1815146755908&1815146755908&0&15045&45&boshzjjg&
20070130020100471154&89BSVZ6JDRI3YXF7&20200701&02000016&1818787532842&1818787532842&0&19057&57&boshzjjg&
20070130020100471090&M478K8SIFJAQQJUS&20200701&02000016&1818617854952&1818617854952&0&15045&45&boshzjjg&
20070130020100471027&GA49KKVFZ2X8NL7K&20200701&02000016&1815246290569&1815246290569&0&70210&210&boshzjjg&
20070130020100471169&YAGM2H6VU54F4XDP&20200701&02000016&1813373551641&1813373551641&0&30090&90&boshzjjg&
20070130020100471172&1MQMDVM8L4OFFWS7&20200701&02000016&1813582233927&1813582233927&0&30090&90&boshzjjg&
20070130020100471183&UOTTLOQ6KIAKKZ0Z&20200701&02000016&1813832935461&1813832935461&0&50150&150&boshzjjg&
20070130020100471185&OM0CF8GL52QRB6UM&20200701&02000016&1818730588858&1818730588858&0&15045&45&boshzjjg&
20070130020100471186&VWCXGN9OMGWOGVXV&20200701&02000016&1813088421577&1813088421577&0&50150&150&boshzjjg&
20070130020100471316&B08AVLX9CBZGRE5U&20200701&02000016&1813889877508&1813889877508&0&20060&60&boshzjjg&
20070130020100471376&09VPMQEETHPNRGKM&20200701&02000016&1800100000027&1800100000027&0&60180&180&boshzjjg&
20070130020100471477&V53RLYX0RDTWVTNL&20200701&02000016&1800100000045&1800100000045&0&30090&90&boshzjjg&
20070130020100471394&8XT9V4XTVYJOFIXM&20200701&02000016&1800100000045&1800100000045&0&20060&60&boshzjjg&
20070130020100471484&PM7XSQYA1KD1368W&20200701&02000016&1815758449560&1815758449560&0&60180&180&boshzjjg&
20070130020100471542&3ZABEM6GO5W93HNE&20200701&02000016&1815832295137&1815832295137&0&24974&74&boshzjjg&
20070130020100471402&H888GIRRS9W6VTMC&20200701&02000016&1813339574707&1813339574707&0&70210&210&boshzjjg&
20070130020100471416&II38P2DE3RDW6QAX&20200701&02000016&1815076235183&1815076235183&0&100300&300&boshzjjg&
20070130020100471638&7TD9KUKIK893IFXM&20200701&02000016&1813730288889&1813730288889&0&40120&120&boshzjjg&
20070130020100471646&4PW8Q63F0U1MKZJE&20200701&02000016&1813930525191&1813930525191&0&50150&150&boshzjjg&
20070130020100471647&72OEULG03KWX1OAC&20200701&02000016&1813832526017&1813832526017&0&40120&120&boshzjjg&
20070130020100471528&87LJVTSC7M9EHKHU&20200701&02000016&1818371580857&1818371580857&0&10030&30&boshzjjg&
20070130020100471655&BKIITDGTB3K2DTX0&20200701&02000016&1813808781900&1813808781900&0&40120&120&boshzjjg&
