清算中心流水号&交易所流水号&业务发生日期&交易所代码&会员编码&资金账号&出入金类型&发生金额&手续费金额&银行产品代码&备注
20080330020100554153&C8AQ863O42OSQEQR&20200803&02000016&1813370555380&1813370555380&0&30090&90&boshzjjg&
20080330020100554118&78VBHHANA0PDK2V5&20200803&02000016&1815879659197&1815879659197&0&120361&361&boshzjjg&
20080330020100554245&RUCI8A90GZSPPXA2&20200803&02000016&1813953133822&1813953133822&0&10030&30&boshzjjg&
20080330020100554120&D1ZB9Q7UEMO6KR3R&20200803&02000016&1813879606088&1813879606088&0&100300&300&boshzjjg&
20080330020100554246&G3ZF47L8V7NQZIWD&20200803&02000016&1815170827317&1815170827317&0&100300&300&boshzjjg&
20080330020100554121&F2JV00GIVGGDAZ35&20200803&02000016&1815845182230&1815845182230&0&20060&60&boshzjjg&
20080330020100554156&7YTT693D393AU9G9&20200803&02000016&1813879690981&1813879690981&0&160481&481&boshzjjg&
20080330020100554157&UDP4LKADTCISHFFU&20200803&02000016&1815170047910&1815170047910&0&200601&601&boshzjjg&
20080330020100554124&H4GA551HXS6AITH4&20200803&02000016&1815860120878&1815860120878&0&200601&601&boshzjjg&
20080330020100554125&BJ8UDMIT1KZRJYMF&20200803&02000016&1813576846550&1813576846550&0&100300&300&boshzjjg&
20080330020100554126&GYYWUERP3BYSRPLW&20200803&02000016&1813578201088&1813578201088&0&20060&60&boshzjjg&
20080330020100554127&B99SHTOEI92PB9FT&20200803&02000016&1815350349372&1815350349372&0&10030&30&boshzjjg&
20080330020100554129&IP7JEI3IG71XR35H&20200803&02000016&1818879647566&1818879647566&0&100300&300&boshzjjg&
20080330020100554251&BYC3EX0XFPC25FDH&20200803&02000016&1800100000063&1800100000063&0&150451&451&boshzjjg&
20080330020100554252&080MGHHCQE4DM4ST&20200803&02000016&1818979627512&1818979627512&0&100300&300&boshzjjg&
20080330020100554161&BHOOASC71ZPWULIL&20200803&02000016&1815970230203&1815970230203&0&15045&45&boshzjjg&
20080330020100554253&RXDP94CPIY8UZSMH&20200803&02000016&1818724403294&1818724403294&0&20060&60&boshzjjg&
20080330020100554254&R0GT05W0V2AACNW0&20200803&02000016&1818087566024&1818087566024&0&204613&613&boshzjjg&
20080330020100554132&0EG2DW3RZHMIPAQZ&20200803&02000016&1815620918665&1815620918665&0&20060&60&boshzjjg&
20080330020100554167&HEFMV7R9V6KW94IL&20200803&02000016&1815245431805&1815245431805&0&40120&120&boshzjjg&
20080330020100554261&KGTBOFBCKQ5JU7D7&20200803&02000016&1813657964642&1813657964642&0&15045&45&boshzjjg&
20080330020100554262&NK39IJO5C13U21BJ&20200803&02000016&1817779639002&1817779639002&0&100300&300&boshzjjg&
20080330020100554265&YXVIDF2VS9JW1N39&20200803&02000016&1813821118618&1813821118618&0&20060&60&boshzjjg&
20080330020100554343&QZ8N0YIF87KJGPXX&20200803&02000016&1815807960001&1815807960001&0&100300&300&boshzjjg&
20080330020100554266&IRETN51P2B3YQ8NY&20200803&02000016&1815231216025&1815231216025&0&10130&30&boshzjjg&
20080330020100554180&EKCII3UAT1CRYIMF&20200803&02000016&1813313124191&1813313124191&0&541624&1624&boshzjjg&
20080330020100554348&2RT3I1X2QAB19MCS&20200803&02000016&1818468025462&1818468025462&0&20060&60&boshzjjg&
20080330020100554275&UOFPHSANBNJE6E5S&20200803&02000016&1813577500356&1813577500356&0&10030&30&boshzjjg&
20080330020100554355&4YIV2RS4ILPATDCI&20200803&02000016&1813836685281&1813836685281&0&10030&30&boshzjjg&
20080330020100554276&NKCJ32O7558XEZRN&20200803&02000016&1818371587990&1818371587990&0&80240&240&boshzjjg&
20080330020100554278&TFWRHEN0IU9UJ9X5&20200803&02000016&1800100000043&1800100000043&0&2557673&7673&boshzjjg&
20080330020100554358&S86WGQRJEW4WYZUI&20200803&02000016&1800100000060&1800100000060&0&100300&300&boshzjjg&
20080330020100554279&9CPLZ6V29OHY7RLR&20200803&02000016&1800100000031&1800100000031&0&320962&962&boshzjjg&
20080330020100554362&P4AP0CCZASAVBA6B&20200803&02000016&1815946775111&1815946775111&0&20060&60&boshzjjg&
20080330020100554204&G9JJTHLCU261RM9O&20200803&02000016&1813628897307&1813628897307&0&100300&300&boshzjjg&
20080330020100554206&75DELL0VTHNM295K&20200803&02000016&1818045918598&1818045918598&0&100300&300&boshzjjg&
20080330020100554208&C6E18C8DYOS8O7NF&20200803&02000016&1813230823996&1813230823996&0&80240&240&boshzjjg&
20080330020100554378&ENDL0UJQTWNQ534G&20200803&02000016&1818032580086&1818032580086&0&45135&135&boshzjjg&
20080330020100554211&HQS7X6AFZ9M1O0AD&20200803&02000016&1813309116156&1813309116156&0&370110&1110&boshzjjg&
20080330020100554384&16Z8XO2GBJBDUKZP&20200803&02000016&1813082330653&1813082330653&0&70210&210&boshzjjg&
20080330020100554212&MKLN2LVYQU5N222S&20200803&02000016&1800100000104&1800100000104&0&200601&601&boshzjjg&
20080330020100554213&OO03U24W9YG0SKQI&20200803&02000016&1818392029751&1818392029751&0&300902&902&boshzjjg&
20080330020100554216&OEVOQCL64L0XH5QO&20200803&02000016&1818909113092&1818909113092&0&160481&481&boshzjjg&
20080330020100554311&2667C28O0K1WRL0H&20200803&02000016&1813909114265&1813909114265&0&180541&541&boshzjjg&
20080330020100554417&91WA2ORQD46BZEQC&20200803&02000016&1813082311311&1813082311311&0&56168&168&boshzjjg&
20080330020100554418&21TQ6AHBX9PATCAG&20200803&02000016&1800100000042&1800100000042&0&501504&1504&boshzjjg&
20080330020100554330&99RCSK1YS5ZU8284&20200803&02000016&1800100000040&1800100000040&0&501504&1504&boshzjjg&
20080330020100554444&0WY6ATRBSEOKC90C&20200803&02000016&1813722255068&1813722255068&0&250752&752&boshzjjg&
20080330020100554424&JT4RO6EWSZFA6N6F&20200803&02000016&1813988202057&1813988202057&0&20060&60&boshzjjg&
20080330020100554540&5OIWCHSB6MDAYW5D&20200803&02000016&1813840542929&1813840542929&0&581745&1745&boshzjjg&
20080330020100554542&H8UDON2RS7KOBM8T&20200803&02000016&1815931869441&1815931869441&0&18756&56&boshzjjg&
20080330020100554427&JZ42J5ZND3QZULFY&20200803&02000016&1815720908555&1815720908555&0&10030&30&boshzjjg&
20080330020100554429&6HW3OZH3IYF91NTK&20200803&02000016&1815770614300&1815770614300&0&10030&30&boshzjjg&
20080330020100554543&XG2D4RO7R28VW704&20200803&02000016&1818729936598&1818729936598&0&100300&300&boshzjjg&
20080330020100554431&MRNY9SP4D1M5YE0A&20200803&02000016&1813478653378&1813478653378&0&60180&180&boshzjjg&
20080330020100554452&ZGSYANJ8RCT1T9PQ&20200803&02000016&1818088200256&1818088200256&0&9027&27&boshzjjg&
20080330020100554552&NIB7HORVKA1CSOXO&20200803&02000016&1815613502427&1815613502427&0&27081&81&boshzjjg&
20080330020100554461&32ZZH0883XZ6YKAK&20200803&02000016&1813833011132&1813833011132&0&11434&34&boshzjjg&
20080330020100554553&QK1036V0BULTC0GM&20200803&02000016&1813931350038&1813931350038&0&10230&30&boshzjjg&
20080330020100554462&78GMDKF1AFB5OKZW&20200803&02000016&1815033260226&1815033260226&0&20060&60&boshzjjg&
20080330020100554463&SQLCWJWZFVA0BLZV&20200803&02000016&1818820305412&1818820305412&0&185556&556&boshzjjg&
20080330020100554645&F3PD71SF15Q67HYG&20200803&02000016&1815103126127&1815103126127&0&200601&601&boshzjjg&
20080330020100554557&B3DPBRD3KBZP1FCC&20200803&02000016&1815969252992&1815969252992&0&30090&90&boshzjjg&
20080330020100554559&UU0DAAGHI92EXY14&20200803&02000016&1815818598480&1815818598480&0&30090&90&boshzjjg&
20080330020100554647&4ES6X4JC6PWGW1ZX&20200803&02000016&1813832112715&1813832112715&0&10030&30&boshzjjg&
20080330020100554648&LX28RZSXY6CAMRGN&20200803&02000016&1813779597882&1813779597882&0&30090&90&boshzjjg&
20080330020100554561&HV155J099SD5G93I&20200803&02000016&1815146165238&1815146165238&0&10030&30&boshzjjg&
20080330020100554470&LDG9KJNJ29RXLXS0&20200803&02000016&1813383626357&1813383626357&0&50150&150&boshzjjg&
20080330020100554653&01HLHOGYBP1GKOFB&20200803&02000016&1813578288004&1813578288004&0&80240&240&boshzjjg&
20080330020100554654&T87BS5F83VAEC59W&20200803&02000016&1815208849678&1815208849678&0&10030&30&boshzjjg&
20080330020100554567&7TT4ZH9BZVKFFTQL&20200803&02000016&1815933739943&1815933739943&0&55165&165&boshzjjg&
20080330020100554471&9RSFAO8269CY2IU1&20200803&02000016&1800100000085&1800100000085&0&20060&60&boshzjjg&
20080330020100554569&QTV6N8NS549E1YDJ&20200803&02000016&1800100000071&1800100000071&0&90270&270&boshzjjg&
20080330020100554573&05OMHCF33SA8U9UY&20200803&02000016&1818345585807&1818345585807&0&80240&240&boshzjjg&
20080330020100554574&CAWGV9O33TNAWI7O&20200803&02000016&1818931504408&1818931504408&0&180541&541&boshzjjg&
20080330020100554668&QAK8OSTX5465N70J&20200803&02000016&1813623321182&1813623321182&0&10030&30&boshzjjg&
20080330020100554595&NFLPBVUIGT1HW82Q&20200803&02000016&1815038169553&1815038169553&0&30090&90&boshzjjg&
20080330020100554596&QPD66VU4H5CI5VTH&20200803&02000016&1815308750506&1815308750506&0&60180&180&boshzjjg&
20080330020100554670&BRUTUHI2W2QHPBQ0&20200803&02000016&1813526975039&1813526975039&0&501&1&boshzjjg&
20080330020100554671&WW7TEI622SL6HPN9&20200803&02000016&1818631271361&1818631271361&0&80240&240&boshzjjg&
20080330020100554676&EHZ2B5WZ8YZNCN04&20200803&02000016&1815530270855&1815530270855&0&107021&321&boshzjjg&
20080330020100554602&OXSJM4N3IXSAKXHN&20200803&02000016&1813820546821&1813820546821&0&50150&150&boshzjjg&
20080330020100554604&AOG64F2F2LVAEH64&20200803&02000016&1813529538686&1813529538686&0&20060&60&boshzjjg&
20080330020100554496&WUYMWW4WF4J81EJ0&20200803&02000016&1815045749881&1815045749881&0&20060&60&boshzjjg&
20080330020100554685&J4VVUREJS8L5RO5S&20200803&02000016&1813191684413&1813191684413&0&70210&210&boshzjjg&
20080330020100554621&7I5PSYEVTU49U6V2&20200803&02000016&1818008828170&1818008828170&0&20060&60&boshzjjg&
20080330020100554693&EIMYBELQU3JJYJRE&20200803&02000016&1815097408526&1815097408526&0&10130&30&boshzjjg&
20080330020100554695&HIY5XCB1YN42F1C1&20200803&02000016&1813477507375&1813477507375&0&50150&150&boshzjjg&
20080330020100554532&KOM2YVIDEQAUIEOM&20200803&02000016&1813577503685&1813577503685&0&581745&1745&boshzjjg&
20080330020100554533&IO9R0GL85701BT9Z&20200803&02000016&1815045790917&1815045790917&0&12036&36&boshzjjg&
20080330020100554745&K1RKXLFP3AIPQYQX&20200803&02000016&1818132717939&1818132717939&0&31093&93&boshzjjg&
20080330020100554834&BJ13ZO4G8ZISXHP1&20200803&02000016&1819995866890&1819995866890&0&20060&60&boshzjjg&
20080330020100554720&WNABXXY5BXPYPQMW&20200803&02000016&1813730157568&1813730157568&0&20060&60&boshzjjg&
20080330020100554751&928Z7G33TYXA2V23&20200803&02000016&1817303121352&1817303121352&0&20060&60&boshzjjg&
20080330020100554753&OJEX4SWO9ETUMHJG&20200803&02000016&1813220168777&1813220168777&0&50150&150&boshzjjg&
20080330020100554728&J2WBNLEXB68HW16N&20200803&02000016&1813933167719&1813933167719&0&20060&60&boshzjjg&
20080330020100554842&DMCR8FG0Q7PEQUIL&20200803&02000016&1818940967978&1818940967978&0&40120&120&boshzjjg&
20080330020100554844&8C75SIZ2K5IZUO9O&20200803&02000016&1813961957658&1813961957658&0&50150&150&boshzjjg&
20080330020100554761&8GRFUTU1RQNPROTL&20200803&02000016&1813161708337&1813161708337&0&40120&120&boshzjjg&
20080330020100554762&KKTTX1FL89BSRJD0&20200803&02000016&1813831598921&1813831598921&0&15045&45&boshzjjg&
20080330020100554733&ZCA6B9SBHR8LRGYB&20200803&02000016&1815094665586&1815094665586&0&10030&30&boshzjjg&
20080330020100554937&AL7WBI98HTYAMCRP&20200803&02000016&1813472297749&1813472297749&0&20060&60&boshzjjg&
20080330020100554850&57OFCSXQB6X96EVP&20200803&02000016&1815334341131&1815334341131&0&501504&1504&boshzjjg&
20080330020100554785&HTZLFIJRQJ6R1QOD&20200803&02000016&1819188128851&1819188128851&0&70210&210&boshzjjg&
20080330020100554955&EG9L4MB05JQX0HVU&20200803&02000016&1818210293990&1818210293990&0&15045&45&boshzjjg&
20080330020100554869&YFJT2D6DW2S179FU&20200803&02000016&1815233745111&1815233745111&0&70210&210&boshzjjg&
20080330020100554958&LOLCQMTPZSYNPEO0&20200803&02000016&1800100000028&1800100000028&0&40120&120&boshzjjg&
20080330020100554877&JFH15GUU8UZ5X6SG&20200803&02000016&1815636926050&1815636926050&0&10030&30&boshzjjg&
20080330020100554790&CSWNMYVT7M01Z2I8&20200803&02000016&1813930256205&1813930256205&0&10030&30&boshzjjg&
20080330020100554878&5VD2J24LQ1F91ETD&20200803&02000016&1818288100018&1818288100018&0&220661&661&boshzjjg&
20080330020100554964&K57UYZ2GOIYL08N2&20200803&02000016&1818008829058&1818008829058&0&200601&601&boshzjjg&
20080330020100554791&FQJUAPGQG7Q1WXEF&20200803&02000016&1813898831243&1813898831243&0&10030&30&boshzjjg&
20080330020100554792&MCZ22TEJP9Y4MZD5&20200803&02000016&1815727394536&1815727394536&0&70210&210&boshzjjg&
20080330020100554965&46O43XF7TKM8E29Z&20200803&02000016&1818638809994&1818638809994&0&200601&601&boshzjjg&
20080330020100554966&CG9GDRX7PVL53NJC&20200803&02000016&1819912156726&1819912156726&0&30090&90&boshzjjg&
20080330020100554794&M9ZCJ6RJE7BEDJI5&20200803&02000016&1817777834168&1817777834168&0&20060&60&boshzjjg&
20080330020100554883&4EINTEHOL8ED7AFB&20200803&02000016&1818988233957&1818988233957&0&70210&210&boshzjjg&
20080330020100554884&T6LXFKCBAX0RPC6E&20200803&02000016&1815633627668&1815633627668&0&10030&30&boshzjjg&
20080330020100554968&MSGV4KOCBSE20SWW&20200803&02000016&1815993199217&1815993199217&0&10030&30&boshzjjg&
20080330020100554795&B6G4S42J4XQL9EYW&20200803&02000016&1813616379545&1813616379545&0&14042&42&boshzjjg&
20080330020100554970&SL7EM763D6NDAOIE&20200803&02000016&1815832285526&1815832285526&0&14042&42&boshzjjg&
20080330020100554797&KOQ5EXFXE27AXEQV&20200803&02000016&1813230871788&1813230871788&0&12036&36&boshzjjg&
20080330020100554799&L0BHYZDTUH875O0K&20200803&02000016&1818531222131&1818531222131&0&15045&45&boshzjjg&
20080330020100554889&AXWAPFVLMCD2R7V4&20200803&02000016&1815512595393&1815512595393&0&10030&30&boshzjjg&
20080330020100554890&8BAK1CQLROEJYOIO&20200803&02000016&1818834581128&1818834581128&0&10030&30&boshzjjg&
20080330020100554974&I48LBKHCP978HC8L&20200803&02000016&1815861099820&1815861099820&0&10030&30&boshzjjg&
20080330020100554802&IK9E94IGWX3XWXQF&20200803&02000016&1813545997179&1813545997179&0&20060&60&boshzjjg&
20080330020100554976&ZS6TL9OKUGKEOI7J&20200803&02000016&1815331519738&1815331519738&0&70210&210&boshzjjg&
20080330020100554803&1HNNP8N5W4QE0QBF&20200803&02000016&1818741608136&1818741608136&0&10030&30&boshzjjg&
20080330020100554893&CAK5I6FVMPHV87YS&20200803&02000016&1815771836378&1815771836378&0&16048&48&boshzjjg&
20080330020100554821&6PH16YYCNKJGK01D&20200803&02000016&1815330257393&1815330257393&0&100300&300&boshzjjg&
20080330020100554997&TSI60CT19T1S4NUJ&20200803&02000016&1818329324056&1818329324056&0&10030&30&boshzjjg&
20080330020100554823&PLG8GZMQIM0VJ42V&20200803&02000016&1815330257393&1815330257393&0&80240&240&boshzjjg&
20080330020100554824&LCWAL0KOH3T941LS&20200803&02000016&1813577525294&1813577525294&0&15045&45&boshzjjg&
20080330020100554909&CZ4P5K3FMZP5JKNI&20200803&02000016&1813958157143&1813958157143&0&50150&150&boshzjjg&
20080330020100554910&Q9GAZ815W5F5CUJT&20200803&02000016&1815131610496&1815131610496&0&10030&30&boshzjjg&
20080330020100555000&TT6T6SNUZSCA3MWS&20200803&02000016&1815579647169&1815579647169&0&10130&30&boshzjjg&
20080330020100555001&BO9QO1DQJTXIGC0I&20200803&02000016&1815175228012&1815175228012&0&15045&45&boshzjjg&
20080330020100555002&2DVAR9DLDCAQEUZ9&20200803&02000016&1813310933838&1813310933838&0&28686&86&boshzjjg&
20080330020100554829&YSXE2JJH5CQ9FIJG&20200803&02000016&1815887508589&1815887508589&0&20060&60&boshzjjg&
20080330020100555004&OWXU58K4H9HTU5L6&20200803&02000016&1815389494945&1815389494945&0&12738&38&boshzjjg&
20080330020100555005&2TT32OOODLHHIRLB&20200803&02000016&1818988219915&1818988219915&0&200601&601&boshzjjg&
20080330020100555008&8MK7LYAYB2C0U1ZT&20200803&02000016&1813987581003&1813987581003&0&100300&300&boshzjjg&
20080330020100554832&STKEA3ICSPU0XZDM&20200803&02000016&1813311475723&1813311475723&0&180541&541&boshzjjg&
20080330020100554833&TOPKWU34CR0BI18P&20200803&02000016&1813832296893&1813832296893&0&10030&30&boshzjjg&
20080330020100555009&UFN43GXYWR3OQ7LY&20200803&02000016&1818214662231&1818214662231&0&50150&150&boshzjjg&
20080330020100554917&0L8V5OAJINRYI1UN&20200803&02000016&1815175359813&1815175359813&0&60180&180&boshzjjg&
20080330020100555010&3W9XK17BY1X78HLG&20200803&02000016&1818103121030&1818103121030&0&30090&90&boshzjjg&
20080330020100555034&OPPXEJ1GBU3TM0U7&20200803&02000016&1800100000025&1800100000025&0&60180&180&boshzjjg&
20080330020100555011&VQ02BI3KT7ZORHVL&20200803&02000016&1815887537882&1815887537882&0&200601&601&boshzjjg&
20080330020100554918&VWVTFY1IIRYJP15E&20200803&02000016&1818161735141&1818161735141&0&10030&30&boshzjjg&
20080330020100555038&UBUGJUC33Y7R6LVV&20200803&02000016&1813914690005&1813914690005&0&50150&150&boshzjjg&
20080330020100554922&UAFV3RNDHD985FQA&20200803&02000016&1815087553123&1815087553123&0&190571&571&boshzjjg&
20080330020100555040&LAEPHCGVHYWUAPLE&20200803&02000016&1813932211661&1813932211661&0&20060&60&boshzjjg&
20080330020100555012&4OHZ9APJAWDFQ3WB&20200803&02000016&1818187582339&1818187582339&0&10030&30&boshzjjg&
20080330020100554923&3MQHKX4YKOKFLGFN&20200803&02000016&1817734013098&1817734013098&0&10030&30&boshzjjg&
20080330020100555018&E4A9HIY3COAXGT2T&20200803&02000016&1815930470091&1815930470091&0&10030&30&boshzjjg&
20080330020100555044&MBID6J21FE4EA3CX&20200803&02000016&1813277289356&1813277289356&0&10030&30&boshzjjg&
20080330020100555019&Q8H4HWIYIIH7H4EN&20200803&02000016&1815733368687&1815733368687&0&180541&541&boshzjjg&
20080330020100554926&3VOX8QE79CGTG6KQ&20200803&02000016&1813903229313&1813903229313&0&90270&270&boshzjjg&
20080330020100555045&L8QLNNBEGLRB8GHC&20200803&02000016&1813400389138&1813400389138&0&10030&30&boshzjjg&
20080330020100555021&9V4FJC1JFUV7AX2A&20200803&02000016&1813808781900&1813808781900&0&50150&150&boshzjjg&
20080330020100554930&YE4K95UN1JWUJ8GT&20200803&02000016&1815076235183&1815076235183&0&79237&237&boshzjjg&
20080330020100554932&PYF1U2SCO3U52Q1B&20200803&02000016&1815145270199&1815145270199&0&20060&60&boshzjjg&
20080330020100554933&DHW2E2XQ6QQTHXG3&20200803&02000016&1813222336857&1813222336857&0&20060&60&boshzjjg&
20080330020100555053&I03TW0BLWF2P71V6&20200803&02000016&1813545938209&1813545938209&0&200601&601&boshzjjg&
20080330020100555134&0ERHIUR1UPGFI8FK&20200803&02000016&1815534463761&1815534463761&0&1003&3&boshzjjg&
20080330020100555028&KAW6314UE26IKMG2&20200803&02000016&1815032232283&1815032232283&0&30090&90&boshzjjg&
20080330020100555138&6SMA2AGTTDHOU2XP&20200803&02000016&1815227098333&1815227098333&0&10030&30&boshzjjg&
20080330020100555029&D6Q4KJFNSUC4CVPU&20200803&02000016&1818987500186&1818987500186&0&30090&90&boshzjjg&
20080330020100555031&G79C3WKHTSTZ2CBL&20200803&02000016&1817304211987&1817304211987&0&10030&30&boshzjjg&
20080330020100555139&ZOAV1NY1QMFRFZS1&20200803&02000016&1815100214010&1815100214010&0&70210&210&boshzjjg&
20080330020100555140&YSS9GX61GS0QG4TT&20200803&02000016&1818689707602&1818689707602&0&10030&30&boshzjjg&
20080330020100555141&7GLFCRDNSUSOWCZR&20200803&02000016&1815534463761&1815534463761&0&1003&3&boshzjjg&
20080330020100555059&EW8YJXIDJC9KM99C&20200803&02000016&1815930239024&1815930239024&0&30090&90&boshzjjg&
20080330020100555147&3N3VLA51SL8DTHD4&20200803&02000016&1815187507752&1815187507752&0&70210&210&boshzjjg&
20080330020100555239&91GTH68I3PIURC4W&20200803&02000016&1818761209931&1818761209931&0&100300&300&boshzjjg&
20080330020100555243&LFTZDQKM48H87HYH&20200803&02000016&1815940272518&1815940272518&0&45135&135&boshzjjg&
20080330020100555085&GUFOBJLZHP9WUPZA&20200803&02000016&1813998301313&1813998301313&0&10732&32&boshzjjg&
20080330020100555086&LJZGQN9ASHNZ6MST&20200803&02000016&1813986948741&1813986948741&0&120361&361&boshzjjg&
20080330020100555090&M0TKCV4UTUBQG1M6&20200803&02000016&1815145270199&1815145270199&0&10030&30&boshzjjg&
20080330020100555167&DKINSKS1KN0R9BH2&20200803&02000016&1813235522109&1813235522109&0&50150&150&boshzjjg&
20080330020100555256&LYWJRO5I1YCCKUU8&20200803&02000016&1818088174982&1818088174982&0&100300&300&boshzjjg&
20080330020100555258&O0P7J3W7JGRTPL0B&20200803&02000016&1818760038371&1818760038371&0&150451&451&boshzjjg&
20080330020100555259&7V0PADHADT0JOMO8&20200803&02000016&1815046887099&1815046887099&0&50150&150&boshzjjg&
20080330020100555170&0ERWYJWLEDJ92LY9&20200803&02000016&1815544968713&1815544968713&0&20060&60&boshzjjg&
20080330020100555260&GKZXMRE8PF9YMY6J&20200803&02000016&1815930757530&1815930757530&0&10030&30&boshzjjg&
20080330020100555096&QE17M9PUW8G5CUAC&20200803&02000016&1818032526472&1818032526472&0&50150&150&boshzjjg&
20080330020100555263&K3KX8LWFEZZI199M&20200803&02000016&1818788202588&1818788202588&0&60180&180&boshzjjg&
20080330020100555099&1IVTWDASRJP5L7YC&20200803&02000016&1813988222217&1813988222217&0&70210&210&boshzjjg&
20080330020100555173&K7WNSJNJ4NI19GG1&20200803&02000016&1800100000187&1800100000187&0&30090&90&boshzjjg&
20080330020100555264&PD27K0UGRNHQKI25&20200803&02000016&1815208999328&1815208999328&0&20060&60&boshzjjg&
20080330020100555101&UWNQ1F91J18Q9HTS&20200803&02000016&1818159800103&1818159800103&0&180541&541&boshzjjg&
20080330020100555102&MM1MSWUW1FWFI570&20200803&02000016&1813653389009&1813653389009&0&10030&30&boshzjjg&
20080330020100555179&MESTU7EPDCFL31UE&20200803&02000016&1813545932491&1813545932491&0&50150&150&boshzjjg&
20080330020100555103&9WBK8GH3LIFI0KSR&20200803&02000016&1813231500951&1813231500951&0&10030&30&boshzjjg&
20080330020100555267&LHRERFMJY1CAIZTT&20200803&02000016&1818714555279&1818714555279&0&23069&69&boshzjjg&
20080330020100555106&6A9WTJ8F2CK21CIK&20200803&02000016&1813772783332&1813772783332&0&10030&30&boshzjjg&
20080330020100555270&0GHDQSXLBUGDTPAZ&20200803&02000016&1813703151462&1813703151462&0&11033&33&boshzjjg&
20080330020100555184&GK55WRKFHJ47Z73W&20200803&02000016&1818604681909&1818604681909&0&22066&66&boshzjjg&
20080330020100555271&BZSMOUEO4FRA87MA&20200803&02000016&1813972935532&1813972935532&0&20060&60&boshzjjg&
20080330020100555272&LCV1KQQ9ISHHR4IX&20200803&02000016&1800100000253&1800100000253&0&10030&30&boshzjjg&
20080330020100555274&K7W6EPOQMXEX8V9T&20200803&02000016&1815904002064&1815904002064&0&50150&150&boshzjjg&
20080330020100555275&USI9WH33JH4R3D5D&20200803&02000016&1813191758429&1813191758429&0&12036&36&boshzjjg&
20080330020100555110&CH9DGN86ZT248R06&20200803&02000016&1815630158606&1815630158606&0&20060&60&boshzjjg&
20080330020100555189&AF07K2J4F87RROKS&20200803&02000016&1818889422056&1818889422056&0&10030&30&boshzjjg&
20080330020100555193&XIWMKBFT3KHUEX8X&20200803&02000016&1813730269656&1813730269656&0&10030&30&boshzjjg&
20080330020100555283&69OELZ0AQRKED8DW&20200803&02000016&1813759215123&1813759215123&0&140421&421&boshzjjg&
20080330020100555194&LEKQANWF3YUAS98N&20200803&02000016&1815046887099&1815046887099&0&10030&30&boshzjjg&
20080330020100555114&3ZEHLD19CS6WC1GG&20200803&02000016&1815298581463&1815298581463&0&401203&1203&boshzjjg&
20080330020100555115&EZYFRG2IBGFCWPY4&20200803&02000016&1813703222606&1813703222606&0&10030&30&boshzjjg&
20080330020100555196&VW1I8LTASWLI09PZ&20200803&02000016&1818645527797&1818645527797&0&10030&30&boshzjjg&
20080330020100555197&ZQ716D80GPQM75CL&20200803&02000016&1815145270199&1815145270199&0&20060&60&boshzjjg&
20080330020100555198&3OPGUJFWVZOAMGTN&20200803&02000016&1813323299114&1813323299114&0&10030&30&boshzjjg&
20080330020100555288&NN9MKD7AJNENQSUG&20200803&02000016&1813990752155&1813990752155&0&20060&60&boshzjjg&
20080330020100555202&N0PFC7FHNU5A5MAL&20200803&02000016&1813400267349&1813400267349&0&10130&30&boshzjjg&
20080330020100555122&YM7RSCJCII1JD6AV&20200803&02000016&1818909995887&1818909995887&0&50150&150&boshzjjg&
20080330020100555203&Z73L0KDEBCDG22Z2&20200803&02000016&1818976770088&1818976770088&0&25075&75&boshzjjg&
20080330020100555125&IDZ1J0SR62F5BWUX&20200803&02000016&1813533931143&1813533931143&0&28084&84&boshzjjg&
20080330020100555340&TE76UOSVO9JXOQR8&20200803&02000016&1818045872581&1818045872581&0&10030&30&boshzjjg&
20080330020100555312&RXIMRY55OJRW66EB&20200803&02000016&1818331186688&1818331186688&0&100300&300&boshzjjg&
20080330020100555313&VLXGWHZDHZA4A9OE&20200803&02000016&1813070527319&1813070527319&0&50150&150&boshzjjg&
20080330020100555345&B2FOIKQBMJ8Z5FXS&20200803&02000016&1815087527527&1815087527527&0&20060&60&boshzjjg&
20080330020100555317&03UI23DL3JDZNO3O&20200803&02000016&1815561743759&1815561743759&0&10030&30&boshzjjg&
20080330020100555346&IHZYMIPV7TWBZ9K4&20200803&02000016&1813785222268&1813785222268&0&40120&120&boshzjjg&
20080330020100555348&VLCEUAY2DLQFHSQV&20200803&02000016&1813623333299&1813623333299&0&40120&120&boshzjjg&
20080330020100555320&CPSVV7VV09BFSU9K&20200803&02000016&1813730509445&1813730509445&0&11033&33&boshzjjg&
20080330020100555434&ZM9C106VQL9Q7ATP&20200803&02000016&1815146022439&1815146022439&0&20060&60&boshzjjg&
20080330020100555322&ROLVGS6V416863R7&20200803&02000016&1818875037395&1818875037395&0&10130&30&boshzjjg&
20080330020100555436&N6UWVID4TSH6YQI8&20200803&02000016&1815146022439&1815146022439&0&20060&60&boshzjjg&
20080330020100555349&M8ZQPO0706S7WCNU&20200803&02000016&1818787552261&1818787552261&0&60180&180&boshzjjg&
20080330020100555323&7VHMPSZL85YETMVX&20200803&02000016&1815146022439&1815146022439&0&20060&60&boshzjjg&
20080330020100555437&45COHJZEJ1QXJDQR&20200803&02000016&1817710910032&1817710910032&0&180541&541&boshzjjg&
20080330020100555353&MAIX76DQ74HT5VXE&20200803&02000016&1815028446585&1815028446585&0&10030&30&boshzjjg&
20080330020100555441&8VWRM7DSPQSGR6YB&20200803&02000016&1815223491500&1815223491500&0&10030&30&boshzjjg&
20080330020100555444&IE58UYNUTO84UP6T&20200803&02000016&1813111448814&1813111448814&0&10030&30&boshzjjg&
20080330020100555357&7ZN2CYUGBQQFA0VZ&20200803&02000016&1817796982621&1817796982621&0&10531&31&boshzjjg&
20080330020100555330&UNRJ40CJP5X95NG4&20200803&02000016&1818091149039&1818091149039&0&351053&1053&boshzjjg&
20080330020100555449&VQJ3ACDYGVEK72WY&20200803&02000016&1815945805951&1815945805951&0&10030&30&boshzjjg&
20080330020100555454&RKMX9KSY9SZXM13I&20200803&02000016&1815097795020&1815097795020&0&10030&30&boshzjjg&
20080330020100555362&JB6YWZ6NZGJNAUPR&20200803&02000016&1813731660124&1813731660124&0&20060&60&boshzjjg&
20080330020100555455&46OJMV19GH406GSB&20200803&02000016&1813796790256&1813796790256&0&20060&60&boshzjjg&
20080330020100555534&JHMBKP76B5IU9J43&20200803&02000016&1813681926479&1813681926479&0&230692&692&boshzjjg&
20080330020100555365&VRPV550MD1Z0Z9CD&20200803&02000016&1813009970011&1813009970011&0&10030&30&boshzjjg&
20080330020100555535&7KQAKNVLRVC6T9HD&20200803&02000016&1815288116989&1815288116989&0&180541&541&boshzjjg&
20080330020100555458&FUUIQ859AG59DBHU&20200803&02000016&1818779946893&1818779946893&0&19057&57&boshzjjg&
20080330020100555538&5AWVY8KUGJ5W1QIM&20200803&02000016&1813796790256&1813796790256&0&20060&60&boshzjjg&
20080330020100555369&TSLJZB6D8ZMKXGRH&20200803&02000016&1815633298879&1815633298879&0&30090&90&boshzjjg&
20080330020100555551&TA3J1XK5I4PGFYLD&20200803&02000016&1813903225864&1813903225864&0&20060&60&boshzjjg&
20080330020100555478&2TL6PUZPXPRCA8LW&20200803&02000016&1818233358282&1818233358282&0&10130&30&boshzjjg&
20080330020100555479&4B6OCXRKYC7P16YK&20200803&02000016&1813796790256&1813796790256&0&20060&60&boshzjjg&
20080330020100555383&5S1ZQYCT3XFK5ANM&20200803&02000016&1813933286024&1813933286024&0&40120&120&boshzjjg&
20080330020100555565&K6TY50XXBPCOFLWP&20200803&02000016&1818617854952&1818617854952&0&10030&30&boshzjjg&
20080330020100555481&J55CEL5VPWK4AGKO&20200803&02000016&1813846055840&1813846055840&0&25075&75&boshzjjg&
20080330020100555567&L1KQJ6TPR5G1JSO5&20200803&02000016&1813796790256&1813796790256&0&30090&90&boshzjjg&
20080330020100555569&IJ04SV2GE14E6Z46&20200803&02000016&1813825724130&1813825724130&0&50150&150&boshzjjg&
20080330020100555387&0I5WLT6X38NBI6WA&20200803&02000016&1815933075786&1815933075786&0&50150&150&boshzjjg&
20080330020100555570&H51IG410XAEW3ZSM&20200803&02000016&1813846873625&1813846873625&0&10030&30&boshzjjg&
20080330020100555390&YPDWDTA519B6F5CB&20200803&02000016&1800100000048&1800100000048&0&100300&300&boshzjjg&
20080330020100555488&SCYGIWNLB3SYZVIC&20200803&02000016&1815303323096&1815303323096&0&210631&631&boshzjjg&
20080330020100555392&EO3QTMV94W4SMUKL&20200803&02000016&1813320061039&1813320061039&0&22066&66&boshzjjg&
20080330020100555395&963OYIZZI7HKAXWY&20200803&02000016&1813252712046&1813252712046&0&411233&1233&boshzjjg&
20080330020100555492&CZAXQMSEZ9AYWKWT&20200803&02000016&1815108605312&1815108605312&0&160481&481&boshzjjg&
20080330020100555493&VDCGQGWI5A80AHF7&20200803&02000016&1815176657685&1815176657685&0&20060&60&boshzjjg&
20080330020100555494&5369V9BDQ2V39MLM&20200803&02000016&1813266662096&1813266662096&0&10030&30&boshzjjg&
20080330020100555576&RLQMJ3NQ7KHX0ZN0&20200803&02000016&1813946779996&1813946779996&0&10030&30&boshzjjg&
20080330020100555495&CJ8CUA5N9NUOMX8T&20200803&02000016&1815045503182&1815045503182&0&10030&30&boshzjjg&
20080330020100555397&519AX1NCFIQRB651&20200803&02000016&1813591148644&1813591148644&0&30090&90&boshzjjg&
20080330020100555496&G7F8Y8K5JL8LIB9P&20200803&02000016&1813064860909&1813064860909&0&30090&90&boshzjjg&
20080330020100555497&QPUBVM0ZH2S530IN&20200803&02000016&1800100000196&1800100000196&0&38114&114&boshzjjg&
20080330020100555398&HYEYYV3AO0FDQAB0&20200803&02000016&1800100000022&1800100000022&0&200601&601&boshzjjg&
20080330020100555577&Z3KAMMUEMQ2T9IZP&20200803&02000016&1813897951201&1813897951201&0&10030&30&boshzjjg&
20080330020100555578&RMS5AL0105F89TAS&20200803&02000016&1813831527971&1813831527971&0&10030&30&boshzjjg&
20080330020100555500&X7EQIGBLJJTBN9KU&20200803&02000016&1800100000087&1800100000087&0&10030&30&boshzjjg&
20080330020100555503&W6W6P9AMDHXW9MES&20200803&02000016&1813683131563&1813683131563&0&15045&45&boshzjjg&
20080330020100555504&4TT2Z3HMERHSCE18&20200803&02000016&1813909147787&1813909147787&0&20060&60&boshzjjg&
20080330020100555505&GSOJBNT21VTTIJLE&20200803&02000016&1813932238474&1813932238474&0&20060&60&boshzjjg&
20080330020100555584&53OCYYAASNG7LX28&20200803&02000016&1815127498151&1815127498151&0&30090&90&boshzjjg&
20080330020100555585&H9QLOMVWPSR1WFZQ&20200803&02000016&1813931289112&1813931289112&0&230692&692&boshzjjg&
20080330020100555407&R405QU3CUKMYTDHW&20200803&02000016&1815586314943&1815586314943&0&50150&150&boshzjjg&
20080330020100555416&DJRI3YEMTLJGM5JV&20200803&02000016&1813628870074&1813628870074&0&50150&150&boshzjjg&
20080330020100555601&MLAYQCYT6ZQRJN2X&20200803&02000016&1813832562778&1813832562778&0&10531&31&boshzjjg&
20080330020100555602&S862LOT0ZG5MASFB&20200803&02000016&1818139878675&1818139878675&0&15045&45&boshzjjg&
20080330020100555603&UL1N2CKVUZGQLV0W&20200803&02000016&1815241171965&1815241171965&0&10030&30&boshzjjg&
20080330020100555526&0R7HKBD8Y3EH45EE&20200803&02000016&1813832526017&1813832526017&0&20060&60&boshzjjg&
20080330020100555604&6519A6J9LWESS6OE&20200803&02000016&1815204682299&1815204682299&0&10030&30&boshzjjg&
20080330020100555529&5HJKTOCIYLRCUHR1&20200803&02000016&1815887550134&1815887550134&0&60180&180&boshzjjg&
20080330020100555533&07WC7AO89DI24KRR&20200803&02000016&1815704687728&1815704687728&0&10030&30&boshzjjg&
20080330020100555608&4ISXCMIX9XREYLFB&20200803&02000016&1813224207506&1813224207506&0&10030&30&boshzjjg&
20080330020100555637&07U0Q3A6QAF412E3&20200803&02000016&1815630880329&1815630880329&0&10130&30&boshzjjg&
20080330020100555638&IZSXU2C6EOFID87A&20200803&02000016&1815132271576&1815132271576&0&80240&240&boshzjjg&
20080330020100555609&O1BK0NZ9HBCHUOWP&20200803&02000016&1813529529358&1813529529358&0&150451&451&boshzjjg&
20080330020100555610&C0EEAD3W9AF5EXOK&20200803&02000016&1800100000088&1800100000088&0&220661&661&boshzjjg&
20080330020100555426&QHR42SUN7I1GNHDM&20200803&02000016&1818787565657&1818787565657&0&80240&240&boshzjjg&
20080330020100555427&CIZQI1J6T4Y359F2&20200803&02000016&1818524248205&1818524248205&0&20060&60&boshzjjg&
20080330020100555618&9U7E6IGCCZY0EBQA&20200803&02000016&1813833495795&1813833495795&0&10030&30&boshzjjg&
20080330020100555432&VBJMMLBKYA6S8JK4&20200803&02000016&1813398988138&1813398988138&0&10030&30&boshzjjg&
20080330020100555619&MX1OUMLHE4OY6F6C&20200803&02000016&1818903380276&1818903380276&0&10030&30&boshzjjg&
20080330020100555644&QQHF40C1PLE8FR6H&20200803&02000016&1815630269016&1815630269016&0&20060&60&boshzjjg&
20080330020100555621&OQLDMKZFT7FE8F3S&20200803&02000016&1813171699300&1813171699300&0&50150&150&boshzjjg&
20080330020100555645&359MKVR62PBW5PCV&20200803&02000016&1813739822199&1813739822199&0&10030&30&boshzjjg&
20080330020100555738&QNBSQXWSU1RGAA4U&20200803&02000016&1815137614144&1815137614144&0&10631&31&boshzjjg&
20080330020100555646&J9M5XLAAQ77EUX20&20200803&02000016&1818431266975&1818431266975&0&35105&105&boshzjjg&
20080330020100555622&WNEFVFTWGT672228&20200803&02000016&1813231508123&1813231508123&0&10030&30&boshzjjg&
20080330020100555624&TKF4RINFN5C2Q9YP&20200803&02000016&1818931441806&1818931441806&0&10030&30&boshzjjg&
20080330020100555625&5KYGOO2RWT4QQARZ&20200803&02000016&1813988266618&1813988266618&0&10030&30&boshzjjg&
20080330020100555626&DHIAJ78UE2MD86IQ&20200803&02000016&1815333221709&1815333221709&0&40120&120&boshzjjg&
20080330020100555653&ABJPF18384IGX19N&20200803&02000016&1815100269110&1815100269110&0&150451&451&boshzjjg&
20080330020100555743&JFPKUIQ49HVHAO9A&20200803&02000016&1815903327688&1815903327688&0&22066&66&boshzjjg&
20080330020100555654&JZBAM93I855GRC92&20200803&02000016&1818087500614&1818087500614&0&80240&240&boshzjjg&
20080330020100555836&IX9D88RLA9FC3LOL&20200803&02000016&1813836555299&1813836555299&0&30090&90&boshzjjg&
20080330020100555753&MKILGD7OR838CLQC&20200803&02000016&1818730588858&1818730588858&0&15045&45&boshzjjg&
20080330020100555841&8EYL6S1CRW5CMCB1&20200803&02000016&1815184959338&1815184959338&0&90270&270&boshzjjg&
20080330020100555842&XVNPOXRDV6Y8K7TT&20200803&02000016&1818032588673&1818032588673&0&10030&30&boshzjjg&
20080330020100555670&WZ9TP3Q29POJVW3D&20200803&02000016&1817732257729&1817732257729&0&11434&34&boshzjjg&
20080330020100555754&2PX3WLJQMOFC84CS&20200803&02000016&1815931915886&1815931915886&0&10030&30&boshzjjg&
20080330020100555843&L2IK7PI7JZ2WT38D&20200803&02000016&1815100500891&1815100500891&0&16048&48&boshzjjg&
20080330020100555755&BURS680GM9DUXD8M&20200803&02000016&1813962570116&1813962570116&0&300902&902&boshzjjg&
20080330020100555845&IYB3NKSK96Y9HX9V&20200803&02000016&1813373551641&1813373551641&0&10030&30&boshzjjg&
20080330020100555850&L3SYGK2EUSPL6GYQ&20200803&02000016&1818945765909&1818945765909&0&10030&30&boshzjjg&
20080330020100555679&MUA226ODHRYH3T8U&20200803&02000016&1813730441093&1813730441093&0&20060&60&boshzjjg&
20080330020100555680&N6BKE68FOSNFSH90&20200803&02000016&1817778882068&1817778882068&0&10030&30&boshzjjg&
20080330020100555681&0N90ROY3DSKZNUTY&20200803&02000016&1813987540345&1813987540345&0&110330&330&boshzjjg&
20080330020100555853&89FE3CF6IYUH2194&20200803&02000016&1814784685555&1814784685555&0&40120&120&boshzjjg&
20080330020100555762&98URTYSIWXIIRVMG&20200803&02000016&1818348909027&1818348909027&0&151253&453&boshzjjg&
20080330020100555682&85FL2DJOFQ37C65W&20200803&02000016&1813987515260&1813987515260&0&80240&240&boshzjjg&
20080330020100555763&MWJ5EDEFFPPZJ5NS&20200803&02000016&1813578236615&1813578236615&0&10030&30&boshzjjg&
20080330020100555767&YLH2QVUUCOW5KOP5&20200803&02000016&1813988274451&1813988274451&0&120361&361&boshzjjg&
20080330020100555768&8KPIJFMY0KHN78XS&20200803&02000016&1815925024801&1815925024801&0&80240&240&boshzjjg&
20080330020100555689&ZE2HO8DZKVC7GHKD&20200803&02000016&1815887553366&1815887553366&0&50150&150&boshzjjg&
20080330020100555690&IOTFUMKHMGKCVAP5&20200803&02000016&1817532069209&1817532069209&0&170511&511&boshzjjg&
20080330020100555692&4IVTSF3RVQ32DRGI&20200803&02000016&1813731208322&1813731208322&0&10030&30&boshzjjg&
20080330020100555772&PTTFSG47JVBUFFEV&20200803&02000016&1813628842633&1813628842633&0&10030&30&boshzjjg&
20080330020100555856&GC03I8IN6LMC8U9X&20200803&02000016&1818987916256&1818987916256&0&100300&300&boshzjjg&
20080330020100555693&DUUOFJIIFTYV5K7G&20200803&02000016&1813134224697&1813134224697&0&20060&60&boshzjjg&
20080330020100555857&2MQ5VUM86CJ1IWCX&20200803&02000016&1815140671196&1815140671196&0&20060&60&boshzjjg&
20080330020100555858&R38NSYK3P8HN5O4A&20200803&02000016&1813908757293&1813908757293&0&140421&421&boshzjjg&
20080330020100555696&R7ZIMUW07SKN5R7I&20200803&02000016&1815838593992&1815838593992&0&40120&120&boshzjjg&
20080330020100555697&PKYAH6KEGIADHHHU&20200803&02000016&1818132599585&1818132599585&0&14042&42&boshzjjg&
20080330020100555698&MEALVL2DIL9X7X1K&20200803&02000016&1815358809184&1815358809184&0&200601&601&boshzjjg&
20080330020100555778&LIVUGE7TWUSAJKGF&20200803&02000016&1815227788236&1815227788236&0&20060&60&boshzjjg&
20080330020100555703&E2JU9WF2MH949EQZ&20200803&02000016&1817612456397&1817612456397&0&50150&150&boshzjjg&
20080330020100555705&WZT6YP3D5JBW4EF5&20200803&02000016&1818849824156&1818849824156&0&200601&601&boshzjjg&
20080330020100555706&JHCFZYEG64MVNUUT&20200803&02000016&1813988222092&1813988222092&0&26078&78&boshzjjg&
20080330020100555868&WJ4A6HZFXFV4HQMI&20200803&02000016&1813961959185&1813961959185&0&10030&30&boshzjjg&
20080330020100555707&M2ZY5H49CSP1U4KK&20200803&02000016&1813845158388&1813845158388&0&20060&60&boshzjjg&
20080330020100555869&9ZCWWP5578DFDMHT&20200803&02000016&1813674277407&1813674277407&0&50150&150&boshzjjg&
20080330020100555713&67OLY8K3AN017560&20200803&02000016&1815933739942&1815933739942&0&40120&120&boshzjjg&
20080330020100555732&KF583CQ9ZRFN5RUW&20200803&02000016&1813979604271&1813979604271&0&10030&30&boshzjjg&
20080330020100555733&XJVS7BYX8QAKPLY1&20200803&02000016&1813998824209&1813998824209&0&140421&421&boshzjjg&
20080330020100555892&DBTTLXMY4ALOCO12&20200803&02000016&1815187546096&1815187546096&0&230692&692&boshzjjg&
20080330020100555805&Q0ZIYKZ8UYGV47EO&20200803&02000016&1818031333310&1818031333310&0&10030&30&boshzjjg&
20080330020100555894&R7M7R31JTHWEEMWU&20200803&02000016&1813903228890&1813903228890&0&40120&120&boshzjjg&
20080330020100555807&WWJLB24920345AI1&20200803&02000016&1813089614313&1813089614313&0&20060&60&boshzjjg&
20080330020100555900&L4080LGVB3ZR2V04&20200803&02000016&1817536086009&1817536086009&0&40120&120&boshzjjg&
20080330020100555948&GKQO1XBLSNDFZK2J&20200803&02000016&1813463503191&1813463503191&0&10030&30&boshzjjg&
20080330020100555949&XMPUBGTEPZG1RZJ7&20200803&02000016&1813832271118&1813832271118&0&20060&60&boshzjjg&
20080330020100555916&SL61OOR8NR2G3MKU&20200803&02000016&1818313482200&1818313482200&0&20060&60&boshzjjg&
20080330020100555950&V6W13AYGNIO6WDYI&20200803&02000016&1813932525581&1813932525581&0&20060&60&boshzjjg&
20080330020100555826&1KOANZ8J93Q98M9P&20200803&02000016&1815998631955&1815998631955&0&11233&33&boshzjjg&
20080330020100555952&X1QMIGEO5INBOBSI&20200803&02000016&1813979672464&1813979672464&0&10030&30&boshzjjg&
20080330020100555954&B4TMEOSG6H5NSH03&20200803&02000016&1815128488288&1815128488288&0&10030&30&boshzjjg&
20080330020100555955&BNZ2EJBJRM8CEF1L&20200803&02000016&1815998631955&1815998631955&0&11233&33&boshzjjg&
20080330020100555959&C5BLLJFFW8GIR4ES&20200803&02000016&1813578236049&1813578236049&0&30090&90&boshzjjg&
20080330020100555960&MH23516BPFX9OHWY&20200803&02000016&1818288143229&1818288143229&0&50150&150&boshzjjg&
20080330020100555923&ZF8BCU11T4DK78PU&20200803&02000016&1817346665892&1817346665892&0&100300&300&boshzjjg&
20080330020100555928&YQF2QFFZA4PW22DK&20200803&02000016&1813997953437&1813997953437&0&40120&120&boshzjjg&
20080330020100555967&PBK4GY1DNTWBLFA2&20200803&02000016&1813832256871&1813832256871&0&10030&30&boshzjjg&
20080330020100555931&YVXI1UI2SZ6NKJXR&20200803&02000016&1800100000027&1800100000027&0&1003009&3009&boshzjjg&
20080330020100555832&DNJZPL281F2CIJA7&20200803&02000016&1813546380765&1813546380765&0&40120&120&boshzjjg&
20080330020100555971&EOHJOYV7BI7AEYSK&20200803&02000016&1800100000347&1800100000347&0&10030&30&boshzjjg&
20080330020100555976&2JQI2ZMT8AU7500Z&20200803&02000016&1813011926892&1813011926892&0&40120&120&boshzjjg&
20080330020100556039&LA2U3UYWK1EMBC7T&20200803&02000016&1813703283113&1813703283113&0&50150&150&boshzjjg&
20080330020100555977&DCA1N3KYPHYYHSK8&20200803&02000016&1815517971188&1815517971188&0&200601&601&boshzjjg&
20080330020100556139&4XIJ11N58Q17N7JJ&20200803&02000016&1813987508720&1813987508720&0&140421&421&boshzjjg&
20080330020100556149&3E03AER3JRMQZRRN&20200803&02000016&1815232607038&1815232607038&0&10030&30&boshzjjg&
20080330020100555987&PNLSLDTOJS1X7N17&20200803&02000016&1813587758991&1813587758991&0&10030&30&boshzjjg&
20080330020100555989&MUZ6DN1PLF1TZJ2Y&20200803&02000016&1813889877508&1813889877508&0&10030&30&boshzjjg&
20080330020100556152&4OBI6MJ98WGPDUU2&20200803&02000016&1818330218859&1818330218859&0&90270&270&boshzjjg&
20080330020100555990&YC9YIS1QYRHTWV5Y&20200803&02000016&1813484893066&1813484893066&0&190571&571&boshzjjg&
20080330020100556051&DV4U2SFL43B7G4XO&20200803&02000016&1813031511388&1813031511388&0&10030&30&boshzjjg&
20080330020100555992&H5VOA2QIWG5TWITR&20200803&02000016&1818774626308&1818774626308&0&25075&75&boshzjjg&
20080330020100555993&EXVVBRTDLSYS1XU4&20200803&02000016&1816735141313&1816735141313&0&200601&601&boshzjjg&
20080330020100555994&P048WUIJUFPSS07V&20200803&02000016&1815866353002&1815866353002&0&50150&150&boshzjjg&
20080330020100555997&VX10MQC882UH4ER1&20200803&02000016&1815733224256&1815733224256&0&5015&15&boshzjjg&
20080330020100556056&UBV0ZSXM5YODR8M3&20200803&02000016&1813230331640&1813230331640&0&10030&30&boshzjjg&
20080330020100556156&8GU4Y9N209DGVY18&20200803&02000016&1818507792116&1818507792116&0&40120&120&boshzjjg&
20080330020100555998&ANIBAVI3JXXJKW8C&20200803&02000016&1815933913379&1815933913379&0&40120&120&boshzjjg&
20080330020100555999&ZSHASLJW4S3F6BHM&20200803&02000016&1815633362628&1815633362628&0&10030&30&boshzjjg&
20080330020100556158&TJGB8TEDDABZJ71I&20200803&02000016&1815184597495&1815184597495&0&40120&120&boshzjjg&
20080330020100556002&PWIX2HKWS0ZS5MHD&20200803&02000016&1813785550440&1813785550440&0&30090&90&boshzjjg&
20080330020100556059&GOX2PN4JJ06Q7ORG&20200803&02000016&1813992400727&1813992400727&0&40120&120&boshzjjg&
20080330020100556159&YUZYTCMQF46SJPLJ&20200803&02000016&1815511520473&1815511520473&0&10030&30&boshzjjg&
20080330020100556060&LCNRLDHLU5PQ6LJI&20200803&02000016&1813909852916&1813909852916&0&10030&30&boshzjjg&
20080330020100556063&LY0H1AEVTTQWDSOJ&20200803&02000016&1813555344462&1813555344462&0&10030&30&boshzjjg&
20080330020100556162&KRBS98HQ5I88TPVT&20200803&02000016&1818131516269&1818131516269&0&20060&60&boshzjjg&
20080330020100556065&UZIWJUM33KXUERC6&20200803&02000016&1813323259697&1813323259697&0&20060&60&boshzjjg&
20080330020100556165&TBB8C95DD4Z5OCRT&20200803&02000016&1813803283883&1813803283883&0&10030&30&boshzjjg&
20080330020100556011&YJM62BBBWP4YEA2V&20200803&02000016&1813163653278&1813163653278&0&10030&30&boshzjjg&
20080330020100556081&HXB1OEE97TS5IHN8&20200803&02000016&1815097761333&1815097761333&0&10030&30&boshzjjg&
20080330020100556182&XSU6WB3TCF8T3HSK&20200803&02000016&1815042400515&1815042400515&0&10130&30&boshzjjg&
20080330020100556029&JF87Z6XMMBN2R1UG&20200803&02000016&1813483536053&1813483536053&0&10030&30&boshzjjg&
20080330020100556086&CAN961NP1W9LDF1T&20200803&02000016&1815094217570&1815094217570&0&120361&361&boshzjjg&
20080330020100556087&2V6D7GX47703Y2BH&20200803&02000016&1813230257587&1813230257587&0&10030&30&boshzjjg&
20080330020100556031&EG7RKQIFW83VIIKY&20200803&02000016&1818531767801&1818531767801&0&10030&30&boshzjjg&
20080330020100556185&KCWTD2OHFZ7Y777G&20200803&02000016&1818939026119&1818939026119&0&30090&90&boshzjjg&
20080330020100556186&ON3GK2EQVCXN484S&20200803&02000016&1818031191082&1818031191082&0&10030&30&boshzjjg&
20080330020100556089&FN44XOH48Q1IMB5I&20200803&02000016&1815230968133&1815230968133&0&10030&30&boshzjjg&
20080330020100556236&K8Z0M53LOM5NUK63&20200803&02000016&1813587765311&1813587765311&0&15045&45&boshzjjg&
20080330020100556239&K9PCXE1MTHVTJVJL&20200803&02000016&1818032090817&1818032090817&0&10030&30&boshzjjg&
20080330020100556098&I3BH49C4H99KQGJ5&20200803&02000016&1815940818417&1815940818417&0&10130&30&boshzjjg&
20080330020100556102&MN6EAPFIGB3QCAJC&20200803&02000016&1818331230111&1818331230111&0&20060&60&boshzjjg&
20080330020100556195&OP5V7BHSAGZLQ4BI&20200803&02000016&1813730288889&1813730288889&0&10030&30&boshzjjg&
20080330020100556104&R690MTHS68H0LPD2&20200803&02000016&1815512524009&1815512524009&0&20060&60&boshzjjg&
20080330020100556244&JKQI3VRY6AVA9OE7&20200803&02000016&1813931362643&1813931362643&0&200601&601&boshzjjg&
20080330020100556245&W6N7D6KYP21MBM3R&20200803&02000016&1815512524008&1815512524008&0&10030&30&boshzjjg&
20080330020100556198&SQURNFQTOPA25TTL&20200803&02000016&1815733288376&1815733288376&0&208124&624&boshzjjg&
20080330020100556201&OD4GVOA80LNXL4HC&20200803&02000016&1813483541305&1813483541305&0&10030&30&boshzjjg&
20080330020100556110&V2U1B5IFR3A8F8HG&20200803&02000016&1813832518485&1813832518485&0&10030&30&boshzjjg&
20080330020100556202&YOIBZ0IPR0YJBMLC&20200803&02000016&1815512590549&1815512590549&0&10030&30&boshzjjg&
20080330020100556207&M7XTKZKLW2PL6ZFO&20200803&02000016&1800100000046&1800100000046&0&200601&601&boshzjjg&
20080330020100556255&FGY72NJE8EX8K936&20200803&02000016&1818731299015&1818731299015&0&152958&458&boshzjjg&
20080330020100556257&Z470QPH2Y15HEJRM&20200803&02000016&1813082369876&1813082369876&0&20060&60&boshzjjg&
20080330020100556213&HHO6LJATB4JS0XIE&20200803&02000016&1813472972651&1813472972651&0&40120&120&boshzjjg&
20080330020100556216&ZHUWQXDAV6544Y5F&20200803&02000016&1815613556396&1815613556396&0&10030&30&boshzjjg&
20080330020100556118&5CND47S8ZX0BLCCK&20200803&02000016&1813707261154&1813707261154&0&220661&661&boshzjjg&
20080330020100556218&GB63OSBVG5UD3ZS1&20200803&02000016&1817332571319&1817332571319&0&10030&30&boshzjjg&
20080330020100556265&WW0OVMTVB8TVYW4L&20200803&02000016&1815233340502&1815233340502&0&10030&30&boshzjjg&
20080330020100556224&G0C5HSAHRVGYD44S&20200803&02000016&1813593950096&1813593950096&0&170511&511&boshzjjg&
20080330020100556127&UIC9DHAYMT79RHUH&20200803&02000016&1815032046841&1815032046841&0&10030&30&boshzjjg&
20080330020100556128&97Y6XDVADR8CGD7K&20200803&02000016&1815130290099&1815130290099&0&10030&30&boshzjjg&
20080330020100556129&CZ6RAUGLCY5TS9PV&20200803&02000016&1813545933109&1813545933109&0&300902&902&boshzjjg&
20080330020100556132&MIG0Z664B48LOBYP&20200803&02000016&1813117110135&1813117110135&0&180541&541&boshzjjg&
20080330020100556272&7GJT3WO4OJ3PAL0T&20200803&02000016&1813466139328&1813466139328&0&120361&361&boshzjjg&
20080330020100556273&G2UYFSQQQUNGPQTR&20200803&02000016&1818591506868&1818591506868&0&10030&30&boshzjjg&
20080330020100556227&LORNXJ4KWVGF2T9I&20200803&02000016&1813833058688&1813833058688&0&20060&60&boshzjjg&
20080330020100556276&4CLJFKN3KFVB41AH&20200803&02000016&1815572319096&1815572319096&0&170511&511&boshzjjg&
20080330020100556277&N2SB6DMJTR5A28ZB&20200803&02000016&1818771163136&1818771163136&0&40120&120&boshzjjg&
20080330020100556283&UV6UI33RU89YRCG4&20200803&02000016&1813085132316&1813085132316&0&150451&451&boshzjjg&
20080330020100556285&7F4BQEK6YLM6Z353&20200803&02000016&1818674148199&1818674148199&0&220661&661&boshzjjg&
20080330020100556442&Z2IKJ3KL09RW5AAT&20200803&02000016&1815697285892&1815697285892&0&50150&150&boshzjjg&
20080330020100556336&WPBQPMG2190YLGZA&20200803&02000016&1815826918705&1815826918705&0&160481&481&boshzjjg&
20080330020100556337&1UKTPGBCCKH9D1VC&20200803&02000016&1800100000066&1800100000066&0&90270&270&boshzjjg&
20080330020100556340&7GTQKTM68RU8YCB2&20200803&02000016&1818633328800&1818633328800&0&10030&30&boshzjjg&
20080330020100556299&BF28VOWOGYVL4E1B&20200803&02000016&1813930579794&1813930579794&0&5015&15&boshzjjg&
20080330020100556351&JPUQJ5H7QAD9PU9N&20200803&02000016&1813992401265&1813992401265&0&10030&30&boshzjjg&
20080330020100556303&AK4VXKFMJXSIL3ZM&20200803&02000016&1813477440909&1813477440909&0&20060&60&boshzjjg&
20080330020100556455&50NB74SNYN4UPSQI&20200803&02000016&1818371585598&1818371585598&0&140421&421&boshzjjg&
20080330020100556305&JJML6M7S1R4NFXL3&20200803&02000016&1813091227998&1813091227998&0&20060&60&boshzjjg&
20080330020100556308&7OPSKTCJF6YEGQ7J&20200803&02000016&1815350622072&1815350622072&0&200601&601&boshzjjg&
20080330020100556457&O85TKL28T4YYKCA7&20200803&02000016&1818507222058&1818507222058&0&20060&60&boshzjjg&
20080330020100556309&TT1477PIL344QPVO&20200803&02000016&1813872998100&1813872998100&0&150451&451&boshzjjg&
20080330020100556356&LGEZRY7R4T96UR7C&20200803&02000016&1815512532000&1815512532000&0&150451&451&boshzjjg&
20080330020100556459&KCV2OELANPRTQOTJ&20200803&02000016&1813581875188&1813581875188&0&140421&421&boshzjjg&
20080330020100556357&2MHKW2LKTZ6R6BL7&20200803&02000016&1815393923479&1815393923479&0&90270&270&boshzjjg&
20080330020100556358&IV0W6ZKDGEZHYE28&20200803&02000016&1818311265676&1818311265676&0&70210&210&boshzjjg&
20080330020100556461&1R13DBPBG9CGJTGU&20200803&02000016&1815629288828&1815629288828&0&120361&361&boshzjjg&
20080330020100556359&GXJE2UFKQP21XR0C&20200803&02000016&1815232640847&1815232640847&0&90270&270&boshzjjg&
20080330020100556314&YRPNMO3F23LHUL93&20200803&02000016&1813931662311&1813931662311&0&10030&30&boshzjjg&
20080330020100556363&QRZ7DH1MWHVKG6TU&20200803&02000016&1813581315906&1813581315906&0&150451&451&boshzjjg&
20080330020100556315&GJTFZKNG6ECPWHPD&20200803&02000016&1815322448726&1815322448726&0&120361&361&boshzjjg&
20080330020100556469&XOJZI0ZQFO8DPJV9&20200803&02000016&1818727304591&1818727304591&0&70210&210&boshzjjg&
20080330020100556320&0336JTS7HM0PEO30&20200803&02000016&1813784422420&1813784422420&0&25075&75&boshzjjg&
20080330020100556327&VD1THQMY21BGASDU&20200803&02000016&1813785425299&1813785425299&0&150451&451&boshzjjg&
20080330020100556370&5DK8CACVTA3PJ8RZ&20200803&02000016&1815108644971&1815108644971&0&180541&541&boshzjjg&
20080330020100556474&9HAWMETB7IBCWFBA&20200803&02000016&1813085139819&1813085139819&0&140421&421&boshzjjg&
20080330020100556541&YJAQ14R815QEON3A&20200803&02000016&1818387540093&1818387540093&0&70210&210&boshzjjg&
20080330020100556490&8YFNP824TVQM1OKO&20200803&02000016&1813972934607&1813972934607&0&70210&210&boshzjjg&
20080330020100556385&WXRFMEYYUOQQVURG&20200803&02000016&1813628894679&1813628894679&0&70210&210&boshzjjg&
20080330020100556386&ZJHCFKKEUYN90AMI&20200803&02000016&1813987054343&1813987054343&0&70210&210&boshzjjg&
20080330020100556492&GL612RD168UNV84W&20200803&02000016&1818313099072&1818313099072&0&50150&150&boshzjjg&
20080330020100556544&HPWUZ50838ZNV2QB&20200803&02000016&1815713255858&1815713255858&0&30090&90&boshzjjg&
20080330020100556545&NWU2WFQG1245VSU4&20200803&02000016&1813378824457&1813378824457&0&20060&60&boshzjjg&
20080330020100556550&1FLMPM5MQTZIIZ0X&20200803&02000016&1818308752058&1818308752058&0&8024&24&boshzjjg&
20080330020100556389&PJIDBX93006ZIL77&20200803&02000016&1813333042527&1813333042527&0&140421&421&boshzjjg&
20080330020100556496&IAQDRF5DF2DY1K58&20200803&02000016&1815502925058&1815502925058&0&30090&90&boshzjjg&
20080330020100556391&0LPXYVMZKGJN6LND&20200803&02000016&1813593958996&1813593958996&0&150451&451&boshzjjg&
20080330020100556551&UF3K5E5TQIS7H5I8&20200803&02000016&1813582501197&1813582501197&0&20060&60&boshzjjg&
20080330020100556394&2MKXKS87JPBZ38CZ&20200803&02000016&1813697384802&1813697384802&0&120361&361&boshzjjg&
20080330020100556401&137VFK4ZAPRGSIFR&20200803&02000016&1813407244830&1813407244830&0&70210&210&boshzjjg&
20080330020100556503&18BB43I2IBYXA6OA&20200803&02000016&1813581313869&1813581313869&0&130391&391&boshzjjg&
20080330020100556504&ZKB4HOXXL2JN9IP8&20200803&02000016&1800100000340&1800100000340&0&100300&300&boshzjjg&
20080330020100556404&SQAQLSTRA0V8I3PA&20200803&02000016&1813997979193&1813997979193&0&10030&30&boshzjjg&
20080330020100556559&RNKU6S33CWXVXXNR&20200803&02000016&1815572831737&1815572831737&0&150451&451&boshzjjg&
20080330020100556562&SVTC6LDZBSIA1LDP&20200803&02000016&1818218183119&1818218183119&0&10030&30&boshzjjg&
20080330020100556405&ZEG5NU98Z14D556L&20200803&02000016&1813886996165&1813886996165&0&90270&270&boshzjjg&
20080330020100556421&8TL7A1B17FDWGRXX&20200803&02000016&1818371580857&1818371580857&0&330992&992&boshzjjg&
20080330020100556422&99GVR4V5ORFU3EV1&20200803&02000016&1815907005758&1815907005758&0&280842&842&boshzjjg&
20080330020100556578&I04GXXAHMLZYZW0M&20200803&02000016&1813988275796&1813988275796&0&40120&120&boshzjjg&
20080330020100556424&V8XJ62NEYSQ7RAG9&20200803&02000016&1818674146599&1818674146599&0&70210&210&boshzjjg&
20080330020100556638&WLNC6891O7TJ27Y7&20200803&02000016&1813931267078&1813931267078&0&10030&30&boshzjjg&
20080330020100556589&UC9MTR42X3AT3BW8&20200803&02000016&1813235529250&1813235529250&0&200601&601&boshzjjg&
20080330020100556735&L2K0PSQDVL3AZN7S&20200803&02000016&1813273202753&1813273202753&0&20060&60&boshzjjg&
20080330020100556591&8YUZPZL11GEHX3MJ&20200803&02000016&1813619405650&1813619405650&0&100300&300&boshzjjg&
20080330020100556737&T17FPQWCFBX5I2O4&20200803&02000016&1813235529250&1813235529250&0&10030&30&boshzjjg&
20080330020100556740&7H7F1DTE9PCLBT68&20200803&02000016&1819833287722&1819833287722&0&10030&30&boshzjjg&
20080330020100556647&1YGI9SJN8NYG27AF&20200803&02000016&1816740191131&1816740191131&0&36108&108&boshzjjg&
20080330020100556653&N5ABFZDTTUBPKMI9&20200803&02000016&1817325382867&1817325382867&0&20060&60&boshzjjg&
20080330020100556752&Z40TGSFV157AVK8Q&20200803&02000016&1813472302270&1813472302270&0&100300&300&boshzjjg&
20080330020100556765&6NNSQBAVDL440IU2&20200803&02000016&1813832860693&1813832860693&0&10030&30&boshzjjg&
20080330020100556772&12L26R6X3HDEJ8BM&20200803&02000016&1800100000087&1800100000087&0&200601&601&boshzjjg&
20080330020100556674&2NSVG8P6IHA02UT8&20200803&02000016&1815369529902&1815369529902&0&10030&30&boshzjjg&
20080330020100556687&7UQRANDSGFBKOCJJ&20200803&02000016&1815737959888&1815737959888&0&146439&439&boshzjjg&
20080330020100556841&TF0OUII9J28W14S8&20200803&02000016&1815940289789&1815940289789&0&200601&601&boshzjjg&
20080330020100556705&VOGMJKX1FEOMMTNK&20200803&02000016&1818103125352&1818103125352&0&300902&902&boshzjjg&
20080330020100556854&X748TMO49C01ELPN&20200803&02000016&1813780328569&1813780328569&0&1003&3&boshzjjg&
20080330020100556821&36ONCDM07MIDBP14&20200803&02000016&1813845935006&1813845935006&0&30090&90&boshzjjg&
20080330020100556943&LSH7YCCIJE5V7K22&20200803&02000016&1813042892304&1813042892304&0&34904&104&boshzjjg&
20080330020100556880&T9X0S6WRE6M0998B&20200803&02000016&1813933207826&1813933207826&0&70210&210&boshzjjg&
20080330020100556881&9NGWU8QMSDJN8RP8&20200803&02000016&1815108633866&1815108633866&0&50150&150&boshzjjg&
20080330020100556883&SPNGOLZICE4SV9OR&20200803&02000016&1813582222311&1813582222311&0&90270&270&boshzjjg&
20080330020100557048&PJDQUH0H57AZGE0X&20200803&02000016&1813931203162&1813931203162&0&70210&210&boshzjjg&
20080330020100556950&G22P8FF1OZ5WWPZK&20200803&02000016&1813032006873&1813032006873&0&10030&30&boshzjjg&
20080330020100556888&JT2YDHB6MI8VB67C&20200803&02000016&1813931359385&1813931359385&0&10030&30&boshzjjg&
20080330020100556955&I4LDP45YFNYZEM18&20200803&02000016&1815633120670&1815633120670&0&80240&240&boshzjjg&
20080330020100556957&9MM37IQ53HERXCT1&20200803&02000016&1813001407222&1813001407222&0&70210&210&boshzjjg&
20080330020100557056&D1XAPN62BIPHCKL4&20200803&02000016&1815896692856&1815896692856&0&200601&601&boshzjjg&
20080330020100556899&L04ZDLK6CSP9AV0M&20200803&02000016&1818132723583&1818132723583&0&50150&150&boshzjjg&
20080330020100556961&BT97E00MRDFCM0AM&20200803&02000016&1815946740910&1815946740910&0&50150&150&boshzjjg&
20080330020100556904&414E7E3N987KTFVQ&20200803&02000016&1815287541585&1815287541585&0&20060&60&boshzjjg&
20080330020100556905&Z8LIA222061V6U02&20200803&02000016&1800100000358&1800100000358&0&10030&30&boshzjjg&
20080330020100556906&CR3W9QS5FL7SVYMP&20200803&02000016&1813940123488&1813940123488&0&10030&30&boshzjjg&
20080330020100556909&1BS2R8NAIN7I4EOJ&20200803&02000016&1813368815583&1813368815583&0&100300&300&boshzjjg&
20080330020100556974&BCW76090NSQ30610&20200803&02000016&1818288573816&1818288573816&0&100300&300&boshzjjg&
20080330020100556978&ERM3LAYB0RACRS9I&20200803&02000016&1815237939683&1815237939683&0&1003&3&boshzjjg&
20080330020100557070&EDS5HOOA4RDI0ZHS&20200803&02000016&1818037620665&1818037620665&0&50150&150&boshzjjg&
20080330020100556914&3N01D6SXQK38P9KA&20200803&02000016&1815596950822&1815596950822&0&190571&571&boshzjjg&
20080330020100556922&4JZP74JZZLQO7YAG&20200803&02000016&1813429897976&1813429897976&0&20060&60&boshzjjg&
20080330020100556994&AOWOFWV1YUVLCSZW&20200803&02000016&1800100000106&1800100000106&0&40120&120&boshzjjg&
20080330020100556924&NX0TQJQO5KF8RBPX&20200803&02000016&1813763645707&1813763645707&0&20060&60&boshzjjg&
20080330020100556931&DRCWG3YDCGQ625B1&20200803&02000016&1813932242360&1813932242360&0&20060&60&boshzjjg&
20080330020100557140&WKJGMTKQMOG3YBDY&20200803&02000016&1818631212641&1818631212641&0&40120&120&boshzjjg&
20080330020100557006&7IVUTDRK0OC1GD3B&20200803&02000016&1815933020208&1815933020208&0&40120&120&boshzjjg&
20080330020100557143&FJIEXIEYTUZ0V0XP&20200803&02000016&1813931386960&1813931386960&0&50150&150&boshzjjg&
20080330020100557097&8ER2V29C5087B4W2&20200803&02000016&1813191775000&1813191775000&0&80240&240&boshzjjg&
20080330020100557144&MOBL9VSW0Q7B3MCU&20200803&02000016&1818182956649&1818182956649&0&60180&180&boshzjjg&
20080330020100557099&RP760HXRM8B63N88&20200803&02000016&1818761207957&1818761207957&0&10030&30&boshzjjg&
20080330020100557147&HWYW7YZO45QBX9J3&20200803&02000016&1818085888288&1818085888288&0&20060&60&boshzjjg&
20080330020100557100&0CXESUOQ1RGDLJK3&20200803&02000016&1813903128198&1813903128198&0&60180&180&boshzjjg&
20080330020100557108&X4LTEPZKBBBDE4XL&20200803&02000016&1818710392676&1818710392676&0&10030&30&boshzjjg&
20080330020100557150&9TJJRKA5XNX5WI7O&20200803&02000016&1818733254139&1818733254139&0&30090&90&boshzjjg&
20080330020100557113&S96QVK1H5T246Q0M&20200803&02000016&1817612400838&1817612400838&0&20060&60&boshzjjg&
20080330020100557119&ND31WT9RC11055VT&20200803&02000016&1815339748998&1815339748998&0&30090&90&boshzjjg&
20080330020100557334&80Y0U0TPTFH06NXH&20200803&02000016&1813477836573&1813477836573&0&80240&240&boshzjjg&
20080330020100557186&OCLFB7F3OL4EXPM0&20200803&02000016&1815184862521&1815184862521&0&10030&30&boshzjjg&
20080330020100557249&G2K2MJU8ZROHCZKC&20200803&02000016&1813930812890&1813930812890&0&80240&240&boshzjjg&
20080330020100557350&SS6CDNKG010HP10F&20200803&02000016&1815003129116&1815003129116&0&10030&30&boshzjjg&
20080330020100557269&R9F2U3NW5L9ZU8VY&20200803&02000016&1818921860818&1818921860818&0&20060&60&boshzjjg&
20080330020100557270&H62MZZJM9SOIZIIQ&20200803&02000016&1818132222901&1818132222901&0&60180&180&boshzjjg&
20080330020100557206&KCCK879LKYGVBYGO&20200803&02000016&1815605110960&1815605110960&0&10030&30&boshzjjg&
20080330020100557221&GVTLJF03VYTNU5LS&20200803&02000016&1815946631777&1815946631777&0&45135&135&boshzjjg&
20080330020100557222&0BUBF88NRTQ9PACF&20200803&02000016&1815208823488&1815208823488&0&10030&30&boshzjjg&
20080330020100557292&LN0DIR4TI0SPE29W&20200803&02000016&1816619892499&1816619892499&0&10030&30&boshzjjg&
20080330020100557230&I4CUXUH8WO7WJIH8&20200803&02000016&1813582884362&1813582884362&0&10030&30&boshzjjg&
20080330020100557384&QUK1QSL2MEN5MT7E&20200803&02000016&1813011521522&1813011521522&0&10030&30&boshzjjg&
20080330020100557393&LTU2HEWCBMTSF6O9&20200803&02000016&1815232499769&1815232499769&0&20060&60&boshzjjg&
20080330020100557398&6UAJ9E6LIUY6M3VL&20200803&02000016&1813578213703&1813578213703&0&20060&60&boshzjjg&
20080330020100557303&QFA2VT8SM46BMSNJ&20200803&02000016&1813887873327&1813887873327&0&10030&30&boshzjjg&
20080330020100557452&18ICEE7MNVU1QTMM&20200803&02000016&1813887873327&1813887873327&0&20060&60&boshzjjg&
20080330020100557402&0FDGRGPO2OAULSCP&20200803&02000016&1815207962519&1815207962519&0&30090&90&boshzjjg&
20080330020100557312&KOZRF8L4NZ44PVD1&20200803&02000016&1813582212990&1813582212990&0&80240&240&boshzjjg&
20080330020100557463&ADGWAF0YIKZ0MB6D&20200803&02000016&1813988288595&1813988288595&0&100300&300&boshzjjg&
20080330020100557315&U2484AGDI9FRZKHL&20200803&02000016&1818788202588&1818788202588&0&10030&30&boshzjjg&
20080330020100557414&GWSFYYTWGJRJ2IE7&20200803&02000016&1813663399658&1813663399658&0&30090&90&boshzjjg&
20080330020100557324&FKBM7BEN1NDBK2F5&20200803&02000016&1813933167719&1813933167719&0&10030&30&boshzjjg&
20080330020100557422&VW5GLIGCKHEIC4L6&20200803&02000016&1813930218482&1813930218482&0&50150&150&boshzjjg&
20080330020100557488&X5WR023RZAKLTHA8&20200803&02000016&1818713250590&1818713250590&0&90270&270&boshzjjg&
20080330020100557489&E4VXMVA1HMFOAH1L&20200803&02000016&1813603227958&1813603227958&0&50150&150&boshzjjg&
20080330020100557540&V9926BIH48987EPG&20200803&02000016&1813832271118&1813832271118&0&10030&30&boshzjjg&
20080330020100557541&TL9SZWP2KJRCJ0G4&20200803&02000016&1815803261211&1815803261211&0&401203&1203&boshzjjg&
20080330020100557638&ACBRNRDGM3MO2V5M&20200803&02000016&1800100000045&1800100000045&0&20060&60&boshzjjg&
20080330020100557558&9J1QPVNP2FHTVKB1&20200803&02000016&1813940561661&1813940561661&0&20060&60&boshzjjg&
20080330020100557648&ZLS8ZEGT2QCHPKKD&20200803&02000016&1813889831810&1813889831810&0&40120&120&boshzjjg&
20080330020100557652&U2UL3UJTIXGKGF5N&20200803&02000016&1817717742279&1817717742279&0&10030&30&boshzjjg&
20080330020100557522&Z72611TVEE69DN6H&20200803&02000016&1818634009284&1818634009284&0&30090&90&boshzjjg&
20080330020100557657&4LF57X5Q3ZXMVRKJ&20200803&02000016&1813363382515&1813363382515&0&10030&30&boshzjjg&
20080330020100557525&6VY0SPDMQJMV2ZSP&20200803&02000016&1815908602531&1815908602531&0&50150&150&boshzjjg&
20080330020100557526&9OJCV03SXPRVW7KK&20200803&02000016&1813483500680&1813483500680&0&20060&60&boshzjjg&
20080330020100557570&WZPC7ZY7N0TCVVPI&20200803&02000016&1815846656422&1815846656422&0&10030&30&boshzjjg&
20080330020100557527&1BUEYGVX9U1PWW42&20200803&02000016&1818098518863&1818098518863&0&20060&60&boshzjjg&
20080330020100557660&1DGC3LV0U13MP53H&20200803&02000016&1813582287646&1813582287646&0&60180&180&boshzjjg&
20080330020100557573&SN2U1CX3QY78FXBC&20200803&02000016&1818232567432&1818232567432&0&20060&60&boshzjjg&
20080330020100557662&FH10G531DN41YBN3&20200803&02000016&1813478388688&1813478388688&0&10030&30&boshzjjg&
20080330020100557529&UJFYHCN5Z8S9QY2U&20200803&02000016&1813831522789&1813831522789&0&40120&120&boshzjjg&
20080330020100557532&EYNATUQNGCETRRKZ&20200803&02000016&1818232580077&1818232580077&0&30090&90&boshzjjg&
20080330020100557533&XNSS8BROO4UI7FXU&20200803&02000016&1815946109858&1815946109858&0&20060&60&boshzjjg&
20080330020100557581&9UW8HWRKXKTK7N3L&20200803&02000016&1815128811803&1815128811803&0&10030&30&boshzjjg&
20080330020100557585&57E2CF4U2NZD1ANC&20200803&02000016&1818131268984&1818131268984&0&40120&120&boshzjjg&
20080330020100557741&XAQR3QB21DME23PQ&20200803&02000016&1813363201972&1813363201972&0&10030&30&boshzjjg&
20080330020100557744&GMAA7FAINP68RHBL&20200803&02000016&1813931380155&1813931380155&0&50150&150&boshzjjg&
20080330020100557745&FM81W5D897Q0AKGY&20200803&02000016&1819931595795&1819931595795&0&10030&30&boshzjjg&
20080330020100557592&M76M43YB74QV6CHB&20200803&02000016&1815532690777&1815532690777&0&10030&30&boshzjjg&
20080330020100557750&I296FEJD1DP3BA8V&20200803&02000016&1815368499508&1815368499508&0&10030&30&boshzjjg&
20080330020100557593&Q79FJ4PGR3ZJC1HC&20200803&02000016&1815368486928&1815368486928&0&30090&90&boshzjjg&
20080330020100557751&65DZOQGW9UWHGS46&20200803&02000016&1813513335550&1813513335550&0&10030&30&boshzjjg&
20080330020100557759&LPR8U6L1Y7UIB859&20200803&02000016&1815833539988&1815833539988&0&10030&30&boshzjjg&
20080330020100557762&BAEVQG2PVHDUHM8Y&20200803&02000016&1813472956675&1813472956675&0&10030&30&boshzjjg&
20080330020100557763&8PBI3NFRG3Z6MMBV&20200803&02000016&1815871921299&1815871921299&0&50150&150&boshzjjg&
20080330020100557612&MRFNKW3PWWP1P8ZV&20200803&02000016&1813887868883&1813887868883&0&200601&601&boshzjjg&
20080330020100557613&JW2G13FNS5S8YIXQ&20200803&02000016&1813930560802&1813930560802&0&10030&30&boshzjjg&
20080330020100557765&SRBFNNAPCK4XPP3P&20200803&02000016&1813171818731&1813171818731&0&10030&30&boshzjjg&
20080330020100557619&P6T91JITRZAPHC7T&20200803&02000016&1813363201111&1813363201111&0&10030&30&boshzjjg&
20080330020100557690&2Y7WDEG2GQET9SHX&20200803&02000016&1815133232674&1815133232674&0&20060&60&boshzjjg&
20080330020100557692&HRA2D7H61PODP2JG&20200803&02000016&1818788203199&1818788203199&0&10030&30&boshzjjg&
20080330020100557771&GKYIJFH6MFETRW1O&20200803&02000016&1815238108000&1815238108000&0&20060&60&boshzjjg&
20080330020100557702&SR4AL4OWNOJKIK8W&20200803&02000016&1815832295137&1815832295137&0&30090&90&boshzjjg&
20080330020100557709&SRQJKPLV21SV2AGO&20200803&02000016&1813483435916&1813483435916&0&30090&90&boshzjjg&
20080330020100557713&WLZR8XYP8LTJRART&20200803&02000016&1813932256061&1813932256061&0&10030&30&boshzjjg&
20080330020100557788&T3F90D7H8XZBZF6L&20200803&02000016&1815851523905&1815851523905&0&40120&120&boshzjjg&
20080330020100557797&ZLW6WFK6RKPB5X6H&20200803&02000016&1815530209908&1815530209908&0&40120&120&boshzjjg&
20080330020100557798&8R7PM3HXTZ7GUEG5&20200803&02000016&1815770327841&1815770327841&0&60180&180&boshzjjg&
20080330020100557722&3BFHTVM6ITARJUJO&20200803&02000016&1815081258631&1815081258631&0&40120&120&boshzjjg&
20080330020100557723&4DT2997OLARPHH0K&20200803&02000016&1815614976824&1815614976824&0&30090&90&boshzjjg&
20080330020100557801&SN7HNVNEE642X9E0&20200803&02000016&1815903236465&1815903236465&0&60180&180&boshzjjg&
20080330020100557849&QLLCKLHHT68VB36P&20200803&02000016&1815081208098&1815081208098&0&20060&60&boshzjjg&
20080330020100557812&080A846UL0R34PZC&20200803&02000016&1815950282924&1815950282924&0&13039&39&boshzjjg&
20080330020100557815&CDOI3WI8TB4TKVRN&20200803&02000016&1815911281296&1815911281296&0&200601&601&boshzjjg&
20080330020100557942&FWJHKRTEHRLR5N6E&20200803&02000016&1818779740474&1818779740474&0&20060&60&boshzjjg&
20080330020100557868&TONXT9XX1B70RISD&20200803&02000016&1813576284540&1813576284540&0&260782&782&boshzjjg&
20080330020100557877&G6PWCY8HGRU1PZ40&20200803&02000016&1815050293331&1815050293331&0&10030&30&boshzjjg&
20080330020100558043&GGM21WPB0ZN3T199&20200803&02000016&1813009971181&1813009971181&0&10030&30&boshzjjg&
20080330020100557886&739QJCELWLDOW2VR&20200803&02000016&1815933126808&1815933126808&0&60180&180&boshzjjg&
20080330020100557887&MWLIMZORX1CIFHLI&20200803&02000016&1815682951846&1815682951846&0&300902&902&boshzjjg&
20080330020100558057&162ZBB9EEMJU027Q&20200803&02000016&1818288170973&1818288170973&0&9027&27&boshzjjg&
20080330020100557972&90DG9QN8MKNFJJ2X&20200803&02000016&1815140004537&1815140004537&0&50150&150&boshzjjg&
20080330020100557900&2D2HRW43W0LPUK5M&20200803&02000016&1817713292324&1817713292324&0&200601&601&boshzjjg&
20080330020100558062&HV7YWJ9CMGIITNOE&20200803&02000016&1817713292324&1817713292324&0&4012&12&boshzjjg&
20080330020100558063&IRHW9FJ6T3PGAIBV&20200803&02000016&1818371589551&1818371589551&0&50150&150&boshzjjg&
20080330020100557907&6B9E3RCWTCTYLM80&20200803&02000016&1813998894768&1813998894768&0&4012&12&boshzjjg&
20080330020100557985&O3QSEACHQ8BJNRWV&20200803&02000016&1818804596623&1818804596623&0&150451&451&boshzjjg&
20080330020100557912&U7M9E6BT96OYIMX2&20200803&02000016&1818045917011&1818045917011&0&150451&451&boshzjjg&
20080330020100557918&DPZ15WTDPX1SLMXZ&20200803&02000016&1813911318605&1813911318605&0&15045&45&boshzjjg&
20080330020100557995&MBH49HDQLV7YAU00&20200803&02000016&1813730476179&1813730476179&0&4012&12&boshzjjg&
20080330020100557997&6SPSHYG1Q1KZZ3PS&20200803&02000016&1813572331982&1813572331982&0&70210&210&boshzjjg&
20080330020100558095&0RN1P2ZAC810OMIC&20200803&02000016&1815050293331&1815050293331&0&10030&30&boshzjjg&
20080330020100558010&70P8W1D9IMZEZ8A8&20200803&02000016&1818931232281&1818931232281&0&20060&60&boshzjjg&
20080330020100558150&V32X43BV9PK5GAPP&20200803&02000016&1815632218558&1815632218558&0&200601&601&boshzjjg&
20080330020100558028&WS7VIMEV79X9IT7J&20200803&02000016&1815931895927&1815931895927&0&20060&60&boshzjjg&
20080330020100558153&C3LRMLVOWD29DFW0&20200803&02000016&1815969042578&1815969042578&0&40120&120&boshzjjg&
20080330020100558119&WGAYHGZ8UPKQSY85&20200803&02000016&1818220358251&1818220358251&0&50150&150&boshzjjg&
20080330020100558123&ALTCSOWG7UHN73L2&20200803&02000016&1813930204958&1813930204958&0&20060&60&boshzjjg&
20080330020100558166&ZYM1CXGWTV28SXMI&20200803&02000016&1813988290117&1813988290117&0&64694&194&boshzjjg&
20080330020100558188&YQ90EJ3J91929WI8&20200803&02000016&1815697285892&1815697285892&0&20060&60&boshzjjg&
20080330020100558339&JM6PL51LBFED7RL3&20200803&02000016&1813816484689&1813816484689&0&30090&90&boshzjjg&
20080330020100558206&RWWL0VOF5LOTCL0N&20200803&02000016&1815830799079&1815830799079&0&150451&451&boshzjjg&
20080330020100558209&R9AHILB8W052KBGW&20200803&02000016&1813733371391&1813733371391&0&80240&240&boshzjjg&
20080330020100558275&0D0KQ32Y5TGW8P4D&20200803&02000016&1815100207285&1815100207285&0&80240&240&boshzjjg&
20080330020100558276&JM3M6O4WFB62BQ6C&20200803&02000016&1813780323381&1813780323381&0&50150&150&boshzjjg&
20080330020100558214&4QWCG7FKQ4PZ5XTE&20200803&02000016&1813831231696&1813831231696&0&20060&60&boshzjjg&
20080330020100558396&D0PWDZT0MR6UPERR&20200803&02000016&1813840562388&1813840562388&0&90270&270&boshzjjg&
20080330020100558416&VZIBOM97J9BITU35&20200803&02000016&1815931775090&1815931775090&0&12036&36&boshzjjg&
20080330020100558424&9NNBC166NA0YOHCJ&20200803&02000016&1813988238986&1813988238986&0&40120&120&boshzjjg&
20080330020100558555&OZ5NDAM6N8J1KZS1&20200803&02000016&1818788202588&1818788202588&0&50150&150&boshzjjg&
20080330020100558639&0LZM3IZO0MKVO9SK&20200803&02000016&1818009143853&1818009143853&0&501&1&boshzjjg&
20080330020100558644&PNYPD4AGE4GVKSGK&20200803&02000016&1815758449560&1815758449560&0&100300&300&boshzjjg&
20080330020100558569&TAFBOGYUCKYLDUO1&20200803&02000016&1813577471825&1813577471825&0&20060&60&boshzjjg&
20080330020100558571&ZJ5EV0KN4CW5C5B1&20200803&02000016&1813703120333&1813703120333&0&20060&60&boshzjjg&
20080330020100558575&9Q8XUEXIJM1JFJXP&20200803&02000016&1813886994818&1813886994818&0&70210&210&boshzjjg&
20080330020100558660&GL6XXPF4GPNDVXLT&20200803&02000016&1815578194090&1815578194090&0&150451&451&boshzjjg&
20080330020100558577&VS9ODHT4CSGXIARH&20200803&02000016&1818696394805&1818696394805&0&160481&481&boshzjjg&
20080330020100558661&IF01546HRQA1O0U8&20200803&02000016&1817762345860&1817762345860&0&160481&481&boshzjjg&
20080330020100558491&VS43BO2XXG6LH0DB&20200803&02000016&1815171555563&1815171555563&0&160481&481&boshzjjg&
20080330020100558663&WZR75YBRQ6A9SYLP&20200803&02000016&1813972627032&1813972627032&0&200601&601&boshzjjg&
20080330020100558664&BSRX51D0I8UK1M0V&20200803&02000016&1813554272783&1813554272783&0&140421&421&boshzjjg&
20080330020100558582&0WNR4H4M3HM92XKT&20200803&02000016&1813961081945&1813961081945&0&15045&45&boshzjjg&
20080330020100558494&T0VQRLI5VV3UOE7S&20200803&02000016&1818371580634&1818371580634&0&180541&541&boshzjjg&
20080330020100558667&YHDYTTQB0KJ8E69N&20200803&02000016&1813294103115&1813294103115&0&170511&511&boshzjjg&
20080330020100558495&15KI0691PS5T16HA&20200803&02000016&1813635608489&1813635608489&0&190571&571&boshzjjg&
20080330020100558670&Q45VHSBEIZUQC4J1&20200803&02000016&1813726775866&1813726775866&0&180541&541&boshzjjg&
20080330020100558502&VXRA8H3HIQZ04EBD&20200803&02000016&1818972189548&1818972189548&0&180541&541&boshzjjg&
20080330020100558679&HO01F7O3U0SYWZA4&20200803&02000016&1813257286225&1813257286225&0&180541&541&boshzjjg&
20080330020100558682&KL60JTUZFUV5PXSA&20200803&02000016&1815871923378&1815871923378&0&170511&511&boshzjjg&
20080330020100558737&PMXKN818MMB7LXYK&20200803&02000016&1813731241229&1813731241229&0&30090&90&boshzjjg&
20080330020100558718&TRL0DKFCJPMGCWUE&20200803&02000016&1816603203329&1816603203329&0&70210&210&boshzjjg&
