清算中心流水号&交易所流水号&业务发生日期&交易所代码&会员编码&资金账号&出入金类型&发生金额&手续费金额&银行产品代码&备注
20060330020100426513&EVQVV1QQX0ZXSDWU&20200603&02000016&1815933058921&1815933058921&0&501&1&boshzjjg&
20060330020100426517&KNM3JX8BK2O4CL4R&20200603&02000016&1818257932275&1818257932275&0&203610&610&boshzjjg&
20060330020100426571&YI6OLQU9W2ZOOVX3&20200603&02000016&1813506593224&1813506593224&0&204112&612&boshzjjg&
20060330020100426657&74ZFUWU4NQYDBKF8&20200603&02000016&1815038169553&1815038169553&0&190571&571&boshzjjg&
20060330020100426585&HZ5KGPFNUO5E39HR&20200603&02000016&1813703283113&1813703283113&0&2006&6&boshzjjg&
20060330020100426594&DE1PFZJG7J9SOYDO&20200603&02000016&1815969053582&1815969053582&0&20060&60&boshzjjg&
20060330020100426739&MBWIBCWPLWPCH4JS&20200603&02000016&1800100000142&1800100000142&0&200000&600&boshzjjg&
20060330020100426743&OA129QHRBF4Z9LGU&20200603&02000016&1800100000177&1800100000177&0&203961&611&boshzjjg&
20060330020100426671&KR42I4YV36M2R0HG&20200603&02000016&1800100000050&1800100000050&0&40120&120&boshzjjg&
20060330020100426672&LMOPBTXYQJ56Q4CU&20200603&02000016&1800100000332&1800100000332&0&185356&556&boshzjjg&
20060330020100426676&97URA2CI012G8L5J&20200603&02000016&1815205889775&1815205889775&0&185416&556&boshzjjg&
20060330020100426750&2Q8G4D0SC2NBZHS5&20200603&02000016&1815057868078&1815057868078&0&199899&599&boshzjjg&
20060330020100426678&CI99TBF2413V06W2&20200603&02000016&1800100000189&1800100000189&0&170511&511&boshzjjg&
20060330020100426752&5QXX5A8O9ZX9UNLA&20200603&02000016&1818057812357&1818057812357&0&185406&556&boshzjjg&
20060330020100426608&K43I8W7NG25AYECW&20200603&02000016&1818674146599&1818674146599&0&39117&117&boshzjjg&
20060330020100426609&R33K968RXLVJ2J5E&20200603&02000016&1815146155010&1815146155010&0&170511&511&boshzjjg&
20060330020100426758&8V1FNYIV4UVJM1O1&20200603&02000016&1818674148199&1818674148199&0&50150&150&boshzjjg&
20060330020100426687&RB6OKGPLTX0LVPVX&20200603&02000016&1800100000138&1800100000138&0&20060&60&boshzjjg&
20060330020100426619&HDIH0E8DCI8S4DKH&20200603&02000016&1818103143885&1818103143885&0&20060&60&boshzjjg&
20060330020100426699&W8BQGVQ847TK6LVS&20200603&02000016&1800100000136&1800100000136&0&185957&557&boshzjjg&
20060330020100426702&OU1HSHG303S13AET&20200603&02000016&1800100000230&1800100000230&0&195386&586&boshzjjg&
20060330020100426788&1TBGWVZ1CTZNR48E&20200603&02000016&1813006233652&1813006233652&0&200601&601&boshzjjg&
20060330020100426792&O89QD7MYOLEPEFJP&20200603&02000016&1800100000182&1800100000182&0&200601&601&boshzjjg&
20060330020100426716&HLTLOI092QNI2QPM&20200603&02000016&1815268612201&1815268612201&0&200601&601&boshzjjg&
20060330020100426717&UTSANN8CDMRB8EXI&20200603&02000016&1818667101556&1818667101556&0&210631&631&boshzjjg&
20060330020100426858&4U9KZWHZ7AISFHRC&20200603&02000016&1818645566788&1818645566788&0&200601&601&boshzjjg&
20060330020100426806&APQ2PW3SPAQM5BUB&20200603&02000016&1818958463402&1818958463402&0&225677&677&boshzjjg&
20060330020100426937&IV346E7ZJUD3AQ83&20200603&02000016&1815257996892&1815257996892&0&206619&619&boshzjjg&
20060330020100426872&HSANVZGAP2Y753AH&20200603&02000016&1815305796690&1815305796690&0&195586&586&boshzjjg&
20060330020100426949&TQ7FHU1DNHL7B424&20200603&02000016&1815389494945&1815389494945&0&190571&571&boshzjjg&
20060330020100426816&YJETCGC3QR24SJVM&20200603&02000016&1813566943256&1813566943256&0&200601&601&boshzjjg&
20060330020100426952&4YYKQ4M05ELCDYL5&20200603&02000016&1815771836378&1815771836378&0&185556&556&boshzjjg&
20060330020100426826&QJ35CGZB0UZ27P1R&20200603&02000016&1815933739943&1815933739943&0&50150&150&boshzjjg&
20060330020100426975&PQLALCZCVWF6DJ1N&20200603&02000016&1813478653378&1813478653378&0&200601&601&boshzjjg&
20060330020100427042&26MMEKYSWLUUNCXG&20200603&02000016&1815100269110&1815100269110&0&10030&30&boshzjjg&
20060330020100426903&8ODFB9CFCAGG5IYZ&20200603&02000016&1813832228797&1813832228797&0&20060&60&boshzjjg&
20060330020100427056&00DD9ZYFNKMSIU5W&20200603&02000016&1815727394536&1815727394536&0&6218&18&boshzjjg&
20060330020100427059&GSRQWCQ9T5GNJSW8&20200603&02000016&1818962060606&1818962060606&0&2006&6&boshzjjg&
20060330020100426998&JLH1L7BXBFQLOEHL&20200603&02000016&1813385849623&1813385849623&0&10030&30&boshzjjg&
20060330020100427136&C8YEQMHBBOTWZZ5S&20200603&02000016&1800100000272&1800100000272&0&179338&538&boshzjjg&
20060330020100427084&PR3VRW5SQREC0112&20200603&02000016&1813369291965&1813369291965&0&18555&55&boshzjjg&
20060330020100427143&5P5FNY1WNQ2QBPVN&20200603&02000016&1815057899784&1815057899784&0&601805&1805&boshzjjg&
20060330020100427092&7P021BAGYAJQ44CS&20200603&02000016&1815857889599&1815857889599&0&190571&571&boshzjjg&
20060330020100427093&G831EY3BBTDMLDNC&20200603&02000016&1813767977037&1813767977037&0&200601&601&boshzjjg&
20060330020100427096&TWGZ13ZW9FLAUSIB&20200603&02000016&1800100000275&1800100000275&0&181544&544&boshzjjg&
20060330020100427250&4E953W2NKTHRPZXG&20200603&02000016&1800100000267&1800100000267&0&601805&1805&boshzjjg&
20060330020100427264&D63F0LX4RRSUXG0C&20200603&02000016&1815512532000&1815512532000&0&10030&30&boshzjjg&
20060330020100427436&EW5ODVYFFYWCPTN9&20200603&02000016&1818164646890&1818164646890&0&200601&601&boshzjjg&
20060330020100427489&L6H7FLZNXLAM1L4W&20200603&02000016&1813315439137&1813315439137&0&409227&1227&boshzjjg&
20060330020100427502&ZZD83B8QKUWCGOK1&20200603&02000016&1815079696414&1815079696414&0&10030&30&boshzjjg&
20060330020100427700&5JXH2GXYW6IHRI5Z&20200603&02000016&1800100000080&1800100000080&0&240722&722&boshzjjg&
20060330020100427806&P0OEXU38EJRRYMHZ&20200603&02000016&1815308750767&1815308750767&0&10030&30&boshzjjg&
20060330020100428042&Y5YDZZAV43BC9LUH&20200603&02000016&1813315255577&1813315255577&0&36108&108&boshzjjg&
20060330020100428043&GVXHROKTVFHXQVUB&20200603&02000016&1800100000242&1800100000242&0&36710&110&boshzjjg&
20060330020100428151&8P6HQ3EWPLTJ7MR2&20200603&02000016&1813133804808&1813133804808&0&10030&30&boshzjjg&
20060330020100428058&MG3H6U1N3E6YAUB7&20200603&02000016&1813133804808&1813133804808&0&401203&1203&boshzjjg&
20060330020100428059&AZ6R2UQCYZ747PRT&20200603&02000016&1813133804808&1813133804808&0&19458&58&boshzjjg&
20060330020100428060&LU5OH0VVWKPXB370&20200603&02000016&1813628759556&1813628759556&0&200601&601&boshzjjg&
20060330020100428003&G81JENQH6VOT3G3M&20200603&02000016&1813628759556&1813628759556&0&200601&601&boshzjjg&
20060330020100428062&5RTZF2WMYFI9S2KI&20200603&02000016&1813577503685&1813577503685&0&300902&902&boshzjjg&
