20200804140017消耗0.41329383850098秒，共计插入13868条数据
20200805123959消耗0.017999887466431秒，共计插入672条数据
20200806154427消耗0.013576030731201秒，共计插入681条数据
20200807161444消耗0.024619102478027秒，共计插入1029条数据
20200807162130消耗0.019320964813232秒，共计插入1029条数据
20200810171521消耗0.014719009399414秒，共计插入664条数据
20200810171636消耗0.014311075210571秒，共计插入664条数据
20200810171638消耗0.014331102371216秒，共计插入664条数据
20200810171710消耗0.019891977310181秒，共计插入664条数据
20200810171712消耗0.015849113464355秒，共计插入664条数据
20200810171744消耗0.012737035751343秒，共计插入664条数据
20200810171746消耗0.018378973007202秒，共计插入664条数据
20200810171820消耗0.013577938079834秒，共计插入664条数据
20200810171854消耗0.013473987579346秒，共计插入664条数据
20200810171929消耗0.020418882369995秒，共计插入664条数据
20200810172003消耗0.014744997024536秒，共计插入664条数据
20200810172037消耗0.021717071533203秒，共计插入664条数据
20200810172112消耗0.012295007705688秒，共计插入664条数据
20200810172147消耗0.014066934585571秒，共计插入664条数据
20200810172221消耗0.014571189880371秒，共计插入664条数据
20200810172240消耗0.015269994735718秒，共计插入664条数据
20200810172256消耗0.012948989868164秒，共计插入664条数据
20200810172315消耗0.013064861297607秒，共计插入664条数据
20200810172330消耗0.016535043716431秒，共计插入664条数据
20200810172349消耗0.012259960174561秒，共计插入664条数据
20200810172405消耗0.020117044448853秒，共计插入664条数据
20200810172423消耗0.015764951705933秒，共计插入664条数据
20200810172439消耗0.012670993804932秒，共计插入664条数据
20200810172448消耗0.012864112854004秒，共计插入664条数据
20200810172513消耗0.013170003890991秒，共计插入664条数据
20200810172547消耗0.013867855072021秒，共计插入664条数据
20200810172621消耗0.013059139251709秒，共计插入664条数据
20200810172656消耗0.014748096466064秒，共计插入664条数据
20200810172731消耗0.018961906433105秒，共计插入664条数据
20200810172805消耗0.01870322227478秒，共计插入664条数据
20200810172830消耗0.012809038162231秒，共计插入664条数据
20200810175721消耗0.012799024581909秒，共计插入664条数据
20200810183058消耗0.09846305847168秒，共计插入664条数据
20200810183648消耗0.029783010482788秒，共计插入664条数据
20200810185148消耗0.02543306350708秒，共计插入664条数据
20200810185542消耗0.025390863418579秒，共计插入664条数据
20200810190642消耗0.025198936462402秒，共计插入664条数据
20200810190910消耗0.024260997772217秒，共计插入664条数据
20200811161905消耗0.025512933731079秒，共计插入913条数据
20200811162114消耗0.038408994674683秒，共计插入913条数据
20200811163009消耗0.028486967086792秒，共计插入913条数据
20200811163136消耗0.028613090515137秒，共计插入913条数据
20200811170357消耗0.030303001403809秒，共计插入913条数据
20200811170525消耗0.02977991104126秒，共计插入913条数据
20200811171220消耗0.027955770492554秒，共计插入913条数据
20200811171349消耗0.028243064880371秒，共计插入913条数据
20200811171504消耗0.028477907180786秒，共计插入913条数据
20200811171633消耗0.028132915496826秒，共计插入913条数据
20200812161132消耗0.041337966918945秒，共计插入920条数据
20200812161228消耗0.030287981033325秒，共计插入920条数据
20200812161423消耗0.030452966690063秒，共计插入920条数据
20200812161435消耗0.030121803283691秒，共计插入920条数据
20200813161347消耗0.026135921478271秒，共计插入830条数据
20200813161606消耗0.035651922225952秒，共计插入830条数据
20200813161607消耗0.027981042861938秒，共计插入830条数据
20200813161640消耗0.028100967407227秒，共计插入830条数据
20200813161813消耗0.030462026596069秒，共计插入830条数据
20200813161839消耗0.028502225875854秒，共计插入830条数据
20200813162013消耗0.030511856079102秒，共计插入830条数据
20200813162215消耗0.029421091079712秒，共计插入830条数据
20200813162349消耗0.02897310256958秒，共计插入830条数据
20200813162439消耗0.029342889785767秒，共计插入830条数据
20200813162610消耗0.031587839126587秒，共计插入830条数据
20200813162645消耗0.036591053009033秒，共计插入830条数据
20200813162818消耗0.030994892120361秒，共计插入830条数据
20200813162823消耗0.028313159942627秒，共计插入830条数据
20200813162954消耗0.030952930450439秒，共计插入830条数据
20200813163340消耗0.029494047164917秒，共计插入830条数据
20200813163513消耗0.030113935470581秒，共计插入830条数据
20200814162238消耗0.04584789276123秒，共计插入1300条数据
20200814162508消耗0.054449081420898秒，共计插入1300条数据
20200814162508消耗0.040237903594971秒，共计插入1300条数据
20200814162836消耗0.042318105697632秒，共计插入1300条数据
20200814163022消耗0.038904190063477秒，共计插入1300条数据
20200814163552消耗0.040649890899658秒，共计插入1300条数据
20200814163726消耗0.043702125549316秒，共计插入1300条数据
20200817162904消耗0.026556968688965秒，共计插入915条数据
20200817163155消耗0.029382944107056秒，共计插入915条数据
20200817165244消耗0.03159499168396秒，共计插入915条数据
20200817165425消耗0.030325889587402秒，共计插入915条数据
20200817165552消耗0.030727863311768秒，共计插入915条数据
20200817165733消耗0.03093409538269秒，共计插入915条数据
20200817165948消耗0.031162977218628秒，共计插入915条数据
20200817170130消耗0.031901836395264秒，共计插入915条数据
20200818161926消耗0.036998987197876秒，共计插入974条数据
20200818162229消耗0.031054973602295秒，共计插入974条数据
20200818164524消耗0.038049936294556秒，共计插入974条数据
20200818165304消耗0.032495975494385秒，共计插入974条数据
20200818165839消耗0.03410005569458秒，共计插入974条数据
20200818170028消耗0.032188892364502秒，共计插入974条数据
20200818170511消耗0.039522171020508秒，共计插入974条数据
20200818170659消耗0.032481908798218秒，共计插入974条数据
20200818171100消耗0.038166999816895秒，共计插入974条数据
20200818171249消耗0.031389951705933秒，共计插入974条数据
20200818171420消耗0.033531188964844秒，共计插入974条数据
20200818171607消耗0.031471967697144秒，共计插入974条数据
20200819161740消耗0.036401987075806秒，共计插入1070条数据
20200819162047消耗0.034950017929077秒，共计插入1070条数据
20200819162240消耗0.035706996917725秒，共计插入1070条数据
20200819162430消耗0.039512157440186秒，共计插入1070条数据
20200820161320消耗0.032369136810303秒，共计插入1067条数据
20200820161634消耗0.039268970489502秒，共计插入1067条数据
20200820162723消耗0.040591955184937秒，共计插入1070条数据
20200820163051消耗0.035546064376831秒，共计插入1070条数据
20200820163201消耗0.036250829696655秒，共计插入1070条数据
20200820163409消耗0.04048490524292秒，共计插入1070条数据
20200820164204消耗0.03658390045166秒，共计插入1067条数据
20200820164516消耗0.041146039962769秒，共计插入1067条数据
20200820164624消耗0.042724132537842秒，共计插入1067条数据
20200820164817消耗0.034783124923706秒，共计插入1067条数据
20200820165113消耗0.035790920257568秒，共计插入1067条数据
20200820165307消耗0.035403966903687秒，共计插入1067条数据
20200820170139消耗0.043967008590698秒，共计插入1067条数据
20200820170332消耗0.035482883453369秒，共计插入1067条数据
20200821161640消耗0.041223049163818秒，共计插入1575条数据
20200821161949消耗0.054098844528198秒，共计插入1575条数据
20200821163307消耗0.044830083847046秒，共计插入1575条数据
20200821163616消耗0.053794145584106秒，共计插入1575条数据
20200821163835消耗0.049566030502319秒，共计插入1575条数据
20200821164034消耗0.047064065933228秒，共计插入1575条数据
20200821164746消耗0.051154136657715秒，共计插入1575条数据
20200821164948消耗0.061290979385376秒，共计插入1575条数据
20200821165514消耗0.044802188873291秒，共计插入1575条数据
20200821165713消耗0.047367095947266秒，共计插入1575条数据
20200824161309消耗0.035679817199707秒，共计插入1155条数据
20200824161638消耗0.039072036743164秒，共计插入1155条数据
20200824171222消耗0.038587093353271秒，共计插入1155条数据
20200824171549消耗0.043389081954956秒，共计插入1155条数据
20200824173244消耗0.040002822875977秒，共计插入1155条数据
20200824173456消耗0.041197061538696秒，共计插入1155条数据
20200824181516消耗0.047923803329468秒，共计插入1155条数据
20200824181726消耗0.04919695854187秒，共计插入1155条数据
20200825161302消耗0.034131050109863秒，共计插入1150条数据
20200825161647消耗0.039560794830322秒，共计插入1150条数据
20200825162157消耗0.046512842178345秒，共计插入1150条数据
20200825162418消耗0.047967910766602秒，共计插入1150条数据
20200826161151消耗0.051658153533936秒，共计插入1245条数据
20200826161515消耗0.053104162216187秒，共计插入1245条数据
20200826161651消耗0.047532081604004秒，共计插入1245条数据
20200826162220消耗0.038618087768555秒，共计插入1245条数据
20200826162544消耗0.051841974258423秒，共计插入1245条数据
20200826172205消耗0.039790868759155秒，共计插入1245条数据
20200826172416消耗0.037642002105713秒，共计插入1245条数据
20200826175535消耗0.056863069534302秒，共计插入1245条数据
20200826175745消耗0.045686006546021秒，共计插入1245条数据
20200826180010消耗0.049182891845703秒，共计插入1245条数据
20200826180219消耗0.055027961730957秒，共计插入1245条数据
20200827161149消耗0.051963090896606秒，共计插入1264条数据
20200827161519消耗0.076826095581055秒，共计插入1264条数据
20200827161640消耗0.049803972244263秒，共计插入1264条数据
20200827161849消耗0.039395093917847秒，共计插入1264条数据
20200828161057消耗0.045098066329956秒，共计插入1924条数据
20200828161438消耗0.070925951004028秒，共计插入1924条数据
20200828161916消耗0.062855958938599秒，共计插入1924条数据
20200828162130消耗0.06835412979126秒，共计插入1924条数据
20200831161218消耗0.043395042419434秒，共计插入1346条数据
20200831161621消耗0.059162855148315秒，共计插入1346条数据
20200831164540消耗0.045565843582153秒，共计插入1346条数据
20200831164807消耗0.041496992111206秒，共计插入1346条数据
20200831165620消耗0.042049884796143秒，共计插入1346条数据
20200831165847消耗0.040900945663452秒，共计插入1346条数据
20200901161700消耗0.039068937301636秒，共计插入1372条数据
20200901162121消耗0.059023141860962秒，共计插入1372条数据
20200901162315消耗0.04222297668457秒，共计插入1372条数据
20200901162553消耗0.061156034469604秒，共计插入1372条数据
20200902162421消耗0.0401611328125秒，共计插入1442条数据
20200902162846消耗0.05007791519165秒，共计插入1442条数据
20200902163245消耗0.046262979507446秒，共计插入1442条数据
20200902163709消耗0.044646024703979秒，共计插入1442条数据
20200903161855消耗0.056486845016479秒，共计插入1481条数据
20200903162332消耗0.056097030639648秒，共计插入1481条数据
20200903165114消耗0.059808969497681秒，共计插入1481条数据
20200903165548消耗0.048841953277588秒，共计插入1481条数据
20200903182252消耗0.071354150772095秒，共计插入1481条数据
20200903182726消耗0.046241044998169秒，共计插入1481条数据
20200904093459消耗0.048610925674438秒，共计插入1481条数据
20200904093810消耗0.048179864883423秒，共计插入1481条数据
20200904161622消耗0.095124006271362秒，共计插入2208条数据
20200904162111消耗0.060374975204468秒，共计插入2208条数据
20200904162235消耗0.093436002731323秒，共计插入2208条数据
20200904162519消耗0.070749998092651秒，共计插入2208条数据
20200904163915消耗0.063685894012451秒，共计插入2208条数据
20200904164403消耗0.062123775482178秒，共计插入2208条数据
20200905161551消耗0.021396160125732秒，共计插入37条数据
20200905161802消耗0.02213191986084秒，共计插入37条数据
20200905162236消耗0.022202968597412秒，共计插入37条数据
20200905162242消耗0.022183895111084秒，共计插入37条数据
20200905162259消耗0.023123979568481秒，共计插入37条数据
20200905162305消耗0.022263050079346秒，共计插入37条数据
20200905162333消耗0.022247076034546秒，共计插入37条数据
20200905162339消耗0.022926092147827秒，共计插入37条数据
20200905164325消耗0.023490905761719秒，共计插入37条数据
20200905164330消耗0.021995067596436秒，共计插入37条数据
20200907194758消耗0.043639898300171秒，共计插入1370条数据
20200907195251消耗0.046283960342407秒，共计插入1370条数据
20200907200405消耗0.048893213272095秒，共计插入1370条数据
20200907200659消耗0.047774791717529秒，共计插入1370条数据
20200907202322消耗0.047674894332886秒，共计插入1370条数据
20200907202613消耗0.046482086181641秒，共计插入1370条数据
20200908164654消耗0.042742967605591秒，共计插入1396条数据
20200908165125消耗0.046705961227417秒，共计插入1396条数据
20200908170843消耗0.047889947891235秒，共计插入1396条数据
20200908171315消耗0.046159029006958秒，共计插入1396条数据
20200908171924消耗0.048271894454956秒，共计插入1396条数据
20200908172203消耗0.048074960708618秒，共计插入1396条数据
20200908172521消耗0.047362804412842秒，共计插入1396条数据
20200908172806消耗0.046389102935791秒，共计插入1396条数据
20200908173131消耗0.048930883407593秒，共计插入1396条数据
20200908173424消耗0.049904823303223秒，共计插入1396条数据
20200908180620消耗0.047260046005249秒，共计插入1396条数据
20200908180918消耗0.048458814620972秒，共计插入1396条数据
20200908181731消耗0.048256158828735秒，共计插入1396条数据
20200908182029消耗0.046827077865601秒，共计插入1396条数据
20200908182556消耗0.048587083816528秒，共计插入1396条数据
20200908182855消耗0.046405076980591秒，共计插入1396条数据
20200908183037消耗0.046327829360962秒，共计插入1396条数据
20200908183336消耗0.04805588722229秒，共计插入1396条数据
20200909161225消耗0.045769929885864秒，共计插入1642条数据
20200909161659消耗0.054636001586914秒，共计插入1642条数据
20200909162212消耗0.056644916534424秒，共计插入1642条数据
20200909163234消耗0.051321983337402秒，共计插入1642条数据
20200909163500消耗0.053004026412964秒，共计插入1642条数据
20200909163804消耗0.063485860824585秒，共计插入1642条数据
20200909164346消耗0.054540872573853秒，共计插入1642条数据
20200909164650消耗0.050790071487427秒，共计插入1642条数据
20200909165115消耗0.053086996078491秒，共计插入1642条数据
20200909165634消耗0.053308963775635秒，共计插入1642条数据
20200909170719消耗0.051409006118774秒，共计插入1642条数据
20200909171022消耗0.052783966064453秒，共计插入1642条数据
20200909173629消耗0.051469087600708秒，共计插入1642条数据
20200909173933消耗0.053001165390015秒，共计插入1642条数据
20200910165014消耗0.053631067276001秒，共计插入1624条数据
20200910165548消耗0.053241014480591秒，共计插入1624条数据
20200910171836消耗0.053230047225952秒，共计插入1624条数据
20200910172133消耗0.056778907775879秒，共计插入1624条数据
20200910173221消耗0.052732944488525秒，共计插入1624条数据
20200910173519消耗0.053559064865112秒，共计插入1624条数据
20200910174411消耗0.055704116821289秒，共计插入1624条数据
20200910174708消耗0.054569959640503秒，共计插入1624条数据
20200911161246消耗0.058337926864624秒，共计插入2269条数据
20200911161833消耗0.074429035186768秒，共计插入2269条数据
20200911163630消耗0.06584095954895秒，共计插入2269条数据
20200911164217消耗0.065200090408325秒，共计插入2269条数据
20200911170159消耗0.065510988235474秒，共计插入2269条数据
20200911170528消耗0.065639972686768秒，共计插入2269条数据
20200914164111消耗0.049296855926514秒，共计插入1664条数据
20200914164722消耗0.060709953308105秒，共计插入1664条数据
20200914171353消耗0.056118965148926秒，共计插入1664条数据
20200914171718消耗0.053756952285767秒，共计插入1664条数据
20200914173042消耗0.053783893585205秒，共计插入1664条数据
20200914173406消耗0.053520202636719秒，共计插入1664条数据
20200914174124消耗0.05750298500061秒，共计插入1664条数据
20200914174449消耗0.062871932983398秒，共计插入1664条数据
20200916022509消耗0.053719997406006秒，共计插入1336条数据
20200916022956消耗0.057360887527466秒，共计插入1336条数据
20200916023605消耗0.050694942474365秒，共计插入1336条数据
20200916024825消耗0.050664186477661秒，共计插入1336条数据
20200916025203消耗0.050002813339233秒，共计插入1336条数据
20200916034201消耗0.049159049987793秒，共计插入1336条数据
20200916034814消耗0.050151824951172秒，共计插入1336条数据
20200916041641消耗0.050027847290039秒，共计插入1336条数据
20200916042009消耗0.051204919815063秒，共计插入1336条数据
20200916042313消耗0.050590991973877秒，共计插入1336条数据
20200916042642消耗0.051318883895874秒，共计插入1336条数据
20200916165358消耗0.044355154037476秒，共计插入1220条数据
20200916165927消耗0.053328037261963秒，共计插入1220条数据
20200916174049消耗0.044474840164185秒，共计插入1220条数据
20200916174348消耗0.050043106079102秒，共计插入1220条数据
20200916182057消耗0.055675983428955秒，共计插入1220条数据
20200916182111消耗0.050017118453979秒，共计插入1220条数据
20200916182307消耗0.052613019943237秒，共计插入1220条数据
20200916182322消耗0.052623987197876秒，共计插入1220条数据
20200916182643消耗0.052069902420044秒，共计插入1220条数据
20200916182657消耗0.049546957015991秒，共计插入1220条数据
20200916182728消耗0.048356056213379秒，共计插入1220条数据
20200916182742消耗0.050624847412109秒，共计插入1220条数据
20200917173203消耗0.038383007049561秒，共计插入857条数据
20200917173507消耗0.044670104980469秒，共计插入857条数据
20200917173805消耗0.045583009719849秒，共计插入857条数据
20200917175505消耗0.04184889793396秒，共计插入857条数据
20200917175804消耗0.04229998588562秒，共计插入857条数据
20200918165454消耗0.030681848526001秒，共计插入291条数据
20200918165751消耗0.032508134841919秒，共计插入291条数据
20200918165933消耗0.032954931259155秒，共计插入291条数据
20200918165940消耗0.033153057098389秒，共计插入291条数据
20200918170732消耗0.032536029815674秒，共计插入291条数据
20200918170739消耗0.032197952270508秒，共计插入291条数据
20200921182043消耗0.030508041381836秒，共计插入286条数据
20200921182347消耗0.032275915145874秒，共计插入286条数据
20200921183809消耗0.032068014144897秒，共计插入286条数据
20200921183817消耗0.032658100128174秒，共计插入286条数据
20200921185028消耗0.032154083251953秒，共计插入286条数据
20200921185036消耗0.032005786895752秒，共计插入286条数据
20200921185240消耗0.032072067260742秒，共计插入286条数据
20200921185248消耗0.032228946685791秒，共计插入286条数据
20200922171918消耗0.029038906097412秒，共计插入188条数据
20200922172224消耗0.030619859695435秒，共计插入188条数据
20200922173206消耗0.030896186828613秒，共计插入188条数据
20200922173215消耗0.031069993972778秒，共计插入188条数据
20200922181138消耗0.030641794204712秒，共计插入188条数据
20200922182327消耗0.030556917190552秒，共计插入188条数据
20200922182532消耗0.033630132675171秒，共计插入188条数据
20200922182543消耗0.030765056610107秒，共计插入188条数据
20200922185104消耗0.03069281578064秒，共计插入188条数据
20200922185115消耗0.031922101974487秒，共计插入188条数据
20200923191418消耗0.029256820678711秒，共计插入107条数据
20200923191754消耗0.029683828353882秒，共计插入107条数据
20200923192628消耗0.031903028488159秒，共计插入107条数据
20200923192703消耗0.029728174209595秒，共计插入107条数据
20200923192941消耗0.029405117034912秒，共计插入107条数据
20200923193016消耗0.029540061950684秒，共计插入107条数据
20200923200316消耗0.030730009078979秒，共计插入107条数据
20200923200351消耗0.030411005020142秒，共计插入107条数据
20200923200448消耗0.02960205078125秒，共计插入107条数据
20200923200523消耗0.029736995697021秒，共计插入107条数据
20200924161539消耗0.029561996459961秒，共计插入183条数据
20200924161849消耗0.030615091323853秒，共计插入183条数据
20200924162151消耗0.039371013641357秒，共计插入183条数据
20200924162200消耗0.030794858932495秒，共计插入183条数据
20200924162225消耗0.030577898025513秒，共计插入183条数据
20200924162235消耗0.030808925628662秒，共计插入183条数据
20200924162353消耗0.032029867172241秒，共计插入183条数据
20200924162703消耗0.033080816268921秒，共计插入183条数据
20200924162733消耗0.030639886856079秒，共计插入183条数据
20200924162743消耗0.030422925949097秒，共计插入183条数据
20200925161423消耗0.038377046585083秒，共计插入823条数据
20200925162125消耗0.04158878326416秒，共计插入823条数据
20200925164106消耗0.042435884475708秒，共计插入823条数据
20200925164808消耗0.043905019760132秒，共计插入823条数据
20200927161412消耗0.037832021713257秒，共计插入790条数据
20200927161733消耗0.041873931884766秒，共计插入790条数据
20200927161812消耗0.048187017440796秒，共计插入790条数据
20200927161821消耗0.041604995727539秒，共计插入790条数据
20200927161841消耗0.041776895523071秒，共计插入790条数据
20200927161850消耗0.042215824127197秒，共计插入790条数据
20200927161928消耗0.041067123413086秒，共计插入790条数据
20200927161937消耗0.043826103210449秒，共计插入790条数据
20200927162100消耗0.043916940689087秒，共计插入790条数据
20200927162110消耗0.041730165481567秒，共计插入790条数据
20200927162122消耗0.041785001754761秒，共计插入790条数据
20200927162131消耗0.041594982147217秒，共计插入790条数据
20200928162046消耗0.045623779296875秒，共计插入1091条数据
20200928162657消耗0.04966402053833秒，共计插入1091条数据
20200928163836消耗0.054312944412231秒，共计插入1091条数据
20200928164132消耗0.048078060150146秒，共计插入1091条数据
20200928164812消耗0.050255060195923秒，共计插入1091条数据
20200928165109消耗0.047489881515503秒，共计插入1091条数据
20200928165613消耗0.051421165466309秒，共计插入1091条数据
20200928165910消耗0.047900915145874秒，共计插入1091条数据
20200928170152消耗0.04906702041626秒，共计插入1091条数据
20200928170456消耗0.047509908676147秒，共计插入1091条数据
20200928171420消耗0.047761917114258秒，共计插入1091条数据
20200928171717消耗0.047765016555786秒，共计插入1091条数据
20200929161717消耗0.049916982650757秒，共计插入1078条数据
20200929162419消耗0.04987096786499秒，共计插入1078条数据
20200929163454消耗0.048691034317017秒，共计插入1078条数据
20200929164022消耗0.068310976028442秒，共计插入1078条数据
20200929174539消耗0.048568964004517秒，共计插入1078条数据
20200929174856消耗0.0763258934021秒，共计插入1078条数据
20200930165511消耗0.069039106369019秒，共计插入2418条数据
20200930165946消耗0.074748992919922秒，共计插入2418条数据
20200930170429消耗0.077760934829712秒，共计插入2418条数据
20200930171301消耗0.074965000152588秒，共计插入2418条数据
20200930171655消耗0.07721996307373秒，共计插入2418条数据
20200930172236消耗0.078550100326538秒，共计插入2418条数据
20200930172627消耗0.07359504699707秒，共计插入2418条数据
