20200525|02000016|1818032308691|1818032308691|CNY|0|16415
20200525|02000016|1814708750317|1814708750317|CNY|0|12627
20200525|02000016|1813628759556|1813628759556|CNY|0|212341
20200525|02000016|1815682951846|1815682951846|CNY|0|0
20200525|02000016|1815025020128|1815025020128|CNY|0|0
20200525|02000016|1813578201088|1813578201088|CNY|0|7567
20200525|02000016|1815503215222|1815503215222|CNY|0|0
20200525|02000016|1815619623000|1815619623000|CNY|0|0
20200525|02000016|1818288549796|1818288549796|CNY|0|23615
20200525|02000016|1815025068429|1815025068429|CNY|0|200000
20200525|02000016|1813466148055|1813466148055|CNY|0|0
20200525|02000016|1818813396359|1818813396359|CNY|0|0
20200525|02000016|1815896686678|1815896686678|CNY|0|0
20200525|02000016|1813663317713|1813663317713|CNY|0|0
20200525|02000016|1818516898911|1818516898911|CNY|0|0
20200525|02000016|1818833239911|1818833239911|CNY|0|16415
20200525|02000016|1813908822711|1813908822711|CNY|0|6242
20200525|02000016|1818787516848|1818787516848|CNY|0|12657
20200525|02000016|1815096988674|1815096988674|CNY|0|0
20200525|02000016|1818916702038|1818916702038|CNY|0|0
20200525|02000016|1815129878708|1815129878708|CNY|0|806342
20200525|02000016|1815969344486|1815969344486|CNY|0|0
20200525|02000016|1813628822646|1813628822646|CNY|0|0
20200525|02000016|1818608820875|1818608820875|CNY|0|0
20200525|02000016|1815087527527|1815087527527|CNY|0|0
20200525|02000016|1813308821971|1813308821971|CNY|0|6242
20200525|02000016|1818387527986|1818387527986|CNY|0|0
20200525|02000016|1818669298362|1818669298362|CNY|0|0
20200525|02000016|1818869202278|1818869202278|CNY|0|0
20200525|02000016|1813887868518|1813887868518|CNY|0|0
20200525|02000016|1813566373447|1813566373447|CNY|0|3760
20200525|02000016|1815631238078|1815631238078|CNY|0|0
20200525|02000016|1815025007693|1815025007693|CNY|0|16415
20200525|02000016|1818304684246|1818304684246|CNY|0|16415
20200525|02000016|1818088155607|1818088155607|CNY|0|805126
20200525|02000016|1815987884158|1815987884158|CNY|210631|3979
20200525|02000016|1813759204028|1813759204028|CNY|0|23615
20200525|02000016|1813643393067|1813643393067|CNY|0|6915
20200525|02000016|1815232235991|1815232235991|CNY|0|0
20200525|02000016|1818987500186|1818987500186|CNY|0|0
20200525|02000016|1813429398439|1813429398439|CNY|0|28899
20200525|02000016|1813895018416|1813895018416|CNY|0|6242
20200525|02000016|1818832529652|1818832529652|CNY|0|6242
20200525|02000016|1813840468900|1813840468900|CNY|0|6242
20200525|02000016|1818214662231|1818214662231|CNY|0|0
20200525|02000016|1813970955648|1813970955648|CNY|0|200
20200525|02000016|1815686745787|1815686745787|CNY|0|0
20200525|02000016|1813988687925|1813988687925|CNY|0|0
20200525|02000016|1813398828698|1813398828698|CNY|0|16415
20200525|02000016|1815303122844|1815303122844|CNY|0|0
20200525|02000016|1813987595577|1813987595577|CNY|0|0
20200525|02000016|1813065172689|1813065172689|CNY|0|100
20200525|02000016|1818887533319|1818887533319|CNY|0|0
20200525|02000016|1815005786263|1815005786263|CNY|0|0
20200525|02000016|1818869202035|1818869202035|CNY|0|29857
20200525|02000016|1815208819237|1815208819237|CNY|0|23615
20200525|02000016|1818691110283|1818691110283|CNY|0|0
20200525|02000016|1813988259242|1813988259242|CNY|0|210173
20200525|02000016|1813578288004|1813578288004|CNY|0|428899
20200525|02000016|1815025033359|1815025033359|CNY|0|0
20200525|02000016|1818887512877|1818887512877|CNY|0|0
20200525|02000016|1817791269722|1817791269722|CNY|0|0
20200525|02000016|1815108605312|1815108605312|CNY|200601|11740
20200525|02000016|1813613813995|1813613813995|CNY|0|0
20200525|02000016|1815731210779|1815731210779|CNY|0|0
20200525|02000016|1815129737661|1815129737661|CNY|0|13042
20200525|02000016|1818187582339|1818187582339|CNY|60180|226954
20200525|02000016|1815333221545|1815333221545|CNY|0|6242
20200525|02000016|1818908826659|1818908826659|CNY|0|428899
20200525|02000016|1815389551286|1815389551286|CNY|0|0
20200525|02000016|1816606922129|1816606922129|CNY|0|0
20200525|02000016|1813486694384|1813486694384|CNY|0|11493
20200525|02000016|1813987956640|1813987956640|CNY|0|291722
20200525|02000016|1815969042814|1815969042814|CNY|0|0
20200525|02000016|1818987511266|1818987511266|CNY|0|3042
20200525|02000016|1818159800103|1818159800103|CNY|0|10052
20200525|02000016|1813383128767|1813383128767|CNY|0|0
20200525|02000016|1813992148070|1813992148070|CNY|0|0
20200525|02000016|1815368798533|1815368798533|CNY|0|235241
20200525|02000016|1815287565721|1815287565721|CNY|0|22657
20200525|02000016|1815925448288|1815925448288|CNY|0|0
20200525|02000016|1818669254642|1818669254642|CNY|0|16415
20200525|02000016|1815969231848|1815969231848|CNY|0|16415
20200525|02000016|1815887508589|1815887508589|CNY|60180|227454
20200525|02000016|1813991020881|1813991020881|CNY|0|0
20200525|02000016|1815925594498|1815925594498|CNY|0|0
20200525|02000016|1818468025462|1818468025462|CNY|0|201654
20200525|02000016|1815187507752|1815187507752|CNY|0|16639
20200525|02000016|1818392967498|1818392967498|CNY|0|16415
20200525|02000016|1817384836617|1817384836617|CNY|0|0
20200525|02000016|1814787364407|1814787364407|CNY|0|0
20200525|02000016|1813035952711|1813035952711|CNY|0|0
20200525|02000016|1818725332375|1818725332375|CNY|0|0
20200525|02000016|1818987916256|1818987916256|CNY|0|215381
20200525|02000016|1815925591567|1815925591567|CNY|0|235141
20200525|02000016|1818987538596|1818987538596|CNY|0|10224
20200525|02000016|1813772263673|1813772263673|CNY|0|0
20200525|02000016|1815288116989|1815288116989|CNY|0|0
20200525|02000016|1815108647893|1815108647893|CNY|0|216415
20200525|02000016|1818787552261|1818787552261|CNY|782347|11095
20200525|02000016|1818687948655|1818687948655|CNY|0|0
20200525|02000016|1813628853769|1813628853769|CNY|0|23615
20200525|02000016|1815087553123|1815087553123|CNY|200601|11740
20200525|02000016|1818468150535|1818468150535|CNY|0|0
20200525|02000016|1818987916981|1818987916981|CNY|0|235341
20200525|02000016|1813529527711|1813529527711|CNY|0|0
20200525|02000016|1815025092367|1815025092367|CNY|0|0
20200525|02000016|1815331519738|1815331519738|CNY|0|16415
20200525|02000016|1815368750346|1815368750346|CNY|0|0
20200525|02000016|1813577525294|1813577525294|CNY|60180|225751
20200525|02000016|1815334465219|1815334465219|CNY|0|234239
20200525|02000016|1815921012597|1815921012597|CNY|0|414341
20200525|02000016|1815946740910|1815946740910|CNY|0|13585
20200525|02000016|1813796415062|1813796415062|CNY|0|0
20200525|02000016|1815591159637|1815591159637|CNY|0|0
20200525|02000016|1813992106110|1813992106110|CNY|0|0
20200525|02000016|1813892542691|1813892542691|CNY|0|0
20200525|02000016|1813987581003|1813987581003|CNY|0|213442
20200525|02000016|1813577503685|1813577503685|CNY|28084|9998
20200525|02000016|1813731200919|1813731200919|CNY|0|1000
20200525|02000016|1813400267349|1813400267349|CNY|0|193346
20200525|02000016|1815812516805|1815812516805|CNY|0|0
20200525|02000016|1818787590852|1818787590852|CNY|0|0
20200525|02000016|1818088174982|1818088174982|CNY|189368|17231
20200525|02000016|1815812564327|1815812564327|CNY|0|0
20200525|02000016|1817846813139|1817846813139|CNY|0|0
20200525|02000016|1817709111773|1817709111773|CNY|0|0
20200525|02000016|1813399343222|1813399343222|CNY|0|0
20200525|02000016|1813304107148|1813304107148|CNY|0|0
20200525|02000016|1813988255301|1813988255301|CNY|0|0
20200525|02000016|1815334341131|1815334341131|CNY|0|427696
20200525|02000016|1815770327841|1815770327841|CNY|0|6242
20200525|02000016|1813887829820|1813887829820|CNY|0|0
20200525|02000016|1813846095286|1813846095286|CNY|0|0
20200525|02000016|1813992118944|1813992118944|CNY|0|0
20200525|02000016|1813988271457|1813988271457|CNY|0|235141
20200525|02000016|1813987581588|1813987581588|CNY|0|1000
20200525|02000016|1818788001556|1818788001556|CNY|0|0
20200525|02000016|1813988238986|1813988238986|CNY|0|9120
20200525|02000016|1813577500356|1813577500356|CNY|0|20254
20200525|02000016|1813992117776|1813992117776|CNY|0|0
20200525|02000016|1815891569614|1815891569614|CNY|0|0
20200525|02000016|1819931210376|1819931210376|CNY|0|0
20200525|02000016|1818931232281|1818931232281|CNY|0|28899
20200525|02000016|1818724403294|1818724403294|CNY|0|7385
20200525|02000016|1813840542929|1813840542929|CNY|0|37869
20200525|02000016|1815291131526|1815291131526|CNY|0|0
20200525|02000016|1813772895188|1813772895188|CNY|0|0
20200525|02000016|1813111603824|1813111603824|CNY|0|8542
20200525|02000016|1815209129381|1815209129381|CNY|0|0
20200525|02000016|1813945860022|1813945860022|CNY|0|6385
20200525|02000016|1813991780399|1813991780399|CNY|0|0
20200525|02000016|1818292122729|1818292122729|CNY|0|0
20200525|02000016|1818287556198|1818287556198|CNY|0|0
20200525|02000016|1813991770613|1813991770613|CNY|0|0
20200525|02000016|1815912705961|1815912705961|CNY|0|499
20200525|02000016|1813289113831|1813289113831|CNY|0|0
20200525|02000016|1815894436377|1815894436377|CNY|0|74192
20200525|02000016|1815191178341|1815191178341|CNY|0|0
20200525|02000016|1818392881911|1818392881911|CNY|0|0
20200525|02000016|1815231216025|1815231216025|CNY|0|6242
20200525|02000016|1815137117832|1815137117832|CNY|0|0
20200525|02000016|1815083108167|1815083108167|CNY|0|0
20200525|02000016|1818233358282|1818233358282|CNY|0|193346
20200525|02000016|1813887868883|1813887868883|CNY|0|235141
20200525|02000016|1815630880329|1815630880329|CNY|0|194004
20200525|02000016|1815887657769|1815887657769|CNY|0|0
20200525|02000016|1813708757787|1813708757787|CNY|0|0
20200525|02000016|1815903327688|1815903327688|CNY|0|223110
20200525|02000016|1813473214668|1813473214668|CNY|0|0
20200525|02000016|1818988233319|1818988233319|CNY|0|0
20200525|02000016|1813832243557|1813832243557|CNY|0|0
20200525|02000016|1813488373818|1813488373818|CNY|0|0
20200525|02000016|1813987578771|1813987578771|CNY|0|0
20200525|02000016|1815991577667|1815991577667|CNY|0|0
20200525|02000016|1815945537804|1815945537804|CNY|601805|20852
20200525|02000016|1817736297679|1817736297679|CNY|0|0
20200525|02000016|1813808788999|1813808788999|CNY|0|28298
20200525|02000016|1818645566467|1818645566467|CNY|0|0
20200525|02000016|1813098096755|1813098096755|CNY|0|0
20200525|02000016|1813571140723|1813571140723|CNY|0|0
20200525|02000016|1818087517065|1818087517065|CNY|0|0
20200525|02000016|1817868800449|1817868800449|CNY|0|0
20200525|02000016|1813578286883|1813578286883|CNY|0|245314
20200525|02000016|1815094223804|1815094223804|CNY|0|500
20200525|02000016|1817391958688|1817391958688|CNY|0|0
20200525|02000016|1818629039483|1818629039483|CNY|0|0
20200525|02000016|1816609114058|1816609114058|CNY|0|0
20200525|02000016|1819909111566|1819909111566|CNY|0|0
20200525|02000016|1815930284881|1815930284881|CNY|0|0
20200525|02000016|1817809111921|1817809111921|CNY|0|0
20200525|02000016|1818700162982|1818700162982|CNY|0|0
20200525|02000016|1815368486928|1815368486928|CNY|0|206385
20200525|02000016|1818840251155|1818840251155|CNY|0|0
20200525|02000016|1813992318598|1813992318598|CNY|0|0
20200525|02000016|1813988267556|1813988267556|CNY|0|242241
20200525|02000016|1813474458851|1813474458851|CNY|0|0
20200525|02000016|1815334310834|1815334310834|CNY|0|0
20200525|02000016|1815029530248|1815029530248|CNY|0|0
20200525|02000016|1813809349928|1813809349928|CNY|0|0
20200525|02000016|1815331528359|1815331528359|CNY|0|0
20200525|02000016|1813399115742|1813399115742|CNY|0|0
20200525|02000016|1815996086632|1815996086632|CNY|0|0
20200525|02000016|1815368948672|1815368948672|CNY|0|439072
20200525|02000016|1815087509852|1815087509852|CNY|0|394899
20200525|02000016|1813772718111|1813772718111|CNY|0|0
20200525|02000016|1815045780980|1815045780980|CNY|0|6385
20200525|02000016|1815592260808|1815592260808|CNY|0|0
20200525|02000016|1815093210309|1815093210309|CNY|0|490
20200525|02000016|1815957203988|1815957203988|CNY|0|0
20200525|02000016|1818298839905|1818298839905|CNY|0|0
20200525|02000016|1815293423077|1815293423077|CNY|0|0
20200525|02000016|1815591123721|1815591123721|CNY|0|0
20200525|02000016|1818737962228|1818737962228|CNY|0|0
20200525|02000016|1813263346688|1813263346688|CNY|0|0
20200525|02000016|1813330594491|1813330594491|CNY|0|2592
20200525|02000016|1818687838558|1818687838558|CNY|0|367
20200525|02000016|1815288130560|1815288130560|CNY|0|403623
20200525|02000016|1818994474771|1818994474771|CNY|0|0
20200525|02000016|1818091155128|1818091155128|CNY|0|0
20200525|02000016|1817719748304|1817719748304|CNY|0|0
20200525|02000016|1813772344055|1813772344055|CNY|0|0
20200525|02000016|1813988266069|1813988266069|CNY|0|399908
20200525|02000016|1815331520336|1815331520336|CNY|0|241145
20200525|02000016|1818736050656|1818736050656|CNY|0|0
20200525|02000016|1815829737978|1815829737978|CNY|0|0
20200525|02000016|1815894439153|1815894439153|CNY|0|0
20200525|02000016|1813636725549|1813636725549|CNY|0|0
20200525|02000016|1813884188962|1813884188962|CNY|0|0
20200525|02000016|1817709117170|1817709117170|CNY|0|0
20200525|02000016|1818291148070|1818291148070|CNY|0|0
20200525|02000016|1813510915931|1813510915931|CNY|0|0
20200525|02000016|1815143013819|1815143013819|CNY|0|0
20200525|02000016|1813359117768|1813359117768|CNY|0|0
20200525|02000016|1813389116777|1813389116777|CNY|0|0
20200525|02000016|1813194551998|1813194551998|CNY|0|0
20200525|02000016|1815969053582|1815969053582|CNY|0|16415
20200525|02000016|1815308750767|1815308750767|CNY|0|216415
20200525|02000016|1813224207506|1813224207506|CNY|0|0
20200525|02000016|1818840286258|1818840286258|CNY|0|0
20200525|02000016|1818940967978|1818940967978|CNY|0|16852
20200525|02000016|1815951703440|1815951703440|CNY|0|0
20200525|02000016|1815670742888|1815670742888|CNY|0|13442
20200525|02000016|1813830402848|1813830402848|CNY|0|0
20200525|02000016|1818193499977|1818193499977|CNY|0|0
20200525|02000016|1813679280838|1813679280838|CNY|0|0
20200525|02000016|1813698871528|1813698871528|CNY|0|0
20200525|02000016|1815101878935|1815101878935|CNY|0|0
20200525|02000016|1815339748998|1815339748998|CNY|0|0
20200525|02000016|1813958157143|1813958157143|CNY|0|0
20200525|02000016|1813831284573|1813831284573|CNY|0|200000
20200525|02000016|1817703158656|1817703158656|CNY|0|0
20200525|02000016|1818082236663|1818082236663|CNY|0|0
20200525|02000016|1813730451279|1813730451279|CNY|0|5126
20200525|02000016|1813315427245|1813315427245|CNY|0|16415
20200525|02000016|1813331236246|1813331236246|CNY|0|29857
20200525|02000016|1813889198577|1813889198577|CNY|0|0
20200525|02000016|1814787853587|1814787853587|CNY|0|16415
20200525|02000016|1813273388518|1813273388518|CNY|0|0
20200525|02000016|1815632277008|1815632277008|CNY|0|1520
20200525|02000016|1813552101589|1813552101589|CNY|0|0
20200525|02000016|1813335339191|1813335339191|CNY|0|806242
20200525|02000016|1813388758398|1813388758398|CNY|0|394899
20200525|02000016|1815933553201|1815933553201|CNY|0|41145
20200525|02000016|1813613128663|1813613128663|CNY|0|16415
20200525|02000016|1815830793323|1815830793323|CNY|0|0
20200525|02000016|1818739083906|1818739083906|CNY|0|0
20200525|02000016|1817304211987|1817304211987|CNY|0|223765
20200525|02000016|1813684675119|1813684675119|CNY|0|6385
20200525|02000016|1813555046898|1813555046898|CNY|0|4910
20200525|02000016|1815175219511|1815175219511|CNY|10030|6385
20200525|02000016|1818679633997|1818679633997|CNY|0|0
20200525|02000016|1813102743377|1813102743377|CNY|0|0
20200525|02000016|1818707798297|1818707798297|CNY|0|0
20200525|02000016|1817331241623|1817331241623|CNY|0|0
20200525|02000016|1819831229668|1819831229668|CNY|0|0
20200525|02000016|1818220358251|1818220358251|CNY|0|0
20200525|02000016|1818330218859|1818330218859|CNY|0|12627
20200525|02000016|1813263638109|1813263638109|CNY|0|2454
20200525|02000016|1815716865625|1815716865625|CNY|0|206899
20200525|02000016|1815561743759|1815561743759|CNY|0|0
20200525|02000016|1813089950930|1813089950930|CNY|0|6385
20200525|02000016|1813089614313|1813089614313|CNY|0|6385
20200525|02000016|1813330597481|1813330597481|CNY|16048|367
20200525|02000016|1813157116491|1813157116491|CNY|0|0
20200525|02000016|1813571354287|1813571354287|CNY|0|0
20200525|02000016|1817733229292|1817733229292|CNY|0|0
20200525|02000016|1815246290569|1815246290569|CNY|0|6967
20200525|02000016|1819995866890|1819995866890|CNY|0|0
20200525|02000016|1813779583395|1813779583395|CNY|0|413442
20200525|02000016|1815969220999|1815969220999|CNY|0|0
20200525|02000016|1817795672148|1817795672148|CNY|0|0
20200525|02000016|1813633222106|1813633222106|CNY|0|0
20200525|02000016|1813378763351|1813378763351|CNY|0|0
20200525|02000016|1818788201666|1818788201666|CNY|0|28899
20200525|02000016|1813769055559|1813769055559|CNY|0|208380
20200525|02000016|1815614233791|1815614233791|CNY|0|0
20200525|02000016|1815094234737|1815094234737|CNY|0|16415
20200525|02000016|1813887838521|1813887838521|CNY|0|22116
20200525|02000016|1813739331106|1813739331106|CNY|0|0
20200525|02000016|1818992181168|1818992181168|CNY|0|0
20200525|02000016|1815225163642|1815225163642|CNY|0|0
20200525|02000016|1815208756608|1815208756608|CNY|0|22657
20200525|02000016|1813238826869|1813238826869|CNY|0|28810
20200525|02000016|1815931796166|1815931796166|CNY|0|0
20200525|02000016|1818061071886|1818061071886|CNY|0|0
20200525|02000016|1813807005654|1813807005654|CNY|0|400000
20200525|02000016|1815398728698|1815398728698|CNY|0|0
20200525|02000016|1813576641198|1813576641198|CNY|0|12328
20200525|02000016|1813903321663|1813903321663|CNY|0|370
20200525|02000016|1813473122412|1813473122412|CNY|0|417753
20200525|02000016|1817713241107|1817713241107|CNY|0|0
20200525|02000016|1815961046838|1815961046838|CNY|0|0
20200525|02000016|1813930246312|1813930246312|CNY|0|5126
20200525|02000016|1813763733303|1813763733303|CNY|0|23616
20200525|02000016|1815146194700|1815146194700|CNY|0|6385
20200525|02000016|1819940522710|1819940522710|CNY|0|0
20200525|02000016|1815238108000|1815238108000|CNY|0|198885
20200525|02000016|1817631643762|1817631643762|CNY|0|15302
20200525|02000016|1813509153281|1813509153281|CNY|0|304
20200525|02000016|1813866142870|1813866142870|CNY|0|8444
20200525|02000016|1813979167776|1813979167776|CNY|0|0
20200525|02000016|1815236299699|1815236299699|CNY|0|21726
20200525|02000016|1813582217784|1813582217784|CNY|0|18711
20200525|02000016|1815184848605|1815184848605|CNY|200601|13266
20200525|02000016|1818908752966|1818908752966|CNY|0|24731
20200525|02000016|1819108423726|1819108423726|CNY|0|0
20200525|02000016|1815333262646|1815333262646|CNY|0|8829
20200525|02000016|1815990849987|1815990849987|CNY|0|820
20200525|02000016|1818330262360|1818330262360|CNY|0|0
20200525|02000016|1813572733058|1813572733058|CNY|0|0
20200525|02000016|1818170083766|1818170083766|CNY|0|0
20200525|02000016|1813731661948|1813731661948|CNY|0|0
20200525|02000016|1813314681055|1813314681055|CNY|0|0
20200525|02000016|1815208808189|1815208808189|CNY|0|10518
20200525|02000016|1815529156862|1815529156862|CNY|0|0
20200525|02000016|1813846055840|1813846055840|CNY|0|4864
20200525|02000016|1818911520925|1818911520925|CNY|0|0
20200525|02000016|1815609151431|1815609151431|CNY|0|74
20200525|02000016|1815204682299|1815204682299|CNY|0|6365
20200525|02000016|1813767977037|1813767977037|CNY|0|19940
20200525|02000016|1815127269046|1815127269046|CNY|0|20347
20200525|02000016|1813576928088|1813576928088|CNY|0|523
20200525|02000016|1815202419589|1815202419589|CNY|0|2312
20200525|02000016|1815146868665|1815146868665|CNY|0|25
20200525|02000016|1813909114265|1813909114265|CNY|0|24720
20200525|02000016|1817389175431|1817389175431|CNY|0|19812
20200525|02000016|1818191539413|1818191539413|CNY|0|24470
20200525|02000016|1815845468057|1815845468057|CNY|0|23
20200525|02000016|1818550513122|1818550513122|CNY|0|0
20200525|02000016|1818732221628|1818732221628|CNY|0|2904
20200525|02000016|1813619405650|1813619405650|CNY|0|2484
20200525|02000016|1815667899659|1815667899659|CNY|0|2313
20200525|02000016|1813992186412|1813992186412|CNY|0|16451
20200525|02000016|1818993303292|1818993303292|CNY|0|28
20200525|02000016|1813932211661|1813932211661|CNY|0|19684
20200525|02000016|1813369291965|1813369291965|CNY|0|185442
20200525|02000016|1813891167478|1813891167478|CNY|0|0
20200525|02000016|1813029890582|1813029890582|CNY|0|0
20200525|02000016|1813931358252|1813931358252|CNY|0|1606
20200525|02000016|1813772856518|1813772856518|CNY|0|0
20200525|02000016|1813730288889|1813730288889|CNY|0|0
20200525|02000016|1813932201758|1813932201758|CNY|0|6661
20200525|02000016|1819937183090|1819937183090|CNY|0|13443
20200525|02000016|1813619647900|1813619647900|CNY|0|7508
20200525|02000016|1813463442485|1813463442485|CNY|0|37807
20200525|02000016|1817386323731|1817386323731|CNY|0|40
20200525|02000016|1813698809219|1813698809219|CNY|0|10279
20200525|02000016|1813292419437|1813292419437|CNY|0|16415
20200525|02000016|1813931405388|1813931405388|CNY|0|0
20200525|02000016|1813832212723|1813832212723|CNY|0|26566
20200525|02000016|1817749583303|1817749583303|CNY|0|1000
20200525|02000016|1813584278719|1813584278719|CNY|0|43
20200525|02000016|1813164330393|1813164330393|CNY|0|0
20200525|02000016|1813833495031|1813833495031|CNY|0|1607
20200525|02000016|1815319563437|1815319563437|CNY|0|0
20200525|02000016|1815931760357|1815931760357|CNY|0|0
20200525|02000016|1815246230377|1815246230377|CNY|0|3533
20200525|02000016|1815353070080|1815353070080|CNY|0|6220
20200525|02000016|1813796445877|1813796445877|CNY|0|12713
20200525|02000016|1818137837007|1818137837007|CNY|0|62
20200525|02000016|1815705193619|1815705193619|CNY|0|7688
20200525|02000016|1818164319032|1818164319032|CNY|0|16451
20200525|02000016|1818379168116|1818379168116|CNY|0|202898
20200525|02000016|1813904881393|1813904881393|CNY|0|12328
20200525|02000016|1815517105401|1815517105401|CNY|0|222536
20200525|02000016|1813018636355|1813018636355|CNY|0|38
20200525|02000016|1818009990778|1818009990778|CNY|0|40640
20200525|02000016|1813911318605|1813911318605|CNY|0|12269
20200525|02000016|1815113380706|1815113380706|CNY|0|19870
20200525|02000016|1815032232283|1815032232283|CNY|0|44055
20200525|02000016|1813961081945|1813961081945|CNY|0|3191
20200525|02000016|1815231225276|1815231225276|CNY|0|17477
20200525|02000016|1815233123371|1815233123371|CNY|0|8285
20200525|02000016|1815957902628|1815957902628|CNY|0|43
20200525|02000016|1813082311311|1813082311311|CNY|0|835
20200525|02000016|1813513425869|1813513425869|CNY|0|0
20200525|02000016|1818036311516|1818036311516|CNY|0|0
20200525|02000016|1813703227817|1813703227817|CNY|0|0
20200525|02000016|1813324639668|1813324639668|CNY|0|2312
20200525|02000016|1813566943256|1813566943256|CNY|0|971
20200525|02000016|1813933229549|1813933229549|CNY|0|10452
20200525|02000016|1818855897042|1818855897042|CNY|0|8137
20200525|02000016|1813796574791|1813796574791|CNY|0|11657
20200525|02000016|1813615847631|1813615847631|CNY|0|0
20200525|02000016|1818932692236|1818932692236|CNY|0|75974
20200525|02000016|1813813290931|1813813290931|CNY|0|3435
20200525|02000016|1815630231725|1815630231725|CNY|0|27371
20200525|02000016|1818220323568|1818220323568|CNY|0|1984
20200525|02000016|1815829788677|1815829788677|CNY|0|0
20200525|02000016|1813831230719|1813831230719|CNY|0|0
20200525|02000016|1818767853616|1818767853616|CNY|0|0
20200525|02000016|1818667101556|1818667101556|CNY|0|7714
20200525|02000016|1815890000242|1815890000242|CNY|0|63
20200525|02000016|1813755657889|1813755657889|CNY|0|0
20200525|02000016|1813767988121|1813767988121|CNY|0|0
20200525|02000016|1813892350948|1813892350948|CNY|0|0
20200525|02000016|1813582246755|1813582246755|CNY|0|25430
20200525|02000016|1818604031950|1818604031950|CNY|0|34753
20200525|02000016|1818291527998|1818291527998|CNY|0|626
20200525|02000016|1815925729121|1815925729121|CNY|0|5105
20200525|02000016|1815257996892|1815257996892|CNY|0|195
20200525|02000016|1815175323250|1815175323250|CNY|0|0
20200525|02000016|1813754273333|1813754273333|CNY|0|7
20200525|02000016|1813567619865|1813567619865|CNY|0|0
20200525|02000016|1813967061868|1813967061868|CNY|0|0
20200525|02000016|1813807929932|1813807929932|CNY|0|0
20200525|02000016|1815857828285|1815857828285|CNY|0|0
20200525|02000016|1813831231957|1813831231957|CNY|0|0
20200525|02000016|1818257097983|1818257097983|CNY|0|395
20200525|02000016|1813603225419|1813603225419|CNY|0|23930
20200525|02000016|1813803125311|1813803125311|CNY|0|11493
20200525|02000016|1813803126152|1813803126152|CNY|0|6657
20200525|02000016|1818159823668|1818159823668|CNY|0|0
20200525|02000016|1813513061187|1813513061187|CNY|0|7856
20200525|02000016|1818975225517|1818975225517|CNY|0|1
20200525|02000016|1818086369975|1818086369975|CNY|0|386
20200525|02000016|1813310933838|1813310933838|CNY|0|211803
20200525|02000016|1818257932275|1818257932275|CNY|0|44
20200525|02000016|1813819943894|1813819943894|CNY|0|52
20200525|02000016|1818860362717|1818860362717|CNY|0|0
20200525|02000016|1818829756688|1818829756688|CNY|0|76
20200525|02000016|1818511141687|1818511141687|CNY|0|21254
20200525|02000016|1813315720787|1813315720787|CNY|0|0
20200525|02000016|1813554575360|1813554575360|CNY|0|1780
20200525|02000016|1813731691285|1813731691285|CNY|0|36719
20200525|02000016|1815070922178|1815070922178|CNY|0|97
20200525|02000016|1815389494945|1815389494945|CNY|200601|6952
20200525|02000016|1813951695691|1813951695691|CNY|0|3802
20200525|02000016|1815931730560|1815931730560|CNY|0|6242
20200525|02000016|1815305796690|1815305796690|CNY|0|644
20200525|02000016|1818729936598|1818729936598|CNY|0|211931
20200525|02000016|1815033779933|1815033779933|CNY|0|73478
20200525|02000016|1813065190016|1813065190016|CNY|0|0
20200525|02000016|1813473208632|1813473208632|CNY|0|0
20200525|02000016|1818631222983|1818631222983|CNY|0|10391
20200525|02000016|1815136188661|1815136188661|CNY|0|349
20200525|02000016|1815771836378|1815771836378|CNY|0|27009
20200525|02000016|1815030230206|1815030230206|CNY|0|36549
20200525|02000016|1813335335656|1813335335656|CNY|0|10447
20200525|02000016|1815268612201|1815268612201|CNY|0|7618
20200525|02000016|1817607082603|1817607082603|CNY|0|0
20200525|02000016|1818867803303|1818867803303|CNY|0|2998
20200525|02000016|1815933913379|1815933913379|CNY|0|19
20200525|02000016|1815924117387|1815924117387|CNY|0|7306
20200525|02000016|1815832285526|1815832285526|CNY|0|9431
20200525|02000016|1813770855951|1813770855951|CNY|0|101692
20200525|02000016|1813730229934|1813730229934|CNY|0|1659
20200525|02000016|1813857151023|1813857151023|CNY|0|440
20200525|02000016|1815303121880|1815303121880|CNY|0|28819
20200525|02000016|1813819169781|1813819169781|CNY|0|842
20200525|02000016|1813588336535|1813588336535|CNY|0|397
20200525|02000016|1818192909939|1818192909939|CNY|0|0
20200525|02000016|1818309996978|1818309996978|CNY|0|867
20200525|02000016|1815168014087|1815168014087|CNY|0|8691
20200525|02000016|1813306881828|1813306881828|CNY|0|1775
20200525|02000016|1815038169553|1815038169553|CNY|10030|14635
20200525|02000016|1815924222226|1815924222226|CNY|0|0
20200525|02000016|1815195994166|1815195994166|CNY|0|0
20200525|02000016|1813991898100|1813991898100|CNY|0|99023
20200525|02000016|1818170064881|1818170064881|CNY|0|0
20200525|02000016|1815657925017|1815657925017|CNY|0|3416
20200525|02000016|1813674575508|1813674575508|CNY|0|13392
20200525|02000016|1813515799998|1813515799998|CNY|0|2336
20200525|02000016|1815509150202|1815509150202|CNY|0|0
20200525|02000016|1818970818141|1818970818141|CNY|0|32
20200525|02000016|1815382494511|1815382494511|CNY|0|6
20200525|02000016|1819909235532|1819909235532|CNY|0|18356
20200525|02000016|1815907052137|1815907052137|CNY|0|251489
20200525|02000016|1813309116156|1813309116156|CNY|0|22319
20200525|02000016|1813586951967|1813586951967|CNY|0|0
20200525|02000016|1818700281551|1818700281551|CNY|0|0
20200525|02000016|1813730198476|1813730198476|CNY|0|22719
20200525|02000016|1815070979869|1815070979869|CNY|0|362
20200525|02000016|1818149061051|1818149061051|CNY|0|14012
20200525|02000016|1818119672820|1818119672820|CNY|0|2
20200525|02000016|1818857909742|1818857909742|CNY|0|422
20200525|02000016|1815215865578|1815215865578|CNY|0|782
20200525|02000016|1815353294588|1815353294588|CNY|0|16286
20200525|02000016|1815233745111|1815233745111|CNY|0|16814
20200525|02000016|1815600666119|1815600666119|CNY|0|0
20200525|02000016|1813607918208|1813607918208|CNY|0|31630
20200525|02000016|1813617009398|1813617009398|CNY|0|6
20200525|02000016|1815857462887|1815857462887|CNY|0|1000
20200525|02000016|1815271373251|1815271373251|CNY|0|0
20200525|02000016|1813857096004|1813857096004|CNY|0|1000
20200525|02000016|1815829415554|1815829415554|CNY|0|0
20200525|02000016|1818058777858|1818058777858|CNY|0|0
20200525|02000016|1813266662096|1813266662096|CNY|0|9671
20200525|02000016|1818165273182|1818165273182|CNY|0|105398
20200525|02000016|1818720096449|1818720096449|CNY|0|7148
20200525|02000016|1813706799682|1813706799682|CNY|0|277
20200525|02000016|1818379877758|1818379877758|CNY|0|0
20200525|02000016|1813957952322|1813957952322|CNY|0|63
20200525|02000016|1813931280093|1813931280093|CNY|0|18272
20200525|02000016|1813578273333|1813578273333|CNY|0|8286
20200525|02000016|1813098812743|1813098812743|CNY|0|4
20200525|02000016|1818958463402|1818958463402|CNY|0|529
20200525|02000016|1813506593224|1813506593224|CNY|0|376
20200525|02000016|1815958405457|1815958405457|CNY|0|1
20200525|02000016|1818758949435|1818758949435|CNY|0|327
20200525|02000016|1815931279585|1815931279585|CNY|0|3473
20200525|02000016|1815932133134|1815932133134|CNY|0|0
20200525|02000016|1813698002339|1813698002339|CNY|0|7626
20200525|02000016|1813931360238|1813931360238|CNY|0|6753
20200525|02000016|1813628894679|1813628894679|CNY|0|20173
20200525|02000016|1818833201891|1818833201891|CNY|0|16813
20200525|02000016|1818233291091|1818233291091|CNY|0|44053
20200525|02000016|1815291917684|1815291917684|CNY|0|11
20200525|02000016|1818767845169|1818767845169|CNY|0|11727
20200525|02000016|1813379416382|1813379416382|CNY|0|2317
20200525|02000016|1815933526748|1815933526748|CNY|0|79235
20200525|02000016|1813463287557|1813463287557|CNY|0|8388
20200525|02000016|1818789386862|1818789386862|CNY|0|0
20200525|02000016|1813559987851|1813559987851|CNY|0|3179
20200525|02000016|1818331088485|1818331088485|CNY|0|25564
20200525|02000016|1815596230859|1815596230859|CNY|0|13831
20200525|02000016|1815100269110|1815100269110|CNY|0|11812
20200525|02000016|1813335311791|1813335311791|CNY|0|9827
20200525|02000016|1813643126078|1813643126078|CNY|0|17603
20200525|02000016|1815891187077|1815891187077|CNY|8124|5
20200525|02000016|1813163743109|1813163743109|CNY|0|40826
20200525|02000016|1818172871314|1818172871314|CNY|0|0
20200525|02000016|1818288188088|1818288188088|CNY|0|363947
20200525|02000016|1819931270007|1819931270007|CNY|0|41972
20200525|02000016|1813098067177|1813098067177|CNY|0|7427
20200525|02000016|1813571459983|1813571459983|CNY|0|25477
20200525|02000016|1815094526270|1815094526270|CNY|0|26875
20200525|02000016|1815132437141|1815132437141|CNY|0|41753
20200525|02000016|1818057897187|1818057897187|CNY|0|74
20200525|02000016|1813289636561|1813289636561|CNY|0|0
20200525|02000016|1813689152309|1813689152309|CNY|0|67
20200525|02000016|1815383228251|1815383228251|CNY|0|0
20200525|02000016|1815109156089|1815109156089|CNY|0|8933
20200525|02000016|1815094564333|1815094564333|CNY|0|2
20200525|02000016|1813645151985|1813645151985|CNY|0|12
20200525|02000016|1813263090451|1813263090451|CNY|0|0
20200525|02000016|1815146755908|1815146755908|CNY|0|0
20200525|02000016|1813567094825|1813567094825|CNY|0|0
20200525|02000016|1815857856070|1815857856070|CNY|0|0
20200525|02000016|1815070654425|1815070654425|CNY|0|0
20200525|02000016|1813970904040|1813970904040|CNY|0|9
20200525|02000016|1813308821769|1813308821769|CNY|0|20173
20200525|02000016|1815925718701|1815925718701|CNY|0|52
20200525|02000016|1818079110216|1818079110216|CNY|0|1
20200525|02000016|1815100490363|1815100490363|CNY|0|0
20200525|02000016|1813129593568|1813129593568|CNY|0|8
20200525|02000016|1813731284037|1813731284037|CNY|0|184541
20200525|02000016|1815931271087|1815931271087|CNY|0|28876
20200525|02000016|1815804681313|1815804681313|CNY|0|25031
20200525|02000016|1813683131563|1813683131563|CNY|0|19878
20200525|02000016|1815860112718|1815860112718|CNY|0|2369
20200525|02000016|1818945765909|1818945765909|CNY|26078|10120
20200525|02000016|1815929113628|1815929113628|CNY|0|434647
20200525|02000016|1813735922508|1813735922508|CNY|0|7
20200525|02000016|1815250980626|1815250980626|CNY|0|68
20200525|02000016|1815990818307|1815990818307|CNY|0|7
20200525|02000016|1813587148777|1813587148777|CNY|0|85
20200525|02000016|1815029688272|1815029688272|CNY|0|7477
20200525|02000016|1813333799393|1813333799393|CNY|0|62239
20200525|02000016|1815094645884|1815094645884|CNY|0|16704
20200525|02000016|1815070519040|1815070519040|CNY|0|0
20200525|02000016|1818170832599|1818170832599|CNY|0|6
20200525|02000016|1813946743169|1813946743169|CNY|240722|12255
20200525|02000016|1813867085658|1813867085658|CNY|0|200
20200525|02000016|1813832228797|1813832228797|CNY|0|20347
20200525|02000016|1813933221293|1813933221293|CNY|0|0
20200525|02000016|1813026218446|1813026218446|CNY|0|0
20200525|02000016|1818909118615|1818909118615|CNY|0|0
20200525|02000016|1815697705772|1815697705772|CNY|0|203383
20200525|02000016|1818970863279|1818970863279|CNY|0|26629
20200525|02000016|1813803503385|1813803503385|CNY|0|54253
20200525|02000016|1815079001967|1815079001967|CNY|0|308
20200525|02000016|1813994121368|1813994121368|CNY|0|1000
20200525|02000016|1815931476286|1815931476286|CNY|0|0
20200525|02000016|1815057899784|1815057899784|CNY|0|14469
20200525|02000016|1813867051385|1813867051385|CNY|0|18
20200525|02000016|1815079189423|1815079189423|CNY|0|0
20200525|02000016|1817757815859|1817757815859|CNY|0|0
20200525|02000016|1813636870153|1813636870153|CNY|0|15911
20200525|02000016|1813870547014|1813870547014|CNY|0|9
20200525|02000016|1816631801260|1816631801260|CNY|0|0
20200525|02000016|1813400166984|1813400166984|CNY|0|4
20200525|02000016|1817757881718|1817757881718|CNY|0|0
20200525|02000016|1818969738286|1818969738286|CNY|0|7626
20200525|02000016|1818070023038|1818070023038|CNY|0|673
20200525|02000016|1813159888612|1813159888612|CNY|0|8428
20200525|02000016|1813315439137|1813315439137|CNY|0|1973
20200525|02000016|1819904685889|1819904685889|CNY|0|450
20200525|02000016|1815879175735|1815879175735|CNY|0|12
20200525|02000016|1817732411319|1817732411319|CNY|0|44359
20200525|02000016|1813870602362|1813870602362|CNY|0|9
20200525|02000016|1813324536769|1813324536769|CNY|0|12120
20200525|02000016|1813133804808|1813133804808|CNY|0|4365
20200525|02000016|1813330112756|1813330112756|CNY|0|1
20200525|02000016|1815933229952|1815933229952|CNY|200601|4407
20200525|02000016|1815279158519|1815279158519|CNY|0|0
20200525|02000016|1818891101268|1818891101268|CNY|0|13731
20200525|02000016|1813875259576|1813875259576|CNY|0|10741
20200525|02000016|1813576268031|1813576268031|CNY|0|7293200
20200525|02000016|1818157439332|1818157439332|CNY|0|0
20200525|02000016|1813946815417|1813946815417|CNY|0|0
20200525|02000016|1813641226784|1813641226784|CNY|0|15364
20200525|02000016|1813870721018|1813870721018|CNY|0|299
20200525|02000016|1815352338039|1815352338039|CNY|0|14092
20200525|02000016|1813572708794|1813572708794|CNY|0|0
20200525|02000016|1813946783966|1813946783966|CNY|10030|7407
20200525|02000016|1813324561701|1813324561701|CNY|0|248617
20200525|02000016|1815829115522|1815829115522|CNY|0|0
20200525|02000016|1813571101976|1813571101976|CNY|0|0
20200525|02000016|1813572529826|1813572529826|CNY|0|73
20200525|02000016|1813870999620|1813870999620|CNY|0|0
20200525|02000016|1817703687887|1817703687887|CNY|0|207553
20200525|02000016|1813669212329|1813669212329|CNY|0|22277
20200525|02000016|1818879533117|1818879533117|CNY|0|0
20200525|02000016|1813663315968|1813663315968|CNY|0|16630
20200525|02000016|1815291119145|1815291119145|CNY|0|25625
20200525|02000016|1813082360764|1813082360764|CNY|0|19333
20200525|02000016|1815070897250|1815070897250|CNY|0|222
20200525|02000016|1818103143885|1818103143885|CNY|0|28008
20200525|02000016|1818392350866|1818392350866|CNY|0|0
20200525|02000016|1813180214668|1813180214668|CNY|0|17499
20200525|02000016|1813975069661|1813975069661|CNY|0|0
20200525|02000016|1815157898394|1815157898394|CNY|0|92
20200525|02000016|1818335259239|1818335259239|CNY|20060|22644
20200525|02000016|1813513328664|1813513328664|CNY|0|306
20200525|02000016|1813484909866|1813484909866|CNY|0|0
20200525|02000016|1815990428194|1815990428194|CNY|0|16
20200525|02000016|1813870608160|1813870608160|CNY|0|283705
20200525|02000016|1818767811827|1818767811827|CNY|0|287
20200525|02000016|1813992295013|1813992295013|CNY|0|0
20200525|02000016|1815268107347|1815268107347|CNY|0|29
20200525|02000016|1813601213177|1813601213177|CNY|0|612
20200525|02000016|1817303121352|1817303121352|CNY|0|13784
20200525|02000016|1813968390153|1813968390153|CNY|0|55
20200525|02000016|1815770990492|1815770990492|CNY|0|368
20200525|02000016|1813339574707|1813339574707|CNY|0|14134
20200525|02000016|1813065128288|1813065128288|CNY|0|277991
20200525|02000016|1813278244178|1813278244178|CNY|0|7
20200525|02000016|1813645788835|1813645788835|CNY|0|73
20200525|02000016|1818161948895|1818161948895|CNY|0|0
20200525|02000016|1817697226810|1817697226810|CNY|0|16162
20200525|02000016|1815967919905|1815967919905|CNY|0|77
20200525|02000016|1813868930707|1813868930707|CNY|0|0
20200525|02000016|1818651989081|1818651989081|CNY|0|19
20200525|02000016|1815070964165|1815070964165|CNY|0|18219
20200525|02000016|1815255898922|1815255898922|CNY|0|0
20200525|02000016|1813006233652|1813006233652|CNY|0|22307
20200525|02000016|1818740639446|1818740639446|CNY|0|0
20200525|02000016|1815032236912|1815032236912|CNY|0|28114
20200525|02000016|1813870075201|1813870075201|CNY|0|1861
20200525|02000016|1818629264385|1818629264385|CNY|0|18169
20200525|02000016|1818633622232|1818633622232|CNY|0|0
20200525|02000016|1815332256088|1815332256088|CNY|0|780
20200525|02000016|1813709230552|1813709230552|CNY|0|45977
20200525|02000016|1815603693188|1815603693188|CNY|0|0
20200525|02000016|1813582233927|1813582233927|CNY|0|26158
20200525|02000016|1813393125978|1813393125978|CNY|0|0
20200525|02000016|1818732705052|1818732705052|CNY|0|0
20200525|02000016|1813831723408|1813831723408|CNY|0|1723
20200525|02000016|1815869500909|1815869500909|CNY|0|11
20200525|02000016|1813946779996|1813946779996|CNY|0|20314
20200525|02000016|1815146155010|1815146155010|CNY|0|11108
20200525|02000016|1813684689700|1813684689700|CNY|0|6240
20200525|02000016|1818691191808|1818691191808|CNY|0|54381
20200525|02000016|1813576284540|1813576284540|CNY|0|79770
20200525|02000016|1815946109858|1815946109858|CNY|0|27685
20200525|02000016|1813613226586|1813613226586|CNY|0|0
20200525|02000016|1813305788506|1813305788506|CNY|0|769
20200525|02000016|1818345857865|1818345857865|CNY|0|216415
20200525|02000016|1815097746135|1815097746135|CNY|0|22411
20200525|02000016|1813607095019|1813607095019|CNY|0|1861
20200525|02000016|1813785432993|1813785432993|CNY|0|31094
20200525|02000016|1818979143369|1818979143369|CNY|0|135699
20200525|02000016|1813014300009|1813014300009|CNY|0|16780
20200525|02000016|1818779177007|1818779177007|CNY|0|122
20200525|02000016|1818970607159|1818970607159|CNY|0|54350
20200525|02000016|1813979377626|1813979377626|CNY|0|0
20200525|02000016|1813400350306|1813400350306|CNY|0|21637
20200525|02000016|1817346665892|1817346665892|CNY|0|41235
20200525|02000016|1818857827819|1818857827819|CNY|0|60
20200525|02000016|1815907005758|1815907005758|CNY|0|313149
20200525|02000016|1815803121080|1815803121080|CNY|30090|14574
20200525|02000016|1813930801797|1813930801797|CNY|0|84658
20200525|02000016|1815387793885|1815387793885|CNY|0|28
20200525|02000016|1813320119811|1813320119811|CNY|0|68963
20200525|02000016|1815630813944|1815630813944|CNY|0|91854
20200525|02000016|1817732650061|1817732650061|CNY|0|91860
20200525|02000016|1815133217875|1815133217875|CNY|0|21683
20200525|02000016|1815279193370|1815279193370|CNY|0|2
20200525|02000016|1813970039068|1813970039068|CNY|0|472174
20200525|02000016|1815397563053|1815397563053|CNY|0|0
20200525|02000016|1815350001169|1815350001169|CNY|0|241593
20200525|02000016|1813333029656|1813333029656|CNY|0|0
20200525|02000016|1818045367971|1818045367971|CNY|0|7832
20200525|02000016|1813903128392|1813903128392|CNY|0|27621
20200525|02000016|1813833201819|1813833201819|CNY|0|5
20200525|02000016|1813385849623|1813385849623|CNY|0|39615
20200525|02000016|1818879085012|1818879085012|CNY|0|0
20200525|02000016|1815803121616|1815803121616|CNY|0|27629
20200525|02000016|1813681926479|1813681926479|CNY|0|27159
20200525|02000016|1813320017199|1813320017199|CNY|0|0
20200525|02000016|1815227017957|1815227017957|CNY|0|3967
20200525|02000016|1813331223115|1813331223115|CNY|0|0
20200525|02000016|1813323220289|1813323220289|CNY|0|0
20200525|02000016|1815170031559|1815170031559|CNY|0|68911
20200525|02000016|1815732221263|1815732221263|CNY|0|37626
20200525|02000016|1813730476179|1813730476179|CNY|0|9086
20200525|02000016|1813807031317|1813807031317|CNY|0|1
20200525|02000016|1813767188659|1813767188659|CNY|0|47981
20200525|02000016|1818604689751|1818604689751|CNY|0|6274
20200525|02000016|1813231271852|1813231271852|CNY|0|27165
20200525|02000016|1815830265369|1815830265369|CNY|0|27622
20200525|02000016|1815211571887|1815211571887|CNY|0|10603
20200525|02000016|1813933285734|1813933285734|CNY|0|27629
20200525|02000016|1813707967746|1813707967746|CNY|0|0
20200525|02000016|1813437200702|1813437200702|CNY|0|0
20200525|02000016|1813520802238|1813520802238|CNY|0|23713
20200525|02000016|1815853623056|1815853623056|CNY|0|27626
20200525|02000016|1813230203301|1813230203301|CNY|0|44532
20200525|02000016|1813757090508|1813757090508|CNY|0|1249
20200525|02000016|1815879317904|1815879317904|CNY|0|27582
20200525|02000016|1813930808723|1813930808723|CNY|0|22048
20200525|02000016|1813396888838|1813396888838|CNY|0|7824
20200525|02000016|1818093392935|1818093392935|CNY|0|7603
20200525|02000016|1815073071566|1815073071566|CNY|0|1802
20200525|02000016|1813722423486|1813722423486|CNY|0|64523
20200525|02000016|1818920030157|1818920030157|CNY|0|20426
20200525|02000016|1813796290795|1813796290795|CNY|0|37161
20200525|02000016|1813207917659|1813207917659|CNY|0|1
20200525|02000016|1813930886632|1813930886632|CNY|0|0
20200525|02000016|1817167993679|1817167993679|CNY|0|205284
20200525|02000016|1817863386188|1817863386188|CNY|0|35326
20200525|02000016|1813906781438|1813906781438|CNY|0|8663
20200525|02000016|1815070008715|1815070008715|CNY|0|350
20200525|02000016|1813967066813|1813967066813|CNY|0|26
20200525|02000016|1815333225923|1815333225923|CNY|0|10317
20200525|02000016|1815057868317|1815057868317|CNY|0|0
20200525|02000016|1813645784978|1813645784978|CNY|0|91
20200525|02000016|1813931245373|1813931245373|CNY|0|0
20200525|02000016|1813970022873|1813970022873|CNY|0|8684
20200525|02000016|1818072677667|1818072677667|CNY|0|49
20200525|02000016|1815630279935|1815630279935|CNY|0|21
20200525|02000016|1818631220891|1818631220891|CNY|0|1960
20200525|02000016|1813516899089|1813516899089|CNY|0|69
20200525|02000016|1818131215302|1818131215302|CNY|0|0
20200525|02000016|1813936981199|1813936981199|CNY|0|11660
20200525|02000016|1813204687660|1813204687660|CNY|0|27182
20200525|02000016|1813858132621|1813858132621|CNY|0|977
20200525|02000016|1815933593100|1815933593100|CNY|0|14663
20200525|02000016|1813247860816|1813247860816|CNY|0|0
20200525|02000016|1818909995887|1818909995887|CNY|0|8465
20200525|02000016|1813330093627|1813330093627|CNY|0|2119
20200525|02000016|1813931380155|1813931380155|CNY|0|10914
20200525|02000016|1813059618928|1813059618928|CNY|0|60
20200525|02000016|1815502925058|1815502925058|CNY|0|13316
20200525|02000016|1815770583910|1815770583910|CNY|0|42010
20200525|02000016|1815070004787|1815070004787|CNY|0|6169
20200525|02000016|1813398637313|1813398637313|CNY|195100|195100
20200525|02000016|1813487721751|1813487721751|CNY|0|62
20200525|02000016|1815603255558|1815603255558|CNY|0|219021
20200525|02000016|1813931219857|1813931219857|CNY|0|18341
20200525|02000016|1813091257294|1813091257294|CNY|0|237101
20200525|02000016|1818091149039|1818091149039|CNY|0|22244
20200525|02000016|1815827020996|1815827020996|CNY|0|0
20200525|02000016|1813273202840|1813273202840|CNY|0|0
20200525|02000016|1818731866982|1818731866982|CNY|0|15723
20200525|02000016|1815932240292|1815932240292|CNY|0|26687
20200525|02000016|1817692238970|1817692238970|CNY|0|33399
20200525|02000016|1813870832718|1813870832718|CNY|0|5713
20200525|02000016|1818031231739|1818031231739|CNY|0|0
20200525|02000016|1815870697192|1815870697192|CNY|0|1497
20200525|02000016|1815931808321|1815931808321|CNY|0|9398
20200525|02000016|1818923668819|1818923668819|CNY|0|390980
20200525|02000016|1815070002292|1815070002292|CNY|0|176067
20200525|02000016|1815930239024|1815930239024|CNY|0|20676
20200525|02000016|1815006862644|1815006862644|CNY|0|0
20200525|02000016|1813870662832|1813870662832|CNY|0|5808
20200525|02000016|1818591506868|1818591506868|CNY|0|78
20200525|02000016|1813691234502|1813691234502|CNY|0|1
20200525|02000016|1815527737710|1815527737710|CNY|0|99
20200525|02000016|1815830910576|1815830910576|CNY|0|26524
20200525|02000016|1818812455746|1818812455746|CNY|0|1220
20200525|02000016|1815028439916|1815028439916|CNY|0|0
20200525|02000016|1817705788090|1817705788090|CNY|0|0
20200525|02000016|1818049119039|1818049119039|CNY|0|46391
20200525|02000016|1813606699357|1813606699357|CNY|0|71
20200525|02000016|1813870088638|1813870088638|CNY|0|4781
20200525|02000016|1815057890168|1815057890168|CNY|0|354
20200525|02000016|1815833895638|1815833895638|CNY|0|32069
20200525|02000016|1815170023481|1815170023481|CNY|0|6489
20200525|02000016|1813733323586|1813733323586|CNY|0|65
20200525|02000016|1815933126808|1815933126808|CNY|0|8430
20200525|02000016|1813932272753|1813932272753|CNY|0|0
20200525|02000016|1815869235139|1815869235139|CNY|0|8793
20200525|02000016|1813363126017|1813363126017|CNY|0|0
20200525|02000016|1818296127327|1818296127327|CNY|0|53
20200525|02000016|1813395881687|1813395881687|CNY|1003|3212
20200525|02000016|1815180454908|1815180454908|CNY|0|400
20200525|02000016|1815544957559|1815544957559|CNY|0|185535
20200525|02000016|1813787250599|1813787250599|CNY|0|0
20200525|02000016|1815070707837|1815070707837|CNY|0|0
20200525|02000016|1813730157568|1813730157568|CNY|0|10065
20200525|02000016|1813088421577|1813088421577|CNY|0|33921
20200525|02000016|1813587187117|1813587187117|CNY|0|0
20200525|02000016|1818730289734|1818730289734|CNY|0|0
20200525|02000016|1815910441907|1815910441907|CNY|0|0
20200525|02000016|1813970887172|1813970887172|CNY|0|55657
20200525|02000016|1815227006003|1815227006003|CNY|0|17419
20200525|02000016|1818132758604|1818132758604|CNY|100|13488
20200525|02000016|1815857889599|1815857889599|CNY|0|14499
20200525|02000016|1813803459072|1813803459072|CNY|0|278
20200525|02000016|1815356155658|1815356155658|CNY|0|93
20200525|02000016|1818431227506|1818431227506|CNY|0|0
20200525|02000016|1813020808720|1813020808720|CNY|0|0
20200525|02000016|1818331211777|1818331211777|CNY|0|0
20200525|02000016|1815071055371|1815071055371|CNY|0|3
20200525|02000016|1818346898266|1818346898266|CNY|0|150
20200525|02000016|1818132723583|1818132723583|CNY|0|210338
20200525|02000016|1815188963119|1815188963119|CNY|0|0
20200525|02000016|1813234540281|1813234540281|CNY|0|35633
20200525|02000016|1813383620077|1813383620077|CNY|0|0
20200525|02000016|1813315255577|1813315255577|CNY|0|0
20200525|02000016|1813383626357|1813383626357|CNY|0|186921
20200525|02000016|1816603202113|1816603202113|CNY|0|94812
20200525|02000016|1815931204444|1815931204444|CNY|0|27636
20200525|02000016|1813230239859|1813230239859|CNY|0|0
20200525|02000016|1813400222805|1813400222805|CNY|0|270
20200525|02000016|1813315272938|1813315272938|CNY|0|16921
20200525|02000016|1817713243193|1817713243193|CNY|0|14540
20200525|02000016|1818202764962|1818202764962|CNY|0|0
20200525|02000016|1818042285818|1818042285818|CNY|0|7669
20200525|02000016|1815057868078|1815057868078|CNY|0|62
20200525|02000016|1815389037597|1815389037597|CNY|0|1
20200525|02000016|1817779616265|1817779616265|CNY|0|0
20200525|02000016|1813766708898|1813766708898|CNY|0|24804
20200525|02000016|1815205889775|1815205889775|CNY|0|0
20200525|02000016|1813819969008|1813819969008|CNY|0|265
20200525|02000016|1818806881991|1818806881991|CNY|0|549
20200525|02000016|1813870668960|1813870668960|CNY|0|2199
20200525|02000016|1815932233668|1815932233668|CNY|0|29640
20200525|02000016|1815131220736|1815131220736|CNY|0|14508
20200525|02000016|1815271858967|1815271858967|CNY|0|1993
20200525|02000016|1816646828858|1816646828858|CNY|0|17153
20200525|02000016|1813339582221|1813339582221|CNY|0|20387
20200525|02000016|1815845463032|1815845463032|CNY|0|20380
20200525|02000016|1818162231858|1818162231858|CNY|0|1000
20200525|02000016|1818645566788|1818645566788|CNY|0|23239
20200525|02000016|1818713290860|1818713290860|CNY|0|16617
20200525|02000016|1813970864790|1813970864790|CNY|0|0
20200525|02000016|1813592047773|1813592047773|CNY|0|98
20200525|02000016|1813115642991|1813115642991|CNY|0|12357
20200525|02000016|1813932294787|1813932294787|CNY|0|51
20200525|02000016|1819859710896|1819859710896|CNY|0|195
20200525|02000016|1815945821718|1815945821718|CNY|0|24284
20200525|02000016|1813967055172|1813967055172|CNY|0|30
20200525|02000016|1813207004007|1813207004007|CNY|0|27
20200525|02000016|1813633389021|1813633389021|CNY|0|39047
20200525|02000016|1815709151444|1815709151444|CNY|0|1574
20200525|02000016|1813473216198|1813473216198|CNY|0|0
20200525|02000016|1815565070412|1815565070412|CNY|0|55
20200525|02000016|1813973380723|1813973380723|CNY|0|0
20200525|02000016|1818942312120|1818942312120|CNY|0|0
20200525|02000016|1818170910817|1818170910817|CNY|0|41990
20200525|02000016|1817720359595|1817720359595|CNY|0|0
20200525|02000016|1815579173409|1815579173409|CNY|0|0
20200525|02000016|1815201189518|1815201189518|CNY|0|31105
20200525|02000016|1815946620425|1815946620425|CNY|0|0
20200525|02000016|1813807035895|1813807035895|CNY|0|0
20200525|02000016|1813970560003|1813970560003|CNY|0|296
20200525|02000016|1813828106867|1813828106867|CNY|0|0
20200525|02000016|1815833913170|1815833913170|CNY|0|7
20200525|02000016|1813673221558|1813673221558|CNY|0|33069
20200525|02000016|1813946786563|1813946786563|CNY|0|27786
20200525|02000016|1815632285132|1815632285132|CNY|0|49521
20200525|02000016|1813613685005|1813613685005|CNY|0|0
20200525|02000016|1818510263092|1818510263092|CNY|0|0
20200525|02000016|1815699680001|1815699680001|CNY|0|24816
20200525|02000016|1813846862770|1813846862770|CNY|0|25936
20200525|02000016|1815904689137|1815904689137|CNY|0|0
20200525|02000016|1815904241319|1815904241319|CNY|0|0
20200525|02000016|1815272555723|1815272555723|CNY|0|505
20200525|02000016|1813731651280|1813731651280|CNY|0|0
20200525|02000016|1817015343424|1817015343424|CNY|0|4406
20200525|02000016|1813967431533|1813967431533|CNY|0|0
20200525|02000016|1813730238225|1813730238225|CNY|0|20630
20200525|02000016|1813904888495|1813904888495|CNY|0|0
20200525|02000016|1815132225088|1815132225088|CNY|0|1606
20200525|02000016|1815180400020|1815180400020|CNY|0|0
20200525|02000016|1818804688440|1818804688440|CNY|0|22443
20200525|02000016|1813930241343|1813930241343|CNY|0|15856
20200525|02000016|1813931289112|1813931289112|CNY|0|43263
20200525|02000016|1813523232008|1813523232008|CNY|0|2167
20200525|02000016|1815158223351|1815158223351|CNY|0|0
20200525|02000016|1813615846665|1813615846665|CNY|0|100
20200525|02000016|1813847612877|1813847612877|CNY|0|61862
20200525|02000016|1818604681909|1818604681909|CNY|0|23457
20200525|02000016|1818000210736|1818000210736|CNY|0|2
20200525|02000016|1819912156726|1819912156726|CNY|0|9342
20200525|02000016|1813260656136|1813260656136|CNY|0|763
20200525|02000016|1818456121123|1818456121123|CNY|0|5
20200525|02000016|1819970078850|1819970078850|CNY|0|0
20200525|02000016|1813315273740|1813315273740|CNY|0|247098
20200525|02000016|1813932229251|1813932229251|CNY|0|7810
20200525|02000016|1818757434287|1818757434287|CNY|0|22
20200525|02000016|1814784685555|1814784685555|CNY|30090|18401
20200525|02000016|1818007957760|1818007957760|CNY|0|0
20200525|02000016|1815146824446|1815146824446|CNY|0|38717
20200525|02000016|1818714555279|1818714555279|CNY|0|22581
20200525|02000016|1817614685531|1817614685531|CNY|0|11733
20200525|02000016|1818627703225|1818627703225|CNY|0|16
20200525|02000016|1818057812357|1818057812357|CNY|0|5
20200525|02000016|1815979040139|1815979040139|CNY|0|396
20200525|02000016|1815726688397|1815726688397|CNY|0|0
20200525|02000016|1813757488782|1813757488782|CNY|0|0
20200525|02000016|1815869087947|1815869087947|CNY|0|1300
20200525|02000016|1815633298879|1815633298879|CNY|0|12340
20200525|02000016|1815557871703|1815557871703|CNY|0|0
20200525|02000016|1813967080455|1813967080455|CNY|0|64
20200525|02000016|1818746536689|1818746536689|CNY|0|4
20200525|02000016|1815256323299|1815256323299|CNY|0|11455914
20200525|02000016|1815127495468|1815127495468|CNY|0|3496
20200525|02000016|1818358835032|1818358835032|CNY|0|0
20200525|02000016|1818932685729|1818932685729|CNY|0|1962
20200525|02000016|1813503121483|1813503121483|CNY|0|19804
20200525|02000016|1813567613119|1813567613119|CNY|0|64
20200525|02000016|1813056733456|1813056733456|CNY|0|0
20200525|02000016|1813454351735|1813454351735|CNY|0|25
20200525|02000016|1815258363565|1815258363565|CNY|0|0
20200525|02000016|1815544556688|1815544556688|CNY|0|0
20200525|02000016|1818714445749|1818714445749|CNY|0|0
20200525|02000016|1818624269977|1818624269977|CNY|0|0
20200525|02000016|1815513893899|1815513893899|CNY|0|0
20200525|02000016|1815857801207|1815857801207|CNY|0|6
20200525|02000016|1815846656422|1815846656422|CNY|0|23142
20200525|02000016|1818746794204|1818746794204|CNY|0|21687
20200525|02000016|1818970579786|1818970579786|CNY|0|0
20200525|02000016|1813567095413|1813567095413|CNY|0|9
20200525|02000016|1813513284448|1813513284448|CNY|0|3170
20200525|02000016|1815910477715|1815910477715|CNY|0|0
20200525|02000016|1815227060395|1815227060395|CNY|0|20891
20200525|02000016|1815933321253|1815933321253|CNY|0|219213
20200525|02000016|1813504647372|1813504647372|CNY|0|0
20200525|02000016|1813351044537|1813351044537|CNY|0|0
20200525|02000016|1815733826587|1815733826587|CNY|0|23268
20200525|02000016|1817332403134|1817332403134|CNY|0|232
20200525|02000016|1815045503182|1815045503182|CNY|0|32195
20200525|02000016|1813234584513|1813234584513|CNY|0|10769
20200525|02000016|1813703283113|1813703283113|CNY|2006|387549
20200525|02000016|1813846070056|1813846070056|CNY|0|13427
20200525|02000016|1818679687885|1818679687885|CNY|0|1
20200525|02000016|1813979529401|1813979529401|CNY|0|18489
20200525|02000016|1818679189700|1818679189700|CNY|0|63
20200525|02000016|1813945750896|1813945750896|CNY|0|0
20200525|02000016|1815945288222|1815945288222|CNY|0|43
20200525|02000016|1815947464963|1815947464963|CNY|0|14090
20200525|02000016|1817679147786|1817679147786|CNY|0|4
20200525|02000016|1813624683018|1813624683018|CNY|0|74046
20200525|02000016|1818145389985|1818145389985|CNY|0|0
20200525|02000016|1817779683012|1817779683012|CNY|0|0
20200525|02000016|1816603205239|1816603205239|CNY|0|68966
20200525|02000016|1815946631777|1815946631777|CNY|0|22030
20200525|02000016|1813722255068|1813722255068|CNY|0|19146
20200525|02000016|1813483293208|1813483293208|CNY|0|0
20200525|02000016|1813903322982|1813903322982|CNY|0|359
20200525|02000016|1817379537000|1817379537000|CNY|0|0
20200525|02000016|1815046592512|1815046592512|CNY|0|1793
20200525|02000016|1817317025629|1817317025629|CNY|0|19162
20200525|02000016|1815076282998|1815076282998|CNY|0|3986
20200525|02000016|1813738839797|1813738839797|CNY|0|0
20200525|02000016|1813155805320|1813155805320|CNY|0|11
20200525|02000016|1815998303767|1815998303767|CNY|0|0
20200525|02000016|1818107085601|1818107085601|CNY|0|126
20200525|02000016|1815903008432|1815903008432|CNY|0|0
20200525|02000016|1813806674708|1813806674708|CNY|0|0
20200525|02000016|1815893849605|1815893849605|CNY|0|0
20200525|02000016|1818107085602|1818107085602|CNY|0|0
20200525|02000016|1818931222380|1818931222380|CNY|0|1047
20200525|02000016|1815070574777|1815070574777|CNY|0|0
20200525|02000016|1815770961599|1815770961599|CNY|0|6
20200525|02000016|1800100000400|1800100000400|CNY|0|0
20200525|02000016|1800100000398|1800100000398|CNY|0|0
20200525|02000016|1800100000397|1800100000397|CNY|0|100
20200525|02000016|1800100000394|1800100000394|CNY|0|0
20200525|02000016|1800100000395|1800100000395|CNY|0|0
20200525|02000016|1800100000390|1800100000390|CNY|0|1212
20200525|02000016|1800100000378|1800100000378|CNY|0|0
20200525|02000016|1800100000366|1800100000366|CNY|0|9036
20200525|02000016|1800100000369|1800100000369|CNY|0|100
20200525|02000016|1800100000361|1800100000361|CNY|0|6506
20200525|02000016|1800100000362|1800100000362|CNY|0|0
20200525|02000016|1800100000359|1800100000359|CNY|0|6
20200525|02000016|1800100000358|1800100000358|CNY|0|206404
20200525|02000016|1800100000355|1800100000355|CNY|0|39603
20200525|02000016|1800100000352|1800100000352|CNY|0|61
20200525|02000016|1800100000353|1800100000353|CNY|0|0
20200525|02000016|1800100000347|1800100000347|CNY|0|200
20200525|02000016|1800100000342|1800100000342|CNY|0|0
20200525|02000016|1800100000345|1800100000345|CNY|0|208447
20200525|02000016|1800100000341|1800100000341|CNY|0|17373
20200525|02000016|1800100000340|1800100000340|CNY|0|466699
20200525|02000016|1800100000332|1800100000332|CNY|0|1
20200525|02000016|1800100000328|1800100000328|CNY|0|8622
20200525|02000016|1800100000318|1800100000318|CNY|0|2
20200525|02000016|1800100000316|1800100000316|CNY|0|39
20200525|02000016|1800100000308|1800100000308|CNY|0|0
20200525|02000016|1800100000302|1800100000302|CNY|0|252
20200525|02000016|1800100000298|1800100000298|CNY|0|173333
20200525|02000016|1800100000295|1800100000295|CNY|0|0
20200525|02000016|1800100000290|1800100000290|CNY|0|0
20200525|02000016|1800100000288|1800100000288|CNY|0|0
20200525|02000016|1800100000286|1800100000286|CNY|0|0
20200525|02000016|1800100000287|1800100000287|CNY|0|17094
20200525|02000016|1800100000281|1800100000281|CNY|0|36
20200525|02000016|1800100000279|1800100000279|CNY|0|0
20200525|02000016|1800100000280|1800100000280|CNY|0|46712
20200525|02000016|1800100000275|1800100000275|CNY|0|3991
20200525|02000016|1800100000272|1800100000272|CNY|0|3812
20200525|02000016|1800100000270|1800100000270|CNY|0|0
20200525|02000016|1800100000267|1800100000267|CNY|0|2106
20200525|02000016|1800100000261|1800100000261|CNY|0|47954
20200525|02000016|1800100000260|1800100000260|CNY|0|204813
20200525|02000016|1800100000257|1800100000257|CNY|0|205830
20200525|02000016|1800100000256|1800100000256|CNY|200|206
20200525|02000016|1800100000255|1800100000255|CNY|0|29
20200525|02000016|1800100000253|1800100000253|CNY|0|0
20200525|02000016|1800100000245|1800100000245|CNY|0|17889
20200525|02000016|1800100000246|1800100000246|CNY|0|20346
20200525|02000016|1800100000241|1800100000241|CNY|0|4263
20200525|02000016|1800100000242|1800100000242|CNY|0|123
20200525|02000016|1800100000239|1800100000239|CNY|0|0
20200525|02000016|1800100000237|1800100000237|CNY|0|8016
20200525|02000016|1800100000236|1800100000236|CNY|0|206281
20200525|02000016|1800100000234|1800100000234|CNY|0|216535
20200525|02000016|1800100000231|1800100000231|CNY|0|0
20200525|02000016|1800100000230|1800100000230|CNY|0|1817
20200525|02000016|1800100000229|1800100000229|CNY|0|5058
20200525|02000016|1800100000225|1800100000225|CNY|0|130452
20200525|02000016|1800100000221|1800100000221|CNY|0|9587
20200525|02000016|1800100000220|1800100000220|CNY|0|0
20200525|02000016|1800100000218|1800100000218|CNY|0|9224
20200525|02000016|1800100000213|1800100000213|CNY|0|20606
20200525|02000016|1800100000211|1800100000211|CNY|0|204571
20200525|02000016|1800100000209|1800100000209|CNY|0|22397
20200525|02000016|1800100000208|1800100000208|CNY|0|100
20200525|02000016|1800100000207|1800100000207|CNY|0|5647
20200525|02000016|1800100000206|1800100000206|CNY|0|100
20200525|02000016|1800100000198|1800100000198|CNY|0|0
20200525|02000016|1800100000197|1800100000197|CNY|200|47000
20200525|02000016|1800100000196|1800100000196|CNY|0|3689
20200525|02000016|1800100000190|1800100000190|CNY|0|0
20200525|02000016|1800100000189|1800100000189|CNY|0|203422
20200525|02000016|1800100000188|1800100000188|CNY|0|25073
20200525|02000016|1800100000186|1800100000186|CNY|0|5650
20200525|02000016|1800100000182|1800100000182|CNY|0|4387
20200525|02000016|1800100000180|1800100000180|CNY|0|0
20200525|02000016|1800100000177|1800100000177|CNY|0|1
20200525|02000016|1800100000175|1800100000175|CNY|0|30399
20200525|02000016|1800100000170|1800100000170|CNY|0|10247
20200525|02000016|1800100000167|1800100000167|CNY|0|0
20200525|02000016|1800100000165|1800100000165|CNY|0|0
20200525|02000016|1800100000161|1800100000161|CNY|0|33911
20200525|02000016|1800100000158|1800100000158|CNY|0|100
20200525|02000016|1800100000157|1800100000157|CNY|0|0
20200525|02000016|1800100000156|1800100000156|CNY|0|100
20200525|02000016|1800100000154|1800100000154|CNY|220661|14613
20200525|02000016|1800100000150|1800100000150|CNY|0|100
20200525|02000016|1800100000145|1800100000145|CNY|0|0
20200525|02000016|1800100000142|1800100000142|CNY|0|0
20200525|02000016|1800100000140|1800100000140|CNY|0|210887
20200525|02000016|1800100000141|1800100000141|CNY|0|0
20200525|02000016|1800100000138|1800100000138|CNY|0|22402
20200525|02000016|1800100000136|1800100000136|CNY|0|3180
20200525|02000016|1800100000131|1800100000131|CNY|0|6809
20200525|02000016|1800100000128|1800100000128|CNY|0|0
20200525|02000016|1800100000127|1800100000127|CNY|0|12856
20200525|02000016|1800100000124|1800100000124|CNY|0|11
20200525|02000016|1800100000125|1800100000125|CNY|0|33536
20200525|02000016|1800100000122|1800100000122|CNY|0|13889
20200525|02000016|1800100000117|1800100000117|CNY|0|11623
20200525|02000016|1800100000118|1800100000118|CNY|0|9051
20200525|02000016|1800100000116|1800100000116|CNY|0|52693
20200525|02000016|1800100000114|1800100000114|CNY|0|1433
20200525|02000016|1800100000113|1800100000113|CNY|195085|44
20200525|02000016|1800100000109|1800100000109|CNY|0|28916
20200525|02000016|1800100000107|1800100000107|CNY|0|16838
20200525|02000016|1800100000106|1800100000106|CNY|1003|13265
20200525|02000016|1800100000104|1800100000104|CNY|0|203699
20200525|02000016|1800100000103|1800100000103|CNY|0|0
20200525|02000016|1800100000101|1800100000101|CNY|0|0
20200525|02000016|1800100000100|1800100000100|CNY|0|24508
20200525|02000016|1800100000099|1800100000099|CNY|0|9649
20200525|02000016|1800100000098|1800100000098|CNY|0|29
20200525|02000016|1800100000095|1800100000095|CNY|0|0
20200525|02000016|1800100000094|1800100000094|CNY|40120|26782
20200525|02000016|1800100000090|1800100000090|CNY|0|0
20200525|02000016|1800100000088|1800100000088|CNY|0|4282
20200525|02000016|1800100000087|1800100000087|CNY|0|56489
20200525|02000016|1800100000085|1800100000085|CNY|0|22522
20200525|02000016|1800100000084|1800100000084|CNY|0|7604
20200525|02000016|1800100000083|1800100000083|CNY|0|0
20200525|02000016|1800100000082|1800100000082|CNY|0|558
20200525|02000016|1800100000081|1800100000081|CNY|0|4645
20200525|02000016|1800100000080|1800100000080|CNY|0|24923
20200525|02000016|1800100000079|1800100000079|CNY|0|0
20200525|02000016|1800100000077|1800100000077|CNY|0|324
20200525|02000016|1800100000074|1800100000074|CNY|0|0
20200525|02000016|1800100000073|1800100000073|CNY|0|43706
20200525|02000016|1800100000072|1800100000072|CNY|0|79357
20200525|02000016|1800100000070|1800100000070|CNY|0|11058
20200525|02000016|1800100000071|1800100000071|CNY|0|445
20200525|02000016|1800100000069|1800100000069|CNY|0|100
20200525|02000016|1800100000067|1800100000067|CNY|0|22531
20200525|02000016|1800100000068|1800100000068|CNY|0|64
20200525|02000016|1800100000066|1800100000066|CNY|0|2572
20200525|02000016|1800100000064|1800100000064|CNY|0|5319
20200525|02000016|1800100000063|1800100000063|CNY|0|23051
20200525|02000016|1800100000060|1800100000060|CNY|0|33820
20200525|02000016|1800100000057|1800100000057|CNY|0|16379
20200525|02000016|1800100000053|1800100000053|CNY|0|66594
20200525|02000016|1800100000051|1800100000051|CNY|0|263
20200525|02000016|1800100000050|1800100000050|CNY|0|3555
20200525|02000016|1800100000048|1800100000048|CNY|0|212141
20200525|02000016|1800100000046|1800100000046|CNY|0|284349
20200525|02000016|1800100000045|1800100000045|CNY|0|31474
20200525|02000016|1800100000043|1800100000043|CNY|0|79843
20200525|02000016|1800100000042|1800100000042|CNY|0|60571
20200525|02000016|1800100000041|1800100000041|CNY|0|4484
20200525|02000016|1800100000040|1800100000040|CNY|0|31413
20200525|02000016|1800100000039|1800100000039|CNY|0|67
20200525|02000016|1800100000038|1800100000038|CNY|0|0
20200525|02000016|1800100000036|1800100000036|CNY|0|12796
20200525|02000016|1800100000037|1800100000037|CNY|0|754
20200525|02000016|1800100000035|1800100000035|CNY|0|12
20200525|02000016|1800100000034|1800100000034|CNY|0|198387
20200525|02000016|1800100000033|1800100000033|CNY|0|6596
20200525|02000016|1800100000031|1800100000031|CNY|0|13538
20200525|02000016|1800100000032|1800100000032|CNY|0|190266
20200525|02000016|1800100000029|1800100000029|CNY|0|73
20200525|02000016|1800100000028|1800100000028|CNY|0|18883
20200525|02000016|1800100000027|1800100000027|CNY|0|286634
20200525|02000016|1800100000026|1800100000026|CNY|0|0
20200525|02000016|1800100000025|1800100000025|CNY|0|3642
20200525|02000016|1800100000023|1800100000023|CNY|0|0
20200525|02000016|1800100000022|1800100000022|CNY|0|16097
20200525|02000016|1800100000021|1800100000021|CNY|0|86367
20200525|02000016|1800100000019|1800100000019|CNY|0|1062
20200525|02000016|1818646894896|1818646894896|CNY|0|0
20200525|02000016|1815712555457|1815712555457|CNY|0|16415
20200525|02000016|1813884332947|1813884332947|CNY|0|13642
20200525|02000016|1818002191153|1818002191153|CNY|0|0
20200525|02000016|1818535316235|1818535316235|CNY|0|997
20200525|02000016|1817732266277|1817732266277|CNY|0|192673
20200525|02000016|1815326636188|1815326636188|CNY|0|100
20200525|02000016|1813009971181|1813009971181|CNY|0|0
20200525|02000016|1815303322297|1815303322297|CNY|0|0
20200525|02000016|1817784230052|1817784230052|CNY|0|200692
20200525|02000016|1818746535653|1818746535653|CNY|0|204499
20200525|02000016|1813292999216|1813292999216|CNY|0|6242
20200525|02000016|1813555055525|1813555055525|CNY|0|280434
20200525|02000016|1818746954345|1818746954345|CNY|0|6385
20200525|02000016|1818674146599|1818674146599|CNY|0|36099
20200525|02000016|1817642059933|1817642059933|CNY|500|229399
20200525|02000016|1818674148199|1818674148199|CNY|300902|28955
20200525|02000016|1818605848566|1818605848566|CNY|0|11767
20200525|02000016|1813091586900|1813091586900|CNY|0|16415
20200525|02000016|1813319157965|1813319157965|CNY|0|1000
20200525|02000016|1815109233126|1815109233126|CNY|0|6242
20200525|02000016|1818690049591|1818690049591|CNY|0|13442
20200525|02000016|1818606548783|1818606548783|CNY|0|6242
20200525|02000016|1813777101958|1813777101958|CNY|0|1884
20200525|02000016|1813502216202|1813502216202|CNY|0|0
20200525|02000016|1813958379288|1813958379288|CNY|0|622
20200525|02000016|1815636926050|1815636926050|CNY|0|0
20200525|02000016|1813932273341|1813932273341|CNY|0|0
20200525|02000016|1813705843059|1813705843059|CNY|0|1147
20200525|02000016|1813736049888|1813736049888|CNY|0|0
20200525|02000016|1818568522234|1818568522234|CNY|0|0
20200525|02000016|1813591148644|1813591148644|CNY|0|806242
20200525|02000016|1818088209155|1818088209155|CNY|0|0
20200525|02000016|1815988767249|1815988767249|CNY|0|53
20200525|02000016|1815712568650|1815712568650|CNY|0|16415
20200525|02000016|1815207962519|1815207962519|CNY|0|6385
20200525|02000016|1818568888359|1818568888359|CNY|0|0
20200525|02000016|1813082330653|1813082330653|CNY|0|13585
20200525|02000016|1818567881828|1818567881828|CNY|0|0
20200525|02000016|1813116623829|1813116623829|CNY|0|0
20200525|02000016|1818858829471|1818858829471|CNY|0|0
20200525|02000016|1813989327617|1813989327617|CNY|0|0
20200525|02000016|1813733374049|1813733374049|CNY|0|6242
20200525|02000016|1813393327863|1813393327863|CNY|0|438572
20200525|02000016|1813509348168|1813509348168|CNY|0|0
20200525|02000016|1813176717539|1813176717539|CNY|0|0
20200525|02000016|1815586314943|1815586314943|CNY|0|6242
20200525|02000016|1818802774041|1818802774041|CNY|0|0
20200525|02000016|1813993467318|1813993467318|CNY|0|38
20200525|02000016|1817516551290|1817516551290|CNY|0|16415
20200525|02000016|1818631760311|1818631760311|CNY|0|11983
20200525|02000016|1815184597495|1815184597495|CNY|0|0
20200525|02000016|1818802455863|1818802455863|CNY|0|428899
20200525|02000016|1813653226824|1813653226824|CNY|0|13442
20200525|02000016|1818646771261|1818646771261|CNY|0|29857
20200525|02000016|1817879614955|1817879614955|CNY|0|700
20200525|02000016|1818633279312|1818633279312|CNY|0|6242
20200525|02000016|1815871938967|1815871938967|CNY|0|0
20200525|02000016|1813578329840|1813578329840|CNY|0|6242
20200525|02000016|1813840562388|1813840562388|CNY|0|223615
20200525|02000016|1818045505586|1818045505586|CNY|0|0
20200525|02000016|1813932254163|1813932254163|CNY|0|0
20200525|02000016|1813722262492|1813722262492|CNY|0|0
20200525|02000016|1813932256061|1813932256061|CNY|0|592
20200525|02000016|1813582743080|1813582743080|CNY|0|6242
20200525|02000016|1818296617429|1818296617429|CNY|0|0
20200525|02000016|1813638362781|1813638362781|CNY|0|0
20200525|02000016|1813858219868|1813858219868|CNY|0|1540
20200525|02000016|1813970682367|1813970682367|CNY|0|2300
20200525|02000016|1818631760322|1818631760322|CNY|0|6242
20200525|02000016|1818827967748|1818827967748|CNY|0|21809
20200525|02000016|1815949668714|1815949668714|CNY|0|0
20200525|02000016|1815880931399|1815880931399|CNY|0|44
20200525|02000016|1813970462698|1813970462698|CNY|0|0
20200525|02000016|1815028299966|1815028299966|CNY|0|0
20200525|02000016|1818220096595|1818220096595|CNY|0|0
20200525|02000016|1818348907445|1818348907445|CNY|0|13585
20200525|02000016|1815903176271|1815903176271|CNY|0|6242
20200525|02000016|1813331310643|1813331310643|CNY|0|23615
20200525|02000016|1815324285825|1815324285825|CNY|0|0
20200525|02000016|1815142051751|1815142051751|CNY|0|640030
20200525|02000016|1813503874461|1813503874461|CNY|0|9573
20200525|02000016|1813578198508|1813578198508|CNY|0|206442
20200525|02000016|1818279612960|1818279612960|CNY|0|0
20200525|02000016|1818524494313|1818524494313|CNY|0|28899
20200525|02000016|1813700388839|1813700388839|CNY|0|418726
20200525|02000016|1813552368668|1813552368668|CNY|0|16415
20200525|02000016|1813190099140|1813190099140|CNY|0|436099
20200525|02000016|1813846011141|1813846011141|CNY|0|16415
20200525|02000016|1813066713691|1813066713691|CNY|0|629857
20200525|02000016|1815840520719|1815840520719|CNY|0|436099
20200525|02000016|1815609823197|1815609823197|CNY|0|23615
20200525|02000016|1813545997023|1813545997023|CNY|0|0
20200525|02000016|1818431227075|1818431227075|CNY|0|0
20200525|02000016|1813643325475|1813643325475|CNY|0|16415
20200525|02000016|1815397618643|1815397618643|CNY|0|200000
20200525|02000016|1818203492787|1818203492787|CNY|0|200100
20200525|02000016|1813264095514|1813264095514|CNY|0|6242
20200525|02000016|1813970601152|1813970601152|CNY|0|1442
20200525|02000016|1813609828405|1813609828405|CNY|0|4981
20200525|02000016|1813932223643|1813932223643|CNY|0|16415
20200525|02000016|1813603282298|1813603282298|CNY|0|10126
20200525|02000016|1815075218679|1815075218679|CNY|0|6385
20200525|02000016|1815350349372|1815350349372|CNY|0|120
20200525|02000016|1819970675577|1819970675577|CNY|0|0
20200525|02000016|1813611017783|1813611017783|CNY|0|6385
20200525|02000016|1818617767958|1818617767958|CNY|200000|200000
20200525|02000016|1813291952965|1813291952965|CNY|0|0
20200525|02000016|1815970230203|1815970230203|CNY|0|6242
20200525|02000016|1813730837693|1813730837693|CNY|0|6242
20200525|02000016|1815313179127|1815313179127|CNY|0|16415
20200525|02000016|1815184955665|1815184955665|CNY|0|16415
20200525|02000016|1813578186032|1813578186032|CNY|0|0
20200525|02000016|1815030278663|1815030278663|CNY|0|0
20200525|02000016|1815930276335|1815930276335|CNY|100|16115
20200525|02000016|1815837935868|1815837935868|CNY|621865|7992
20200525|02000016|1813164990022|1813164990022|CNY|0|2977
20200525|02000016|1815840063631|1815840063631|CNY|0|43299
20200525|02000016|1815887550134|1815887550134|CNY|0|199944
20200525|02000016|1813368815583|1813368815583|CNY|0|80634
20200525|02000016|1813992529265|1813992529265|CNY|0|813443
20200525|02000016|1813908813212|1813908813212|CNY|0|222857
20200525|02000016|1818658220961|1818658220961|CNY|0|0
20200525|02000016|1818164646890|1818164646890|CNY|0|392724
20200525|02000016|1813587765311|1813587765311|CNY|0|6484
20200525|02000016|1818875037395|1818875037395|CNY|802|30013
20200525|02000016|1818670119315|1818670119315|CNY|0|0
20200525|02000016|1818988219915|1818988219915|CNY|0|16415
20200525|02000016|1813945766811|1813945766811|CNY|0|23615
20200525|02000016|1813035964466|1813035964466|CNY|0|16415
20200525|02000016|1813987544821|1813987544821|CNY|0|16415
20200525|02000016|1815830845585|1815830845585|CNY|0|13442
20200525|02000016|1818131207749|1818131207749|CNY|0|499
20200525|02000016|1813171692617|1813171692617|CNY|0|0
20200525|02000016|1818357890927|1818357890927|CNY|0|0
20200525|02000016|1818306924682|1818306924682|CNY|0|20852
20200525|02000016|1813628873717|1813628873717|CNY|0|16415
20200525|02000016|1813628852297|1813628852297|CNY|0|0
20200525|02000016|1813378816227|1813378816227|CNY|0|393426
20200525|02000016|1813887805937|1813887805937|CNY|0|6242
20200525|02000016|1815032494099|1815032494099|CNY|0|16415
20200525|02000016|1813578228698|1813578228698|CNY|0|47388
20200525|02000016|1815866353002|1815866353002|CNY|0|239511
20200525|02000016|1818908820122|1818908820122|CNY|0|16015
20200525|02000016|1818313815117|1818313815117|CNY|0|0
20200525|02000016|1818288188077|1818288188077|CNY|0|23615
20200525|02000016|1815130268126|1815130268126|CNY|0|16415
20200525|02000016|1819987525520|1819987525520|CNY|0|221541
20200525|02000016|1813466173625|1813466173625|CNY|0|22857
20200525|02000016|1815388839989|1815388839989|CNY|0|622657
20200525|02000016|1813578262569|1813578262569|CNY|0|0
20200525|02000016|1818313082518|1818313082518|CNY|0|216415
20200525|02000016|1813808782960|1813808782960|CNY|0|23615
20200525|02000016|1813566091029|1813566091029|CNY|0|0
20200525|02000016|1813473428282|1813473428282|CNY|0|210173
20200525|02000016|1818249480111|1818249480111|CNY|0|0
20200525|02000016|1815102200735|1815102200735|CNY|0|13442
20200525|02000016|1815287133896|1815287133896|CNY|0|80434
20200525|02000016|1815146494019|1815146494019|CNY|0|0
20200525|02000016|1815969353427|1815969353427|CNY|0|6242
20200525|02000016|1818746710622|1818746710622|CNY|0|13585
20200525|02000016|1815170827317|1815170827317|CNY|0|16515
20200525|02000016|1813566092855|1813566092855|CNY|0|17396
20200525|02000016|1815128477807|1815128477807|CNY|0|13585
20200525|02000016|1815057859217|1815057859217|CNY|0|0
20200525|02000016|1813722298329|1813722298329|CNY|0|0
20200525|02000016|1815187700939|1815187700939|CNY|0|210299
20200525|02000016|1813931362643|1813931362643|CNY|0|16415
20200525|02000016|1818469958663|1818469958663|CNY|0|0
20200525|02000016|1813479229801|1813479229801|CNY|0|442
20200525|02000016|1813858212168|1813858212168|CNY|0|1000
20200525|02000016|1813940459085|1813940459085|CNY|0|23715
20200525|02000016|1818313096871|1818313096871|CNY|0|66099
20200525|02000016|1815887555058|1815887555058|CNY|0|436099
20200525|02000016|1818691110953|1818691110953|CNY|0|0
20200525|02000016|1813777720081|1813777720081|CNY|0|0
20200525|02000016|1818869127192|1818869127192|CNY|0|236745
20200525|02000016|1815184855733|1815184855733|CNY|0|9772
20200525|02000016|1815925592540|1815925592540|CNY|0|210173
20200525|02000016|1813603123859|1813603123859|CNY|0|6242
20200525|02000016|1813808781900|1813808781900|CNY|0|422657
20200525|02000016|1815232267540|1815232267540|CNY|0|0
20200525|02000016|1815204689694|1815204689694|CNY|0|0
20200525|02000016|1813324023246|1813324023246|CNY|0|16415
20200525|02000016|1813769999509|1813769999509|CNY|0|209797
20200525|02000016|1815933739943|1815933739943|CNY|0|27696
20200525|02000016|1815100258404|1815100258404|CNY|0|6242
20200525|02000016|1815037092927|1815037092927|CNY|0|0
20200525|02000016|1818827799445|1818827799445|CNY|0|0
20200525|02000016|1813569282610|1813569282610|CNY|0|17415
20200525|02000016|1813628842075|1813628842075|CNY|0|87636
20200525|02000016|1815968450230|1815968450230|CNY|0|167
20200525|02000016|1813578222161|1813578222161|CNY|0|62302
20200525|02000016|1813978866093|1813978866093|CNY|0|200000
20200525|02000016|1815933739942|1815933739942|CNY|0|3835
20200525|02000016|1815671191786|1815671191786|CNY|0|462904
20200525|02000016|1815126963815|1815126963815|CNY|0|0
20200525|02000016|1818806080965|1818806080965|CNY|0|12415
20200525|02000016|1814787996680|1814787996680|CNY|0|0
20200525|02000016|1813314687653|1813314687653|CNY|0|23615
20200525|02000016|1813887902815|1813887902815|CNY|0|222857
20200525|02000016|1818060818666|1818060818666|CNY|0|0
20200525|02000016|1817317034515|1817317034515|CNY|0|619684
20200525|02000016|1815912982287|1815912982287|CNY|0|0
20200525|02000016|1815840074214|1815840074214|CNY|0|12627
20200525|02000016|1813940555070|1813940555070|CNY|0|6385
20200525|02000016|1815045780767|1815045780767|CNY|0|13585
20200525|02000016|1818468084292|1818468084292|CNY|0|0
20200525|02000016|1819187901601|1819187901601|CNY|0|212526
20200525|02000016|1813231744099|1813231744099|CNY|0|13442
20200525|02000016|1817679024406|1817679024406|CNY|0|17615
20200525|02000016|1813608767593|1813608767593|CNY|0|806415
20200525|02000016|1813897985407|1813897985407|CNY|0|629857
20200525|02000016|1815097439866|1815097439866|CNY|0|16415
20200525|02000016|1813903326296|1813903326296|CNY|0|249541
20200525|02000016|1813619402778|1813619402778|CNY|0|23615
20200525|02000016|1813576846550|1813576846550|CNY|0|12415
20200525|02000016|1815931775090|1815931775090|CNY|0|7668
20200525|02000016|1813946850664|1813946850664|CNY|0|13585
20200525|02000016|1817532047595|1817532047595|CNY|0|29858
20200525|02000016|1800000000001|1800000000001|CNY|0|46667340
20200525|02000016|1817682459990|1817682459990|CNY|0|47744
20200525|02000016|1817679265331|1817679265331|CNY|0|16415
20200525|02000016|1815184974413|1815184974413|CNY|0|28899
20200525|02000016|1815887534216|1815887534216|CNY|0|0
20200525|02000016|1818710799910|1818710799910|CNY|0|0
20200525|02000016|1813331291413|1813331291413|CNY|0|0
20200525|02000016|1818788237107|1818788237107|CNY|0|0
20200525|02000016|1813578269567|1813578269567|CNY|0|6242
20200525|02000016|1817736203679|1817736203679|CNY|0|0
20200525|02000016|1815132271576|1815132271576|CNY|0|16416
20200525|02000016|1815188755668|1815188755668|CNY|0|0
20200525|02000016|1815803241520|1815803241520|CNY|0|13442
20200525|02000016|1813908823287|1813908823287|CNY|0|16415
20200525|02000016|1818967335077|1818967335077|CNY|0|196115
20200525|02000016|1813988205730|1813988205730|CNY|0|0
20200525|02000016|1813658729094|1813658729094|CNY|0|23615
20200525|02000016|1815912255139|1815912255139|CNY|0|23615
20200525|02000016|1813032006873|1813032006873|CNY|0|0
20200525|02000016|1818500677301|1818500677301|CNY|0|0
20200525|02000016|1813932238474|1813932238474|CNY|0|222657
20200525|02000016|1815230285659|1815230285659|CNY|0|619684
20200525|02000016|1813582219081|1813582219081|CNY|0|200000
20200525|02000016|1813988263155|1813988263155|CNY|0|16415
20200525|02000016|1818165477289|1818165477289|CNY|0|13442
20200525|02000016|1813725250846|1813725250846|CNY|0|0
20200525|02000016|1815931229982|1815931229982|CNY|0|23615
20200525|02000016|1813633388288|1813633388288|CNY|0|0
20200525|02000016|1818179665155|1818179665155|CNY|0|0
20200525|02000016|1813930896039|1813930896039|CNY|0|203555
20200525|02000016|1813988239363|1813988239363|CNY|0|16415
20200525|02000016|1813988205606|1813988205606|CNY|0|0
20200525|02000016|1815176239151|1815176239151|CNY|200000|200000
20200525|02000016|1815538816005|1815538816005|CNY|0|13442
20200525|02000016|1813761356728|1813761356728|CNY|0|200000
20200525|02000016|1813833200375|1813833200375|CNY|0|0
20200525|02000016|1815097408526|1815097408526|CNY|0|193346
20200525|02000016|1815969277886|1815969277886|CNY|0|6242
20200525|02000016|1813931359385|1813931359385|CNY|0|16415
20200525|02000016|1813908822770|1813908822770|CNY|0|16415
20200525|02000016|1813593926195|1813593926195|CNY|0|86215
20200525|02000016|1815998819593|1815998819593|CNY|193781|419
20200525|02000016|1815972280790|1815972280790|CNY|0|626884
20200525|02000016|1813722978286|1813722978286|CNY|0|6242
20200525|02000016|1818669296269|1818669296269|CNY|0|816415
20200525|02000016|1813833007650|1813833007650|CNY|0|0
20200525|02000016|1815233758901|1815233758901|CNY|0|13442
20200525|02000016|1815894443268|1815894443268|CNY|0|0
20200525|02000016|1815079696414|1815079696414|CNY|0|6242
20200525|02000016|1813887873327|1813887873327|CNY|0|13442
20200525|02000016|1819937271172|1819937271172|CNY|0|13442
20200525|02000016|1815824461587|1815824461587|CNY|0|402
20200525|02000016|1813833293648|1813833293648|CNY|0|6242
20200525|02000016|1813187578911|1813187578911|CNY|0|0
20200525|02000016|1813998824209|1813998824209|CNY|0|806242
20200525|02000016|1818208857326|1818208857326|CNY|0|6671
20200525|02000016|1818589321691|1818589321691|CNY|0|0
20200525|02000016|1818220730920|1818220730920|CNY|0|13442
20200525|02000016|1815140671196|1815140671196|CNY|0|0
20200525|02000016|1813478653378|1813478653378|CNY|0|806242
20200525|02000016|1813703227331|1813703227331|CNY|0|197593
20200525|02000016|1813191684413|1813191684413|CNY|0|1212
20200525|02000016|1815690228885|1815690228885|CNY|0|0
20200525|02000016|1813407259698|1813407259698|CNY|0|0
20200525|02000016|1813035344432|1813035344432|CNY|0|0
20200525|02000016|1815969227585|1815969227585|CNY|0|0
20200525|02000016|1815117001128|1815117001128|CNY|0|13442
20200525|02000016|1813587758991|1813587758991|CNY|0|6242
20200525|02000016|1815707224533|1815707224533|CNY|0|0
20200525|02000016|1818976770088|1818976770088|CNY|802407|3835
20200525|02000016|1818352027259|1818352027259|CNY|0|13442
20200525|02000016|1815175228012|1815175228012|CNY|0|3835
20200525|02000016|1818103121030|1818103121030|CNY|0|0
20200525|02000016|1818210293990|1818210293990|CNY|0|813442
20200525|02000016|1818352021124|1818352021124|CNY|0|500000
20200525|02000016|1818788207781|1818788207781|CNY|0|813442
20200525|02000016|1817751565108|1817751565108|CNY|0|0
20200525|02000016|1818053143677|1818053143677|CNY|0|0
20200525|02000016|1813400336006|1813400336006|CNY|0|603836
20200525|02000016|1817317033540|1817317033540|CNY|0|3835
20200525|02000016|1815158914179|1815158914179|CNY|0|0
20200525|02000016|1813323228902|1813323228902|CNY|0|0
20200525|02000016|1815189286165|1815189286165|CNY|0|0
20200525|02000016|1815008801186|1815008801186|CNY|0|0
20200525|02000016|1813021088510|1813021088510|CNY|0|200100
20200525|02000016|1813145491363|1813145491363|CNY|0|0
20200525|02000016|1818820305412|1818820305412|CNY|0|0
20200525|02000016|1815930731831|1815930731831|CNY|0|0
20200525|02000016|1813722243235|1813722243235|CNY|0|6242
20200525|02000016|1815303321928|1815303321928|CNY|0|0
20200525|02000016|1815933567917|1815933567917|CNY|0|13442
20200525|02000016|1815978647111|1815978647111|CNY|0|13442
20200525|02000016|1818631253272|1818631253272|CNY|200000|200000
20200525|02000016|1813031511551|1813031511551|CNY|0|0
20200525|02000016|1813949280669|1813949280669|CNY|0|0
20200525|02000016|1818288950291|1818288950291|CNY|0|13442
20200525|02000016|1813628890031|1813628890031|CNY|0|6242
20200525|02000016|1815894439256|1815894439256|CNY|0|6242
20200525|02000016|1818387548855|1818387548855|CNY|0|6242
20200525|02000016|1813717932756|1813717932756|CNY|0|0
20200525|02000016|1815837935909|1815837935909|CNY|0|199900
20200525|02000016|1818962075812|1818962075812|CNY|0|204437
20200525|02000016|1813731660124|1813731660124|CNY|0|6242
20200525|02000016|1813327034451|1813327034451|CNY|0|0
20200525|02000016|1813085653237|1813085653237|CNY|0|0
20200525|02000016|1813730190518|1813730190518|CNY|0|206242
20200525|02000016|1813401717815|1813401717815|CNY|0|0
20200525|02000016|1813933209391|1813933209391|CNY|0|0
20200525|02000016|1818132717939|1818132717939|CNY|0|6242
20200525|02000016|1817789888843|1817789888843|CNY|0|200000
20200525|02000016|1815257296726|1815257296726|CNY|0|202242
20200525|02000016|1813070527319|1813070527319|CNY|0|206242
20200525|02000016|1813988239712|1813988239712|CNY|0|6242
20200525|02000016|1813483293913|1813483293913|CNY|0|11035
20200525|02000016|1817692236913|1817692236913|CNY|0|0
20200525|02000016|1818889422056|1818889422056|CNY|802407|3835
20200525|02000016|1815813676802|1815813676802|CNY|0|13442
20200525|02000016|1818131201300|1818131201300|CNY|6018|200224
20200525|02000016|1818330676831|1818330676831|CNY|0|0
20200525|02000016|1813696345338|1813696345338|CNY|0|0
20200525|02000016|1813513121930|1813513121930|CNY|0|13442
20200525|02000016|1813759236567|1813759236567|CNY|0|806242
20200525|02000016|1814787397187|1814787397187|CNY|0|0
20200525|02000016|1813759241776|1813759241776|CNY|0|13442
20200525|02000016|1815911281296|1815911281296|CNY|0|195000
20200525|02000016|1813466192760|1813466192760|CNY|0|206442
20200525|02000016|1813633226787|1813633226787|CNY|0|13442
20200525|02000016|1813555190027|1813555190027|CNY|0|200000
20200525|02000016|1819931217298|1819931217298|CNY|0|6242
20200525|02000016|1813715622986|1813715622986|CNY|0|13442
20200525|02000016|1818159856122|1818159856122|CNY|0|0
20200525|02000016|1813277695928|1813277695928|CNY|0|8442
20200525|02000016|1813861410518|1813861410518|CNY|0|0
20200525|02000016|1813383320308|1813383320308|CNY|0|11642
20200525|02000016|1813578277223|1813578277223|CNY|0|0
20200525|02000016|1813304035066|1813304035066|CNY|0|200000
20200525|02000016|1818696301799|1818696301799|CNY|0|6242
20200525|02000016|1818908820016|1818908820016|CNY|0|1000000
20200525|02000016|1813303322686|1813303322686|CNY|0|1000
20200525|02000016|1813831239711|1813831239711|CNY|0|0
20200525|02000016|1813887865192|1813887865192|CNY|0|1000000
20200525|02000016|1818903125539|1818903125539|CNY|0|0
20200525|02000016|1815833321555|1815833321555|CNY|0|200000
20200525|02000016|1818846735652|1818846735652|CNY|0|1000000
20200525|02000016|1815931895927|1815931895927|CNY|0|0
20200525|02000016|1815861099820|1815861099820|CNY|0|0
20200525|02000016|1819187939328|1819187939328|CNY|0|970100
20200525|02000016|1818132727138|1818132727138|CNY|0|200000
20200525|02000016|1813633181332|1813633181332|CNY|0|1000
20200525|02000016|1815176213410|1815176213410|CNY|0|600000
20200525|02000016|1813663328201|1813663328201|CNY|0|0
20200525|02000016|1813730445441|1813730445441|CNY|0|200000
20200525|02000016|1815911399347|1815911399347|CNY|0|0
20200525|02000016|1815925561179|1815925561179|CNY|0|200000
20200525|02000016|1815094200858|1815094200858|CNY|0|0
20200525|02000016|1813845158388|1813845158388|CNY|0|0
20200525|02000016|1813032028068|1813032028068|CNY|0|0
20200525|02000016|1813108558609|1813108558609|CNY|0|0
20200525|02000016|1813578248973|1813578248973|CNY|0|0
20200525|02000016|1818725344782|1818725344782|CNY|0|200000
20200525|02000016|1818758778057|1818758778057|CNY|0|0
20200525|02000016|1813987021097|1813987021097|CNY|0|200000
20200525|02000016|1815206929588|1815206929588|CNY|0|0
20200525|02000016|1818830207028|1818830207028|CNY|200000|200000
20200525|02000016|1815818598480|1815818598480|CNY|0|1000000
20200525|02000016|1813674237597|1813674237597|CNY|0|0
20200525|02000016|1817845057266|1817845057266|CNY|0|0
20200525|02000016|1813930833053|1813930833053|CNY|1000|1000
20200525|02000016|1818779740474|1818779740474|CNY|0|0
20200525|02000016|1815130291930|1815130291930|CNY|0|0
20200525|02000016|1815524196086|1815524196086|CNY|0|199500
20200525|02000016|1813785266844|1813785266844|CNY|0|0
20200525|02000016|1815830939311|1815830939311|CNY|0|0
20200525|02000016|1813930238016|1813930238016|CNY|0|0
20200525|02000016|1813903228890|1813903228890|CNY|0|0
20200525|02000016|1815170510050|1815170510050|CNY|0|0
20200525|02000016|1818306969995|1818306969995|CNY|0|1000000
20200525|02000016|1813832293322|1813832293322|CNY|0|0
20200525|02000016|1818287525683|1818287525683|CNY|0|0
20200525|02000016|1815124810200|1815124810200|CNY|0|0
20200525|02000016|1818733254139|1818733254139|CNY|0|200000
20200525|02000016|1818304670676|1818304670676|CNY|0|0
20200525|02000016|1817713241319|1817713241319|CNY|0|0
20200525|02000016|1815032238123|1815032238123|CNY|0|900
20200525|02000016|1813694033282|1813694033282|CNY|0|0
20200525|02000016|1815946775111|1815946775111|CNY|0|400000
20200525|02000016|1815043594322|1815043594322|CNY|0|200000
20200525|02000016|1813836555299|1813836555299|CNY|600000|600000
20200525|02000016|1818131276206|1818131276206|CNY|0|0
20200525|02000016|1815712514778|1815712514778|CNY|0|0
20200525|02000016|1813904008782|1813904008782|CNY|0|0
20200525|02000016|1813825724130|1813825724130|CNY|0|0
20200525|02000016|1818507776297|1818507776297|CNY|0|0
20200525|02000016|1815839829131|1815839829131|CNY|200100|200100
20200525|02000016|1813102973382|1813102973382|CNY|0|0
20200525|02000016|1817392392888|1817392392888|CNY|0|0
20200525|02000016|1815512532000|1815512532000|CNY|11003|8997
20200525|02000016|1818742493073|1818742493073|CNY|200000|200000
20200525|02000016|1813988240419|1813988240419|CNY|0|0
20200525|02000016|1815727394536|1815727394536|CNY|200000|200000
20200525|02000016|1815634310189|1815634310189|CNY|0|0
20200525|02000016|1813474353192|1813474353192|CNY|0|0
20200525|02000016|1818261202683|1818261202683|CNY|0|0
20200525|02000016|1813796925201|1813796925201|CNY|600000|600000
20200525|02000016|1815033223779|1815033223779|CNY|0|0
20200525|02000016|1813393222560|1813393222560|CNY|0|0
20200525|02000016|1813897920175|1813897920175|CNY|0|0
20200525|02000016|1815187541886|1815187541886|CNY|200000|200000
