20200615|02000016|91242416|1815230406766|1815230406766|20200511000080|B3UHWVR2|1|0|18600|18600|10|0|0|550|0|0|0|0|0|0|1|0|0|20200615145154
20200615|02000016|91242410|1813315292608|1813315292608|20200511000080|B3UHWVR2|1|0|18600|18600|10|0|0|550|0|0|0|0|0|0|1|0|0|20200615144944
20200615|02000016|91242409|1818788207781|1818788207781|20200511000080|B3UHWVR2|1|0|18600|18600|10|0|0|550|0|0|0|0|0|0|1|0|0|20200615144739
20200615|02000016|91242408|1813190099140|1813190099140|20200511000080|B3UHWVR2|1|0|18600|18600|10|0|0|550|0|0|0|0|0|0|1|0|0|20200615144707
20200615|02000016|91242391|1818687221023|1818687221023|20200511000080|B3UHWVR2|1|0|18600|18600|10|0|0|550|0|0|0|0|0|0|1|0|0|20200615144008
20200615|02000016|91242390|1818846735652|1818846735652|20200511000080|B3UHWVR2|1|0|18600|18600|10|0|0|550|0|0|0|0|0|0|1|0|0|20200615143722
20200615|02000016|91242383|1815184955665|1815184955665|20200511000080|B3UHWVR2|1|0|18600|18600|10|0|0|550|0|0|0|0|0|0|1|0|0|20200615143700
20200615|02000016|91242374|1813992186412|1813992186412|20200511000080|B3UHWVR2|1|0|18600|18600|10|0|0|550|0|0|0|0|0|0|1|0|0|20200615143431
20200615|02000016|91242369|1813587758991|1813587758991|20200511000080|B3UHWVR2|1|0|18600|18600|10|0|0|550|0|0|0|0|0|0|1|0|0|20200615143355
20200615|02000016|91242368|1813636870153|1813636870153|20200511000080|B3UHWVR2|1|0|18600|18600|1|0|0|55|0|0|0|0|0|0|1|0|0|20200615143202
20200615|02000016|91242367|1813889283664|1813889283664|20200511000080|B3UHWVR2|1|0|18600|18600|10|0|0|550|0|0|0|0|0|0|1|0|0|20200615143129
20200615|02000016|91242366|1815987504832|1815987504832|20200511000080|B3UHWVR2|1|0|18600|18600|10|0|0|550|0|0|0|0|0|0|1|0|0|20200615143037
20200615|02000016|91242365|1816532225555|1816532225555|20200511000080|B3UHWVR2|1|0|18600|18600|10|0|0|550|0|0|0|0|0|0|1|0|0|20200615142942
20200615|02000016|91242364|1818288560316|1818288560316|20200511000080|B3UHWVR2|1|0|18600|18600|10|0|0|550|0|0|0|0|0|0|1|0|0|20200615142919
20200615|02000016|91242363|1815287133896|1815287133896|20200511000080|B3UHWVR2|1|0|18600|18600|10|0|0|550|0|0|0|0|0|0|1|0|0|20200615142823
20200615|02000016|91242351|1818131268984|1818131268984|20200511000080|B3UHWVR2|1|0|18600|18600|10|0|0|550|0|0|0|0|0|0|1|0|0|20200615142617
20200615|02000016|91242350|1813555055525|1813555055525|20200511000080|B3UHWVR2|1|0|18600|18600|10|0|0|550|0|0|0|0|0|0|1|0|0|20200615142544
20200615|02000016|91242344|1815184974413|1815184974413|20200511000080|B3UHWVR2|1|0|18600|18600|10|0|0|550|0|0|0|0|0|0|1|0|0|20200615142352
20200615|02000016|91242339|1813578222161|1813578222161|20200511000080|B3UHWVR2|1|0|18600|18600|10|0|0|550|0|0|0|0|0|0|1|0|0|20200615142053
20200615|02000016|91242338|1815133232674|1815133232674|20200511000080|B3UHWVR2|1|0|18600|18600|10|0|0|550|0|0|0|0|0|0|1|0|0|20200615142002
20200615|02000016|91242336|1818132723583|1818132723583|20200511000080|B3UHWVR2|1|0|18600|18600|10|0|0|550|0|0|0|0|0|0|1|0|0|20200615142000
20200615|02000016|91242337|1813587765311|1813587765311|20200511000080|B3UHWVR2|1|0|18600|18600|10|0|0|550|0|0|0|0|0|0|1|0|0|20200615142000
20200615|02000016|91242317|1815932240292|1815932240292|20200511000080|B3UHWVR2|1|0|18600|18600|10|0|0|550|0|0|0|0|0|0|1|0|0|20200615141819
20200615|02000016|91242312|1815368684150|1815368684150|20200511000080|B3UHWVR2|1|0|18600|18600|10|0|0|550|0|0|0|0|0|0|1|0|0|20200615141803
20200615|02000016|91242300|1818313234328|1818313234328|20200511000080|B3UHWVR2|1|0|18600|18600|10|0|0|550|0|0|0|0|0|0|1|0|0|20200615141536
20200615|02000016|91242291|1815887543597|1815887543597|20200511000080|B3UHWVR2|1|0|18600|18600|10|0|0|550|0|0|0|0|0|0|1|0|0|20200615141452
20200615|02000016|91242290|1813633389021|1813633389021|20200511000080|B3UHWVR2|1|0|18600|18600|10|0|0|550|0|0|0|0|0|0|1|0|0|20200615141449
20200615|02000016|91242282|1813887902815|1813887902815|20200511000080|B3UHWVR2|1|0|18600|18600|10|0|0|550|0|0|0|0|0|0|1|0|0|20200615141254
20200615|02000016|91242281|1813831588800|1813831588800|20200511000080|B3UHWVR2|1|0|18600|18600|10|0|0|550|0|0|0|0|0|0|1|0|0|20200615141252
20200615|02000016|91242276|1817732411319|1817732411319|20200511000080|B3UHWVR2|1|0|18600|18600|10|0|0|550|0|0|0|0|0|0|1|0|0|20200615141241
20200615|02000016|91242266|1800100000188|1800100000188|20200511000080|B3UHWVR2|1|0|18600|18600|10|0|0|550|0|0|0|0|0|0|1|0|0|20200615141112
20200615|02000016|91242253|1815076282998|1815076282998|20200511000080|B3UHWVR2|1|0|18600|18600|10|0|0|550|0|0|0|0|0|0|1|0|0|20200615140932
20200615|02000016|91242247|1813368815583|1813368815583|20200511000080|B3UHWVR2|1|0|18600|18600|10|0|0|550|0|0|0|0|0|0|1|0|0|20200615140914
20200615|02000016|91242246|1813343028920|1813343028920|20200511000080|B3UHWVR2|1|0|18600|18600|10|0|0|550|0|0|0|0|0|0|1|0|0|20200615140912
20200615|02000016|91242240|1813346190092|1813346190092|20200511000080|B3UHWVR2|1|0|18600|18600|10|0|0|550|0|0|0|0|0|0|1|0|0|20200615140849
20200615|02000016|91242235|1819187901601|1819187901601|20200511000080|B3UHWVR2|1|0|18600|18600|10|0|0|550|0|0|0|0|0|0|1|0|0|20200615140742
20200615|02000016|91242218|1813309116156|1813309116156|20200511000080|B3UHWVR2|1|0|18600|18600|10|0|0|550|0|0|0|0|0|0|1|0|0|20200615140640
20200615|02000016|91242217|1813578198508|1813578198508|20200511000080|B3UHWVR2|1|0|18600|18600|10|0|0|550|0|0|0|0|0|0|1|0|0|20200615140624
20200615|02000016|91242199|1815601097966|1815601097966|20200511000080|B3UHWVR2|1|0|18600|18600|10|0|0|550|0|0|0|0|0|0|1|0|0|20200615140542
20200615|02000016|91242198|1813731284037|1813731284037|20200511000080|B3UHWVR2|1|0|18600|18600|10|0|0|550|0|0|0|0|0|0|1|0|0|20200615140527
20200615|02000016|91242196|1813088421577|1813088421577|20200511000080|B3UHWVR2|1|0|18600|18600|10|0|0|550|0|0|0|0|0|0|1|0|0|20200615140505
20200615|02000016|91242191|1815368798533|1815368798533|20200511000080|B3UHWVR2|1|0|18600|18600|10|0|0|550|0|0|0|0|0|0|1|0|0|20200615140442
20200615|02000016|91242190|1815947464963|1815947464963|20200511000080|B3UHWVR2|1|0|18600|18600|10|0|0|550|0|0|0|0|0|0|1|0|0|20200615140419
20200615|02000016|91242172|1800100000260|1800100000260|20200511000080|B3UHWVR2|1|0|18600|18600|10|0|0|550|0|0|0|0|0|0|1|0|0|20200615140154
20200615|02000016|91242167|1800100000257|1800100000257|20200511000080|B3UHWVR2|1|0|18600|18600|10|0|0|550|0|0|0|0|0|0|1|0|0|20200615140051
20200615|02000016|91242163|1813785432993|1813785432993|20200511000080|B3UHWVR2|1|0|18600|18600|10|0|0|550|0|0|0|0|0|0|1|0|0|20200615135938
20200615|02000016|91242160|1813930833053|1813930833053|20200511000080|B3UHWVR2|1|0|18600|18600|10|0|0|550|0|0|0|0|0|0|1|0|0|20200615135914
20200615|02000016|91242144|1800100000236|1800100000236|20200511000080|B3UHWVR2|1|0|18600|18600|10|0|0|550|0|0|0|0|0|0|1|0|0|20200615135813
20200615|02000016|91242139|1800100000234|1800100000234|20200511000080|B3UHWVR2|1|0|18600|18600|10|0|0|550|0|0|0|0|0|0|1|0|0|20200615135707
20200615|02000016|91242127|1818306924682|1818306924682|20200511000080|B3UHWVR2|1|0|18600|18600|10|0|0|550|0|0|0|0|0|0|1|0|0|20200615135503
20200615|02000016|91242122|1815070002292|1815070002292|20200511000080|B3UHWVR2|1|0|18600|18600|10|0|0|550|0|0|0|0|0|0|1|0|0|20200615135432
20200615|02000016|91242108|1813988239712|1813988239712|20200511000080|B3UHWVR2|1|0|18600|18600|10|0|0|550|0|0|0|0|0|0|1|0|0|20200615135131
20200615|02000016|91242103|1813503229712|1813503229712|20200511000080|B3UHWVR2|1|0|18600|18600|10|0|0|550|0|0|0|0|0|0|1|0|0|20200615135052
20200615|02000016|91242102|1813908822770|1813908822770|20200511000080|B3UHWVR2|1|0|18600|18600|10|0|0|550|0|0|0|0|0|0|1|0|0|20200615135049
20200615|02000016|91242095|1815969277886|1815969277886|20200511000080|B3UHWVR2|1|0|18600|18600|10|0|0|550|0|0|0|0|0|0|1|0|0|20200615135004
20200615|02000016|91242087|1800100000028|1800100000028|20200511000080|B3UHWVR2|1|0|18600|18600|10|0|0|550|0|0|0|0|0|0|1|0|0|20200615134939
20200615|02000016|91242070|1819987525520|1819987525520|20200511000080|B3UHWVR2|1|0|18600|18600|10|0|0|550|0|0|0|0|0|0|1|0|0|20200615134909
20200615|02000016|91242068|1813992529265|1813992529265|20200511000080|B3UHWVR2|1|0|18600|18600|10|0|0|550|0|0|0|0|0|0|1|0|0|20200615134906
20200615|02000016|91242062|1813908823287|1813908823287|20200511000080|B3UHWVR2|1|0|18600|18600|10|0|0|550|0|0|0|0|0|0|1|0|0|20200615134839
20200615|02000016|91242055|1818304670676|1818304670676|20200511000080|B3UHWVR2|1|0|18600|18600|10|0|0|550|0|0|0|0|0|0|1|0|0|20200615134753
20200615|02000016|91242054|1813988263155|1813988263155|20200511000080|B3UHWVR2|1|0|18600|18600|10|0|0|550|0|0|0|0|0|0|1|0|0|20200615134748
20200615|02000016|91242038|1815291119145|1815291119145|20200511000080|B3UHWVR2|1|0|18600|18600|10|0|0|550|0|0|0|0|0|0|1|0|0|20200615134321
20200615|02000016|91242026|1818091149039|1818091149039|20200511000080|B3UHWVR2|1|0|18600|18600|10|0|0|550|0|0|0|0|0|0|1|0|0|20200615134117
20200615|02000016|91242019|1813832293322|1813832293322|20200511000080|B3UHWVR2|1|0|18600|18600|10|0|0|550|0|0|0|0|0|0|1|0|0|20200615134042
20200615|02000016|91242008|1813310933838|1813310933838|20200511000080|B3UHWVR2|1|0|18600|18600|10|0|0|550|0|0|0|0|0|0|1|0|0|20200615133939
20200615|02000016|91242007|1818049119039|1818049119039|20200511000080|B3UHWVR2|1|0|18600|18600|10|0|0|550|0|0|0|0|0|0|1|0|0|20200615133856
20200615|02000016|91242002|1818309859106|1818309859106|20200511000080|B3UHWVR2|1|0|18600|18600|10|0|0|550|0|0|0|0|0|0|1|0|0|20200615133752
20200615|02000016|91241996|1813231286520|1813231286520|20200511000080|B3UHWVR2|1|0|18600|18600|10|0|0|550|0|0|0|0|0|0|1|0|0|20200615133719
20200615|02000016|91241995|1800100000081|1800100000081|20200511000080|B3UHWVR2|1|0|18600|18600|10|0|0|550|0|0|0|0|0|0|1|0|0|20200615133626
20200615|02000016|91241986|1813604685553|1813604685553|20200511000080|B3UHWVR2|1|0|18600|18600|10|0|0|550|0|0|0|0|0|0|1|0|0|20200615133321
20200615|02000016|91241985|1818164646890|1818164646890|20200511000080|B3UHWVR2|1|0|18600|18600|10|0|0|550|0|0|0|0|0|0|1|0|0|20200615133213
20200615|02000016|91241984|1818313482200|1818313482200|20200511000080|B3UHWVR2|1|0|18600|18600|10|0|0|550|0|0|0|0|0|0|1|0|0|20200615133159
20200615|02000016|91241978|1813191775000|1813191775000|20200511000080|B3UHWVR2|1|0|18600|18600|10|0|0|550|0|0|0|0|0|0|1|0|0|20200615132915
20200615|02000016|91241971|1813159989877|1813159989877|20200511000080|B3UHWVR2|1|0|18600|18600|10|0|0|550|0|0|0|0|0|0|1|0|0|20200615132821
20200615|02000016|91241970|1813933207826|1813933207826|20200511000080|B3UHWVR2|1|0|18600|18600|10|0|0|550|0|0|0|0|0|0|1|0|0|20200615132749
20200615|02000016|91241969|1813378816227|1813378816227|20200511000080|B3UHWVR2|1|0|18600|18600|10|0|0|550|0|0|0|0|0|0|1|0|0|20200615132745
20200615|02000016|91241965|1814787397187|1814787397187|20200511000080|B3UHWVR2|1|0|18600|18600|10|0|0|550|0|0|0|0|0|0|1|0|0|20200615132724
20200615|02000016|91241953|1815974969450|1815974969450|20200511000080|B3UHWVR2|1|0|18600|18600|10|0|0|550|0|0|0|0|0|0|1|0|0|20200615132623
20200615|02000016|91241938|1813559965824|1813559965824|20200511000080|B3UHWVR2|1|0|18600|18600|10|0|0|550|0|0|0|0|0|0|1|0|0|20200615132139
20200615|02000016|91241935|1815946608077|1815946608077|20200511000080|B3UHWVR2|1|0|18600|18600|10|0|0|550|0|0|0|0|0|0|1|0|0|20200615132120
20200615|02000016|91241933|1818788201666|1818788201666|20200511000080|B3UHWVR2|1|0|18600|18600|10|0|0|550|0|0|0|0|0|0|1|0|0|20200615132107
20200615|02000016|91241921|1818031333310|1818031333310|20200511000080|B3UHWVR2|1|0|18600|18600|10|0|0|550|0|0|0|0|0|0|1|0|0|20200615132048
20200615|02000016|91241915|1813578268057|1813578268057|20200511000080|B3UHWVR2|1|0|18600|18600|10|0|0|550|0|0|0|0|0|0|1|0|0|20200615132016
20200615|02000016|91241914|1813331236246|1813331236246|20200511000080|B3UHWVR2|1|0|18600|18600|10|0|0|550|0|0|0|0|0|0|1|0|0|20200615132009
20200615|02000016|91241909|1818970607159|1818970607159|20200511000080|B3UHWVR2|1|0|18600|18600|10|0|0|550|0|0|0|0|0|0|1|0|0|20200615131959
20200615|02000016|91241904|1818313096871|1818313096871|20200511000080|B3UHWVR2|1|0|18600|18600|10|0|0|550|0|0|0|0|0|0|1|0|0|20200615131947
20200615|02000016|91241897|1818164664215|1818164664215|20200511000080|B3UHWVR2|1|0|18600|18600|10|0|0|550|0|0|0|0|0|0|1|0|0|20200615131851
20200615|02000016|91241895|1818669281955|1818669281955|20200511000080|B3UHWVR2|1|0|18600|18600|10|0|0|550|0|0|0|0|0|0|1|0|0|20200615131819
20200615|02000016|91241894|1818979143369|1818979143369|20200511000080|B3UHWVR2|1|0|18600|18600|10|0|0|550|0|0|0|0|0|0|1|0|0|20200615131743
20200615|02000016|91241891|1815925440402|1815925440402|20200511000080|B3UHWVR2|1|0|18600|18600|10|0|0|550|0|0|0|0|0|0|1|0|0|20200615131624
20200615|02000016|91241877|1815931895927|1815931895927|20200511000080|B3UHWVR2|1|0|18600|18600|10|0|0|550|0|0|0|0|0|0|1|0|0|20200615131423
20200615|02000016|91241874|1815752380909|1815752380909|20200511000080|B3UHWVR2|1|0|18600|18600|10|0|0|550|0|0|0|0|0|0|1|0|0|20200615131409
20200615|02000016|91241862|1813578329840|1813578329840|20200511000080|B3UHWVR2|1|0|18600|18600|10|0|0|550|0|0|0|0|0|0|1|0|0|20200615131337
20200615|02000016|91241860|1815907005758|1815907005758|20200511000080|B3UHWVR2|1|0|18600|18600|10|0|0|550|0|0|0|0|0|0|1|0|0|20200615131331
20200615|02000016|91241861|1813277695928|1813277695928|20200511000080|B3UHWVR2|1|0|18600|18600|10|0|0|550|0|0|0|0|0|0|1|0|0|20200615131331
20200615|02000016|91241842|1818687924557|1818687924557|20200511000080|B3UHWVR2|1|0|18600|18600|10|0|0|550|0|0|0|0|0|0|1|0|0|20200615131240
20200615|02000016|91241832|1813987533738|1813987533738|20200511000080|B3UHWVR2|1|0|18600|18600|10|0|0|550|0|0|0|0|0|0|1|0|0|20200615131145
20200615|02000016|91241831|1818855897042|1818855897042|20200511000080|B3UHWVR2|1|0|18600|18600|10|0|0|550|0|0|0|0|0|0|1|0|0|20200615131116
20200615|02000016|91241828|1815969256322|1815969256322|20200511000080|B3UHWVR2|1|0|18600|18600|10|0|0|550|0|0|0|0|0|0|1|0|0|20200615131040
20200615|02000016|91241823|1813576284540|1813576284540|20200511000080|B3UHWVR2|1|0|18600|18600|10|0|0|550|0|0|0|0|0|0|1|0|0|20200615131031
20200615|02000016|91241818|1818524494313|1818524494313|20200511000080|B3UHWVR2|1|0|18600|18600|10|0|0|550|0|0|0|0|0|0|1|0|0|20200615131008
20200615|02000016|91241816|1813722239497|1813722239497|20200511000080|B3UHWVR2|1|0|18600|18600|10|0|0|550|0|0|0|0|0|0|1|0|0|20200615131002
20200615|02000016|91241815|1818803125896|1818803125896|20200511000080|B3UHWVR2|1|0|18600|18600|10|0|0|550|0|0|0|0|0|0|1|0|0|20200615130959
20200615|02000016|91241814|1818714555279|1818714555279|20200511000080|B3UHWVR2|1|0|18600|18600|10|0|0|550|0|0|0|0|0|0|1|0|0|20200615130958
20200615|02000016|91241812|1818833231624|1818833231624|20200511000080|B3UHWVR2|1|0|18600|18600|10|0|0|550|0|0|0|0|0|0|1|0|0|20200615130938
20200615|02000016|91241797|1818288100195|1818288100195|20200511000080|B3UHWVR2|1|0|18600|18600|10|0|0|550|0|0|0|0|0|0|1|0|0|20200615130859
20200615|02000016|91241795|1814784685555|1814784685555|20200511000080|B3UHWVR2|1|0|18600|18600|10|0|0|550|0|0|0|0|0|0|1|0|0|20200615130845
20200615|02000016|91241783|1818732695797|1818732695797|20200511000080|B3UHWVR2|1|0|18600|18600|10|0|0|550|0|0|0|0|0|0|1|0|0|20200615130747
20200615|02000016|91241782|1818468150535|1818468150535|20200511000080|B3UHWVR2|1|0|18600|18600|10|0|0|550|0|0|0|0|0|0|1|0|0|20200615130746
20200615|02000016|91241781|1813331281727|1813331281727|20200511000080|B3UHWVR2|1|0|18600|18600|10|0|0|550|0|0|0|0|0|0|1|0|0|20200615130735
20200615|02000016|91241772|1818330297314|1818330297314|20200511000080|B3UHWVR2|1|0|18600|18600|10|0|0|550|0|0|0|0|0|0|1|0|0|20200615130700
20200615|02000016|91241770|1813194659455|1813194659455|20200511000080|B3UHWVR2|1|0|18600|18600|10|0|0|550|0|0|0|0|0|0|1|0|0|20200615130657
20200615|02000016|91241768|1813946743169|1813946743169|20200511000080|B3UHWVR2|1|0|18600|18600|10|0|0|550|0|0|0|0|0|0|1|0|0|20200615130628
20200615|02000016|91241767|1815100273368|1815100273368|20200511000080|B3UHWVR2|1|0|18600|18600|10|0|0|550|0|0|0|0|0|0|1|0|0|20200615130627
20200615|02000016|91241760|1818088155607|1818088155607|20200511000080|B3UHWVR2|1|0|18600|18600|10|0|0|550|0|0|0|0|0|0|1|0|0|20200615130605
20200615|02000016|91241755|1815383327001|1815383327001|20200511000080|B3UHWVR2|1|0|18600|18600|10|0|0|550|0|0|0|0|0|0|1|0|0|20200615130546
20200615|02000016|91241748|1813031511388|1813031511388|20200511000080|B3UHWVR2|1|0|18600|18600|10|0|0|550|0|0|0|0|0|0|1|0|0|20200615130535
20200615|02000016|91241746|1813998388887|1813998388887|20200511000080|B3UHWVR2|1|0|18600|18600|10|0|0|550|0|0|0|0|0|0|1|0|0|20200615130515
20200615|02000016|91241737|1818103125352|1818103125352|20200511000080|B3UHWVR2|1|0|18600|18600|10|0|0|550|0|0|0|0|0|0|1|0|0|20200615130456
20200615|02000016|91241736|1818604681909|1818604681909|20200511000080|B3UHWVR2|1|0|18600|18600|10|0|0|550|0|0|0|0|0|0|1|0|0|20200615130452
20200615|02000016|91241734|1818760038371|1818760038371|20200511000080|B3UHWVR2|1|0|18600|18600|10|0|0|550|0|0|0|0|0|0|1|0|0|20200615130439
20200615|02000016|91241735|1815187564467|1815187564467|20200511000080|B3UHWVR2|1|0|18600|18600|10|0|0|550|0|0|0|0|0|0|1|0|0|20200615130439
20200615|02000016|91241732|1818631228121|1818631228121|20200511000080|B3UHWVR2|1|0|18600|18600|10|0|0|550|0|0|0|0|0|0|1|0|0|20200615130428
20200615|02000016|91241731|1813661262290|1813661262290|20200511000080|B3UHWVR2|1|0|18600|18600|10|0|0|550|0|0|0|0|0|0|1|0|0|20200615130427
20200615|02000016|91241713|1813597431025|1813597431025|20200511000080|B3UHWVR2|1|0|18600|18600|10|0|0|550|0|0|0|0|0|0|1|0|0|20200615130317
20200615|02000016|91241711|1813633159694|1813633159694|20200511000080|B3UHWVR2|1|0|18600|18600|10|0|0|550|0|0|0|0|0|0|1|0|0|20200615130313
20200615|02000016|91241710|1815586314943|1815586314943|20200511000080|B3UHWVR2|1|0|18600|18600|10|0|0|550|0|0|0|0|0|0|1|0|0|20200615130200
20200615|02000016|91241700|1813582628539|1813582628539|20200511000080|B3UHWVR2|1|0|18600|18600|10|0|0|550|0|0|0|0|0|0|1|0|0|20200615130017
20200615|02000016|91241692|1818669281955|1818669281955|20200511000080|B3UHWVR2|1|0|3600|3600|2|0|0|0|0|0|0|0|0|0|1|0|0|20200615113433
20200615|02000016|91241693|1815256323299|1815256323299|20200511000080|B3UHWVR2|1|0|3600|3600|2|0|0|0|0|0|0|0|0|0|1|0|0|20200615113433
20200615|02000016|91241690|1818352027259|1818352027259|20200511000080|B3UHWVR2|1|0|3600|3600|2|0|0|0|0|0|0|0|0|0|1|0|0|20200615113432
20200615|02000016|91241691|1815256323299|1815256323299|20200511000080|B3UHWVR2|1|0|3600|3600|2|0|0|0|0|0|0|0|0|0|1|0|0|20200615113432
20200615|02000016|91241686|1813323529941|1813323529941|20200511000080|B3UHWVR2|1|0|3600|3600|2|0|0|0|0|0|0|0|0|0|1|0|0|20200615113431
20200615|02000016|91241687|1815256323299|1815256323299|20200511000080|B3UHWVR2|1|0|3600|3600|2|0|0|0|0|0|0|0|0|0|1|0|0|20200615113431
20200615|02000016|91241685|1818987916256|1818987916256|20200511000080|B3UHWVR2|1|0|18600|18600|10|0|0|550|0|0|0|0|0|0|1|0|0|20200615112934
20200615|02000016|91241677|1819187939328|1819187939328|20200511000080|B3UHWVR2|1|0|18600|18600|10|0|0|550|0|0|0|0|0|0|1|0|0|20200615112841
20200615|02000016|91241662|1817713243193|1817713243193|20200511000080|B3UHWVR2|1|0|18600|18600|10|0|0|550|0|0|0|0|0|0|1|0|0|20200615112737
20200615|02000016|91241661|1818869127192|1818869127192|20200511000080|B3UHWVR2|1|0|18600|18600|10|0|0|550|0|0|0|0|0|0|1|0|0|20200615112736
20200615|02000016|91241644|1815187700939|1815187700939|20200511000080|B3UHWVR2|1|0|18600|18600|10|0|0|550|0|0|0|0|0|0|1|0|0|20200615112638
20200615|02000016|91241635|1815032925000|1815032925000|20200511000080|B3UHWVR2|1|0|18600|18600|10|0|0|550|0|0|0|0|0|0|1|0|0|20200615112529
20200615|02000016|91241628|1818314435347|1818314435347|20200511000080|B3UHWVR2|1|0|18600|18600|10|0|0|550|0|0|0|0|0|0|1|0|0|20200615112407
20200615|02000016|91241627|1813908757293|1813908757293|20200511000080|B3UHWVR2|1|0|18600|18600|10|0|0|550|0|0|0|0|0|0|1|0|0|20200615112358
20200615|02000016|91241626|1815887550134|1815887550134|20200511000080|B3UHWVR2|1|0|18600|18600|10|0|0|550|0|0|0|0|0|0|1|0|0|20200615112335
20200615|02000016|91241621|1818371587990|1818371587990|20200511000080|B3UHWVR2|1|0|18600|18600|10|0|0|550|0|0|0|0|0|0|1|0|0|20200615112307
20200615|02000016|91241620|1813473122412|1813473122412|20200511000080|B3UHWVR2|1|0|18600|18600|10|0|0|550|0|0|0|0|0|0|1|0|0|20200615112255
20200615|02000016|91241616|1815933052604|1815933052604|20200511000080|B3UHWVR2|1|0|18600|18600|10|0|0|550|0|0|0|0|0|0|1|0|0|20200615112132
20200615|02000016|91241609|1815592260808|1815592260808|20200511000080|B3UHWVR2|1|0|18600|18600|10|0|0|550|0|0|0|0|0|0|1|0|0|20200615112010
20200615|02000016|91241608|1815929113628|1815929113628|20200511000080|B3UHWVR2|1|0|18600|18600|10|0|0|550|0|0|0|0|0|0|1|0|0|20200615112001
20200615|02000016|91241603|1813987581003|1813987581003|20200511000080|B3UHWVR2|1|0|18600|18600|10|0|0|550|0|0|0|0|0|0|1|0|0|20200615111825
20200615|02000016|91241602|1813237785798|1813237785798|20200511000080|B3UHWVR2|1|0|18600|18600|10|0|0|550|0|0|0|0|0|0|1|0|0|20200615111813
20200615|02000016|91241591|1813669212329|1813669212329|20200511000080|B3UHWVR2|1|0|18600|18600|10|0|0|550|0|0|0|0|0|0|1|0|0|20200615111658
20200615|02000016|91241585|1813988279079|1813988279079|20200511000080|B3UHWVR2|1|0|18600|18600|10|0|0|550|0|0|0|0|0|0|1|0|0|20200615111629
20200615|02000016|91241575|1813903128198|1813903128198|20200511000080|B3UHWVR2|1|0|18600|18600|10|0|0|550|0|0|0|0|0|0|1|0|0|20200615111541
20200615|02000016|91241570|1813970039068|1813970039068|20200511000080|B3UHWVR2|1|0|18600|18600|10|0|0|550|0|0|0|0|0|0|1|0|0|20200615111430
20200615|02000016|91241568|1813464031228|1813464031228|20200511000080|B3UHWVR2|1|0|18600|18600|10|0|0|550|0|0|0|0|0|0|1|0|0|20200615111416
20200615|02000016|91241562|1817789888843|1817789888843|20200511000080|B3UHWVR2|1|0|18600|18600|10|0|0|550|0|0|0|0|0|0|1|0|0|20200615111352
20200615|02000016|91241558|1813932238474|1813932238474|20200511000080|B3UHWVR2|1|0|18600|18600|10|0|0|550|0|0|0|0|0|0|1|0|0|20200615111323
20200615|02000016|91241559|1813803503385|1813803503385|20200511000080|B3UHWVR2|1|0|18600|18600|10|0|0|550|0|0|0|0|0|0|1|0|0|20200615111323
20200615|02000016|91241557|1813335339191|1813335339191|20200511000080|B3UHWVR2|1|0|18600|18600|10|0|0|550|0|0|0|0|0|0|1|0|0|20200615111312
20200615|02000016|91241551|1813398828698|1813398828698|20200511000080|B3UHWVR2|1|0|18600|18600|10|0|0|550|0|0|0|0|0|0|1|0|0|20200615111239
20200615|02000016|91241518|1813628853769|1813628853769|20200511000080|B3UHWVR2|1|0|18600|18600|10|0|0|550|0|0|0|0|0|0|1|0|0|20200615111041
20200615|02000016|91241504|1818970863279|1818970863279|20200511000080|B3UHWVR2|1|0|18600|18600|10|0|0|550|0|0|0|0|0|0|1|0|0|20200615111017
20200615|02000016|91241501|1813619402778|1813619402778|20200511000080|B3UHWVR2|1|0|18600|18600|10|0|0|550|0|0|0|0|0|0|1|0|0|20200615110956
20200615|02000016|91241491|1818834581128|1818834581128|20200511000080|B3UHWVR2|1|0|18600|18600|10|0|0|550|0|0|0|0|0|0|1|0|0|20200615110926
20200615|02000016|91241489|1818962060606|1818962060606|20200511000080|B3UHWVR2|1|0|18600|18600|10|0|0|550|0|0|0|0|0|0|1|0|0|20200615110916
20200615|02000016|91241483|1813759204028|1813759204028|20200511000080|B3UHWVR2|1|0|18600|18600|10|0|0|550|0|0|0|0|0|0|1|0|0|20200615110855
20200615|02000016|91241475|1815350622072|1815350622072|20200511000080|B3UHWVR2|1|0|18600|18600|10|0|0|550|0|0|0|0|0|0|1|0|0|20200615110745
20200615|02000016|91241469|1815331519738|1815331519738|20200511000080|B3UHWVR2|1|0|18600|18600|10|0|0|550|0|0|0|0|0|0|1|0|0|20200615110721
20200615|02000016|91241465|1815045503182|1815045503182|20200511000080|B3UHWVR2|1|0|18600|18600|10|0|0|550|0|0|0|0|0|0|1|0|0|20200615110708
20200615|02000016|91241463|1819975767376|1819975767376|20200511000080|B3UHWVR2|1|0|18600|18600|10|0|0|550|0|0|0|0|0|0|1|0|0|20200615110653
20200615|02000016|91241457|1813767977037|1813767977037|20200511000080|B3UHWVR2|1|0|18600|18600|10|0|0|550|0|0|0|0|0|0|1|0|0|20200615110640
20200615|02000016|91241452|1813065128288|1813065128288|20200511000080|B3UHWVR2|1|0|18600|18600|10|0|0|550|0|0|0|0|0|0|1|0|0|20200615110629
20200615|02000016|91241448|1818379168116|1818379168116|20200511000080|B3UHWVR2|1|0|18600|18600|10|0|0|550|0|0|0|0|0|0|1|0|0|20200615110559
20200615|02000016|91241447|1813730190518|1813730190518|20200511000080|B3UHWVR2|1|0|18600|18600|10|0|0|550|0|0|0|0|0|0|1|0|0|20200615110555
20200615|02000016|91241436|1815933739942|1815933739942|20200511000080|B3UHWVR2|1|0|18600|18600|10|0|0|550|0|0|0|0|0|0|1|0|0|20200615110538
20200615|02000016|91241429|1813572960606|1813572960606|20200511000080|B3UHWVR2|1|0|18600|18600|10|0|0|550|0|0|0|0|0|0|1|0|0|20200615110516
20200615|02000016|91241423|1813703283113|1813703283113|20200511000080|B3UHWVR2|1|0|18600|18600|10|0|0|550|0|0|0|0|0|0|1|0|0|20200615110458
20200615|02000016|91241412|1813780323381|1813780323381|20200511000080|B3UHWVR2|1|0|18600|18600|10|0|0|550|0|0|0|0|0|0|1|0|0|20200615110433
20200615|02000016|91241410|1815770280016|1815770280016|20200511000080|B3UHWVR2|1|0|18600|18600|10|0|0|550|0|0|0|0|0|0|1|0|0|20200615110417
20200615|02000016|91241409|1813163743109|1813163743109|20200511000080|B3UHWVR2|1|0|18600|18600|10|0|0|550|0|0|0|0|0|0|1|0|0|20200615110415
20200615|02000016|91241404|1815925024801|1815925024801|20200511000080|B3UHWVR2|1|0|18600|18600|10|0|0|550|0|0|0|0|0|0|1|0|0|20200615110359
20200615|02000016|91241403|1815350001169|1815350001169|20200511000080|B3UHWVR2|1|0|18600|18600|10|0|0|550|0|0|0|0|0|0|1|0|0|20200615110352
20200615|02000016|91241401|1815257296726|1815257296726|20200511000080|B3UHWVR2|1|0|18600|18600|10|0|0|550|0|0|0|0|0|0|1|0|0|20200615110347
20200615|02000016|91241386|1800100000034|1800100000034|20200511000080|B3UHWVR2|1|0|18600|18600|10|0|0|550|0|0|0|0|0|0|1|0|0|20200615110330
20200615|02000016|91241368|1813987515260|1813987515260|20200511000080|B3UHWVR2|1|0|18600|18600|10|0|0|550|0|0|0|0|0|0|1|0|0|20200615110232
20200615|02000016|91241365|1813477461038|1813477461038|20200511000080|B3UHWVR2|1|0|18600|18600|10|0|0|550|0|0|0|0|0|0|1|0|0|20200615110216
20200615|02000016|91241349|1800100000355|1800100000355|20200511000080|B3UHWVR2|1|0|18600|18600|10|0|0|550|0|0|0|0|0|0|1|0|0|20200615110200
20200615|02000016|91241344|1815271903817|1815271903817|20200511000080|B3UHWVR2|1|0|18600|18600|10|0|0|550|0|0|0|0|0|0|1|0|0|20200615110128
20200615|02000016|91241327|1815887555344|1815887555344|20200511000080|B3UHWVR2|1|0|18600|18600|10|0|0|550|0|0|0|0|0|0|1|0|0|20200615110044
20200615|02000016|91241323|1818988215396|1818988215396|20200511000080|B3UHWVR2|1|0|18600|18600|10|0|0|550|0|0|0|0|0|0|1|0|0|20200615110034
20200615|02000016|91241317|1813796445877|1813796445877|20200511000080|B3UHWVR2|1|0|18600|18600|10|0|0|550|0|0|0|0|0|0|1|0|0|20200615105957
20200615|02000016|91241310|1813808781900|1813808781900|20200511000080|B3UHWVR2|1|0|18600|18600|10|0|0|550|0|0|0|0|0|0|1|0|0|20200615105920
20200615|02000016|91241309|1800100000072|1800100000072|20200511000080|B3UHWVR2|1|0|18600|18600|10|0|0|550|0|0|0|0|0|0|1|0|0|20200615105850
20200615|02000016|91241295|1813796541908|1813796541908|20200511000080|B3UHWVR2|1|0|18600|18600|10|0|0|550|0|0|0|0|0|0|1|0|0|20200615105812
20200615|02000016|91241287|1818988219915|1818988219915|20200511000080|B3UHWVR2|1|0|18600|18600|10|0|0|550|0|0|0|0|0|0|1|0|0|20200615105740
20200615|02000016|91241286|1818087500614|1818087500614|20200511000080|B3UHWVR2|1|0|18600|18600|10|0|0|550|0|0|0|0|0|0|1|0|0|20200615105735
20200615|02000016|91241278|1813988266069|1813988266069|20200511000080|B3UHWVR2|1|0|18600|18600|10|0|0|550|0|0|0|0|0|0|1|0|0|20200615105713
20200615|02000016|91241273|1815146155010|1815146155010|20200511000080|B3UHWVR2|1|0|18600|18600|10|0|0|550|0|0|0|0|0|0|1|0|0|20200615105703
20200615|02000016|91241264|1813970022873|1813970022873|20200511000080|B3UHWVR2|1|0|18600|18600|10|0|0|550|0|0|0|0|0|0|1|0|0|20200615105608
20200615|02000016|91241250|1800100000073|1800100000073|20200511000080|B3UHWVR2|1|0|18600|18600|10|0|0|550|0|0|0|0|0|0|1|0|0|20200615105514
20200615|02000016|91241249|1818737962228|1818737962228|20200511000080|B3UHWVR2|1|0|18600|18600|9|0|0|495|0|0|0|0|0|0|1|0|0|20200615105504
20200615|02000016|91241246|1813674575508|1813674575508|20200511000080|B3UHWVR2|1|0|18600|18600|10|0|0|550|0|0|0|0|0|0|1|0|0|20200615105335
20200615|02000016|91241245|1818507792116|1818507792116|20200511000080|B3UHWVR2|1|0|18600|18600|10|0|0|550|0|0|0|0|0|0|1|0|0|20200615105317
20200615|02000016|91241236|1800100000053|1800100000053|20200511000080|B3UHWVR2|1|0|18600|18600|10|0|0|550|0|0|0|0|0|0|1|0|0|20200615105245
20200615|02000016|91241230|1800100000118|1800100000118|20200511000080|B3UHWVR2|1|0|18600|18600|10|0|0|550|0|0|0|0|0|0|1|0|0|20200615105217
20200615|02000016|91241217|1800100000117|1800100000117|20200511000080|B3UHWVR2|1|0|18600|18600|10|0|0|550|0|0|0|0|0|0|1|0|0|20200615105109
20200615|02000016|91241216|1813780538684|1813780538684|20200511000080|B3UHWVR2|1|0|18600|18600|10|0|0|550|0|0|0|0|0|0|1|0|0|20200615105048
20200615|02000016|91241201|1813759236567|1813759236567|20200511000080|B3UHWVR2|1|0|18600|18600|10|0|0|550|0|0|0|0|0|0|1|0|0|20200615105003
20200615|02000016|91241200|1813555046898|1813555046898|20200511000080|B3UHWVR2|1|0|18600|18600|10|0|0|550|0|0|0|0|0|0|1|0|0|20200615104943
20200615|02000016|91241192|1800100000042|1800100000042|20200511000080|B3UHWVR2|1|0|18600|18600|10|0|0|550|0|0|0|0|0|0|1|0|0|20200615104857
20200615|02000016|91241191|1800100000080|1800100000080|20200511000080|B3UHWVR2|1|0|18600|18600|10|0|0|550|0|0|0|0|0|0|1|0|0|20200615104850
20200615|02000016|91241189|1813932211661|1813932211661|20200511000080|B3UHWVR2|1|0|18600|18600|10|0|0|550|0|0|0|0|0|0|1|0|0|20200615104838
20200615|02000016|91241178|1818313076037|1818313076037|20200511000080|B3UHWVR2|1|0|18600|18600|10|0|0|550|0|0|0|0|0|0|1|0|0|20200615104732
20200615|02000016|91241177|1800100000040|1800100000040|20200511000080|B3UHWVR2|1|0|18600|18600|10|0|0|550|0|0|0|0|0|0|1|0|0|20200615104721
20200615|02000016|91241171|1818908820016|1818908820016|20200511000080|B3UHWVR2|1|0|18600|18600|10|0|0|550|0|0|0|0|0|0|1|0|0|20200615104705
20200615|02000016|91241170|1815972280790|1815972280790|20200511000080|B3UHWVR2|1|0|18600|18600|10|0|0|550|0|0|0|0|0|0|1|0|0|20200615104643
20200615|02000016|91241168|1813846055840|1813846055840|20200511000080|B3UHWVR2|1|0|18600|18600|10|0|0|550|0|0|0|0|0|0|1|0|0|20200615104636
20200615|02000016|91241169|1813903228890|1813903228890|20200511000080|B3UHWVR2|1|0|18600|18600|10|0|0|550|0|0|0|0|0|0|1|0|0|20200615104636
20200615|02000016|91241167|1815912255139|1815912255139|20200511000080|B3UHWVR2|1|0|18600|18600|10|0|0|550|0|0|0|0|0|0|1|0|0|20200615104632
20200615|02000016|91241165|1813887865192|1813887865192|20200511000080|B3UHWVR2|1|0|18600|18600|10|0|0|550|0|0|0|0|0|0|1|0|0|20200615104607
20200615|02000016|91241158|1813238826869|1813238826869|20200511000080|B3UHWVR2|1|0|18600|18600|10|0|0|550|0|0|0|0|0|0|1|0|0|20200615104554
20200615|02000016|91241141|1817666544567|1817666544567|20200511000080|B3UHWVR2|1|0|18600|18600|10|0|0|550|0|0|0|0|0|0|1|0|0|20200615104522
20200615|02000016|91241140|1815871938967|1815871938967|20200511000080|B3UHWVR2|1|0|18600|18600|10|0|0|550|0|0|0|0|0|0|1|0|0|20200615104521
20200615|02000016|91241139|1813235522109|1813235522109|20200511000080|B3UHWVR2|1|0|18600|18600|10|0|0|550|0|0|0|0|0|0|1|0|0|20200615104446
20200615|02000016|91241138|1813988247562|1813988247562|20200511000080|B3UHWVR2|1|0|18600|18600|5|0|0|275|0|0|0|0|0|0|1|0|0|20200615104443
20200615|02000016|91241137|1813931267078|1813931267078|20200511000080|B3UHWVR2|1|0|18600|18600|10|0|0|550|0|0|0|0|0|0|1|0|0|20200615104440
20200615|02000016|91241131|1818306969995|1818306969995|20200511000080|B3UHWVR2|1|0|18600|18600|10|0|0|550|0|0|0|0|0|0|1|0|0|20200615104406
20200615|02000016|91241129|1813987595577|1813987595577|20200511000080|B3UHWVR2|1|0|18600|18600|10|0|0|550|0|0|0|0|0|0|1|0|0|20200615104337
20200615|02000016|91241121|1815241171965|1815241171965|20200511000080|B3UHWVR2|1|0|18600|18600|10|0|0|550|0|0|0|0|0|0|1|0|0|20200615104251
20200615|02000016|91241118|1818932692236|1818932692236|20200511000080|B3UHWVR2|1|0|18600|18600|10|0|0|550|0|0|0|0|0|0|1|0|0|20200615104248
20200615|02000016|91241112|1815003129116|1815003129116|20200511000080|B3UHWVR2|1|0|18600|18600|10|0|0|550|0|0|0|0|0|0|1|0|0|20200615104212
20200615|02000016|91241106|1818742493073|1818742493073|20200511000080|B3UHWVR2|1|0|18600|18600|10|0|0|550|0|0|0|0|0|0|1|0|0|20200615104138
20200615|02000016|91241105|1818187948426|1818187948426|20200511000080|B3UHWVR2|1|0|18600|18600|10|0|0|550|0|0|0|0|0|0|1|0|0|20200615104122
20200615|02000016|91241104|1815613227275|1815613227275|20200511000080|B3UHWVR2|1|0|18600|18600|10|0|0|550|0|0|0|0|0|0|1|0|0|20200615104119
20200615|02000016|91241094|1815716865625|1815716865625|20200511000080|B3UHWVR2|1|0|18600|18600|10|0|0|550|0|0|0|0|0|0|1|0|0|20200615104101
20200615|02000016|91241088|1818908826659|1818908826659|20200511000080|B3UHWVR2|1|0|18600|18600|10|0|0|550|0|0|0|0|0|0|1|0|0|20200615104044
20200615|02000016|91241083|1813194551998|1813194551998|20200511000080|B3UHWVR2|1|0|18600|18600|10|0|0|550|0|0|0|0|0|0|1|0|0|20200615104034
20200615|02000016|91241082|1815561743759|1815561743759|20200511000080|B3UHWVR2|1|0|18600|18600|10|0|0|550|0|0|0|0|0|0|1|0|0|20200615104033
20200615|02000016|91241076|1815031298030|1815031298030|20200511000080|B3UHWVR2|1|0|18600|18600|10|0|0|550|0|0|0|0|0|0|1|0|0|20200615104009
20200615|02000016|91241074|1813094360058|1813094360058|20200511000080|B3UHWVR2|1|0|18600|18600|10|0|0|550|0|0|0|0|0|0|1|0|0|20200615104000
20200615|02000016|91241069|1813349569303|1813349569303|20200511000080|B3UHWVR2|1|0|18600|18600|10|0|0|550|0|0|0|0|0|0|1|0|0|20200615103952
20200615|02000016|91241054|1813628842075|1813628842075|20200511000080|B3UHWVR2|1|0|18600|18600|10|0|0|550|0|0|0|0|0|0|1|0|0|20200615103938
20200615|02000016|91241044|1815933526748|1815933526748|20200511000080|B3UHWVR2|1|0|18600|18600|10|0|0|550|0|0|0|0|0|0|1|0|0|20200615103848
20200615|02000016|91241043|1817503250596|1817503250596|20200511000080|B3UHWVR2|1|0|18600|18600|10|0|0|550|0|0|0|0|0|0|1|0|0|20200615103847
20200615|02000016|91241025|1813035964466|1813035964466|20200511000080|B3UHWVR2|1|0|18600|18600|10|0|0|550|0|0|0|0|0|0|1|0|0|20200615103815
20200615|02000016|91241016|1818288573816|1818288573816|20200511000080|B3UHWVR2|1|0|18600|18600|10|0|0|550|0|0|0|0|0|0|1|0|0|20200615103744
20200615|02000016|91241012|1813466192760|1813466192760|20200511000080|B3UHWVR2|1|0|18600|18600|10|0|0|550|0|0|0|0|0|0|1|0|0|20200615103732
20200615|02000016|91241009|1813932592260|1813932592260|20200511000080|B3UHWVR2|1|0|18600|18600|10|0|0|550|0|0|0|0|0|0|1|0|0|20200615103725
20200615|02000016|91241002|1817863386188|1817863386188|20200511000080|B3UHWVR2|1|0|18600|18600|10|0|0|550|0|0|0|0|0|0|1|0|0|20200615103656
20200615|02000016|91241001|1813067901399|1813067901399|20200511000080|B3UHWVR2|1|0|18600|18600|10|0|0|550|0|0|0|0|0|0|1|0|0|20200615103648
20200615|02000016|91240988|1813785222268|1813785222268|20200511000080|B3UHWVR2|1|0|18600|18600|10|0|0|550|0|0|0|0|0|0|1|0|0|20200615103551
20200615|02000016|91240987|1800100000046|1800100000046|20200511000080|B3UHWVR2|1|0|18600|18600|10|0|0|550|0|0|0|0|0|0|1|0|0|20200615103549
20200615|02000016|91240980|1813930896039|1813930896039|20200511000080|B3UHWVR2|1|0|18600|18600|10|0|0|550|0|0|0|0|0|0|1|0|0|20200615103532
20200615|02000016|91240970|1813545932491|1813545932491|20200511000080|B3UHWVR2|1|0|18600|18600|10|0|0|550|0|0|0|0|0|0|1|0|0|20200615103456
20200615|02000016|91240955|1818631271361|1818631271361|20200511000080|B3UHWVR2|1|0|18600|18600|10|0|0|550|0|0|0|0|0|0|1|0|0|20200615103403
20200615|02000016|91240953|1815161960908|1815161960908|20200511000080|B3UHWVR2|1|0|18600|18600|10|0|0|550|0|0|0|0|0|0|1|0|0|20200615103346
20200615|02000016|91240951|1815931511642|1815931511642|20200511000080|B3UHWVR2|1|0|18600|18600|10|0|0|550|0|0|0|0|0|0|1|0|0|20200615103329
20200615|02000016|91240944|1815969220999|1815969220999|20200511000080|B3UHWVR2|1|0|18600|18600|10|0|0|550|0|0|0|0|0|0|1|0|0|20200615103247
20200615|02000016|91240942|1818674146599|1818674146599|20200511000080|B3UHWVR2|1|0|18600|18600|10|0|0|550|0|0|0|0|0|0|1|0|0|20200615103241
20200615|02000016|91240928|1813400336006|1813400336006|20200511000080|B3UHWVR2|1|0|18600|18600|10|0|0|550|0|0|0|0|0|0|1|0|0|20200615103201
20200615|02000016|91240919|1813582206997|1813582206997|20200511000080|B3UHWVR2|1|0|18600|18600|10|0|0|550|0|0|0|0|0|0|1|0|0|20200615103135
20200615|02000016|91240918|1815033779933|1815033779933|20200511000080|B3UHWVR2|1|0|18600|18600|10|0|0|550|0|0|0|0|0|0|1|0|0|20200615103126
20200615|02000016|91240917|1813836555299|1813836555299|20200511000080|B3UHWVR2|1|0|18600|18600|10|0|0|550|0|0|0|0|0|0|1|0|0|20200615103123
20200615|02000016|91240906|1815184855733|1815184855733|20200511000080|B3UHWVR2|1|0|18600|18600|10|0|0|550|0|0|0|0|0|0|1|0|0|20200615103111
20200615|02000016|91240904|1813607918208|1813607918208|20200511000080|B3UHWVR2|1|0|18600|18600|10|0|0|550|0|0|0|0|0|0|1|0|0|20200615103105
20200615|02000016|91240889|1815903327688|1815903327688|20200511000080|B3UHWVR2|1|0|18600|18600|10|0|0|550|0|0|0|0|0|0|1|0|0|20200615103039
20200615|02000016|91240881|1800100000107|1800100000107|20200511000080|B3UHWVR2|1|0|18600|18600|10|0|0|550|0|0|0|0|0|0|1|0|0|20200615103019
20200615|02000016|91240879|1815215907729|1815215907729|20200511000080|B3UHWVR2|1|0|18600|18600|10|0|0|550|0|0|0|0|0|0|1|0|0|20200615103002
20200615|02000016|91240877|1818487242861|1818487242861|20200511000080|B3UHWVR2|1|0|18600|18600|10|0|0|550|0|0|0|0|0|0|1|0|0|20200615102946
20200615|02000016|91240873|1815208849678|1815208849678|20200511000080|B3UHWVR2|1|0|18600|18600|10|0|0|550|0|0|0|0|0|0|1|0|0|20200615102923
20200615|02000016|91240872|1815070004787|1815070004787|20200511000080|B3UHWVR2|1|0|18600|18600|10|0|0|550|0|0|0|0|0|0|1|0|0|20200615102921
20200615|02000016|91240865|1815912714492|1815912714492|20200511000080|B3UHWVR2|1|0|18600|18600|10|0|0|550|0|0|0|0|0|0|1|0|0|20200615102859
20200615|02000016|91240864|1813816484689|1813816484689|20200511000080|B3UHWVR2|1|0|18600|18600|10|0|0|550|0|0|0|0|0|0|1|0|0|20200615102856
20200615|02000016|91240845|1818787565657|1818787565657|20200511000080|B3UHWVR2|1|0|18600|18600|10|0|0|550|0|0|0|0|0|0|1|0|0|20200615102811
20200615|02000016|91240842|1813393327863|1813393327863|20200511000080|B3UHWVR2|1|0|18600|18600|10|0|0|550|0|0|0|0|0|0|1|0|0|20200615102757
20200615|02000016|91240841|1800100000340|1800100000340|20200511000080|B3UHWVR2|1|0|18600|18600|10|0|0|550|0|0|0|0|0|0|1|0|0|20200615102756
20200615|02000016|91240840|1815030230206|1815030230206|20200511000080|B3UHWVR2|1|0|18600|18600|10|0|0|550|0|0|0|0|0|0|1|0|0|20200615102752
20200615|02000016|91240825|1815032283311|1815032283311|20200511000080|B3UHWVR2|1|0|18600|18600|10|0|0|550|0|0|0|0|0|0|1|0|0|20200615102719
20200615|02000016|91240814|1819931217298|1819931217298|20200511000080|B3UHWVR2|1|0|18600|18600|10|0|0|550|0|0|0|0|0|0|1|0|0|20200615102654
20200615|02000016|91240805|1813796925201|1813796925201|20200511000080|B3UHWVR2|1|0|18600|18600|10|0|0|550|0|0|0|0|0|0|1|0|0|20200615102628
20200615|02000016|91240806|1815393862191|1815393862191|20200511000080|B3UHWVR2|1|0|18600|18600|10|0|0|550|0|0|0|0|0|0|1|0|0|20200615102628
20200615|02000016|91240784|1813323228902|1813323228902|20200511000080|B3UHWVR2|1|0|18600|18600|10|0|0|550|0|0|0|0|0|0|1|0|0|20200615102530
20200615|02000016|91240783|1800100000197|1800100000197|20200511000080|B3UHWVR2|1|0|18600|18600|10|0|0|550|0|0|0|0|0|0|1|0|0|20200615102517
20200615|02000016|91240782|1817642059933|1817642059933|20200511000080|B3UHWVR2|1|0|18600|18600|10|0|0|550|0|0|0|0|0|0|1|0|0|20200615102516
20200615|02000016|91240775|1813628759556|1813628759556|20200511000080|B3UHWVR2|1|0|18600|18600|10|0|0|550|0|0|0|0|0|0|1|0|0|20200615102343
20200615|02000016|91240771|1813759221835|1813759221835|20200511000080|B3UHWVR2|1|0|18600|18600|10|0|0|550|0|0|0|0|0|0|1|0|0|20200615102333
20200615|02000016|91240753|1813407259698|1813407259698|20200511000080|B3UHWVR2|1|0|18600|18600|10|0|0|550|0|0|0|0|0|0|1|0|0|20200615102229
20200615|02000016|91240752|1815771836378|1815771836378|20200511000080|B3UHWVR2|1|0|18600|18600|10|0|0|550|0|0|0|0|0|0|1|0|0|20200615102220
20200615|02000016|91240751|1813501288089|1813501288089|20200511000080|B3UHWVR2|1|0|18600|18600|10|0|0|550|0|0|0|0|0|0|1|0|0|20200615102202
20200615|02000016|91240746|1815933739943|1815933739943|20200511000080|B3UHWVR2|1|0|18600|18600|10|0|0|550|0|0|0|0|0|0|1|0|0|20200615102154
20200615|02000016|91240743|1813636870153|1813636870153|20200511000080|B3UHWVR2|1|0|18600|18600|1|0|0|55|0|0|0|0|0|0|1|0|0|20200615102151
20200615|02000016|91240739|1813810810905|1813810810905|20200511000080|B3UHWVR2|1|0|18600|18600|10|0|0|550|0|0|0|0|0|0|1|0|0|20200615102124
20200615|02000016|91240733|1818161735141|1818161735141|20200511000080|B3UHWVR2|1|0|18600|18600|10|0|0|550|0|0|0|0|0|0|1|0|0|20200615102110
20200615|02000016|91240732|1818032580086|1818032580086|20200511000080|B3UHWVR2|1|0|18600|18600|10|0|0|550|0|0|0|0|0|0|1|0|0|20200615102108
20200615|02000016|91240731|1813636870153|1813636870153|20200511000080|B3UHWVR2|1|0|18600|18600|1|0|0|55|0|0|0|0|0|0|1|0|0|20200615102106
20200615|02000016|91240723|1818725226619|1818725226619|20200511000080|B3UHWVR2|1|0|18600|18600|10|0|0|550|0|0|0|0|0|0|1|0|0|20200615102038
20200615|02000016|91240717|1815108605312|1815108605312|20200511000080|B3UHWVR2|1|0|18600|18600|10|0|0|550|0|0|0|0|0|0|1|0|0|20200615102017
20200615|02000016|91240716|1815933553201|1815933553201|20200511000080|B3UHWVR2|1|0|18600|18600|10|0|0|550|0|0|0|0|0|0|1|0|0|20200615101959
20200615|02000016|91240712|1818891101268|1818891101268|20200511000080|B3UHWVR2|1|0|18600|18600|10|0|0|550|0|0|0|0|0|0|1|0|0|20200615101950
20200615|02000016|91240702|1813832256871|1813832256871|20200511000080|B3UHWVR2|1|0|18600|18600|10|0|0|550|0|0|0|0|0|0|1|0|0|20200615101926
20200615|02000016|91240672|1818060529819|1818060529819|20200511000080|B3UHWVR2|1|0|18600|18600|10|0|0|550|0|0|0|0|0|0|1|0|0|20200615101837
20200615|02000016|91240661|1818187582339|1818187582339|20200511000080|B3UHWVR2|1|0|18600|18600|10|0|0|550|0|0|0|0|0|0|1|0|0|20200615101752
20200615|02000016|91240660|1818921860818|1818921860818|20200511000080|B3UHWVR2|1|0|18600|18600|10|0|0|550|0|0|0|0|0|0|1|0|0|20200615101747
20200615|02000016|91240659|1813636870153|1813636870153|20200511000080|B3UHWVR2|1|0|18600|18600|1|0|0|55|0|0|0|0|0|0|1|0|0|20200615101737
20200615|02000016|91240656|1815288116989|1815288116989|20200511000080|B3UHWVR2|1|0|18600|18600|10|0|0|550|0|0|0|0|0|0|1|0|0|20200615101718
20200615|02000016|91240649|1813657964642|1813657964642|20200511000080|B3UHWVR2|1|0|18600|18600|10|0|0|550|0|0|0|0|0|0|1|0|0|20200615101643
20200615|02000016|91240648|1818713290860|1818713290860|20200511000080|B3UHWVR2|1|0|18600|18600|10|0|0|550|0|0|0|0|0|0|1|0|0|20200615101636
20200615|02000016|91240639|1813908813212|1813908813212|20200511000080|B3UHWVR2|1|0|18600|18600|10|0|0|550|0|0|0|0|0|0|1|0|0|20200615101621
20200615|02000016|91240618|1818631760311|1818631760311|20200511000080|B3UHWVR2|1|0|18600|18600|10|0|0|550|0|0|0|0|0|0|1|0|0|20200615101547
20200615|02000016|91240616|1818872629912|1818872629912|20200511000080|B3UHWVR2|1|0|18600|18600|10|0|0|550|0|0|0|0|0|0|1|0|0|20200615101540
20200615|02000016|91240605|1815887508589|1815887508589|20200511000080|B3UHWVR2|1|0|18600|18600|10|0|0|550|0|0|0|0|0|0|1|0|0|20200615101500
20200615|02000016|91240603|1815142051751|1815142051751|20200511000080|B3UHWVR2|1|0|18600|18600|10|0|0|550|0|0|0|0|0|0|1|0|0|20200615101458
20200615|02000016|91240602|1813978866093|1813978866093|20200511000080|B3UHWVR2|1|0|18600|18600|10|0|0|550|0|0|0|0|0|0|1|0|0|20200615101455
20200615|02000016|91240601|1815222123742|1815222123742|20200511000080|B3UHWVR2|1|0|18600|18600|10|0|0|550|0|0|0|0|0|0|1|0|0|20200615101454
20200615|02000016|91240598|1813407207108|1813407207108|20200511000080|B3UHWVR2|1|0|18600|18600|10|0|0|550|0|0|0|0|0|0|1|0|0|20200615101451
20200615|02000016|91240591|1815930239024|1815930239024|20200511000080|B3UHWVR2|1|0|18600|18600|10|0|0|550|0|0|0|0|0|0|1|0|0|20200615101434
20200615|02000016|91240592|1800100000045|1800100000045|20200511000080|B3UHWVR2|1|0|18600|18600|10|0|0|550|0|0|0|0|0|0|1|0|0|20200615101434
20200615|02000016|91240580|1813687247435|1813687247435|20200511000080|B3UHWVR2|1|0|18600|18600|10|0|0|550|0|0|0|0|0|0|1|0|0|20200615101422
20200615|02000016|91240575|1815211571887|1815211571887|20200511000080|B3UHWVR2|1|0|18600|18600|10|0|0|550|0|0|0|0|0|0|1|0|0|20200615101412
20200615|02000016|91240571|1818787552261|1818787552261|20200511000080|B3UHWVR2|1|0|18600|18600|10|0|0|550|0|0|0|0|0|0|1|0|0|20200615101410
20200615|02000016|91240570|1815094234737|1815094234737|20200511000080|B3UHWVR2|1|0|18600|18600|10|0|0|550|0|0|0|0|0|0|1|0|0|20200615101409
20200615|02000016|91240568|1815733226550|1815733226550|20200511000080|B3UHWVR2|1|0|18600|18600|10|0|0|550|0|0|0|0|0|0|1|0|0|20200615101403
20200615|02000016|91240559|1813082360764|1813082360764|20200511000080|B3UHWVR2|1|0|18600|18600|10|0|0|550|0|0|0|0|0|0|1|0|0|20200615101356
20200615|02000016|91240557|1813577525294|1813577525294|20200511000080|B3UHWVR2|1|0|18600|18600|10|0|0|550|0|0|0|0|0|0|1|0|0|20200615101341
20200615|02000016|91240535|1813958157143|1813958157143|20200511000080|B3UHWVR2|1|0|18600|18600|10|0|0|550|0|0|0|0|0|0|1|0|0|20200615101303
20200615|02000016|91240531|1815832267413|1815832267413|20200511000080|B3UHWVR2|1|0|18600|18600|10|0|0|550|0|0|0|0|0|0|1|0|0|20200615101257
20200615|02000016|91240528|1818931441806|1818931441806|20200511000080|B3UHWVR2|1|0|18600|18600|10|0|0|550|0|0|0|0|0|0|1|0|0|20200615101251
20200615|02000016|91240518|1815671191786|1815671191786|20200511000080|B3UHWVR2|1|0|18600|18600|10|0|0|550|0|0|0|0|0|0|1|0|0|20200615101223
20200615|02000016|91240514|1800100000347|1800100000347|20200511000080|B3UHWVR2|1|0|18600|18600|10|0|0|550|0|0|0|0|0|0|1|0|0|20200615101215
20200615|02000016|91240512|1813832228797|1813832228797|20200511000080|B3UHWVR2|1|0|18600|18600|10|0|0|550|0|0|0|0|0|0|1|0|0|20200615101201
20200615|02000016|91240511|1818788557615|1818788557615|20200511000080|B3UHWVR2|1|0|18600|18600|10|0|0|550|0|0|0|0|0|0|1|0|0|20200615101159
20200615|02000016|91240505|1815940818417|1815940818417|20200511000080|B3UHWVR2|1|0|18600|18600|10|0|0|550|0|0|0|0|0|0|1|0|0|20200615101148
20200615|02000016|91240501|1813921828201|1813921828201|20200511000080|B3UHWVR2|1|0|18600|18600|10|0|0|550|0|0|0|0|0|0|1|0|0|20200615101139
20200615|02000016|91240486|1818730588858|1818730588858|20200511000080|B3UHWVR2|1|0|18600|18600|10|0|0|550|0|0|0|0|0|0|1|0|0|20200615101048
20200615|02000016|91240448|1818674148199|1818674148199|20200511000080|B3UHWVR2|1|0|18600|18600|10|0|0|550|0|0|0|0|0|0|1|0|0|20200615100934
20200615|02000016|91240447|1815087553123|1815087553123|20200511000080|B3UHWVR2|1|0|18600|18600|10|0|0|550|0|0|0|0|0|0|1|0|0|20200615100922
20200615|02000016|91240446|1813998824209|1813998824209|20200511000080|B3UHWVR2|1|0|18600|18600|10|0|0|550|0|0|0|0|0|0|1|0|0|20200615100918
20200615|02000016|91240438|1815232508176|1815232508176|20200511000080|B3UHWVR2|1|0|18600|18600|10|0|0|550|0|0|0|0|0|0|1|0|0|20200615100853
20200615|02000016|91240427|1818966843973|1818966843973|20200511000080|B3UHWVR2|1|0|18600|18600|10|0|0|550|0|0|0|0|0|0|1|0|0|20200615100812
20200615|02000016|91240426|1813739822199|1813739822199|20200511000080|B3UHWVR2|1|0|18600|18600|10|0|0|550|0|0|0|0|0|0|1|0|0|20200615100747
20200615|02000016|91240425|1813887861177|1813887861177|20200511000080|B3UHWVR2|1|0|18600|18600|10|0|0|550|0|0|0|0|0|0|1|0|0|20200615100738
20200615|02000016|91240424|1813759215316|1813759215316|20200511000080|B3UHWVR2|1|0|18600|18600|10|0|0|550|0|0|0|0|0|0|1|0|0|20200615100737
20200615|02000016|91240421|1815630880329|1815630880329|20200511000080|B3UHWVR2|1|0|18600|18600|10|0|0|550|0|0|0|0|0|0|1|0|0|20200615100733
20200615|02000016|91240420|1800100000358|1800100000358|20200511000080|B3UHWVR2|1|0|18600|18600|10|0|0|550|0|0|0|0|0|0|1|0|0|20200615100724
20200615|02000016|91240419|1818331534443|1818331534443|20200511000080|B3UHWVR2|1|0|18600|18600|10|0|0|550|0|0|0|0|0|0|1|0|0|20200615100720
20200615|02000016|91240418|1813832526017|1813832526017|20200511000080|B3UHWVR2|1|0|18600|18600|10|0|0|550|0|0|0|0|0|0|1|0|0|20200615100712
20200615|02000016|91240406|1815925592540|1815925592540|20200511000080|B3UHWVR2|1|0|18600|18600|10|0|0|550|0|0|0|0|0|0|1|0|0|20200615100649
20200615|02000016|91240404|1813987510903|1813987510903|20200511000080|B3UHWVR2|1|0|18600|18600|10|0|0|550|0|0|0|0|0|0|1|0|0|20200615100640
20200615|02000016|91240397|1813831723408|1813831723408|20200511000080|B3UHWVR2|1|0|18600|18600|10|0|0|550|0|0|0|0|0|0|1|0|0|20200615100608
20200615|02000016|91240393|1813577503685|1813577503685|20200511000080|B3UHWVR2|1|0|18600|18600|10|0|0|550|0|0|0|0|0|0|1|0|0|20200615100600
20200615|02000016|91240388|1813584278719|1813584278719|20200511000080|B3UHWVR2|1|0|18600|18600|10|0|0|550|0|0|0|0|0|0|1|0|0|20200615100556
20200615|02000016|91240380|1815945537804|1815945537804|20200511000080|B3UHWVR2|1|0|18600|18600|10|0|0|550|0|0|0|0|0|0|1|0|0|20200615100544
20200615|02000016|91240379|1813988247562|1813988247562|20200511000080|B3UHWVR2|1|0|18600|18600|5|0|0|275|0|0|0|0|0|0|1|0|0|20200615100543
20200615|02000016|91240376|1815389494945|1815389494945|20200511000080|B3UHWVR2|1|0|18600|18600|10|0|0|550|0|0|0|0|0|0|1|0|0|20200615100541
20200615|02000016|91240375|1815176213410|1815176213410|20200511000080|B3UHWVR2|1|0|18600|18600|10|0|0|550|0|0|0|0|0|0|1|0|0|20200615100538
20200615|02000016|91240333|1815184848605|1815184848605|20200511000080|B3UHWVR2|1|0|18600|18600|10|0|0|550|0|0|0|0|0|0|1|0|0|20200615100434
20200615|02000016|91240321|1818468025462|1818468025462|20200511000080|B3UHWVR2|1|0|18600|18600|10|0|0|550|0|0|0|0|0|0|1|0|0|20200615100412
20200615|02000016|91240316|1813343521285|1813343521285|20200511000080|B3UHWVR2|1|0|18600|18600|10|0|0|550|0|0|0|0|0|0|1|0|0|20200615100400
20200615|02000016|91240315|1813650053647|1813650053647|20200511000080|B3UHWVR2|1|0|18600|18600|10|0|0|550|0|0|0|0|0|0|1|0|0|20200615100354
20200615|02000016|91240314|1815324285825|1815324285825|20200511000080|B3UHWVR2|1|0|18600|18600|10|0|0|550|0|0|0|0|0|0|1|0|0|20200615100352
20200615|02000016|91240313|1813082330653|1813082330653|20200511000080|B3UHWVR2|1|0|18600|18600|10|0|0|550|0|0|0|0|0|0|1|0|0|20200615100350
20200615|02000016|91240312|1818987916981|1818987916981|20200511000080|B3UHWVR2|1|0|18600|18600|10|0|0|550|0|0|0|0|0|0|1|0|0|20200615100349
20200615|02000016|91240311|1813098067177|1813098067177|20200511000080|B3UHWVR2|1|0|18600|18600|10|0|0|550|0|0|0|0|0|0|1|0|0|20200615100345
20200615|02000016|91240306|1818165477289|1818165477289|20200511000080|B3UHWVR2|1|0|18600|18600|10|0|0|550|0|0|0|0|0|0|1|0|0|20200615100338
20200615|02000016|91240287|1815879659564|1815879659564|20200511000080|B3UHWVR2|1|0|18600|18600|10|0|0|550|0|0|0|0|0|0|1|0|0|20200615100317
20200615|02000016|91240271|1813577500356|1813577500356|20200511000080|B3UHWVR2|1|0|18600|18600|10|0|0|550|0|0|0|0|0|0|1|0|0|20200615100247
20200615|02000016|91240269|1815832295137|1815832295137|20200511000080|B3UHWVR2|1|0|18600|18600|10|0|0|550|0|0|0|0|0|0|1|0|0|20200615100244
20200615|02000016|91240267|1818746794204|1818746794204|20200511000080|B3UHWVR2|1|0|18600|18600|10|0|0|550|0|0|0|0|0|0|1|0|0|20200615100236
20200615|02000016|91240261|1818903125539|1818903125539|20200511000080|B3UHWVR2|1|0|18600|18600|10|0|0|550|0|0|0|0|0|0|1|0|0|20200615100229
20200615|02000016|91240255|1815231225276|1815231225276|20200511000080|B3UHWVR2|1|0|18600|18600|10|0|0|550|0|0|0|0|0|0|1|0|0|20200615100220
20200615|02000016|91240240|1813578228698|1813578228698|20200511000080|B3UHWVR2|1|0|18600|18600|10|0|0|550|0|0|0|0|0|0|1|0|0|20200615100144
20200615|02000016|91240238|1813263638109|1813263638109|20200511000080|B3UHWVR2|1|0|18600|18600|10|0|0|550|0|0|0|0|0|0|1|0|0|20200615100139
20200615|02000016|91240237|1815334465219|1815334465219|20200511000080|B3UHWVR2|1|0|18600|18600|10|0|0|550|0|0|0|0|0|0|1|0|0|20200615100128
20200615|02000016|91240236|1813313124191|1813313124191|20200511000080|B3UHWVR2|1|0|18600|18600|10|0|0|550|0|0|0|0|0|0|1|0|0|20200615100125
20200615|02000016|91240231|1800100000041|1800100000041|20200511000080|B3UHWVR2|1|0|18600|18600|10|0|0|550|0|0|0|0|0|0|1|0|0|20200615100117
20200615|02000016|91240230|1813161831191|1813161831191|20200511000080|B3UHWVR2|1|0|18600|18600|10|0|0|550|0|0|0|0|0|0|1|0|0|20200615100113
20200615|02000016|91240186|1815818598480|1815818598480|20200511000080|B3UHWVR2|1|0|18600|18600|10|0|0|550|0|0|0|0|0|0|1|0|0|20200615095957
20200615|02000016|91240181|1818132700677|1818132700677|20200511000080|B3UHWVR2|1|0|18600|18600|10|0|0|550|0|0|0|0|0|0|1|0|0|20200615095944
20200615|02000016|91240180|1813097309231|1813097309231|20200511000080|B3UHWVR2|1|0|18600|18600|10|0|0|550|0|0|0|0|0|0|1|0|0|20200615095943
20200615|02000016|91240169|1815094217570|1815094217570|20200511000080|B3UHWVR2|1|0|18600|18600|10|0|0|550|0|0|0|0|0|0|1|0|0|20200615095924
20200615|02000016|91240168|1813730837693|1813730837693|20200511000080|B3UHWVR2|1|0|18600|18600|10|0|0|550|0|0|0|0|0|0|1|0|0|20200615095923
20200615|02000016|91240149|1815512595393|1815512595393|20200511000080|B3UHWVR2|1|0|18600|18600|10|0|0|550|0|0|0|0|0|0|1|0|0|20200615095842
20200615|02000016|91240147|1813478653378|1813478653378|20200511000080|B3UHWVR2|1|0|18600|18600|10|0|0|550|0|0|0|0|0|0|1|0|0|20200615095823
20200615|02000016|91240146|1818034122090|1818034122090|20200511000080|B3UHWVR2|1|0|18600|18600|10|0|0|550|0|0|0|0|0|0|1|0|0|20200615095819
20200615|02000016|91240121|1813638362781|1813638362781|20200511000080|B3UHWVR2|1|0|18600|18600|10|0|0|550|0|0|0|0|0|0|1|0|0|20200615095756
20200615|02000016|91240116|1813779583395|1813779583395|20200511000080|B3UHWVR2|1|0|18600|18600|10|0|0|550|0|0|0|0|0|0|1|0|0|20200615095749
20200615|02000016|91240103|1815287222929|1815287222929|20200511000080|B3UHWVR2|1|0|18600|18600|10|0|0|550|0|0|0|0|0|0|1|0|0|20200615095737
20200615|02000016|91240092|1815894436377|1815894436377|20200511000080|B3UHWVR2|1|0|18600|18600|10|0|0|550|0|0|0|0|0|0|1|0|0|20200615095709
20200615|02000016|91240089|1815097408526|1815097408526|20200511000080|B3UHWVR2|1|0|18600|18600|10|0|0|550|0|0|0|0|0|0|1|0|0|20200615095704
20200615|02000016|91240087|1813608767593|1813608767593|20200511000080|B3UHWVR2|1|0|18600|18600|10|0|0|550|0|0|0|0|0|0|1|0|0|20200615095642
20200615|02000016|91240076|1813936981199|1813936981199|20200511000080|B3UHWVR2|1|0|18600|18600|10|0|0|550|0|0|0|0|0|0|1|0|0|20200615095629
20200615|02000016|91240073|1813796586326|1813796586326|20200511000080|B3UHWVR2|1|0|18600|18600|10|0|0|550|0|0|0|0|0|0|1|0|0|20200615095618
20200615|02000016|91240066|1813663315968|1813663315968|20200511000080|B3UHWVR2|1|0|18600|18600|10|0|0|550|0|0|0|0|0|0|1|0|0|20200615095609
20200615|02000016|91240053|1817614685531|1817614685531|20200511000080|B3UHWVR2|1|0|18600|18600|10|0|0|550|0|0|0|0|0|0|1|0|0|20200615095557
20200615|02000016|91240050|1813840542929|1813840542929|20200511000080|B3UHWVR2|1|0|18600|18600|10|0|0|550|0|0|0|0|0|0|1|0|0|20200615095555
20200615|02000016|91240049|1815830939311|1815830939311|20200511000080|B3UHWVR2|1|0|18600|18600|10|0|0|550|0|0|0|0|0|0|1|0|0|20200615095552
20200615|02000016|91240043|1817304211987|1817304211987|20200511000080|B3UHWVR2|1|0|18600|18600|10|0|0|550|0|0|0|0|0|0|1|0|0|20200615095544
20200615|02000016|91240032|1815837935909|1815837935909|20200511000080|B3UHWVR2|1|0|18600|18600|10|0|0|550|0|0|0|0|0|0|1|0|0|20200615095535
20200615|02000016|91240019|1815046592512|1815046592512|20200511000080|B3UHWVR2|1|0|18600|18600|10|0|0|550|0|0|0|0|0|0|1|0|0|20200615095515
20200615|02000016|91240016|1818875037395|1818875037395|20200511000080|B3UHWVR2|1|0|18600|18600|10|0|0|550|0|0|0|0|0|0|1|0|0|20200615095511
20200615|02000016|91239999|1818009990778|1818009990778|20200511000080|B3UHWVR2|1|0|18600|18600|10|0|0|550|0|0|0|0|0|0|1|0|0|20200615095447
20200615|02000016|91239988|1813429398439|1813429398439|20200511000080|B3UHWVR2|1|0|18600|18600|10|0|0|550|0|0|0|0|0|0|1|0|0|20200615095426
20200615|02000016|91239977|1813463442485|1813463442485|20200511000080|B3UHWVR2|1|0|18600|18600|10|0|0|550|0|0|0|0|0|0|1|0|0|20200615095418
20200615|02000016|91239968|1813879606751|1813879606751|20200511000080|B3UHWVR2|1|0|18600|18600|10|0|0|550|0|0|0|0|0|0|1|0|0|20200615095358
20200615|02000016|91239964|1818045556220|1818045556220|20200511000080|B3UHWVR2|1|0|18600|18600|10|0|0|550|0|0|0|0|0|0|1|0|0|20200615095347
20200615|02000016|91239963|1813946783966|1813946783966|20200511000080|B3UHWVR2|1|0|18600|18600|10|0|0|550|0|0|0|0|0|0|1|0|0|20200615095346
20200615|02000016|91239955|1815108647893|1815108647893|20200511000080|B3UHWVR2|1|0|18600|18600|10|0|0|550|0|0|0|0|0|0|1|0|0|20200615095341
20200615|02000016|91239950|1813988238986|1813988238986|20200511000080|B3UHWVR2|1|0|18600|18600|10|0|0|550|0|0|0|0|0|0|1|0|0|20200615095331
20200615|02000016|91239936|1813576846550|1813576846550|20200511000080|B3UHWVR2|1|0|18600|18600|10|0|0|550|0|0|0|0|0|0|1|0|0|20200615095312
20200615|02000016|91239929|1818669254642|1818669254642|20200511000080|B3UHWVR2|1|0|18600|18600|10|0|0|550|0|0|0|0|0|0|1|0|0|20200615095300
20200615|02000016|91239930|1818945765909|1818945765909|20200511000080|B3UHWVR2|1|0|18600|18600|10|0|0|550|0|0|0|0|0|0|1|0|0|20200615095300
20200615|02000016|91239928|1815387777905|1815387777905|20200511000080|B3UHWVR2|1|0|18600|18600|10|0|0|550|0|0|0|0|0|0|1|0|0|20200615095253
20200615|02000016|91239903|1813940459085|1813940459085|20200511000080|B3UHWVR2|1|0|18600|18600|10|0|0|550|0|0|0|0|0|0|1|0|0|20200615095230
20200615|02000016|91239902|1815308750767|1815308750767|20200511000080|B3UHWVR2|1|0|18600|18600|10|0|0|550|0|0|0|0|0|0|1|0|0|20200615095222
20200615|02000016|91239893|1815303121880|1815303121880|20200511000080|B3UHWVR2|1|0|18600|18600|10|0|0|550|0|0|0|0|0|0|1|0|0|20200615095212
20200615|02000016|91239890|1813373597622|1813373597622|20200511000080|B3UHWVR2|1|0|18600|18600|10|0|0|550|0|0|0|0|0|0|1|0|0|20200615095200
20200615|02000016|91239887|1815233745111|1815233745111|20200511000080|B3UHWVR2|1|0|18600|18600|10|0|0|550|0|0|0|0|0|0|1|0|0|20200615095159
20200615|02000016|91239870|1815969231848|1815969231848|20200511000080|B3UHWVR2|1|0|18600|18600|10|0|0|550|0|0|0|0|0|0|1|0|0|20200615095142
20200615|02000016|91239869|1813988271457|1813988271457|20200511000080|B3UHWVR2|1|0|18600|18600|10|0|0|550|0|0|0|0|0|0|1|0|0|20200615095141
20200615|02000016|91239864|1813513061187|1813513061187|20200511000080|B3UHWVR2|1|0|18600|18600|10|0|0|550|0|0|0|0|0|0|1|0|0|20200615095130
20200615|02000016|91239859|1815946631777|1815946631777|20200511000080|B3UHWVR2|1|0|18600|18600|10|0|0|550|0|0|0|0|0|0|1|0|0|20200615095124
20200615|02000016|91239850|1813486694384|1813486694384|20200511000080|B3UHWVR2|1|0|18600|18600|10|0|0|550|0|0|0|0|0|0|1|0|0|20200615095114
20200615|02000016|91239848|1813324536769|1813324536769|20200511000080|B3UHWVR2|1|0|18600|18600|10|0|0|550|0|0|0|0|0|0|1|0|0|20200615095112
20200615|02000016|91239840|1813845158388|1813845158388|20200511000080|B3UHWVR2|1|0|18600|18600|10|0|0|550|0|0|0|0|0|0|1|0|0|20200615095044
20200615|02000016|91239830|1813593926195|1813593926195|20200511000080|B3UHWVR2|1|0|18600|18600|10|0|0|550|0|0|0|0|0|0|1|0|0|20200615095029
20200615|02000016|91239826|1815100269110|1815100269110|20200511000080|B3UHWVR2|1|0|18600|18600|10|0|0|550|0|0|0|0|0|0|1|0|0|20200615095025
20200615|02000016|91239824|1818103143885|1818103143885|20200511000080|B3UHWVR2|1|0|18600|18600|10|0|0|550|0|0|0|0|0|0|1|0|0|20200615095024
20200615|02000016|91239823|1815029688272|1815029688272|20200511000080|B3UHWVR2|1|0|18600|18600|10|0|0|550|0|0|0|0|0|0|1|0|0|20200615095017
20200615|02000016|91239789|1815887555058|1815887555058|20200511000080|B3UHWVR2|1|0|18600|18600|10|0|0|550|0|0|0|0|0|0|1|0|0|20200615094936
20200615|02000016|91239788|1819931210376|1819931210376|20200511000080|B3UHWVR2|1|0|18600|18600|10|0|0|550|0|0|0|0|0|0|1|0|0|20200615094930
20200615|02000016|91239782|1813931691890|1813931691890|20200511000080|B3UHWVR2|1|0|18600|18600|10|0|0|550|0|0|0|0|0|0|1|0|0|20200615094912
20200615|02000016|91239780|1813931358252|1813931358252|20200511000080|B3UHWVR2|1|0|18600|18600|10|0|0|550|0|0|0|0|0|0|1|0|0|20200615094904
20200615|02000016|91239779|1813400267349|1813400267349|20200511000080|B3UHWVR2|1|0|18600|18600|10|0|0|550|0|0|0|0|0|0|1|0|0|20200615094902
20200615|02000016|91239774|1813923288196|1813923288196|20200511000080|B3UHWVR2|1|0|18600|18600|10|0|0|550|0|0|0|0|0|0|1|0|0|20200615094855
20200615|02000016|91239767|1818687838558|1818687838558|20200511000080|B3UHWVR2|1|0|18600|18600|10|0|0|550|0|0|0|0|0|0|1|0|0|20200615094852
20200615|02000016|91239766|1800100000138|1800100000138|20200511000080|B3UHWVR2|1|0|18600|18600|10|0|0|550|0|0|0|0|0|0|1|0|0|20200615094851
20200615|02000016|91239764|1818787532842|1818787532842|20200511000080|B3UHWVR2|1|0|18600|18600|10|0|0|550|0|0|0|0|0|0|1|0|0|20200615094840
20200615|02000016|91239762|1813887868883|1813887868883|20200511000080|B3UHWVR2|1|0|18600|18600|10|0|0|550|0|0|0|0|0|0|1|0|0|20200615094827
20200615|02000016|91239757|1800100000104|1800100000104|20200511000080|B3UHWVR2|1|0|18600|18600|10|0|0|550|0|0|0|0|0|0|1|0|0|20200615094817
20200615|02000016|91239755|1817679024406|1817679024406|20200511000080|B3UHWVR2|1|0|18600|18600|10|0|0|550|0|0|0|0|0|0|1|0|0|20200615094816
20200615|02000016|91239754|1815334341131|1815334341131|20200511000080|B3UHWVR2|1|0|18600|18600|10|0|0|550|0|0|0|0|0|0|1|0|0|20200615094815
20200615|02000016|91239749|1813808782960|1813808782960|20200511000080|B3UHWVR2|1|0|18600|18600|10|0|0|550|0|0|0|0|0|0|1|0|0|20200615094758
20200615|02000016|91239748|1815140671196|1815140671196|20200511000080|B3UHWVR2|1|0|18600|18600|10|0|0|550|0|0|0|0|0|0|1|0|0|20200615094755
20200615|02000016|91239747|1818233358282|1818233358282|20200511000080|B3UHWVR2|1|0|18600|18600|10|0|0|550|0|0|0|0|0|0|1|0|0|20200615094754
20200615|02000016|91239742|1813636725549|1813636725549|20200511000080|B3UHWVR2|1|0|18600|18600|10|0|0|550|0|0|0|0|0|0|1|0|0|20200615094748
20200615|02000016|91239734|1818288549796|1818288549796|20200511000080|B3UHWVR2|1|0|18600|18600|10|0|0|550|0|0|0|0|0|0|1|0|0|20200615094739
20200615|02000016|91239717|1813089950930|1813089950930|20200511000080|B3UHWVR2|1|0|18600|18600|10|0|0|550|0|0|0|0|0|0|1|0|0|20200615094715
20200615|02000016|91239716|1815232607038|1815232607038|20200511000080|B3UHWVR2|1|0|18600|18600|10|0|0|550|0|0|0|0|0|0|1|0|0|20200615094714
20200615|02000016|91239692|1815837935868|1815837935868|20200511000080|B3UHWVR2|1|0|18600|18600|10|0|0|550|0|0|0|0|0|0|1|0|0|20200615094650
20200615|02000016|91239683|1813988222092|1813988222092|20200511000080|B3UHWVR2|1|0|18600|18600|10|0|0|550|0|0|0|0|0|0|1|0|0|20200615094643
20200615|02000016|91239675|1818606548783|1818606548783|20200511000080|B3UHWVR2|1|0|18600|18600|10|0|0|550|0|0|0|0|0|0|1|0|0|20200615094637
20200615|02000016|91239670|1818909995887|1818909995887|20200511000080|B3UHWVR2|1|0|18600|18600|10|0|0|550|0|0|0|0|0|0|1|0|0|20200615094634
20200615|02000016|91239667|1815331520336|1815331520336|20200511000080|B3UHWVR2|1|0|18600|18600|10|0|0|550|0|0|0|0|0|0|1|0|0|20200615094628
20200615|02000016|91239655|1818288188077|1818288188077|20200511000080|B3UHWVR2|1|0|18600|18600|10|0|0|550|0|0|0|0|0|0|1|0|0|20200615094608
20200615|02000016|91239654|1813803125311|1813803125311|20200511000080|B3UHWVR2|1|0|18600|18600|10|0|0|550|0|0|0|0|0|0|1|0|0|20200615094604
20200615|02000016|91239649|1818691191808|1818691191808|20200511000080|B3UHWVR2|1|0|18600|18600|10|0|0|550|0|0|0|0|0|0|1|0|0|20200615094555
20200615|02000016|91239646|1813224207506|1813224207506|20200511000080|B3UHWVR2|1|0|18600|18600|10|0|0|550|0|0|0|0|0|0|1|0|0|20200615094554
20200615|02000016|91239629|1815931808321|1815931808321|20200511000080|B3UHWVR2|1|0|18600|18600|10|0|0|550|0|0|0|0|0|0|1|0|0|20200615094537
20200615|02000016|91239627|1813988240419|1813988240419|20200511000080|B3UHWVR2|1|0|18600|18600|10|0|0|550|0|0|0|0|0|0|1|0|0|20200615094533
20200615|02000016|91239625|1817713241107|1817713241107|20200511000080|B3UHWVR2|1|0|18600|18600|10|0|0|550|0|0|0|0|0|0|1|0|0|20200615094532
20200615|02000016|91239626|1813608768613|1813608768613|20200511000080|B3UHWVR2|1|0|18600|18600|10|0|0|550|0|0|0|0|0|0|1|0|0|20200615094532
20200615|02000016|91239616|1815038606853|1815038606853|20200511000080|B3UHWVR2|1|0|18600|18600|10|0|0|550|0|0|0|0|0|0|1|0|0|20200615094520
20200615|02000016|91239597|1813731798775|1813731798775|20200511000080|B3UHWVR2|1|0|18600|18600|10|0|0|550|0|0|0|0|0|0|1|0|0|20200615094457
20200615|02000016|91239595|1813988205870|1813988205870|20200511000080|B3UHWVR2|1|0|18600|18600|10|0|0|550|0|0|0|0|0|0|1|0|0|20200615094451
20200615|02000016|91239579|1815633917679|1815633917679|20200511000080|B3UHWVR2|1|0|18600|18600|10|0|0|550|0|0|0|0|0|0|1|0|0|20200615094435
20200615|02000016|91239576|1813733371391|1813733371391|20200511000080|B3UHWVR2|1|0|18600|18600|10|0|0|550|0|0|0|0|0|0|1|0|0|20200615094434
20200615|02000016|91239575|1815833895638|1815833895638|20200511000080|B3UHWVR2|1|0|18600|18600|10|0|0|550|0|0|0|0|0|0|1|0|0|20200615094433
20200615|02000016|91239555|1813466135914|1813466135914|20200511000080|B3UHWVR2|1|0|18600|18600|10|0|0|550|0|0|0|0|0|0|1|0|0|20200615094416
20200615|02000016|91239554|1813578286883|1813578286883|20200511000080|B3UHWVR2|1|0|18600|18600|10|0|0|550|0|0|0|0|0|0|1|0|0|20200615094404
20200615|02000016|91239538|1818940967978|1818940967978|20200511000080|B3UHWVR2|1|0|18600|18600|10|0|0|550|0|0|0|0|0|0|1|0|0|20200615094346
20200615|02000016|91239542|1815887537882|1815887537882|20200511000080|B3UHWVR2|1|0|18600|18600|10|0|0|550|0|0|0|0|0|0|1|0|0|20200615094346
20200615|02000016|91239530|1813463503191|1813463503191|20200511000080|B3UHWVR2|1|0|18600|18600|10|0|0|550|0|0|0|0|0|0|1|0|0|20200615094337
20200615|02000016|91239510|1813931289112|1813931289112|20200511000080|B3UHWVR2|1|0|18600|18600|10|0|0|550|0|0|0|0|0|0|1|0|0|20200615094326
20200615|02000016|91239507|1818802455863|1818802455863|20200511000080|B3UHWVR2|1|0|18600|18600|10|0|0|550|0|0|0|0|0|0|1|0|0|20200615094321
20200615|02000016|91239505|1818633358188|1818633358188|20200511000080|B3UHWVR2|1|0|18600|18600|10|0|0|550|0|0|0|0|0|0|1|0|0|20200615094318
20200615|02000016|91239504|1813231500951|1813231500951|20200511000080|B3UHWVR2|1|0|18600|18600|10|0|0|550|0|0|0|0|0|0|1|0|0|20200615094317
20200615|02000016|91239499|1800100000043|1800100000043|20200511000080|B3UHWVR2|1|0|18600|18600|10|0|0|550|0|0|0|0|0|0|1|0|0|20200615094312
20200615|02000016|91239489|1815925591567|1815925591567|20200511000080|B3UHWVR2|1|0|18600|18600|10|0|0|550|0|0|0|0|0|0|1|0|0|20200615094256
20200615|02000016|91239487|1818669296269|1818669296269|20200511000080|B3UHWVR2|1|0|18600|18600|10|0|0|550|0|0|0|0|0|0|1|0|0|20200615094255
20200615|02000016|91239488|1815758449560|1815758449560|20200511000080|B3UHWVR2|1|0|18600|18600|10|0|0|550|0|0|0|0|0|0|1|0|0|20200615094255
20200615|02000016|91239483|1817703687887|1817703687887|20200511000080|B3UHWVR2|1|0|18600|18600|10|0|0|550|0|0|0|0|0|0|1|0|0|20200615094251
20200615|02000016|91239460|1813932525581|1813932525581|20200511000080|B3UHWVR2|1|0|18600|18600|10|0|0|550|0|0|0|0|0|0|1|0|0|20200615094233
20200615|02000016|91239443|1813578288004|1813578288004|20200511000080|B3UHWVR2|1|0|18600|18600|10|0|0|550|0|0|0|0|0|0|1|0|0|20200615094217
20200615|02000016|91239436|1815208808189|1815208808189|20200511000080|B3UHWVR2|1|0|18600|18600|10|0|0|550|0|0|0|0|0|0|1|0|0|20200615094208
20200615|02000016|91239434|1818724409060|1818724409060|20200511000080|B3UHWVR2|1|0|18600|18600|10|0|0|550|0|0|0|0|0|0|1|0|0|20200615094207
20200615|02000016|91239430|1813582222311|1813582222311|20200511000080|B3UHWVR2|1|0|18600|18600|10|0|0|550|0|0|0|0|0|0|1|0|0|20200615094203
20200615|02000016|91239427|1815232640847|1815232640847|20200511000080|B3UHWVR2|1|0|18600|18600|10|0|0|550|0|0|0|0|0|0|1|0|0|20200615094201
20200615|02000016|91239424|1818231283196|1818231283196|20200511000080|B3UHWVR2|1|0|18600|18600|10|0|0|550|0|0|0|0|0|0|1|0|0|20200615094157
20200615|02000016|91239417|1815287565721|1815287565721|20200511000080|B3UHWVR2|1|0|18600|18600|10|0|0|550|0|0|0|0|0|0|1|0|0|20200615094144
20200615|02000016|91239410|1815830799079|1815830799079|20200511000080|B3UHWVR2|1|0|18600|18600|10|0|0|550|0|0|0|0|0|0|1|0|0|20200615094140
20200615|02000016|91239411|1818987538596|1818987538596|20200511000080|B3UHWVR2|1|0|18600|18600|10|0|0|550|0|0|0|0|0|0|1|0|0|20200615094140
20200615|02000016|91239406|1815633298879|1815633298879|20200511000080|B3UHWVR2|1|0|18600|18600|10|0|0|550|0|0|0|0|0|0|1|0|0|20200615094129
20200615|02000016|91239407|1813578273333|1813578273333|20200511000080|B3UHWVR2|1|0|18600|18600|10|0|0|550|0|0|0|0|0|0|1|0|0|20200615094129
20200615|02000016|91239376|1815866353002|1815866353002|20200511000080|B3UHWVR2|1|0|18600|18600|10|0|0|550|0|0|0|0|0|0|1|0|0|20200615094100
20200615|02000016|91239366|1813633226628|1813633226628|20200511000080|B3UHWVR2|1|0|18600|18600|10|0|0|550|0|0|0|0|0|0|1|0|0|20200615094057
20200615|02000016|91239370|1800100000170|1800100000170|20200511000080|B3UHWVR2|1|0|18600|18600|10|0|0|550|0|0|0|0|0|0|1|0|0|20200615094057
20200615|02000016|91239371|1813909114265|1813909114265|20200511000080|B3UHWVR2|1|0|18600|18600|10|0|0|550|0|0|0|0|0|0|1|0|0|20200615094057
20200615|02000016|91239360|1813335311791|1813335311791|20200511000080|B3UHWVR2|1|0|18600|18600|10|0|0|550|0|0|0|0|0|0|1|0|0|20200615094053
20200615|02000016|91239361|1813846717749|1813846717749|20200511000080|B3UHWVR2|1|0|18600|18600|10|0|0|550|0|0|0|0|0|0|1|0|0|20200615094053
20200615|02000016|91239352|1817331503933|1817331503933|20200511000080|B3UHWVR2|1|0|18600|18600|10|0|0|550|0|0|0|0|0|0|1|0|0|20200615094047
20200615|02000016|91239342|1813591148644|1813591148644|20200511000080|B3UHWVR2|1|0|18600|18600|10|0|0|550|0|0|0|0|0|0|1|0|0|20200615094042
20200615|02000016|91239332|1813897985407|1813897985407|20200511000080|B3UHWVR2|1|0|18600|18600|10|0|0|550|0|0|0|0|0|0|1|0|0|20200615094031
20200615|02000016|91239330|1815368948672|1815368948672|20200511000080|B3UHWVR2|1|0|18600|18600|10|0|0|550|0|0|0|0|0|0|1|0|0|20200615094030
20200615|02000016|91239326|1813472972651|1813472972651|20200511000080|B3UHWVR2|1|0|18600|18600|10|0|0|550|0|0|0|0|0|0|1|0|0|20200615094026
20200615|02000016|91239318|1818931232281|1818931232281|20200511000080|B3UHWVR2|1|0|18600|18600|10|0|0|550|0|0|0|0|0|0|1|0|0|20200615094019
20200615|02000016|91239314|1817303121352|1817303121352|20200511000080|B3UHWVR2|1|0|18600|18600|10|0|0|550|0|0|0|0|0|0|1|0|0|20200615094017
20200615|02000016|91239311|1813987021097|1813987021097|20200511000080|B3UHWVR2|1|0|18600|18600|10|0|0|550|0|0|0|0|0|0|1|0|0|20200615094016
20200615|02000016|91239310|1800100000213|1800100000213|20200511000080|B3UHWVR2|1|0|18600|18600|10|0|0|550|0|0|0|0|0|0|1|0|0|20200615094014
20200615|02000016|91239289|1813577471825|1813577471825|20200511000080|B3UHWVR2|1|0|18600|18600|10|0|0|550|0|0|0|0|0|0|1|0|0|20200615093956
20200615|02000016|91239290|1817866568244|1817866568244|20200511000080|B3UHWVR2|1|0|18600|18600|10|0|0|550|0|0|0|0|0|0|1|0|0|20200615093956
20200615|02000016|91239286|1813577542946|1813577542946|20200511000080|B3UHWVR2|1|0|18600|18600|10|0|0|550|0|0|0|0|0|0|1|0|0|20200615093955
20200615|02000016|91239277|1817784230052|1817784230052|20200511000080|B3UHWVR2|1|0|18600|18600|10|0|0|550|0|0|0|0|0|0|1|0|0|20200615093943
20200615|02000016|91239265|1815175228012|1815175228012|20200511000080|B3UHWVR2|1|0|18600|18600|10|0|0|550|0|0|0|0|0|0|1|0|0|20200615093938
20200615|02000016|91239254|1818988233957|1818988233957|20200511000080|B3UHWVR2|1|0|18600|18600|10|0|0|550|0|0|0|0|0|0|1|0|0|20200615093929
20200615|02000016|91239252|1813709999208|1813709999208|20200511000080|B3UHWVR2|1|0|18600|18600|10|0|0|550|0|0|0|0|0|0|1|0|0|20200615093924
20200615|02000016|91239251|1815129878708|1815129878708|20200511000080|B3UHWVR2|1|0|18600|18600|10|0|0|550|0|0|0|0|0|0|1|0|0|20200615093923
20200615|02000016|91239250|1813681926479|1813681926479|20200511000080|B3UHWVR2|1|0|18600|18600|10|0|0|550|0|0|0|0|0|0|1|0|0|20200615093922
20200615|02000016|91239245|1815388839989|1815388839989|20200511000080|B3UHWVR2|1|0|18600|18600|10|0|0|550|0|0|0|0|0|0|1|0|0|20200615093914
20200615|02000016|91239243|1817732266277|1817732266277|20200511000080|B3UHWVR2|1|0|18600|18600|10|0|0|550|0|0|0|0|0|0|1|0|0|20200615093907
20200615|02000016|91239244|1818132771303|1818132771303|20200511000080|B3UHWVR2|1|0|18600|18600|10|0|0|550|0|0|0|0|0|0|1|0|0|20200615093907
20200615|02000016|91239235|1818288188088|1818288188088|20200511000080|B3UHWVR2|1|0|18600|18600|10|0|0|550|0|0|0|0|0|0|1|0|0|20200615093903
20200615|02000016|91239229|1813730157568|1813730157568|20200511000080|B3UHWVR2|1|0|18600|18600|10|0|0|550|0|0|0|0|0|0|1|0|0|20200615093900
20200615|02000016|91239221|1818210293990|1818210293990|20200511000080|B3UHWVR2|1|0|18600|18600|10|0|0|550|0|0|0|0|0|0|1|0|0|20200615093851
20200615|02000016|91239214|1818032526472|1818032526472|20200511000080|B3UHWVR2|1|0|18600|18600|10|0|0|550|0|0|0|0|0|0|1|0|0|20200615093847
20200615|02000016|91239192|1813796290795|1813796290795|20200511000080|B3UHWVR2|1|0|18600|18600|10|0|0|550|0|0|0|0|0|0|1|0|0|20200615093832
20200615|02000016|91239182|1818934819900|1818934819900|20200511000080|B3UHWVR2|1|0|18600|18600|10|0|0|550|0|0|0|0|0|0|1|0|0|20200615093825
20200615|02000016|91239173|1817317033540|1817317033540|20200511000080|B3UHWVR2|1|0|18600|18600|10|0|0|550|0|0|0|0|0|0|1|0|0|20200615093818
20200615|02000016|91239154|1813931206006|1813931206006|20200511000080|B3UHWVR2|1|0|18600|18600|10|0|0|550|0|0|0|0|0|0|1|0|0|20200615093801
20200615|02000016|91239153|1814787853587|1814787853587|20200511000080|B3UHWVR2|1|0|18600|18600|10|0|0|550|0|0|0|0|0|0|1|0|0|20200615093800
20200615|02000016|91239143|1815245431805|1815245431805|20200511000080|B3UHWVR2|1|0|18600|18600|10|0|0|550|0|0|0|0|0|0|1|0|0|20200615093752
20200615|02000016|91239140|1818335259239|1818335259239|20200511000080|B3UHWVR2|1|0|18600|18600|10|0|0|550|0|0|0|0|0|0|1|0|0|20200615093750
20200615|02000016|91239114|1813393222560|1813393222560|20200511000080|B3UHWVR2|1|0|18600|18600|10|0|0|550|0|0|0|0|0|0|1|0|0|20200615093734
20200615|02000016|91239106|1815712514778|1815712514778|20200511000080|B3UHWVR2|1|0|18600|18600|10|0|0|550|0|0|0|0|0|0|1|0|0|20200615093717
20200615|02000016|91239105|1815208756608|1815208756608|20200511000080|B3UHWVR2|1|0|18600|18600|10|0|0|550|0|0|0|0|0|0|1|0|0|20200615093713
20200615|02000016|91239103|1813769055559|1813769055559|20200511000080|B3UHWVR2|1|0|18600|18600|10|0|0|550|0|0|0|0|0|0|1|0|0|20200615093712
20200615|02000016|91239101|1815512532000|1815512532000|20200511000080|B3UHWVR2|1|0|18600|18600|10|0|0|550|0|0|0|0|0|0|1|0|0|20200615093703
20200615|02000016|91239100|1813510564251|1813510564251|20200511000080|B3UHWVR2|1|0|18600|18600|10|0|0|550|0|0|0|0|0|0|1|0|0|20200615093702
20200615|02000016|91239099|1815231216025|1815231216025|20200511000080|B3UHWVR2|1|0|18600|18600|10|0|0|550|0|0|0|0|0|0|1|0|0|20200615093659
20200615|02000016|91239098|1818165273182|1818165273182|20200511000080|B3UHWVR2|1|0|18600|18600|10|0|0|550|0|0|0|0|0|0|1|0|0|20200615093657
20200615|02000016|91239086|1818288950291|1818288950291|20200511000080|B3UHWVR2|1|0|18600|18600|10|0|0|550|0|0|0|0|0|0|1|0|0|20200615093636
20200615|02000016|91239085|1815969053582|1815969053582|20200511000080|B3UHWVR2|1|0|18600|18600|10|0|0|550|0|0|0|0|0|0|1|0|0|20200615093635
20200615|02000016|91239082|1818330218859|1818330218859|20200511000080|B3UHWVR2|1|0|18600|18600|10|0|0|550|0|0|0|0|0|0|1|0|0|20200615093633
20200615|02000016|91239081|1813481184097|1813481184097|20200511000080|B3UHWVR2|1|0|18600|18600|10|0|0|550|0|0|0|0|0|0|1|0|0|20200615093632
20200615|02000016|91239080|1815911281296|1815911281296|20200511000080|B3UHWVR2|1|0|18600|18600|10|0|0|550|0|0|0|0|0|0|1|0|0|20200615093628
20200615|02000016|91239067|1813903126487|1813903126487|20200511000080|B3UHWVR2|1|0|18600|18600|10|0|0|550|0|0|0|0|0|0|1|0|0|20200615093608
20200615|02000016|91239064|1813383626357|1813383626357|20200511000080|B3UHWVR2|1|0|18600|18600|10|0|0|550|0|0|0|0|0|0|1|0|0|20200615093602
20200615|02000016|91239063|1815566052711|1815566052711|20200511000080|B3UHWVR2|1|0|18600|18600|10|0|0|550|0|0|0|0|0|0|1|0|0|20200615093600
20200615|02000016|91239053|1818633952021|1818633952021|20200511000080|B3UHWVR2|1|0|18600|18600|10|0|0|550|0|0|0|0|0|0|1|0|0|20200615093551
20200615|02000016|91239041|1815946109858|1815946109858|20200511000080|B3UHWVR2|1|0|18600|18600|10|0|0|550|0|0|0|0|0|0|1|0|0|20200615093536
20200615|02000016|91239040|1813998105808|1813998105808|20200511000080|B3UHWVR2|1|0|18600|18600|10|0|0|550|0|0|0|0|0|0|1|0|0|20200615093535
20200615|02000016|91239034|1813673797843|1813673797843|20200511000080|B3UHWVR2|1|0|18600|18600|10|0|0|550|0|0|0|0|0|0|1|0|0|20200615093530
20200615|02000016|91239030|1800100000125|1800100000125|20200511000080|B3UHWVR2|1|0|18600|18600|10|0|0|550|0|0|0|0|0|0|1|0|0|20200615093526
20200615|02000016|91239031|1818164319032|1818164319032|20200511000080|B3UHWVR2|1|0|18600|18600|10|0|0|550|0|0|0|0|0|0|1|0|0|20200615093526
20200615|02000016|91239028|1813987956640|1813987956640|20200511000080|B3UHWVR2|1|0|18600|18600|10|0|0|550|0|0|0|0|0|0|1|0|0|20200615093518
20200615|02000016|91239025|1815087942456|1815087942456|20200511000080|B3UHWVR2|1|0|18600|18600|10|0|0|550|0|0|0|0|0|0|1|0|0|20200615093510
20200615|02000016|91239024|1813836685281|1813836685281|20200511000080|B3UHWVR2|1|0|18600|18600|10|0|0|550|0|0|0|0|0|0|1|0|0|20200615093507
20200615|02000016|91239014|1813324561701|1813324561701|20200511000080|B3UHWVR2|1|0|18600|18600|10|0|0|550|0|0|0|0|0|0|1|0|0|20200615093458
20200615|02000016|91239008|1813988267556|1813988267556|20200511000080|B3UHWVR2|1|0|18600|18600|10|0|0|550|0|0|0|0|0|0|1|0|0|20200615093457
20200615|02000016|91239009|1813825724130|1813825724130|20200511000080|B3UHWVR2|1|0|18600|18600|10|0|0|550|0|0|0|0|0|0|1|0|0|20200615093457
20200615|02000016|91239004|1815727280047|1815727280047|20200511000080|B3UHWVR2|1|0|18600|18600|10|0|0|550|0|0|0|0|0|0|1|0|0|20200615093454
20200615|02000016|91239002|1818729936598|1818729936598|20200511000080|B3UHWVR2|1|0|18600|18600|10|0|0|550|0|0|0|0|0|0|1|0|0|20200615093452
20200615|02000016|91238999|1813930525191|1813930525191|20200511000080|B3UHWVR2|1|0|18600|18600|10|0|0|550|0|0|0|0|0|0|1|0|0|20200615093447
20200615|02000016|91238995|1819937271172|1819937271172|20200511000080|B3UHWVR2|1|0|18600|18600|10|0|0|550|0|0|0|0|0|0|1|0|0|20200615093436
20200615|02000016|91238992|1817612456397|1817612456397|20200511000080|B3UHWVR2|1|0|18600|18600|10|0|0|550|0|0|0|0|0|0|1|0|0|20200615093434
20200615|02000016|91238973|1817796982621|1817796982621|20200511000080|B3UHWVR2|1|0|18600|18600|10|0|0|550|0|0|0|0|0|0|1|0|0|20200615093408
20200615|02000016|91238971|1818220730920|1818220730920|20200511000080|B3UHWVR2|1|0|18600|18600|10|0|0|550|0|0|0|0|0|0|1|0|0|20200615093402
20200615|02000016|91238969|1813370555380|1813370555380|20200511000080|B3UHWVR2|1|0|18600|18600|10|0|0|550|0|0|0|0|0|0|1|0|0|20200615093353
20200615|02000016|91238970|1813576146503|1813576146503|20200511000080|B3UHWVR2|1|0|18600|18600|10|0|0|550|0|0|0|0|0|0|1|0|0|20200615093353
20200615|02000016|91238968|1815232591002|1815232591002|20200511000080|B3UHWVR2|1|0|18600|18600|10|0|0|550|0|0|0|0|0|0|1|0|0|20200615093342
20200615|02000016|91238964|1818741608136|1818741608136|20200511000080|B3UHWVR2|1|0|18600|18600|10|0|0|550|0|0|0|0|0|0|1|0|0|20200615093337
20200615|02000016|91238959|1815538816005|1815538816005|20200511000080|B3UHWVR2|1|0|18600|18600|10|0|0|550|0|0|0|0|0|0|1|0|0|20200615093330
20200615|02000016|91238957|1813230331640|1813230331640|20200511000080|B3UHWVR2|1|0|18600|18600|10|0|0|550|0|0|0|0|0|0|1|0|0|20200615093326
20200615|02000016|91238956|1813623333299|1813623333299|20200511000080|B3UHWVR2|1|0|18600|18600|10|0|0|550|0|0|0|0|0|0|1|0|0|20200615093319
20200615|02000016|91238955|1815227017957|1815227017957|20200511000080|B3UHWVR2|1|0|18600|18600|10|0|0|550|0|0|0|0|0|0|1|0|0|20200615093318
20200615|02000016|91238947|1813385213554|1813385213554|20200511000080|B3UHWVR2|1|0|18600|18600|10|0|0|550|0|0|0|0|0|0|1|0|0|20200615093259
20200615|02000016|91238943|1813998244344|1813998244344|20200511000080|B3UHWVR2|1|0|18600|18600|10|0|0|550|0|0|0|0|0|0|1|0|0|20200615093255
20200615|02000016|91238944|1813556430912|1813556430912|20200511000080|B3UHWVR2|1|0|18600|18600|10|0|0|550|0|0|0|0|0|0|1|0|0|20200615093255
20200615|02000016|91238941|1800100000298|1800100000298|20200511000080|B3UHWVR2|1|0|18600|18600|10|0|0|550|0|0|0|0|0|0|1|0|0|20200615093250
20200615|02000016|91238935|1815667931997|1815667931997|20200511000080|B3UHWVR2|1|0|18600|18600|10|0|0|550|0|0|0|0|0|0|1|0|0|20200615093236
20200615|02000016|91238931|1817346665892|1817346665892|20200511000080|B3UHWVR2|1|0|18600|18600|10|0|0|550|0|0|0|0|0|0|1|0|0|20200615093226
20200615|02000016|91238930|1813619647900|1813619647900|20200511000080|B3UHWVR2|1|0|18600|18600|10|0|0|550|0|0|0|0|0|0|1|0|0|20200615093219
20200615|02000016|91238927|1813607196765|1813607196765|20200511000080|B3UHWVR2|1|0|18600|18600|10|0|0|550|0|0|0|0|0|0|1|0|0|20200615093209
20200615|02000016|91238923|1813949280669|1813949280669|20200511000080|B3UHWVR2|1|0|18600|18600|10|0|0|550|0|0|0|0|0|0|1|0|0|20200615093204
20200615|02000016|91238920|1815670742888|1815670742888|20200511000080|B3UHWVR2|1|0|18600|18600|10|0|0|550|0|0|0|0|0|0|1|0|0|20200615093202
20200615|02000016|91238914|1815100207285|1815100207285|20200511000080|B3UHWVR2|1|0|18600|18600|10|0|0|550|0|0|0|0|0|0|1|0|0|20200615093152
20200615|02000016|91238906|1815933126808|1815933126808|20200511000080|B3UHWVR2|1|0|18600|18600|10|0|0|550|0|0|0|0|0|0|1|0|0|20200615093143
20200615|02000016|91238907|1813779597882|1813779597882|20200511000080|B3UHWVR2|1|0|18600|18600|10|0|0|550|0|0|0|0|0|0|1|0|0|20200615093143
20200615|02000016|91238904|1815833589669|1815833589669|20200511000080|B3UHWVR2|1|0|18600|18600|10|0|0|550|0|0|0|0|0|0|1|0|0|20200615093141
20200615|02000016|91238896|1800100000032|1800100000032|20200511000080|B3UHWVR2|1|0|18600|18600|10|0|0|550|0|0|0|0|0|0|1|0|0|20200615093119
20200615|02000016|91238889|1815208896655|1815208896655|20200511000080|B3UHWVR2|1|0|18600|18600|10|0|0|550|0|0|0|0|0|0|1|0|0|20200615093101
20200615|02000016|91238888|1815613556396|1815613556396|20200511000080|B3UHWVR2|1|0|18600|18600|10|0|0|550|0|0|0|0|0|0|1|0|0|20200615092012
20200615|02000016|91238887|1815256323299|1815256323299|20200511000080|B3UHWVR2|1|0|18600|18600|10|0|0|0|0|0|0|0|0|0|1|0|0|20200615092005
20200615|02000016|91238886|1815256323299|1815256323299|20200511000080|B3UHWVR2|1|0|18600|18600|10|0|0|0|0|0|0|0|0|0|1|0|0|20200615091955
20200615|02000016|91238885|1815256323299|1815256323299|20200511000080|B3UHWVR2|1|0|18600|18600|10|0|0|0|0|0|0|0|0|0|1|0|0|20200615091946
20200615|02000016|91238884|1815256323299|1815256323299|20200511000080|B3UHWVR2|1|0|18600|18600|10|0|0|0|0|0|0|0|0|0|1|0|0|20200615091939
20200615|02000016|91238883|1818046671766|1818046671766|20200511000080|B3UHWVR2|1|0|18600|18600|10|0|0|550|0|0|0|0|0|0|1|0|0|20200615091931
20200615|02000016|91238882|1815256323299|1815256323299|20200511000080|B3UHWVR2|1|0|18600|18600|10|0|0|0|0|0|0|0|0|0|1|0|0|20200615091930
20200615|02000016|91238881|1815256323299|1815256323299|20200511000080|B3UHWVR2|1|0|18600|18600|10|0|0|0|0|0|0|0|0|0|1|0|0|20200615091923
20200615|02000016|91238880|1815076235183|1815076235183|20200511000080|B3UHWVR2|1|0|18600|18600|10|0|0|550|0|0|0|0|0|0|1|0|0|20200615091920
20200615|02000016|91238879|1815256323299|1815256323299|20200511000080|B3UHWVR2|1|0|18600|18600|10|0|0|0|0|0|0|0|0|0|1|0|0|20200615091914
20200615|02000016|91238878|1815256323299|1815256323299|20200511000080|B3UHWVR2|1|0|18600|18600|10|0|0|0|0|0|0|0|0|0|1|0|0|20200615091906
20200615|02000016|91238877|1815256323299|1815256323299|20200511000080|B3UHWVR2|1|0|18600|18600|10|0|0|0|0|0|0|0|0|0|1|0|0|20200615091858
20200615|02000016|91238876|1815256323299|1815256323299|20200511000080|B3UHWVR2|1|0|18600|18600|10|0|0|0|0|0|0|0|0|0|1|0|0|20200615091850
20200615|02000016|91238875|1815256323299|1815256323299|20200511000080|B3UHWVR2|1|0|18600|18600|10|0|0|0|0|0|0|0|0|0|1|0|0|20200615091842
20200615|02000016|91238874|1815256323299|1815256323299|20200511000080|B3UHWVR2|1|0|18600|18600|10|0|0|0|0|0|0|0|0|0|1|0|0|20200615091835
20200615|02000016|91238873|1815256323299|1815256323299|20200511000080|B3UHWVR2|1|0|18600|18600|10|0|0|0|0|0|0|0|0|0|1|0|0|20200615091827
20200615|02000016|91238872|1815256323299|1815256323299|20200511000080|B3UHWVR2|1|0|18600|18600|10|0|0|0|0|0|0|0|0|0|1|0|0|20200615091819
20200615|02000016|91238871|1815256323299|1815256323299|20200511000080|B3UHWVR2|1|0|18600|18600|10|0|0|0|0|0|0|0|0|0|1|0|0|20200615091811
20200615|02000016|91238870|1815256323299|1815256323299|20200511000080|B3UHWVR2|1|0|18600|18600|10|0|0|0|0|0|0|0|0|0|1|0|0|20200615091802
