20200527|02000016|91211089|1813609828405|1813609828405|20200511000080|B3UHWVR2|1|0|18600|18600|10|0|0|558|0|0|0|0|0|0|1|0|0|20200527150100
20200527|02000016|91211088|1818220730920|1818220730920|20200511000080|B3UHWVR2|1|0|18600|18600|10|0|0|558|0|0|0|0|0|0|1|0|0|20200527150046
20200527|02000016|91211084|1813832212723|1813832212723|20200511000080|B3UHWVR2|1|0|18600|18600|10|0|0|558|0|0|0|0|0|0|1|0|0|20200527150000
20200527|02000016|91211061|1800100000107|1800100000107|20200511000080|B3UHWVR2|1|0|18600|18600|10|0|0|558|0|0|0|0|0|0|1|0|0|20200527145912
20200527|02000016|91211034|1813582217784|1813582217784|20200511000080|B3UHWVR2|1|0|18600|18600|10|0|0|558|0|0|0|0|0|0|1|0|0|20200527145825
20200527|02000016|91211012|1800100000287|1800100000287|20200511000080|B3UHWVR2|1|0|18600|18600|10|0|0|558|0|0|0|0|0|0|1|0|0|20200527145811
20200527|02000016|91211005|1813576846550|1813576846550|20200511000080|B3UHWVR2|1|0|18600|18600|10|0|0|558|0|0|0|0|0|0|1|0|0|20200527145755
20200527|02000016|91211004|1800100000237|1800100000237|20200511000080|B3UHWVR2|1|0|18600|18600|10|0|0|558|0|0|0|0|0|0|1|0|0|20200527145733
20200527|02000016|91211003|1815170827317|1815170827317|20200511000080|B3UHWVR2|1|0|18600|18600|10|0|0|558|0|0|0|0|0|0|1|0|0|20200527145724
20200527|02000016|91210962|1813572181691|1813572181691|20200511000080|B3UHWVR2|1|0|18600|18600|10|0|0|558|0|0|0|0|0|0|1|0|0|20200527145530
20200527|02000016|91210963|1813014300009|1813014300009|20200511000080|B3UHWVR2|1|0|18600|18600|10|0|0|558|0|0|0|0|0|0|1|0|0|20200527145530
20200527|02000016|91210937|1818729483918|1818729483918|20200511000080|B3UHWVR2|1|0|18600|18600|10|0|0|558|0|0|0|0|0|0|1|0|0|20200527145337
20200527|02000016|91210936|1800100000229|1800100000229|20200511000080|B3UHWVR2|1|0|18600|18600|10|0|0|558|0|0|0|0|0|0|1|0|0|20200527145332
20200527|02000016|91210932|1813730229934|1813730229934|20200511000080|B3UHWVR2|1|0|18600|18600|10|0|0|558|0|0|0|0|0|0|1|0|0|20200527145229
20200527|02000016|91210928|1813930246312|1813930246312|20200511000080|B3UHWVR2|1|0|18600|18600|10|0|0|558|0|0|0|0|0|0|1|0|0|20200527145142
20200527|02000016|91210924|1817679265331|1817679265331|20200511000080|B3UHWVR2|1|0|18600|18600|10|0|0|558|0|0|0|0|0|0|1|0|0|20200527145051
20200527|02000016|91210923|1815201189518|1815201189518|20200511000080|B3UHWVR2|1|0|18600|18600|10|0|0|558|0|0|0|0|0|0|1|0|0|20200527145028
20200527|02000016|91210915|1800100000022|1800100000022|20200511000080|B3UHWVR2|1|0|18600|18600|10|0|0|558|0|0|0|0|0|0|1|0|0|20200527144708
20200527|02000016|91210914|1813624047737|1813624047737|20200511000080|B3UHWVR2|1|0|18600|18600|10|0|0|558|0|0|0|0|0|0|1|0|0|20200527144704
20200527|02000016|91210910|1818732221628|1818732221628|20200511000080|B3UHWVR2|1|0|18600|18600|10|0|0|558|0|0|0|0|0|0|1|0|0|20200527144602
20200527|02000016|91210908|1800100000245|1800100000245|20200511000080|B3UHWVR2|1|0|18600|18600|10|0|0|558|0|0|0|0|0|0|1|0|0|20200527144526
20200527|02000016|91210898|1818674148199|1818674148199|20200511000080|B3UHWVR2|1|0|18600|18600|10|0|0|558|0|0|0|0|0|0|1|0|0|20200527144450
20200527|02000016|91210897|1815733826587|1815733826587|20200511000080|B3UHWVR2|1|0|18600|18600|10|0|0|558|0|0|0|0|0|0|1|0|0|20200527144436
20200527|02000016|91210893|1813180214668|1813180214668|20200511000080|B3UHWVR2|1|0|18600|18600|10|0|0|558|0|0|0|0|0|0|1|0|0|20200527144321
20200527|02000016|91210888|1815032232283|1815032232283|20200511000080|B3UHWVR2|1|0|18600|18600|10|0|0|558|0|0|0|0|0|0|1|0|0|20200527144224
20200527|02000016|91210887|1813641226784|1813641226784|20200511000080|B3UHWVR2|1|0|18600|18600|10|0|0|558|0|0|0|0|0|0|1|0|0|20200527144210
20200527|02000016|91210879|1818731866982|1818731866982|20200511000080|B3UHWVR2|1|0|18600|18600|10|0|0|558|0|0|0|0|0|0|1|0|0|20200527144030
20200527|02000016|91210878|1815333221545|1815333221545|20200511000080|B3UHWVR2|1|0|18600|18600|10|0|0|558|0|0|0|0|0|0|1|0|0|20200527144020
20200527|02000016|91210873|1815227060395|1815227060395|20200511000080|B3UHWVR2|1|0|18600|18600|10|0|0|558|0|0|0|0|0|0|1|0|0|20200527143910
20200527|02000016|91210868|1815075218679|1815075218679|20200511000080|B3UHWVR2|1|0|18600|18600|10|0|0|558|0|0|0|0|0|0|1|0|0|20200527143845
20200527|02000016|91210861|1815712514778|1815712514778|20200511000080|B3UHWVR2|1|0|18600|18600|10|0|0|558|0|0|0|0|0|0|1|0|0|20200527143830
20200527|02000016|91210860|1815512532000|1815512532000|20200511000080|B3UHWVR2|1|0|18600|18600|10|0|0|558|0|0|0|0|0|0|1|0|0|20200527143812
20200527|02000016|91210859|1818931232281|1818931232281|20200511000080|B3UHWVR2|1|0|18600|18600|10|0|0|558|0|0|0|0|0|0|1|0|0|20200527143803
20200527|02000016|91210834|1815032236912|1815032236912|20200511000080|B3UHWVR2|1|0|18600|18600|10|0|0|558|0|0|0|0|0|0|1|0|0|20200527143744
20200527|02000016|91210827|1815097408526|1815097408526|20200511000080|B3UHWVR2|1|0|18600|18600|10|0|0|558|0|0|0|0|0|0|1|0|0|20200527143726
20200527|02000016|91210826|1813473122412|1813473122412|20200511000080|B3UHWVR2|1|0|18600|18600|10|0|0|558|0|0|0|0|0|0|1|0|0|20200527143638
20200527|02000016|91210823|1813400267349|1813400267349|20200511000080|B3UHWVR2|1|0|18600|18600|10|0|0|558|0|0|0|0|0|0|1|0|0|20200527143619
20200527|02000016|91210817|1815288116989|1815288116989|20200511000080|B3UHWVR2|1|0|18600|18600|10|0|0|558|0|0|0|0|0|0|1|0|0|20200527143559
20200527|02000016|91210814|1813730238225|1813730238225|20200511000080|B3UHWVR2|1|0|18600|18600|10|0|0|558|0|0|0|0|0|0|1|0|0|20200527143532
20200527|02000016|91210805|1815231216025|1815231216025|20200511000080|B3UHWVR2|1|0|18600|18600|10|0|0|558|0|0|0|0|0|0|1|0|0|20200527143459
20200527|02000016|91210793|1815097746135|1815097746135|20200511000080|B3UHWVR2|1|0|18600|18600|10|0|0|558|0|0|0|0|0|0|1|0|0|20200527143444
20200527|02000016|91210789|1813569282610|1813569282610|20200511000080|B3UHWVR2|1|0|18600|18600|10|0|0|558|0|0|0|0|0|0|1|0|0|20200527143430
20200527|02000016|91210782|1818233358282|1818233358282|20200511000080|B3UHWVR2|1|0|18600|18600|10|0|0|558|0|0|0|0|0|0|1|0|0|20200527143336
20200527|02000016|91210781|1815931204444|1815931204444|20200511000080|B3UHWVR2|1|0|18600|18600|10|0|0|558|0|0|0|0|0|0|1|0|0|20200527143331
20200527|02000016|91210774|1815830833884|1815830833884|20200511000080|B3UHWVR2|1|0|18600|18600|10|0|0|558|0|0|0|0|0|0|1|0|0|20200527143309
20200527|02000016|91210773|1815630880329|1815630880329|20200511000080|B3UHWVR2|1|0|18600|18600|10|0|0|558|0|0|0|0|0|0|1|0|0|20200527143226
20200527|02000016|91210769|1816603202113|1816603202113|20200511000080|B3UHWVR2|1|0|18600|18600|10|0|0|558|0|0|0|0|0|0|1|0|0|20200527143208
20200527|02000016|91210765|1815033779933|1815033779933|20200511000080|B3UHWVR2|1|0|18600|18600|2|0|0|111|0|0|0|0|0|0|1|0|0|20200527143151
20200527|02000016|91210764|1813513061187|1813513061187|20200511000080|B3UHWVR2|1|0|18600|18600|10|0|0|558|0|0|0|0|0|0|1|0|0|20200527143056
20200527|02000016|91210760|1815030230206|1815030230206|20200511000080|B3UHWVR2|1|0|18600|18600|10|0|0|558|0|0|0|0|0|0|1|0|0|20200527143023
20200527|02000016|91210755|1815303121880|1815303121880|20200511000080|B3UHWVR2|1|0|18600|18600|10|0|0|558|0|0|0|0|0|0|1|0|0|20200527142930
20200527|02000016|91210754|1800100000138|1800100000138|20200511000080|B3UHWVR2|1|0|18600|18600|10|0|0|558|0|0|0|0|0|0|1|0|0|20200527142917
20200527|02000016|91210740|1818103143885|1818103143885|20200511000080|B3UHWVR2|1|0|18600|18600|10|0|0|558|0|0|0|0|0|0|1|0|0|20200527142745
20200527|02000016|91210739|1815903327688|1815903327688|20200511000080|B3UHWVR2|1|0|18600|18600|10|0|0|558|0|0|0|0|0|0|1|0|0|20200527142725
20200527|02000016|91210738|1800100000041|1800100000041|20200511000080|B3UHWVR2|1|0|18600|18600|10|0|0|558|0|0|0|0|0|0|1|0|0|20200527142722
20200527|02000016|91210728|1815132271576|1815132271576|20200511000080|B3UHWVR2|1|0|18600|18600|10|0|0|558|0|0|0|0|0|0|1|0|0|20200527142450
20200527|02000016|91210721|1813722255068|1813722255068|20200511000080|B3UHWVR2|1|0|18600|18600|10|0|0|558|0|0|0|0|0|0|1|0|0|20200527142232
20200527|02000016|91210717|1815832285526|1815832285526|20200511000080|B3UHWVR2|1|0|18600|18600|10|0|0|558|0|0|0|0|0|0|1|0|0|20200527142138
20200527|02000016|91210713|1815231225276|1815231225276|20200511000080|B3UHWVR2|1|0|18600|18600|10|0|0|558|0|0|0|0|0|0|1|0|0|20200527142105
20200527|02000016|91210709|1818331088485|1818331088485|20200511000080|B3UHWVR2|1|0|18600|18600|10|0|0|558|0|0|0|0|0|0|1|0|0|20200527142031
20200527|02000016|91210705|1815931229982|1815931229982|20200511000080|B3UHWVR2|1|0|18600|18600|10|0|0|558|0|0|0|0|0|0|1|0|0|20200527142012
20200527|02000016|91210701|1818233291091|1818233291091|20200511000080|B3UHWVR2|1|0|18600|18600|10|0|0|558|0|0|0|0|0|0|1|0|0|20200527141942
20200527|02000016|91210697|1818348907445|1818348907445|20200511000080|B3UHWVR2|1|0|18600|18600|10|0|0|558|0|0|0|0|0|0|1|0|0|20200527141916
20200527|02000016|91210693|1819912156726|1819912156726|20200511000080|B3UHWVR2|1|0|18600|18600|10|0|0|558|0|0|0|0|0|0|1|0|0|20200527141854
20200527|02000016|91210665|1813730476179|1813730476179|20200511000080|B3UHWVR2|1|0|18600|18600|10|0|0|558|0|0|0|0|0|0|1|0|0|20200527141648
20200527|02000016|91210664|1815978647111|1815978647111|20200511000080|B3UHWVR2|1|0|18600|18600|10|0|0|558|0|0|0|0|0|0|1|0|0|20200527141635
20200527|02000016|91210662|1818932692236|1818932692236|20200511000080|B3UHWVR2|1|0|18600|18600|10|0|0|558|0|0|0|0|0|0|1|0|0|20200527141607
20200527|02000016|91210656|1813832228797|1813832228797|20200511000080|B3UHWVR2|1|0|18600|18600|10|0|0|558|0|0|0|0|0|0|1|0|0|20200527141550
20200527|02000016|91210652|1815630231725|1815630231725|20200511000080|B3UHWVR2|1|0|18600|18600|10|0|0|558|0|0|0|0|0|0|1|0|0|20200527141534
20200527|02000016|91210651|1813722978286|1813722978286|20200511000080|B3UHWVR2|1|0|18600|18600|10|0|0|558|0|0|0|0|0|0|1|0|0|20200527141508
20200527|02000016|91210650|1815933593100|1815933593100|20200511000080|B3UHWVR2|1|0|18600|18600|10|0|0|558|0|0|0|0|0|0|1|0|0|20200527141459
20200527|02000016|91210646|1815933526748|1815933526748|20200511000080|B3UHWVR2|1|0|18600|18600|10|0|0|558|0|0|0|0|0|0|1|0|0|20200527141432
20200527|02000016|91210642|1815100258404|1815100258404|20200511000080|B3UHWVR2|1|0|18600|18600|10|0|0|558|0|0|0|0|0|0|1|0|0|20200527141354
20200527|02000016|91210641|1815132437141|1815132437141|20200511000080|B3UHWVR2|1|0|18600|18600|10|0|0|558|0|0|0|0|0|0|1|0|0|20200527141352
20200527|02000016|91210637|1815233758901|1815233758901|20200511000080|B3UHWVR2|1|0|18600|18600|10|0|0|558|0|0|0|0|0|0|1|0|0|20200527141313
20200527|02000016|91210636|1813731660124|1813731660124|20200511000080|B3UHWVR2|1|0|18600|18600|10|0|0|558|0|0|0|0|0|0|1|0|0|20200527141312
20200527|02000016|91210634|1818633279312|1818633279312|20200511000080|B3UHWVR2|1|0|18600|18600|10|0|0|558|0|0|0|0|0|0|1|0|0|20200527141258
20200527|02000016|91210628|1815931271087|1815931271087|20200511000080|B3UHWVR2|1|0|18600|18600|10|0|0|558|0|0|0|0|0|0|1|0|0|20200527141256
20200527|02000016|91210618|1813653226824|1813653226824|20200511000080|B3UHWVR2|1|0|18600|18600|10|0|0|558|0|0|0|0|0|0|1|0|0|20200527141218
20200527|02000016|91210614|1817516551290|1817516551290|20200511000080|B3UHWVR2|1|0|18600|18600|10|0|0|558|0|0|0|0|0|0|1|0|0|20200527141208
20200527|02000016|91210601|1815128477807|1815128477807|20200511000080|B3UHWVR2|1|0|18600|18600|10|0|0|558|0|0|0|0|0|0|1|0|0|20200527141125
20200527|02000016|91210600|1818032308691|1818032308691|20200511000080|B3UHWVR2|1|0|18600|18600|10|0|0|558|0|0|0|0|0|0|1|0|0|20200527141111
20200527|02000016|91210593|1800100000196|1800100000196|20200511000080|B3UHWVR2|1|0|18600|18600|10|0|0|558|0|0|0|0|0|0|1|0|0|20200527141101
20200527|02000016|91210586|1815032494099|1815032494099|20200511000080|B3UHWVR2|1|0|18600|18600|10|0|0|558|0|0|0|0|0|0|1|0|0|20200527141030
20200527|02000016|91210582|1818833239911|1818833239911|20200511000080|B3UHWVR2|1|0|18600|18600|10|0|0|558|0|0|0|0|0|0|1|0|0|20200527140948
20200527|02000016|91210578|1815130268126|1815130268126|20200511000080|B3UHWVR2|1|0|18600|18600|10|0|0|558|0|0|0|0|0|0|1|0|0|20200527140929
20200527|02000016|91210574|1813733374049|1813733374049|20200511000080|B3UHWVR2|1|0|18600|18600|10|0|0|558|0|0|0|0|0|0|1|0|0|20200527140905
20200527|02000016|91210570|1813264095514|1813264095514|20200511000080|B3UHWVR2|1|0|18600|18600|10|0|0|558|0|0|0|0|0|0|1|0|0|20200527140816
20200527|02000016|91210569|1813552368668|1813552368668|20200511000080|B3UHWVR2|1|0|18600|18600|10|0|0|558|0|0|0|0|0|0|1|0|0|20200527140810
20200527|02000016|91210568|1800100000021|1800100000021|20200511000080|B3UHWVR2|1|0|18600|18600|10|0|0|558|0|0|0|0|0|0|1|0|0|20200527140801
20200527|02000016|91210558|1813603282298|1813603282298|20200511000080|B3UHWVR2|1|0|18600|18600|10|0|0|558|0|0|0|0|0|0|1|0|0|20200527140722
20200527|02000016|91210554|1813932223643|1813932223643|20200511000080|B3UHWVR2|1|0|18600|18600|10|0|0|558|0|0|0|0|0|0|1|0|0|20200527140656
20200527|02000016|91210549|1815931895927|1815931895927|20200511000080|B3UHWVR2|1|0|18600|18600|10|0|0|558|0|0|0|0|0|0|1|0|0|20200527140601
20200527|02000016|91210547|1815045790917|1815045790917|20200511000080|B3UHWVR2|1|0|18600|18600|10|0|0|558|0|0|0|0|0|0|1|0|0|20200527140544
20200527|02000016|91210546|1813730451279|1813730451279|20200511000080|B3UHWVR2|1|0|18600|18600|10|0|0|558|0|0|0|0|0|0|1|0|0|20200527140528
20200527|02000016|91210545|1813611017783|1813611017783|20200511000080|B3UHWVR2|1|0|18600|18600|10|0|0|558|0|0|0|0|0|0|1|0|0|20200527140512
20200527|02000016|91210541|1818903123383|1818903123383|20200511000080|B3UHWVR2|1|0|18600|18600|10|0|0|558|0|0|0|0|0|0|1|0|0|20200527140457
20200527|02000016|91210537|1813633389021|1813633389021|20200511000080|B3UHWVR2|1|0|18600|18600|10|0|0|558|0|0|0|0|0|0|1|0|0|20200527140447
20200527|02000016|91210532|1815313179127|1815313179127|20200511000080|B3UHWVR2|1|0|18600|18600|10|0|0|558|0|0|0|0|0|0|1|0|0|20200527140347
20200527|02000016|91210531|1815097439866|1815097439866|20200511000080|B3UHWVR2|1|0|18600|18600|10|0|0|558|0|0|0|0|0|0|1|0|0|20200527140346
20200527|02000016|91210519|1800100000042|1800100000042|20200511000080|B3UHWVR2|1|0|18600|18600|10|0|0|558|0|0|0|0|0|0|1|0|0|20200527140304
20200527|02000016|91210517|1813833293648|1813833293648|20200511000080|B3UHWVR2|1|0|18600|18600|10|0|0|558|0|0|0|0|0|0|1|0|0|20200527140237
20200527|02000016|91210510|1818725023168|1818725023168|20200511000080|B3UHWVR2|1|0|18600|18600|10|0|0|558|0|0|0|0|0|0|1|0|0|20200527140215
20200527|02000016|91210509|1800100000071|1800100000071|20200511000080|B3UHWVR2|1|0|18600|18600|10|0|0|558|0|0|0|0|0|0|1|0|0|20200527140200
20200527|02000016|91210508|1813331310643|1813331310643|20200511000080|B3UHWVR2|1|0|18600|18600|10|0|0|558|0|0|0|0|0|0|1|0|0|20200527140153
20200527|02000016|91210507|1800100000355|1800100000355|20200511000080|B3UHWVR2|1|0|18600|18600|10|0|0|558|0|0|0|0|0|0|1|0|0|20200527140147
20200527|02000016|91210502|1818233445131|1818233445131|20200511000080|B3UHWVR2|1|0|18600|18600|10|0|0|558|0|0|0|0|0|0|1|0|0|20200527140107
20200527|02000016|91210498|1813643325475|1813643325475|20200511000080|B3UHWVR2|1|0|18600|18600|10|0|0|558|0|0|0|0|0|0|1|0|0|20200527140101
20200527|02000016|91210490|1813643393067|1813643393067|20200511000080|B3UHWVR2|1|0|18600|18600|10|0|0|558|0|0|0|0|0|0|1|0|0|20200527140003
20200527|02000016|91210483|1815175219511|1815175219511|20200511000080|B3UHWVR2|1|0|18600|18600|10|0|0|558|0|0|0|0|0|0|1|0|0|20200527135926
20200527|02000016|91210482|1818132723583|1818132723583|20200511000080|B3UHWVR2|1|0|18600|18600|10|0|0|558|0|0|0|0|0|0|1|0|0|20200527135916
20200527|02000016|91210480|1818746705277|1818746705277|20200511000080|B3UHWVR2|1|0|18600|18600|10|0|0|558|0|0|0|0|0|0|1|0|0|20200527135837
20200527|02000016|91210473|1813931362643|1813931362643|20200511000080|B3UHWVR2|1|0|18600|18600|10|0|0|558|0|0|0|0|0|0|1|0|0|20200527135704
20200527|02000016|91210464|1813988239712|1813988239712|20200511000080|B3UHWVR2|1|0|18600|18600|10|0|0|558|0|0|0|0|0|0|1|0|0|20200527135521
20200527|02000016|91210457|1800100000040|1800100000040|20200511000080|B3UHWVR2|1|0|18600|18600|10|0|0|558|0|0|0|0|0|0|1|0|0|20200527135501
20200527|02000016|91210452|1813931360238|1813931360238|20200511000080|B3UHWVR2|1|0|18600|18600|10|0|0|558|0|0|0|0|0|0|1|0|0|20200527135253
20200527|02000016|91210451|1818335259239|1818335259239|20200511000080|B3UHWVR2|1|0|18600|18600|10|0|0|558|0|0|0|0|0|0|1|0|0|20200527135252
20200527|02000016|91210444|1813840468900|1813840468900|20200511000080|B3UHWVR2|1|0|18600|18600|10|0|0|558|0|0|0|0|0|0|1|0|0|20200527135059
20200527|02000016|91210443|1813234540281|1813234540281|20200511000080|B3UHWVR2|1|0|18600|18600|10|0|0|558|0|0|0|0|0|0|1|0|0|20200527135050
20200527|02000016|91210439|1813292419437|1813292419437|20200511000080|B3UHWVR2|1|0|18600|18600|10|0|0|558|0|0|0|0|0|0|1|0|0|20200527135026
20200527|02000016|91210431|1813663315968|1813663315968|20200511000080|B3UHWVR2|1|0|18600|18600|10|0|0|558|0|0|0|0|0|0|1|0|0|20200527134924
20200527|02000016|91210430|1817631643762|1817631643762|20200511000080|B3UHWVR2|1|0|18600|18600|10|0|0|558|0|0|0|0|0|0|1|0|0|20200527134919
20200527|02000016|91210420|1813988222092|1813988222092|20200511000080|B3UHWVR2|1|0|18600|18600|10|0|0|558|0|0|0|0|0|0|1|0|0|20200527134840
20200527|02000016|91210419|1815045780767|1815045780767|20200511000080|B3UHWVR2|1|0|18600|18600|10|0|0|558|0|0|0|0|0|0|1|0|0|20200527134817
20200527|02000016|91210415|1813463442485|1813463442485|20200511000080|B3UHWVR2|1|0|18600|18600|10|0|0|558|0|0|0|0|0|0|1|0|0|20200527134756
20200527|02000016|91210410|1800100000116|1800100000116|20200511000080|B3UHWVR2|1|0|18600|18600|10|0|0|558|0|0|0|0|0|0|1|0|0|20200527134712
20200527|02000016|91210401|1813946850664|1813946850664|20200511000080|B3UHWVR2|1|0|18600|18600|10|0|0|558|0|0|0|0|0|0|1|0|0|20200527134636
20200527|02000016|91210397|1813643126078|1813643126078|20200511000080|B3UHWVR2|1|0|18600|18600|10|0|0|558|0|0|0|0|0|0|1|0|0|20200527134624
20200527|02000016|91210390|1800100000122|1800100000122|20200511000080|B3UHWVR2|1|0|18600|18600|10|0|0|558|0|0|0|0|0|0|1|0|0|20200527134555
20200527|02000016|91210380|1813582233927|1813582233927|20200511000080|B3UHWVR2|1|0|18600|18600|10|0|0|558|0|0|0|0|0|0|1|0|0|20200527134347
20200527|02000016|91210378|1815946740910|1815946740910|20200511000080|B3UHWVR2|1|0|18600|18600|10|0|0|558|0|0|0|0|0|0|1|0|0|20200527134328
20200527|02000016|91210371|1818746710622|1818746710622|20200511000080|B3UHWVR2|1|0|18600|18600|10|0|0|558|0|0|0|0|0|0|1|0|0|20200527134140
20200527|02000016|91210367|1815246230377|1815246230377|20200511000080|B3UHWVR2|1|0|18600|18600|10|0|0|558|0|0|0|0|0|0|1|0|0|20200527134023
20200527|02000016|91210363|1818962075812|1818962075812|20200511000080|B3UHWVR2|1|0|18600|18600|10|0|0|558|0|0|0|0|0|0|1|0|0|20200527133841
20200527|02000016|91210362|1813796445877|1813796445877|20200511000080|B3UHWVR2|1|0|18600|18600|10|0|0|558|0|0|0|0|0|0|1|0|0|20200527133802
20200527|02000016|91210352|1813608767593|1813608767593|20200511000080|B3UHWVR2|1|0|18600|18600|10|0|0|558|0|0|0|0|0|0|1|0|0|20200527133657
20200527|02000016|91210348|1813335335656|1813335335656|20200511000080|B3UHWVR2|1|0|18600|18600|10|0|0|558|0|0|0|0|0|0|1|0|0|20200527133602
20200527|02000016|91210344|1813339574707|1813339574707|20200511000080|B3UHWVR2|1|0|18600|18600|10|0|0|558|0|0|0|0|0|0|1|0|0|20200527133348
20200527|02000016|91210340|1818690049591|1818690049591|20200511000080|B3UHWVR2|1|0|18600|18600|10|0|0|558|0|0|0|0|0|0|1|0|0|20200527133304
20200527|02000016|91210336|1800100000100|1800100000100|20200511000080|B3UHWVR2|1|0|18600|18600|10|0|0|558|0|0|0|0|0|0|1|0|0|20200527133129
20200527|02000016|91210332|1813082311311|1813082311311|20200511000080|B3UHWVR2|1|0|18600|18600|10|0|0|558|0|0|0|0|0|0|1|0|0|20200527133059
20200527|02000016|91210328|1800100000084|1800100000084|20200511000080|B3UHWVR2|1|0|18600|18600|10|0|0|558|0|0|0|0|0|0|1|0|0|20200527132943
20200527|02000016|91210324|1815146155010|1815146155010|20200511000080|B3UHWVR2|1|0|18600|18600|10|0|0|558|0|0|0|0|0|0|1|0|0|20200527132844
20200527|02000016|91210320|1813700388839|1813700388839|20200511000080|B3UHWVR2|1|0|18600|18600|10|0|0|558|0|0|0|0|0|0|1|0|0|20200527132807
20200527|02000016|91210318|1813694033282|1813694033282|20200511000080|B3UHWVR2|1|0|18600|18600|10|0|0|558|0|0|0|0|0|0|1|0|0|20200527132736
20200527|02000016|91210311|1818746954345|1818746954345|20200511000080|B3UHWVR2|1|0|18600|18600|10|0|0|558|0|0|0|0|0|0|1|0|0|20200527132609
20200527|02000016|91210307|1815211571887|1815211571887|20200511000080|B3UHWVR2|1|0|18600|18600|10|0|0|558|0|0|0|0|0|0|1|0|0|20200527132554
20200527|02000016|91210306|1800100000118|1800100000118|20200511000080|B3UHWVR2|1|0|18600|18600|10|0|0|558|0|0|0|0|0|0|1|0|0|20200527132520
20200527|02000016|91210302|1800100000067|1800100000067|20200511000080|B3UHWVR2|1|0|18600|18600|10|0|0|558|0|0|0|0|0|0|1|0|0|20200527132452
20200527|02000016|91210301|1813945860022|1813945860022|20200511000080|B3UHWVR2|1|0|18600|18600|10|0|0|558|0|0|0|0|0|0|1|0|0|20200527132418
20200527|02000016|91210297|1815256323299|1815256323299|20200511000080|B3UHWVR2|1|0|18600|18600|10|0|0|558|0|0|0|0|0|0|1|0|0|20200527132335
20200527|02000016|91210296|1815933126808|1815933126808|20200511000080|B3UHWVR2|1|0|18600|18600|10|0|0|558|0|0|0|0|0|0|1|0|0|20200527132334
20200527|02000016|91210295|1818631760322|1818631760322|20200511000080|B3UHWVR2|1|0|18600|18600|10|0|0|558|0|0|0|0|0|0|1|0|0|20200527132333
20200527|02000016|91210294|1815256323299|1815256323299|20200511000080|B3UHWVR2|1|0|18600|18600|10|0|0|558|0|0|0|0|0|0|1|0|0|20200527132325
20200527|02000016|91210286|1813846055840|1813846055840|20200511000080|B3UHWVR2|1|0|18600|18600|10|0|0|558|0|0|0|0|0|0|1|0|0|20200527132241
20200527|02000016|91210282|1813684675119|1813684675119|20200511000080|B3UHWVR2|1|0|18600|18600|10|0|0|558|0|0|0|0|0|0|1|0|0|20200527132100
20200527|02000016|91210281|1813582743080|1813582743080|20200511000080|B3UHWVR2|1|0|18600|18600|10|0|0|558|0|0|0|0|0|0|1|0|0|20200527132052
20200527|02000016|91210273|1813796290795|1813796290795|20200511000080|B3UHWVR2|1|0|18600|18600|10|0|0|558|0|0|0|0|0|0|1|0|0|20200527131905
20200527|02000016|91210269|1818631760311|1818631760311|20200511000080|B3UHWVR2|1|0|18600|18600|10|0|0|558|0|0|0|0|0|0|1|0|0|20200527131814
20200527|02000016|91210264|1813674575508|1813674575508|20200511000080|B3UHWVR2|1|0|18600|18600|10|0|0|558|0|0|0|0|0|0|1|0|0|20200527131738
20200527|02000016|91210263|1813578329840|1813578329840|20200511000080|B3UHWVR2|1|0|18600|18600|10|0|0|558|0|0|0|0|0|0|1|0|0|20200527131731
20200527|02000016|91210247|1818742493073|1818742493073|20200511000080|B3UHWVR2|1|0|18600|18600|10|0|0|558|0|0|0|0|0|0|1|0|0|20200527131443
20200527|02000016|91210246|1800100000117|1800100000117|20200511000080|B3UHWVR2|1|0|18600|18600|10|0|0|558|0|0|0|0|0|0|1|0|0|20200527131419
20200527|02000016|91210242|1813555046898|1813555046898|20200511000080|B3UHWVR2|1|0|18600|18600|10|0|0|558|0|0|0|0|0|0|1|0|0|20200527131314
20200527|02000016|91210235|1815246290569|1815246290569|20200511000080|B3UHWVR2|1|0|18600|18600|10|0|0|558|0|0|0|0|0|0|1|0|0|20200527131153
20200527|02000016|91210234|1800100000125|1800100000125|20200511000080|B3UHWVR2|1|0|18600|18600|10|0|0|558|0|0|0|0|0|0|1|0|0|20200527131131
20200527|02000016|91210224|1818787565657|1818787565657|20200511000080|B3UHWVR2|1|0|18600|18600|10|0|0|558|0|0|0|0|0|0|1|0|0|20200527131031
20200527|02000016|91210223|1813722239497|1813722239497|20200511000080|B3UHWVR2|1|0|18600|18600|10|0|0|558|0|0|0|0|0|0|1|0|0|20200527130934
20200527|02000016|91210222|1815094645884|1815094645884|20200511000080|B3UHWVR2|1|0|18600|18600|10|0|0|558|0|0|0|0|0|0|1|0|0|20200527130843
20200527|02000016|91210215|1815146194700|1815146194700|20200511000080|B3UHWVR2|1|0|18600|18600|10|0|0|558|0|0|0|0|0|0|1|0|0|20200527130724
20200527|02000016|91210211|1815045780980|1815045780980|20200511000080|B3UHWVR2|1|0|18600|18600|10|0|0|558|0|0|0|0|0|0|1|0|0|20200527130624
20200527|02000016|91210207|1813730198476|1813730198476|20200511000080|B3UHWVR2|1|0|18600|18600|10|0|0|558|0|0|0|0|0|0|1|0|0|20200527130606
20200527|02000016|91210206|1800100000045|1800100000045|20200511000080|B3UHWVR2|1|0|18600|18600|10|0|0|558|0|0|0|0|0|0|1|0|0|20200527130554
20200527|02000016|91210196|1800100000341|1800100000341|20200511000080|B3UHWVR2|1|0|18600|18600|10|0|0|558|0|0|0|0|0|0|1|0|0|20200527130511
20200527|02000016|91210192|1818187948426|1818187948426|20200511000080|B3UHWVR2|1|0|18600|18600|10|0|0|558|0|0|0|0|0|0|1|0|0|20200527130449
20200527|02000016|91210191|1813988240419|1813988240419|20200511000080|B3UHWVR2|1|0|18600|18600|10|0|0|558|0|0|0|0|0|0|1|0|0|20200527130428
20200527|02000016|91210190|1818330218859|1818330218859|20200511000080|B3UHWVR2|1|0|18600|18600|10|0|0|558|0|0|0|0|0|0|1|0|0|20200527130427
20200527|02000016|91210185|1813619405650|1813619405650|20200511000080|B3UHWVR2|1|0|18600|18600|10|0|0|558|0|0|0|0|0|0|1|0|0|20200527130406
20200527|02000016|91210184|1818746535653|1818746535653|20200511000080|B3UHWVR2|1|0|18600|18600|10|0|0|558|0|0|0|0|0|0|1|0|0|20200527130359
20200527|02000016|91210183|1800100000063|1800100000063|20200511000080|B3UHWVR2|1|0|18600|18600|10|0|0|558|0|0|0|0|0|0|1|0|0|20200527130328
20200527|02000016|91210179|1800100000109|1800100000109|20200511000080|B3UHWVR2|1|0|18600|18600|10|0|0|558|0|0|0|0|0|0|1|0|0|20200527130305
20200527|02000016|91210175|1813082360764|1813082360764|20200511000080|B3UHWVR2|1|0|18600|18600|10|0|0|558|0|0|0|0|0|0|1|0|0|20200527130244
20200527|02000016|91210174|1818132758604|1818132758604|20200511000080|B3UHWVR2|1|0|18600|18600|10|0|0|558|0|0|0|0|0|0|1|0|0|20200527130216
20200527|02000016|91210173|1800100000154|1800100000154|20200511000080|B3UHWVR2|1|0|18600|18600|10|0|0|558|0|0|0|0|0|0|1|0|0|20200527130157
20200527|02000016|91210166|1813731691285|1813731691285|20200511000080|B3UHWVR2|1|0|18600|18600|10|0|0|558|0|0|0|0|0|0|1|0|0|20200527130110
20200527|02000016|91210159|1813582246755|1813582246755|20200511000080|B3UHWVR2|1|0|18600|18600|10|0|0|558|0|0|0|0|0|0|1|0|0|20200527130022
20200527|02000016|91210155|1800100000087|1800100000087|20200511000080|B3UHWVR2|1|0|18600|18600|10|0|0|558|0|0|0|0|0|0|1|0|0|20200527112927
20200527|02000016|91210151|1818741608136|1818741608136|20200511000080|B3UHWVR2|1|0|18600|18600|10|0|0|558|0|0|0|0|0|0|1|0|0|20200527112832
20200527|02000016|91210141|1818806080965|1818806080965|20200511000080|B3UHWVR2|1|0|18600|18600|10|0|0|558|0|0|0|0|0|0|1|0|0|20200527112643
20200527|02000016|91210134|1818987916256|1818987916256|20200511000080|B3UHWVR2|1|0|18600|18600|10|0|0|558|0|0|0|0|0|0|1|0|0|20200527112338
20200527|02000016|91210133|1815840063631|1815840063631|20200511000080|B3UHWVR2|1|0|18600|18600|10|0|0|558|0|0|0|0|0|0|1|0|0|20200527112216
20200527|02000016|91210132|1815227006003|1815227006003|20200511000080|B3UHWVR2|1|0|18600|18600|10|0|0|558|0|0|0|0|0|0|1|0|0|20200527112214
20200527|02000016|91210125|1813400350306|1813400350306|20200511000080|B3UHWVR2|1|0|18600|18600|10|0|0|558|0|0|0|0|0|0|1|0|0|20200527112131
20200527|02000016|91210124|1818869127192|1818869127192|20200511000080|B3UHWVR2|1|0|18600|18600|10|0|0|558|0|0|0|0|0|0|1|0|0|20200527112122
20200527|02000016|91210120|1818696301799|1818696301799|20200511000080|B3UHWVR2|1|0|18600|18600|10|0|0|558|0|0|0|0|0|0|1|0|0|20200527112100
20200527|02000016|91210119|1813520802238|1813520802238|20200511000080|B3UHWVR2|1|0|18600|18600|10|0|0|558|0|0|0|0|0|0|1|0|0|20200527112014
20200527|02000016|91210114|1818987511266|1818987511266|20200511000080|B3UHWVR2|1|0|18600|18600|10|0|0|558|0|0|0|0|0|0|1|0|0|20200527111946
20200527|02000016|91210110|1815187700939|1815187700939|20200511000080|B3UHWVR2|1|0|18600|18600|10|0|0|558|0|0|0|0|0|0|1|0|0|20200527111925
20200527|02000016|91210095|1815133217875|1815133217875|20200511000080|B3UHWVR2|1|0|18600|18600|10|0|0|558|0|0|0|0|0|0|1|0|0|20200527111404
20200527|02000016|91210091|1815184848605|1815184848605|20200511000080|B3UHWVR2|1|0|18600|18600|10|0|0|558|0|0|0|0|0|0|1|0|0|20200527111315
20200527|02000016|91210090|1813785432993|1813785432993|20200511000080|B3UHWVR2|1|0|18600|18600|10|0|0|558|0|0|0|0|0|0|1|0|0|20200527111252
20200527|02000016|91210082|1818187582339|1818187582339|20200511000080|B3UHWVR2|1|0|18600|18600|10|0|0|558|0|0|0|0|0|0|1|0|0|20200527111000
20200527|02000016|91210075|1818313096871|1818313096871|20200511000080|B3UHWVR2|1|0|18600|18600|10|0|0|558|0|0|0|0|0|0|1|0|0|20200527110807
20200527|02000016|91210074|1815257296726|1815257296726|20200511000080|B3UHWVR2|1|0|18600|18600|10|0|0|558|0|0|0|0|0|0|1|0|0|20200527110800
20200527|02000016|91210073|1818788201666|1818788201666|20200511000080|B3UHWVR2|1|0|18600|18600|10|0|0|558|0|0|0|0|0|0|1|0|0|20200527110708
20200527|02000016|91210072|1817304211987|1817304211987|20200511000080|B3UHWVR2|1|0|18600|18600|10|0|0|558|0|0|0|0|0|0|1|0|0|20200527110537
20200527|02000016|91210071|1813988238986|1813988238986|20200511000080|B3UHWVR2|1|0|18600|18600|10|0|0|558|0|0|0|0|0|0|1|0|0|20200527110513
20200527|02000016|91210070|1815830939311|1815830939311|20200511000080|B3UHWVR2|1|0|18600|18600|10|0|0|558|0|0|0|0|0|0|1|0|0|20200527110508
20200527|02000016|91210069|1813292999216|1813292999216|20200511000080|B3UHWVR2|1|0|18600|18600|10|0|0|558|0|0|0|0|0|0|1|0|0|20200527110453
20200527|02000016|91210068|1813932211661|1813932211661|20200511000080|B3UHWVR2|1|0|18600|18600|10|0|0|558|0|0|0|0|0|0|1|0|0|20200527110412
20200527|02000016|91210067|1813978866093|1813978866093|20200511000080|B3UHWVR2|1|0|18600|18600|10|0|0|558|0|0|0|0|0|0|1|0|0|20200527110214
20200527|02000016|91210063|1818352021124|1818352021124|20200511000080|B3UHWVR2|1|0|18600|18600|10|0|0|558|0|0|0|0|0|0|1|0|0|20200527105721
20200527|02000016|91210061|1813593926195|1813593926195|20200511000080|B3UHWVR2|1|0|18600|18600|10|0|0|558|0|0|0|0|0|0|1|0|0|20200527105453
20200527|02000016|91210050|1818674146599|1818674146599|20200511000080|B3UHWVR2|1|0|18600|18600|10|0|0|558|0|0|0|0|0|0|1|0|0|20200527105243
20200527|02000016|91210049|1818606548783|1818606548783|20200511000080|B3UHWVR2|1|0|18600|18600|10|0|0|558|0|0|0|0|0|0|1|0|0|20200527105220
20200527|02000016|91210048|1818802455863|1818802455863|20200511000080|B3UHWVR2|1|0|18600|18600|10|0|0|558|0|0|0|0|0|0|1|0|0|20200527105159
20200527|02000016|91210047|1813970601152|1813970601152|20200511000080|B3UHWVR2|1|0|18600|18600|10|0|0|558|0|0|0|0|0|0|1|0|0|20200527105143
20200527|02000016|91210040|1813887873327|1813887873327|20200511000080|B3UHWVR2|1|0|18600|18600|10|0|0|558|0|0|0|0|0|0|1|0|0|20200527105130
20200527|02000016|91210033|1813940555070|1813940555070|20200511000080|B3UHWVR2|1|0|18600|18600|10|0|0|558|0|0|0|0|0|0|1|0|0|20200527104623
20200527|02000016|91210029|1815837935868|1815837935868|20200511000080|B3UHWVR2|1|0|18600|18600|10|0|0|558|0|0|0|0|0|0|1|0|0|20200527104603
20200527|02000016|91210028|1818908752966|1818908752966|20200511000080|B3UHWVR2|1|0|18600|18600|10|0|0|558|0|0|0|0|0|0|1|0|0|20200527104549
20200527|02000016|91210024|1815208808189|1815208808189|20200511000080|B3UHWVR2|1|0|18600|18600|10|0|0|558|0|0|0|0|0|0|1|0|0|20200527104457
20200527|02000016|91210018|1818875037395|1818875037395|20200511000080|B3UHWVR2|1|0|18600|18600|10|0|0|558|0|0|0|0|0|0|1|0|0|20200527104335
20200527|02000016|91210008|1815970230203|1815970230203|20200511000080|B3UHWVR2|1|0|18600|18600|10|0|0|558|0|0|0|0|0|0|1|0|0|20200527104146
20200527|02000016|91210007|1813070527319|1813070527319|20200511000080|B3UHWVR2|1|0|18600|18600|10|0|0|558|0|0|0|0|0|0|1|0|0|20200527104102
20200527|02000016|91210006|1815291119145|1815291119145|20200511000080|B3UHWVR2|1|0|18600|18600|10|0|0|558|0|0|0|0|0|0|1|0|0|20200527104031
20200527|02000016|9129998|1818091149039|1818091149039|20200511000080|B3UHWVR2|1|0|18600|18600|10|0|0|558|0|0|0|0|0|0|1|0|0|20200527103933
20200527|02000016|9129997|1818787552261|1818787552261|20200511000080|B3UHWVR2|1|0|18600|18600|10|0|0|558|0|0|0|0|0|0|1|0|0|20200527103930
20200527|02000016|9129993|1800100000085|1800100000085|20200511000080|B3UHWVR2|1|0|18600|18600|10|0|0|558|0|0|0|0|0|0|1|0|0|20200527103919
20200527|02000016|9129989|1813516512882|1813516512882|20200511000080|B3UHWVR2|1|0|18600|18600|10|0|0|558|0|0|0|0|0|0|1|0|0|20200527103821
20200527|02000016|9129988|1815207962519|1815207962519|20200511000080|B3UHWVR2|1|0|18600|18600|10|0|0|558|0|0|0|0|0|0|1|0|0|20200527103750
20200527|02000016|9129987|1818049119039|1818049119039|20200511000080|B3UHWVR2|1|0|18600|18600|10|0|0|558|0|0|0|0|0|0|1|0|0|20200527103740
20200527|02000016|9129971|1815969226677|1815969226677|20200511000080|B3UHWVR2|1|0|18600|18600|10|0|0|558|0|0|0|0|0|0|1|0|0|20200527103331
20200527|02000016|9129969|1813466192760|1813466192760|20200511000080|B3UHWVR2|1|0|18600|18600|10|0|0|558|0|0|0|0|0|0|1|0|0|20200527103231
20200527|02000016|9129968|1815837935909|1815837935909|20200511000080|B3UHWVR2|1|0|18600|18600|10|0|0|558|0|0|0|0|0|0|1|0|0|20200527103230
20200527|02000016|9129957|1813887902815|1813887902815|20200511000080|B3UHWVR2|1|0|18600|18600|10|0|0|558|0|0|0|0|0|0|1|0|0|20200527102932
20200527|02000016|9129955|1815929113628|1815929113628|20200511000080|B3UHWVR2|1|0|18600|18600|10|0|0|558|0|0|0|0|0|0|1|0|0|20200527102922
20200527|02000016|9129944|1813466173625|1813466173625|20200511000080|B3UHWVR2|1|0|18600|18600|10|0|0|558|0|0|0|0|0|0|1|0|0|20200527102739
20200527|02000016|9129938|1813669212329|1813669212329|20200511000080|B3UHWVR2|1|0|18600|18600|10|0|0|558|0|0|0|0|0|0|1|0|0|20200527102645
20200527|02000016|9129934|1813808782960|1813808782960|20200511000080|B3UHWVR2|1|0|18600|18600|10|0|0|558|0|0|0|0|0|0|1|0|0|20200527102635
20200527|02000016|9129930|1818088174982|1818088174982|20200511000080|B3UHWVR2|1|0|18600|18600|10|0|0|558|0|0|0|0|0|0|1|0|0|20200527102608
20200527|02000016|9129917|1813315273740|1813315273740|20200511000080|B3UHWVR2|1|0|18600|18600|10|0|0|558|0|0|0|0|0|0|1|0|0|20200527102130
20200527|02000016|9129916|1818164646890|1818164646890|20200511000080|B3UHWVR2|1|0|18600|18600|10|0|0|558|0|0|0|0|0|0|1|0|0|20200527102041
20200527|02000016|9129915|1815087509852|1815087509852|20200511000080|B3UHWVR2|1|0|18600|18600|10|0|0|558|0|0|0|0|0|0|1|0|0|20200527102011
20200527|02000016|9129914|1813393222560|1813393222560|20200511000080|B3UHWVR2|1|0|18600|18600|10|0|0|558|0|0|0|0|0|0|1|0|0|20200527101947
20200527|02000016|9129909|1815911281296|1815911281296|20200511000080|B3UHWVR2|1|0|18600|18600|10|0|0|558|0|0|0|0|0|0|1|0|0|20200527101941
20200527|02000016|9129904|1813388758398|1813388758398|20200511000080|B3UHWVR2|1|0|18600|18600|10|0|0|558|0|0|0|0|0|0|1|0|0|20200527101859
20200527|02000016|9129900|1813908822770|1813908822770|20200511000080|B3UHWVR2|1|0|18600|18600|10|0|0|558|0|0|0|0|0|0|1|0|0|20200527101851
20200527|02000016|9129892|1815887550134|1815887550134|20200511000080|B3UHWVR2|1|0|18600|18600|10|0|0|558|0|0|0|0|0|0|1|0|0|20200527101820
20200527|02000016|9129891|1813887838521|1813887838521|20200511000080|B3UHWVR2|1|0|18600|18600|10|0|0|558|0|0|0|0|0|0|1|0|0|20200527101746
20200527|02000016|9129890|1813628842075|1813628842075|20200511000080|B3UHWVR2|1|0|18600|18600|10|0|0|558|0|0|0|0|0|0|1|0|0|20200527101736
20200527|02000016|9129883|1815969277886|1815969277886|20200511000080|B3UHWVR2|1|0|18600|18600|10|0|0|558|0|0|0|0|0|0|1|0|0|20200527101705
20200527|02000016|9129882|1813474353192|1813474353192|20200511000080|B3UHWVR2|1|0|18600|18600|10|0|0|558|0|0|0|0|0|0|1|0|0|20200527101655
20200527|02000016|9129878|1813709230552|1813709230552|20200511000080|B3UHWVR2|1|0|18600|18600|10|0|0|558|0|0|0|0|0|0|1|0|0|20200527101611
20200527|02000016|9129877|1813930896039|1813930896039|20200511000080|B3UHWVR2|1|0|18600|18600|10|0|0|558|0|0|0|0|0|0|1|0|0|20200527101609
20200527|02000016|9129876|1819987525520|1819987525520|20200511000080|B3UHWVR2|1|0|18600|18600|10|0|0|558|0|0|0|0|0|0|1|0|0|20200527101552
20200527|02000016|9129875|1813988239363|1813988239363|20200511000080|B3UHWVR2|1|0|18600|18600|10|0|0|558|0|0|0|0|0|0|1|0|0|20200527101535
20200527|02000016|9129874|1818191539413|1818191539413|20200511000080|B3UHWVR2|1|0|18600|18600|10|0|0|558|0|0|0|0|0|0|1|0|0|20200527101533
20200527|02000016|9129873|1813730837693|1813730837693|20200511000080|B3UHWVR2|1|0|18600|18600|10|0|0|558|0|0|0|0|0|0|1|0|0|20200527101523
20200527|02000016|9129865|1813908823287|1813908823287|20200511000080|B3UHWVR2|1|0|18600|18600|10|0|0|558|0|0|0|0|0|0|1|0|0|20200527101449
20200527|02000016|9129861|1818903125539|1818903125539|20200511000080|B3UHWVR2|1|0|18600|18600|10|0|0|558|0|0|0|0|0|0|1|0|0|20200527101434
20200527|02000016|9129860|1815921012597|1815921012597|20200511000080|B3UHWVR2|1|0|18600|18600|10|0|0|558|0|0|0|0|0|0|1|0|0|20200527101432
20200527|02000016|9129858|1813988263155|1813988263155|20200511000080|B3UHWVR2|1|0|18600|18600|10|0|0|558|0|0|0|0|0|0|1|0|0|20200527101400
20200527|02000016|9129847|1813035964466|1813035964466|20200511000080|B3UHWVR2|1|0|18600|18600|10|0|0|558|0|0|0|0|0|0|1|0|0|20200527101254
20200527|02000016|9129845|1815184974413|1815184974413|20200511000080|B3UHWVR2|1|0|18600|18600|10|0|0|558|0|0|0|0|0|0|1|0|0|20200527101214
20200527|02000016|9129836|1818309996978|1818309996978|20200511000080|B3UHWVR2|1|0|18600|18600|10|0|0|558|0|0|0|0|0|0|1|0|0|20200527101155
20200527|02000016|9129834|1818088155607|1818088155607|20200511000080|B3UHWVR2|1|0|18600|18600|10|0|0|558|0|0|0|0|0|0|1|0|0|20200527101055
20200527|02000016|9129833|1818988219915|1818988219915|20200511000080|B3UHWVR2|1|0|18600|18600|10|0|0|558|0|0|0|0|0|0|1|0|0|20200527101053
20200527|02000016|9129832|1815079696414|1815079696414|20200511000080|B3UHWVR2|1|0|18600|18600|10|0|0|558|0|0|0|0|0|0|1|0|0|20200527101048
20200527|02000016|9129826|1813987581003|1813987581003|20200511000080|B3UHWVR2|1|0|18600|18600|10|0|0|558|0|0|0|0|0|0|1|0|0|20200527101028
20200527|02000016|9129825|1815524196086|1815524196086|20200511000080|B3UHWVR2|1|0|18600|18600|10|0|0|558|0|0|0|0|0|0|1|0|0|20200527100957
20200527|02000016|9129821|1815887555058|1815887555058|20200511000080|B3UHWVR2|1|0|18600|18600|10|0|0|558|0|0|0|0|0|0|1|0|0|20200527100914
20200527|02000016|9129820|1813633226787|1813633226787|20200511000080|B3UHWVR2|1|0|18600|18600|10|0|0|558|0|0|0|0|0|0|1|0|0|20200527100909
20200527|02000016|9129818|1813578269567|1813578269567|20200511000080|B3UHWVR2|1|0|18600|18600|10|0|0|558|0|0|0|0|0|0|1|0|0|20200527100833
20200527|02000016|9129817|1815972280790|1815972280790|20200511000080|B3UHWVR2|1|0|18600|18600|10|0|0|558|0|0|0|0|0|0|1|0|0|20200527100818
20200527|02000016|9129810|1815671191786|1815671191786|20200511000080|B3UHWVR2|1|0|18600|18600|10|0|0|558|0|0|0|0|0|0|1|0|0|20200527100717
20200527|02000016|9129808|1813759236567|1813759236567|20200511000080|B3UHWVR2|1|0|18600|18600|10|0|0|558|0|0|0|0|0|0|1|0|0|20200527100631
20200527|02000016|9129807|1815208756608|1815208756608|20200511000080|B3UHWVR2|1|0|18600|18600|10|0|0|558|0|0|0|0|0|0|1|0|0|20200527100556
20200527|02000016|9129801|1815933583199|1815933583199|20200511000080|B3UHWVR2|1|0|18600|18600|10|0|0|558|0|0|0|0|0|0|1|0|0|20200527100541
20200527|02000016|9129800|1818387548855|1818387548855|20200511000080|B3UHWVR2|1|0|18600|18600|10|0|0|558|0|0|0|0|0|0|1|0|0|20200527100520
20200527|02000016|9129798|1813992186412|1813992186412|20200511000080|B3UHWVR2|1|0|18600|18600|10|0|0|558|0|0|0|0|0|0|1|0|0|20200527100453
20200527|02000016|9129791|1813636870153|1813636870153|20200511000080|B3UHWVR2|1|0|18600|18600|10|0|0|558|0|0|0|0|0|0|1|0|0|20200527100354
20200527|02000016|9129783|1819187901601|1819187901601|20200511000080|B3UHWVR2|1|0|18600|18600|10|0|0|558|0|0|0|0|0|0|1|0|0|20200527100331
20200527|02000016|9129778|1813897985407|1813897985407|20200511000080|B3UHWVR2|1|0|18600|18600|10|0|0|558|0|0|0|0|0|0|1|0|0|20200527100250
20200527|02000016|9129777|1813324536769|1813324536769|20200511000080|B3UHWVR2|1|0|18600|18600|10|0|0|558|0|0|0|0|0|0|1|0|0|20200527100239
20200527|02000016|9129769|1819187939328|1819187939328|20200511000080|B3UHWVR2|1|0|18600|18600|10|0|0|558|0|0|0|0|0|0|1|0|0|20200527100211
20200527|02000016|9129765|1813908813212|1813908813212|20200511000080|B3UHWVR2|1|0|18600|18600|10|0|0|558|0|0|0|0|0|0|1|0|0|20200527100131
20200527|02000016|9129764|1813909114265|1813909114265|20200511000080|B3UHWVR2|1|0|18600|18600|10|0|0|558|0|0|0|0|0|0|1|0|0|20200527100113
20200527|02000016|9129762|1813066713691|1813066713691|20200511000080|B3UHWVR2|1|0|18600|18600|10|0|0|558|0|0|0|0|0|0|1|0|0|20200527100056
20200527|02000016|9129758|1813578228698|1813578228698|20200511000080|B3UHWVR2|1|0|18600|18600|10|0|0|558|0|0|0|0|0|0|1|0|0|20200527100047
20200527|02000016|9129754|1813131286769|1813131286769|20200511000080|B3UHWVR2|1|0|18600|18600|10|0|0|558|0|0|0|0|0|0|1|0|0|20200527100027
20200527|02000016|9129748|1818159856122|1818159856122|20200511000080|B3UHWVR2|1|0|18600|18600|10|0|0|558|0|0|0|0|0|0|1|0|0|20200527095948
20200527|02000016|9129747|1818891101268|1818891101268|20200511000080|B3UHWVR2|1|0|18600|18600|10|0|0|558|0|0|0|0|0|0|1|0|0|20200527095929
20200527|02000016|9129746|1815288130560|1815288130560|20200511000080|B3UHWVR2|1|0|18600|18600|10|0|0|558|0|0|0|0|0|0|1|0|0|20200527095927
20200527|02000016|9129741|1813368815583|1813368815583|20200511000080|B3UHWVR2|1|0|18600|18600|10|0|0|558|0|0|0|0|0|0|1|0|0|20200527095859
20200527|02000016|9129737|1818288573816|1818288573816|20200511000080|B3UHWVR2|1|0|18600|18600|10|0|0|558|0|0|0|0|0|0|1|0|0|20200527095850
20200527|02000016|9129732|1818210293990|1818210293990|20200511000080|B3UHWVR2|1|0|18600|18600|10|0|0|558|0|0|0|0|0|0|1|0|0|20200527095825
20200527|02000016|9129728|1813578198508|1813578198508|20200511000080|B3UHWVR2|1|0|18600|18600|10|0|0|558|0|0|0|0|0|0|1|0|0|20200527095753
20200527|02000016|9129727|1813309116156|1813309116156|20200511000080|B3UHWVR2|1|0|18600|18600|10|0|0|558|0|0|0|0|0|0|1|0|0|20200527095748
20200527|02000016|9129723|1813908822711|1813908822711|20200511000080|B3UHWVR2|1|0|18600|18600|10|0|0|558|0|0|0|0|0|0|1|0|0|20200527095735
20200527|02000016|9129722|1815308750767|1815308750767|20200511000080|B3UHWVR2|1|0|18600|18600|10|0|0|558|0|0|0|0|0|0|1|0|0|20200527095726
20200527|02000016|9129721|1813832293322|1813832293322|20200511000080|B3UHWVR2|1|0|18600|18600|10|0|0|558|0|0|0|0|0|0|1|0|0|20200527095716
20200527|02000016|9129714|1813308821971|1813308821971|20200511000080|B3UHWVR2|1|0|18600|18600|10|0|0|558|0|0|0|0|0|0|1|0|0|20200527095645
20200527|02000016|9129713|1813021088510|1813021088510|20200511000080|B3UHWVR2|1|0|18600|18600|10|0|0|558|0|0|0|0|0|0|1|0|0|20200527095644
20200527|02000016|9129711|1813779583395|1813779583395|20200511000080|B3UHWVR2|1|0|18600|18600|10|0|0|558|0|0|0|0|0|0|1|0|0|20200527095643
20200527|02000016|9129712|1818908826659|1818908826659|20200511000080|B3UHWVR2|1|0|18600|18600|10|0|0|558|0|0|0|0|0|0|1|0|0|20200527095643
20200527|02000016|9129710|1817692236913|1817692236913|20200511000080|B3UHWVR2|1|0|18600|18600|10|0|0|558|0|0|0|0|0|0|1|0|0|20200527095634
20200527|02000016|9129704|1813400336006|1813400336006|20200511000080|B3UHWVR2|1|0|18600|18600|10|0|0|558|0|0|0|0|0|0|1|0|0|20200527095619
20200527|02000016|9129699|1813936981199|1813936981199|20200511000080|B3UHWVR2|1|0|18600|18600|10|0|0|558|0|0|0|0|0|0|1|0|0|20200527095549
20200527|02000016|9129682|1813808781900|1813808781900|20200511000080|B3UHWVR2|1|0|18600|18600|10|0|0|558|0|0|0|0|0|0|1|0|0|20200527095511
20200527|02000016|9129681|1813987021097|1813987021097|20200511000080|B3UHWVR2|1|0|18600|18600|10|0|0|558|0|0|0|0|0|0|1|0|0|20200527095503
20200527|02000016|9129673|1813932256061|1813932256061|20200511000080|B3UHWVR2|1|0|18600|18600|10|0|0|558|0|0|0|0|0|0|1|0|0|20200527095419
20200527|02000016|9129672|1818311265676|1818311265676|20200511000080|B3UHWVR2|1|0|18600|18600|10|0|0|558|0|0|0|0|0|0|1|0|0|20200527095352
20200527|02000016|9129671|1815368798533|1815368798533|20200511000080|B3UHWVR2|1|0|18600|18600|10|0|0|558|0|0|0|0|0|0|1|0|0|20200527095350
20200527|02000016|9129669|1818009990778|1818009990778|20200511000080|B3UHWVR2|1|0|18600|18600|10|0|0|558|0|0|0|0|0|0|1|0|0|20200527095331
20200527|02000016|9129662|1800100000060|1800100000060|20200511000080|B3UHWVR2|1|0|18600|18600|10|0|0|558|0|0|0|0|0|0|1|0|0|20200527095309
20200527|02000016|9129658|1815544957559|1815544957559|20200511000080|B3UHWVR2|1|0|18600|18600|10|0|0|558|0|0|0|0|0|0|1|0|0|20200527095233
20200527|02000016|9129657|1818159800103|1818159800103|20200511000080|B3UHWVR2|1|0|18600|18600|10|0|0|558|0|0|0|0|0|0|1|0|0|20200527095232
20200527|02000016|9129656|1818306924682|1818306924682|20200511000080|B3UHWVR2|1|0|18600|18600|10|0|0|558|0|0|0|0|0|0|1|0|0|20200527095227
20200527|02000016|9129655|1813429398439|1813429398439|20200511000080|B3UHWVR2|1|0|18600|18600|10|0|0|558|0|0|0|0|0|0|1|0|0|20200527095219
20200527|02000016|9129651|1813555055525|1813555055525|20200511000080|B3UHWVR2|1|0|18600|18600|10|0|0|558|0|0|0|0|0|0|1|0|0|20200527095208
20200527|02000016|9129648|1815187541886|1815187541886|20200511000080|B3UHWVR2|1|0|18600|18600|10|0|0|558|0|0|0|0|0|0|1|0|0|20200527095111
20200527|02000016|9129647|1813987956640|1813987956640|20200511000080|B3UHWVR2|1|0|18600|18600|6|4|0|558|0|0|0|0|0|0|1|0|0|20200527095053
20200527|02000016|9129646|1813335311791|1813335311791|20200511000080|B3UHWVR2|1|0|18600|18600|10|0|0|558|0|0|0|0|0|0|1|0|0|20200527095052
20200527|02000016|9129644|1815998819593|1815998819593|20200511000080|B3UHWVR2|1|0|18600|18600|10|0|0|558|0|0|0|0|0|0|1|0|0|20200527095047
20200527|02000016|9129645|1818846735652|1818846735652|20200511000080|B3UHWVR2|1|0|18600|18600|10|0|0|558|0|0|0|0|0|0|1|0|0|20200527095047
20200527|02000016|9129643|1813483293913|1813483293913|20200511000080|B3UHWVR2|1|0|18600|18600|10|0|0|558|0|0|0|0|0|0|1|0|0|20200527095046
20200527|02000016|9129636|1818729936598|1818729936598|20200511000080|B3UHWVR2|1|0|18600|18600|10|0|0|558|0|0|0|0|0|0|1|0|0|20200527095037
20200527|02000016|9129634|1815894436377|1815894436377|20200511000080|B3UHWVR2|1|0|18600|18600|10|0|0|558|0|0|0|0|0|0|1|0|0|20200527095028
20200527|02000016|9129635|1815925591567|1815925591567|20200511000080|B3UHWVR2|1|0|18600|18600|10|0|0|558|0|0|0|0|0|0|1|0|0|20200527095028
20200527|02000016|9129623|1813324023246|1813324023246|20200511000080|B3UHWVR2|1|0|18600|18600|10|0|0|558|0|0|0|0|0|0|1|0|0|20200527094956
20200527|02000016|9129624|1817789888843|1817789888843|20200511000080|B3UHWVR2|1|0|18600|18600|10|0|0|558|0|0|0|0|0|0|1|0|0|20200527094956
20200527|02000016|9129622|1813323228902|1813323228902|20200511000080|B3UHWVR2|1|0|18600|18600|10|0|0|558|0|0|0|0|0|0|1|0|0|20200527094954
20200527|02000016|9129621|1813393327863|1813393327863|20200511000080|B3UHWVR2|1|0|18600|18600|10|0|0|558|0|0|0|0|0|0|1|0|0|20200527094950
20200527|02000016|9129610|1815368948672|1815368948672|20200511000080|B3UHWVR2|1|0|18600|18600|10|0|0|558|0|0|0|0|0|0|1|0|0|20200527094900
20200527|02000016|9129609|1813091586900|1813091586900|20200511000080|B3UHWVR2|1|0|18600|18600|10|0|0|558|0|0|0|0|0|0|1|0|0|20200527094852
20200527|02000016|9129608|1818514573135|1818514573135|20200511000080|B3UHWVR2|1|0|18600|18600|10|0|0|558|0|0|0|0|0|0|1|0|0|20200527094848
20200527|02000016|9129607|1815887508589|1815887508589|20200511000080|B3UHWVR2|1|0|18600|18600|10|0|0|558|0|0|0|0|0|0|1|0|0|20200527094845
20200527|02000016|9129606|1813633181332|1813633181332|20200511000080|B3UHWVR2|1|0|18600|18600|10|0|0|558|0|0|0|0|0|0|1|0|0|20200527094840
20200527|02000016|9129599|1815502925058|1815502925058|20200511000080|B3UHWVR2|1|0|18600|18600|10|0|0|558|0|0|0|0|0|0|1|0|0|20200527094826
20200527|02000016|9129597|1813102973382|1813102973382|20200511000080|B3UHWVR2|1|0|18600|18600|10|0|0|558|0|0|0|0|0|0|1|0|0|20200527094820
20200527|02000016|9129592|1800100000048|1800100000048|20200511000080|B3UHWVR2|1|0|18600|18600|10|0|0|558|0|0|0|0|0|0|1|0|0|20200527094808
20200527|02000016|9129587|1815033223779|1815033223779|20200511000080|B3UHWVR2|1|0|18600|18600|10|0|0|558|0|0|0|0|0|0|1|0|0|20200527094758
20200527|02000016|9129586|1817784230052|1817784230052|20200511000080|B3UHWVR2|1|0|18600|18600|10|0|0|558|0|0|0|0|0|0|1|0|0|20200527094751
20200527|02000016|9129576|1813769055559|1813769055559|20200511000080|B3UHWVR2|1|0|18600|18600|10|0|0|558|0|0|0|0|0|0|1|0|0|20200527094734
20200527|02000016|9129571|1815256323299|1815256323299|20200511000080|B3UHWVR2|1|0|18600|18600|10|0|0|558|0|0|0|0|0|0|1|0|0|20200527094727
20200527|02000016|9129572|1813903326296|1813903326296|20200511000080|B3UHWVR2|1|0|18600|18600|10|0|0|558|0|0|0|0|0|0|1|0|0|20200527094727
20200527|02000016|9129570|1817697226810|1817697226810|20200511000080|B3UHWVR2|1|0|18600|18600|10|0|0|558|0|0|0|0|0|0|1|0|0|20200527094725
20200527|02000016|9129566|1815187507752|1815187507752|20200511000080|B3UHWVR2|1|0|18600|18600|10|0|0|558|0|0|0|0|0|0|1|0|0|20200527094720
20200527|02000016|9129565|1813190099140|1813190099140|20200511000080|B3UHWVR2|1|0|18600|18600|10|0|0|558|0|0|0|0|0|0|1|0|0|20200527094719
20200527|02000016|9129552|1815839829131|1815839829131|20200511000080|B3UHWVR2|1|0|18600|18600|10|0|0|558|0|0|0|0|0|0|1|0|0|20200527094658
20200527|02000016|9129550|1815256323299|1815256323299|20200511000080|B3UHWVR2|1|0|18600|18600|10|0|0|558|0|0|0|0|0|0|1|0|0|20200527094655
20200527|02000016|9129551|1813378816227|1813378816227|20200511000080|B3UHWVR2|1|0|18600|18600|10|0|0|558|0|0|0|0|0|0|1|0|0|20200527094655
20200527|02000016|9129546|1813555190027|1813555190027|20200511000080|B3UHWVR2|1|0|18600|18600|10|0|0|558|0|0|0|0|0|0|1|0|0|20200527094651
20200527|02000016|9129542|1815256323299|1815256323299|20200511000080|B3UHWVR2|1|0|18600|18600|10|0|0|558|0|0|0|0|0|0|1|0|0|20200527094648
20200527|02000016|9129541|1819909235532|1819909235532|20200511000080|B3UHWVR2|1|0|18600|18600|10|0|0|558|0|0|0|0|0|0|1|0|0|20200527094641
20200527|02000016|9129540|1815256323299|1815256323299|20200511000080|B3UHWVR2|1|0|18600|18600|10|0|0|558|0|0|0|0|0|0|1|0|0|20200527094638
20200527|02000016|9129533|1813098067177|1813098067177|20200511000080|B3UHWVR2|1|0|18600|18600|10|0|0|558|0|0|0|0|0|0|1|0|0|20200527094628
20200527|02000016|9129529|1815256323299|1815256323299|20200511000080|B3UHWVR2|1|0|18600|18600|6|4|0|558|0|0|0|0|0|0|1|0|0|20200527094622
20200527|02000016|9129525|1813832256871|1813832256871|20200511000080|B3UHWVR2|1|0|18600|18600|10|0|0|558|0|0|0|0|0|0|1|0|0|20200527094617
20200527|02000016|9129524|1815043594322|1815043594322|20200511000080|B3UHWVR2|1|0|18600|18600|10|0|0|558|0|0|0|0|0|0|1|0|0|20200527094615
20200527|02000016|9129520|1815256323299|1815256323299|20200511000080|B3UHWVR2|1|0|18600|18600|10|0|0|558|0|0|0|0|0|0|1|0|0|20200527094613
20200527|02000016|9129516|1818787516848|1818787516848|20200511000080|B3UHWVR2|1|0|18600|18600|10|0|0|558|0|0|0|0|0|0|1|0|0|20200527094603
20200527|02000016|9129514|1813578286883|1813578286883|20200511000080|B3UHWVR2|1|0|18600|18600|10|0|0|558|0|0|0|0|0|0|1|0|0|20200527094550
20200527|02000016|9129513|1818149061051|1818149061051|20200511000080|B3UHWVR2|1|0|18600|18600|10|0|0|558|0|0|0|0|0|0|1|0|0|20200527094544
20200527|02000016|9129512|1800100000347|1800100000347|20200511000080|B3UHWVR2|1|0|18600|18600|10|0|0|558|0|0|0|0|0|0|1|0|0|20200527094538
20200527|02000016|9129510|1818987538596|1818987538596|20200511000080|B3UHWVR2|1|0|18600|18600|10|0|0|558|0|0|0|0|0|0|1|0|0|20200527094531
20200527|02000016|9129511|1818908820122|1818908820122|20200511000080|B3UHWVR2|1|0|18600|18600|10|0|0|558|0|0|0|0|0|0|1|0|0|20200527094531
20200527|02000016|9129503|1818646771261|1818646771261|20200511000080|B3UHWVR2|1|0|18600|18600|10|0|0|558|0|0|0|0|0|0|1|0|0|20200527094520
20200527|02000016|9129496|1817317034515|1817317034515|20200511000080|B3UHWVR2|1|0|18600|18600|10|0|0|558|0|0|0|0|0|0|1|0|0|20200527094451
20200527|02000016|9129495|1818631253272|1818631253272|20200511000080|B3UHWVR2|1|0|18600|18600|10|0|0|558|0|0|0|0|0|0|1|0|0|20200527094432
20200527|02000016|9129491|1813628759556|1813628759556|20200511000080|B3UHWVR2|1|0|18600|18600|10|0|0|558|0|0|0|0|0|0|1|0|0|20200527094417
20200527|02000016|9129489|1815331520336|1815331520336|20200511000080|B3UHWVR2|1|0|18600|18600|10|0|0|558|0|0|0|0|0|0|1|0|0|20200527094341
20200527|02000016|9129488|1818669296269|1818669296269|20200511000080|B3UHWVR2|1|0|18600|18600|10|0|0|558|0|0|0|0|0|0|1|0|0|20200527094338
20200527|02000016|9129484|1813840542929|1813840542929|20200511000080|B3UHWVR2|1|0|18600|18600|10|0|0|558|0|0|0|0|0|0|1|0|0|20200527094331
20200527|02000016|9129481|1815727394536|1815727394536|20200511000080|B3UHWVR2|1|0|18600|18600|10|0|0|558|0|0|0|0|0|0|1|0|0|20200527094326
20200527|02000016|9129480|1818345857865|1818345857865|20200511000080|B3UHWVR2|1|0|18600|18600|10|0|0|558|0|0|0|0|0|0|1|0|0|20200527094323
20200527|02000016|9129478|1813473428282|1813473428282|20200511000080|B3UHWVR2|1|0|18600|18600|10|0|0|558|0|0|0|0|0|0|1|0|0|20200527094310
20200527|02000016|9129474|1815353070080|1815353070080|20200511000080|B3UHWVR2|1|0|18600|18600|10|0|0|558|0|0|0|0|0|0|1|0|0|20200527094308
20200527|02000016|9129473|1815368486928|1815368486928|20200511000080|B3UHWVR2|1|0|18600|18600|10|0|0|558|0|0|0|0|0|0|1|0|0|20200527094307
20200527|02000016|9129462|1815771836378|1815771836378|20200511000080|B3UHWVR2|1|0|18600|18600|10|0|0|558|0|0|0|0|0|0|1|0|0|20200527094224
20200527|02000016|9129461|1815233745111|1815233745111|20200511000080|B3UHWVR2|1|0|18600|18600|10|0|0|558|0|0|0|0|0|0|1|0|0|20200527094219
20200527|02000016|9129460|1815108647893|1815108647893|20200511000080|B3UHWVR2|1|0|18600|18600|10|0|0|558|0|0|0|0|0|0|1|0|0|20200527094216
20200527|02000016|9129459|1815108605312|1815108605312|20200511000080|B3UHWVR2|1|0|18600|18600|10|0|0|558|0|0|0|0|0|0|1|0|0|20200527094213
20200527|02000016|9129458|1815866353002|1815866353002|20200511000080|B3UHWVR2|1|0|18600|18600|10|0|0|558|0|0|0|0|0|0|1|0|0|20200527094210
20200527|02000016|9129457|1815287565721|1815287565721|20200511000080|B3UHWVR2|1|0|18600|18600|10|0|0|558|0|0|0|0|0|0|1|0|0|20200527094202
20200527|02000016|9129447|1815389494945|1815389494945|20200511000080|B3UHWVR2|1|0|18600|18600|10|0|0|558|0|0|0|0|0|0|1|0|0|20200527094147
20200527|02000016|9129438|1813988259242|1813988259242|20200511000080|B3UHWVR2|1|0|18600|18600|10|0|0|558|0|0|0|0|0|0|1|0|0|20200527094130
20200527|02000016|9129433|1813486694384|1813486694384|20200511000080|B3UHWVR2|1|0|18600|18600|10|0|0|558|0|0|0|0|0|0|1|0|0|20200527094121
20200527|02000016|9129434|1815840520719|1815840520719|20200511000080|B3UHWVR2|1|0|18600|18600|10|0|0|558|0|0|0|0|0|0|1|0|0|20200527094121
20200527|02000016|9129432|1813578288004|1813578288004|20200511000080|B3UHWVR2|1|0|18600|18600|10|0|0|558|0|0|0|0|0|0|1|0|0|20200527094120
20200527|02000016|9129427|1815388839989|1815388839989|20200511000080|B3UHWVR2|1|0|18600|18600|10|0|0|558|0|0|0|0|0|0|1|0|0|20200527094103
20200527|02000016|9129423|1818691191808|1818691191808|20200511000080|B3UHWVR2|1|0|18600|18600|10|0|0|558|0|0|0|0|0|0|1|0|0|20200527094101
20200527|02000016|9129419|1815100269110|1815100269110|20200511000080|B3UHWVR2|1|0|18600|18600|10|0|0|558|0|0|0|0|0|0|1|0|0|20200527094048
20200527|02000016|9129418|1813887868883|1813887868883|20200511000080|B3UHWVR2|1|0|18600|18600|10|0|0|558|0|0|0|0|0|0|1|0|0|20200527094047
20200527|02000016|9129411|1813238826869|1813238826869|20200511000080|B3UHWVR2|1|0|18600|18600|10|0|0|558|0|0|0|0|0|0|1|0|0|20200527094028
20200527|02000016|9129390|1815142051751|1815142051751|20200511000080|B3UHWVR2|1|0|18600|18600|10|0|0|558|0|0|0|0|0|0|1|0|0|20200527093946
20200527|02000016|9129380|1815818598480|1815818598480|20200511000080|B3UHWVR2|1|0|18600|18600|10|0|0|558|0|0|0|0|0|0|1|0|0|20200527093926
20200527|02000016|9129379|1818909995887|1818909995887|20200511000080|B3UHWVR2|1|0|18600|18600|10|0|0|558|0|0|0|0|0|0|1|0|0|20200527093921
20200527|02000016|9129375|1813578273333|1813578273333|20200511000080|B3UHWVR2|1|0|18600|18600|10|0|0|558|0|0|0|0|0|0|1|0|0|20200527093900
20200527|02000016|9129374|1813998824209|1813998824209|20200511000080|B3UHWVR2|1|0|18600|18600|10|0|0|558|0|0|0|0|0|0|1|0|0|20200527093857
20200527|02000016|9129370|1815287133896|1815287133896|20200511000080|B3UHWVR2|1|0|18600|18600|10|0|0|558|0|0|0|0|0|0|1|0|0|20200527093846
20200527|02000016|9129369|1818306969995|1818306969995|20200511000080|B3UHWVR2|1|0|18600|18600|10|0|0|558|0|0|0|0|0|0|1|0|0|20200527093845
20200527|02000016|9129368|1813796925201|1813796925201|20200511000080|B3UHWVR2|1|0|18600|18600|10|0|0|558|0|0|0|0|0|0|1|0|0|20200527093831
20200527|02000016|9129367|1817732266277|1817732266277|20200511000080|B3UHWVR2|1|0|18600|18600|10|0|0|558|0|0|0|0|0|0|1|0|0|20200527093830
20200527|02000016|9129366|1815129878708|1815129878708|20200511000080|B3UHWVR2|1|0|18600|18600|10|0|0|558|0|0|0|0|0|0|1|0|0|20200527093823
20200527|02000016|9129359|1815087553123|1815087553123|20200511000080|B3UHWVR2|1|0|18600|18600|10|0|0|558|0|0|0|0|0|0|1|0|0|20200527093817
20200527|02000016|9129357|1813330594491|1813330594491|20200511000080|B3UHWVR2|1|0|18600|18600|10|0|0|558|0|0|0|0|0|0|1|0|0|20200527093749
20200527|02000016|9129350|1818524494313|1818524494313|20200511000080|B3UHWVR2|1|0|18600|18600|10|0|0|558|0|0|0|0|0|0|1|0|0|20200527093733
20200527|02000016|9129349|1800100000053|1800100000053|20200511000080|B3UHWVR2|1|0|18600|18600|1|0|0|55|0|0|0|0|0|0|1|0|0|20200527093732
20200527|02000016|9129345|1813887865192|1813887865192|20200511000080|B3UHWVR2|1|0|18600|18600|10|0|0|558|0|0|0|0|0|0|1|0|0|20200527093729
20200527|02000016|9129343|1813335339191|1813335339191|20200511000080|B3UHWVR2|1|0|18600|18600|10|0|0|558|0|0|0|0|0|0|1|0|0|20200527093728
20200527|02000016|9129341|1813991898100|1813991898100|20200511000080|B3UHWVR2|1|0|18600|18600|10|0|0|558|0|0|0|0|0|0|1|0|0|20200527093712
20200527|02000016|9129340|1813836555299|1813836555299|20200511000080|B3UHWVR2|1|0|18600|18600|10|0|0|558|0|0|0|0|0|0|1|0|0|20200527093706
20200527|02000016|9129335|1813478653378|1813478653378|20200511000080|B3UHWVR2|1|0|18600|18600|10|0|0|558|0|0|0|0|0|0|1|0|0|20200527093656
20200527|02000016|9129331|1818288188088|1818288188088|20200511000080|B3UHWVR2|1|0|18600|18600|10|0|0|558|0|0|0|0|0|0|1|0|0|20200527093646
20200527|02000016|9129325|1818908820016|1818908820016|20200511000080|B3UHWVR2|1|0|18600|18600|10|0|0|558|0|0|0|0|0|0|1|0|0|20200527093636
20200527|02000016|9129318|1800100000046|1800100000046|20200511000080|B3UHWVR2|1|0|18600|18600|10|0|0|558|0|0|0|0|0|0|1|0|0|20200527093624
20200527|02000016|9129317|1818468025462|1818468025462|20200511000080|B3UHWVR2|1|0|18600|18600|10|0|0|558|0|0|0|0|0|0|1|0|0|20200527093618
20200527|02000016|9129315|1813930833053|1813930833053|20200511000080|B3UHWVR2|1|0|18600|18600|10|0|0|558|0|0|0|0|0|0|1|0|0|20200527093602
20200527|02000016|9129295|1818165273182|1818165273182|20200511000080|B3UHWVR2|1|0|18600|18600|10|0|0|558|0|0|0|0|0|0|1|0|0|20200527093539
20200527|02000016|9129294|1815025068429|1815025068429|20200511000080|B3UHWVR2|1|0|18600|18600|10|0|0|558|0|0|0|0|0|0|1|0|0|20200527093528
20200527|02000016|9129290|1813577503685|1813577503685|20200511000080|B3UHWVR2|1|0|18600|18600|10|0|0|558|0|0|0|0|0|0|1|0|0|20200527093522
20200527|02000016|9129289|1813988271457|1813988271457|20200511000080|B3UHWVR2|1|0|18600|18600|10|0|0|558|0|0|0|0|0|0|1|0|0|20200527093521
20200527|02000016|9129288|1813577500356|1813577500356|20200511000080|B3UHWVR2|1|0|18600|18600|10|0|0|558|0|0|0|0|0|0|1|0|0|20200527093518
20200527|02000016|9129286|1813992529265|1813992529265|20200511000080|B3UHWVR2|1|0|18600|18600|10|0|0|558|0|0|0|0|0|0|1|0|0|20200527093512
20200527|02000016|9129284|1815256323299|1815256323299|20200511000080|B3UHWVR2|1|0|18600|18600|10|0|0|558|0|0|0|0|0|0|1|0|0|20200527093509
20200527|02000016|9129285|1813703283113|1813703283113|20200511000080|B3UHWVR2|1|0|18600|18600|10|0|0|558|0|0|0|0|0|0|1|0|0|20200527093509
20200527|02000016|9129283|1815256323299|1815256323299|20200511000080|B3UHWVR2|1|0|18600|18600|10|0|0|558|0|0|0|0|0|0|1|0|0|20200527093457
20200527|02000016|9129281|1815256323299|1815256323299|20200511000080|B3UHWVR2|1|0|18600|18600|10|0|0|558|0|0|0|0|0|0|1|0|0|20200527093448
20200527|02000016|9129280|1815256323299|1815256323299|20200511000080|B3UHWVR2|1|0|18600|18600|10|0|0|558|0|0|0|0|0|0|1|0|0|20200527093440
20200527|02000016|9129279|1813577525294|1813577525294|20200511000080|B3UHWVR2|1|0|18600|18600|10|0|0|558|0|0|0|0|0|0|1|0|0|20200527093439
20200527|02000016|9129278|1815946775111|1815946775111|20200511000080|B3UHWVR2|1|0|18600|18600|10|0|0|558|0|0|0|0|0|0|1|0|0|20200527093437
20200527|02000016|9129277|1813730445441|1813730445441|20200511000080|B3UHWVR2|1|0|18600|18600|10|0|0|558|0|0|0|0|0|0|1|0|0|20200527093436
20200527|02000016|9129276|1815256323299|1815256323299|20200511000080|B3UHWVR2|1|0|18600|18600|10|0|0|558|0|0|0|0|0|0|1|0|0|20200527093431
20200527|02000016|9129272|1818725344782|1818725344782|20200511000080|B3UHWVR2|1|0|18600|18600|10|0|0|558|0|0|0|0|0|0|1|0|0|20200527093423
20200527|02000016|9129271|1815256323299|1815256323299|20200511000080|B3UHWVR2|1|0|18600|18600|10|0|0|558|0|0|0|0|0|0|1|0|0|20200527093422
20200527|02000016|9129267|1815256323299|1815256323299|20200511000080|B3UHWVR2|1|0|18600|18600|10|0|0|558|0|0|0|0|0|0|1|0|0|20200527093414
20200527|02000016|9129266|1813308821769|1813308821769|20200511000080|B3UHWVR2|1|0|18600|18600|10|0|0|558|0|0|0|0|0|0|1|0|0|20200527093410
20200527|02000016|9129265|1815256323299|1815256323299|20200511000080|B3UHWVR2|1|0|18600|18600|10|0|0|558|0|0|0|0|0|0|1|0|0|20200527093406
20200527|02000016|9129261|1813398637313|1813398637313|20200511000080|B3UHWVR2|1|0|18600|18600|10|0|0|558|0|0|0|0|0|0|1|0|0|20200527093353
20200527|02000016|9129260|1813237785798|1813237785798|20200511000080|B3UHWVR2|1|0|18600|18600|10|0|0|558|0|0|0|0|0|0|1|0|0|20200527093351
20200527|02000016|9129259|1815256323299|1815256323299|20200511000080|B3UHWVR2|1|0|18600|18600|10|0|0|558|0|0|0|0|0|0|1|0|0|20200527093348
20200527|02000016|9129258|1813324561701|1813324561701|20200511000080|B3UHWVR2|1|0|18600|18600|10|0|0|558|0|0|0|0|0|0|1|0|0|20200527093339
20200527|02000016|9129257|1815256323299|1815256323299|20200511000080|B3UHWVR2|1|0|18600|18600|10|0|0|558|0|0|0|0|0|0|1|0|0|20200527093338
20200527|02000016|9129256|1815334341131|1815334341131|20200511000080|B3UHWVR2|1|0|18600|18600|10|0|0|558|0|0|0|0|0|0|1|0|0|20200527093331
20200527|02000016|9129255|1815925561179|1815925561179|20200511000080|B3UHWVR2|1|0|18600|18600|10|0|0|558|0|0|0|0|0|0|1|0|0|20200527093330
20200527|02000016|9129254|1815256323299|1815256323299|20200511000080|B3UHWVR2|1|0|18600|18600|10|0|0|558|0|0|0|0|0|0|1|0|0|20200527093328
20200527|02000016|9129250|1813730190518|1813730190518|20200511000080|B3UHWVR2|1|0|18600|18600|10|0|0|558|0|0|0|0|0|0|1|0|0|20200527093320
20200527|02000016|9129248|1815256323299|1815256323299|20200511000080|B3UHWVR2|1|0|18600|18600|10|0|0|558|0|0|0|0|0|0|1|0|0|20200527093304
20200527|02000016|9129242|1815256323299|1815256323299|20200511000080|B3UHWVR2|1|0|18600|18600|10|0|0|558|0|0|0|0|0|0|1|0|0|20200527093254
20200527|02000016|9129241|1800100000031|1800100000031|20200511000080|B3UHWVR2|1|0|18600|18600|10|0|0|558|0|0|0|0|0|0|1|0|0|20200527093252
20200527|02000016|9129236|1815256323299|1815256323299|20200511000080|B3UHWVR2|1|0|18600|18600|10|0|0|558|0|0|0|0|0|0|1|0|0|20200527093243
20200527|02000016|9129232|1815256323299|1815256323299|20200511000080|B3UHWVR2|1|0|18600|18600|10|0|0|558|0|0|0|0|0|0|1|0|0|20200527093232
20200527|02000016|9129231|1815933321253|1815933321253|20200511000080|B3UHWVR2|1|0|18600|18600|10|0|0|558|0|0|0|0|0|0|1|0|0|20200527093228
20200527|02000016|9129230|1813769999509|1813769999509|20200511000080|B3UHWVR2|1|0|18600|18600|10|0|0|558|0|0|0|0|0|0|1|0|0|20200527093226
20200527|02000016|9129225|1815350622072|1815350622072|20200511000080|B3UHWVR2|1|0|18600|18600|10|0|0|558|0|0|0|0|0|0|1|0|0|20200527093209
20200527|02000016|9129224|1817642059933|1817642059933|20200511000080|B3UHWVR2|1|0|18600|18600|4|6|0|558|0|0|0|0|0|0|1|0|0|20200527093204
20200527|02000016|9129218|1815176213410|1815176213410|20200511000080|B3UHWVR2|1|0|18600|18600|10|0|0|558|0|0|0|0|0|0|1|0|0|20200527093158
20200527|02000016|9129214|1813988266069|1813988266069|20200511000080|B3UHWVR2|1|0|18600|18600|10|0|0|558|0|0|0|0|0|0|1|0|0|20200527093150
20200527|02000016|9129210|1815256323299|1815256323299|20200511000080|B3UHWVR2|1|0|18600|18600|10|0|0|558|0|0|0|0|0|0|1|0|0|20200527093149
20200527|02000016|9129206|1815256323299|1815256323299|20200511000080|B3UHWVR2|1|0|18600|18600|10|0|0|558|0|0|0|0|0|0|1|0|0|20200527093141
20200527|02000016|9129201|1815256323299|1815256323299|20200511000080|B3UHWVR2|1|0|18600|18600|10|0|0|558|0|0|0|0|0|0|1|0|0|20200527093134
20200527|02000016|9129200|1815256323299|1815256323299|20200511000080|B3UHWVR2|1|0|18600|18600|10|0|0|558|0|0|0|0|0|0|1|0|0|20200527093126
20200527|02000016|9129199|1813586496690|1813586496690|20200511000080|B3UHWVR2|1|0|18600|18600|10|0|0|558|0|0|0|0|0|0|1|0|0|20200527093118
20200527|02000016|9129198|1815256323299|1815256323299|20200511000080|B3UHWVR2|1|0|18600|18600|10|0|0|558|0|0|0|0|0|0|1|0|0|20200527093113
20200527|02000016|9129197|1815840074214|1815840074214|20200511000080|B3UHWVR2|1|0|18600|18600|10|0|0|558|0|0|0|0|0|0|1|0|0|20200527093110
20200527|02000016|9129193|1815256323299|1815256323299|20200511000080|B3UHWVR2|1|0|18600|18600|10|0|0|558|0|0|0|0|0|0|1|0|0|20200527093105
20200527|02000016|9129188|1815256323299|1815256323299|20200511000080|B3UHWVR2|1|0|18600|18600|10|0|0|558|0|0|0|0|0|0|1|0|0|20200527093055
20200527|02000016|9129181|1815256323299|1815256323299|20200511000080|B3UHWVR2|1|0|18600|18600|10|0|0|558|0|0|0|0|0|0|1|0|0|20200527093040
20200527|02000016|9129177|1815256323299|1815256323299|20200511000080|B3UHWVR2|1|0|18600|18600|10|0|0|558|0|0|0|0|0|0|1|0|0|20200527093024
20200527|02000016|9129176|1815256323299|1815256323299|20200511000080|B3UHWVR2|1|0|18600|18600|10|0|0|558|0|0|0|0|0|0|1|0|0|20200527093013
20200527|02000016|9129175|1813988267556|1813988267556|20200511000080|B3UHWVR2|1|0|18600|18600|10|0|0|558|0|0|0|0|0|0|1|0|0|20200527093001
20200527|02000016|9129174|1813591148644|1813591148644|20200511000080|B3UHWVR2|1|0|18600|18600|10|0|0|558|0|0|0|0|0|0|1|0|0|20200527092153
20200527|02000016|9129173|1815256323299|1815256323299|20200511000080|B3UHWVR2|1|0|18600|18600|10|0|0|558|0|0|0|0|0|0|1|0|0|20200527092147
20200527|02000016|9129172|1815256323299|1815256323299|20200511000080|B3UHWVR2|1|0|18600|18600|10|0|0|558|0|0|0|0|0|0|1|0|0|20200527092138
20200527|02000016|9129171|1815256323299|1815256323299|20200511000080|B3UHWVR2|1|0|18600|18600|10|0|0|558|0|0|0|0|0|0|1|0|0|20200527092130
20200527|02000016|9129170|1815256323299|1815256323299|20200511000080|B3UHWVR2|1|0|18600|18600|10|0|0|558|0|0|0|0|0|0|1|0|0|20200527092119
20200527|02000016|9129169|1815256323299|1815256323299|20200511000080|B3UHWVR2|1|0|18600|18600|10|0|0|558|0|0|0|0|0|0|1|0|0|20200527092111
20200527|02000016|9129168|1815256323299|1815256323299|20200511000080|B3UHWVR2|1|0|18600|18600|10|0|0|558|0|0|0|0|0|0|1|0|0|20200527092101
20200527|02000016|9129167|1815256323299|1815256323299|20200511000080|B3UHWVR2|1|0|18600|18600|10|0|0|558|0|0|0|0|0|0|1|0|0|20200527092051
