20200617|02000016|91248148|1813846055840|1813846055840|20200511000080|B3UHWVR2|1|0|18600|18600|10|0|0|550|0|0|0|0|0|0|1|0|0|20200617141835
20200617|02000016|91248140|1813190099140|1813190099140|20200511000080|B3UHWVR2|1|0|18600|18600|10|0|0|550|0|0|0|0|0|0|1|0|0|20200617141751
20200617|02000016|91248133|1813870088638|1813870088638|20200511000080|B3UHWVR2|1|0|18600|18600|10|0|0|550|0|0|0|0|0|0|1|0|0|20200617141709
20200617|02000016|91248132|1818088155607|1818088155607|20200511000080|B3UHWVR2|1|0|18600|18600|10|0|0|550|0|0|0|0|0|0|1|0|0|20200617141701
20200617|02000016|91248123|1813998824209|1813998824209|20200511000080|B3UHWVR2|1|0|18600|18600|10|0|0|550|0|0|0|0|0|0|1|0|0|20200617141538
20200617|02000016|91248122|1817707068016|1817707068016|20200511000080|B3UHWVR2|1|0|18600|18600|10|0|0|550|0|0|0|0|0|0|1|0|0|20200617141514
20200617|02000016|91248113|1813308791467|1813308791467|20200511000080|B3UHWVR2|1|0|18600|18600|10|0|0|550|0|0|0|0|0|0|1|0|0|20200617141506
20200617|02000016|91248110|1800100000114|1800100000114|20200511000080|B3UHWVR2|1|0|18600|18600|10|0|0|550|0|0|0|0|0|0|1|0|0|20200617141235
20200617|02000016|91248099|1815108647893|1815108647893|20200511000080|B3UHWVR2|1|0|18600|18600|10|0|0|550|0|0|0|0|0|0|1|0|0|20200617141114
20200617|02000016|91248098|1818908826659|1818908826659|20200511000080|B3UHWVR2|1|0|18600|18600|10|0|0|550|0|0|0|0|0|0|1|0|0|20200617141048
20200617|02000016|91248095|1813555055525|1813555055525|20200511000080|B3UHWVR2|1|0|18600|18600|10|0|0|550|0|0|0|0|0|0|1|0|0|20200617141045
20200617|02000016|91248088|1813687258341|1813687258341|20200511000080|B3UHWVR2|1|0|18600|18600|10|0|0|550|0|0|0|0|0|0|1|0|0|20200617141027
20200617|02000016|91248079|1813220168777|1813220168777|20200511000080|B3UHWVR2|1|0|18600|18600|10|0|0|550|0|0|0|0|0|0|1|0|0|20200617140959
20200617|02000016|91248077|1818742493073|1818742493073|20200511000080|B3UHWVR2|1|0|18600|18600|10|0|0|550|0|0|0|0|0|0|1|0|0|20200617140946
20200617|02000016|91248076|1818725268897|1818725268897|20200511000080|B3UHWVR2|1|0|18600|18600|10|0|0|550|0|0|0|0|0|0|1|0|0|20200617140934
20200617|02000016|91248073|1818371587990|1818371587990|20200511000080|B3UHWVR2|1|0|18600|18600|10|0|0|550|0|0|0|0|0|0|1|0|0|20200617140821
20200617|02000016|91248069|1818468155812|1818468155812|20200511000080|B3UHWVR2|1|0|18600|18600|10|0|0|550|0|0|0|0|0|0|1|0|0|20200617140208
20200617|02000016|91248068|1818008829058|1818008829058|20200511000080|B3UHWVR2|1|0|18600|18600|10|0|0|550|0|0|0|0|0|0|1|0|0|20200617140059
20200617|02000016|91248058|1813578198508|1813578198508|20200511000080|B3UHWVR2|1|0|18600|18600|10|0|0|550|0|0|0|0|0|0|1|0|0|20200617135636
20200617|02000016|91248057|1813904881393|1813904881393|20200511000080|B3UHWVR2|1|0|18600|18600|10|0|0|550|0|0|0|0|0|0|1|0|0|20200617135628
20200617|02000016|91248050|1818406902297|1818406902297|20200511000080|B3UHWVR2|1|0|18600|18600|10|0|0|550|0|0|0|0|0|0|1|0|0|20200617135243
20200617|02000016|91248049|1813988266069|1813988266069|20200511000080|B3UHWVR2|1|0|18600|18600|10|0|0|550|0|0|0|0|0|0|1|0|0|20200617135036
20200617|02000016|91248048|1813171908620|1813171908620|20200511000080|B3UHWVR2|1|0|18600|18600|10|0|0|550|0|0|0|0|0|0|1|0|0|20200617134926
20200617|02000016|91248040|1815840063631|1815840063631|20200511000080|B3UHWVR2|1|0|18600|18600|10|0|0|550|0|0|0|0|0|0|1|0|0|20200617134826
20200617|02000016|91248033|1813066713691|1813066713691|20200511000080|B3UHWVR2|1|0|18600|18600|10|0|0|550|0|0|0|0|0|0|1|0|0|20200617134657
20200617|02000016|91248026|1815909821050|1815909821050|20200511000080|B3UHWVR2|1|0|18600|18600|10|0|0|550|0|0|0|0|0|0|1|0|0|20200617134405
20200617|02000016|91248010|1815840520719|1815840520719|20200511000080|B3UHWVR2|1|0|18600|18600|10|0|0|550|0|0|0|0|0|0|1|0|0|20200617134132
20200617|02000016|91248005|1818524494313|1818524494313|20200511000080|B3UHWVR2|1|0|18600|18600|10|0|0|550|0|0|0|0|0|0|1|0|0|20200617134004
20200617|02000016|91247994|1817642059933|1817642059933|20200511000080|B3UHWVR2|1|0|18600|18600|10|0|0|550|0|0|0|0|0|0|1|0|0|20200617133810
20200617|02000016|91247993|1813889831810|1813889831810|20200511000080|B3UHWVR2|1|0|18600|18600|10|0|0|550|0|0|0|0|0|0|1|0|0|20200617133551
20200617|02000016|91247991|1818306969995|1818306969995|20200511000080|B3UHWVR2|1|0|18600|18600|10|0|0|550|0|0|0|0|0|0|1|0|0|20200617133422
20200617|02000016|91247986|1813987544821|1813987544821|20200511000080|B3UHWVR2|1|0|18600|18600|10|0|0|550|0|0|0|0|0|0|1|0|0|20200617133402
20200617|02000016|91247979|1819987524663|1819987524663|20200511000080|B3UHWVR2|1|0|18600|18600|10|0|0|550|0|0|0|0|0|0|1|0|0|20200617133310
20200617|02000016|91247973|1815631163200|1815631163200|20200511000080|B3UHWVR2|1|0|18600|18600|10|0|0|550|0|0|0|0|0|0|1|0|0|20200617133228
20200617|02000016|91247971|1813887865192|1813887865192|20200511000080|B3UHWVR2|1|0|18600|18600|10|0|0|550|0|0|0|0|0|0|1|0|0|20200617133145
20200617|02000016|91247959|1813988296912|1813988296912|20200511000080|B3UHWVR2|1|0|18600|18600|10|0|0|550|0|0|0|0|0|0|1|0|0|20200617132959
20200617|02000016|91247958|1818788236536|1818788236536|20200511000080|B3UHWVR2|1|0|18600|18600|10|0|0|550|0|0|0|0|0|0|1|0|0|20200617132900
20200617|02000016|91247956|1818174832906|1818174832906|20200511000080|B3UHWVR2|1|0|18600|18600|10|0|0|550|0|0|0|0|0|0|1|0|0|20200617132607
20200617|02000016|91247955|1800100000073|1800100000073|20200511000080|B3UHWVR2|1|0|18600|18600|10|0|0|550|0|0|0|0|0|0|1|0|0|20200617132455
20200617|02000016|91247954|1813035343475|1813035343475|20200511000080|B3UHWVR2|1|0|18600|18600|10|0|0|550|0|0|0|0|0|0|1|0|0|20200617132454
20200617|02000016|91247953|1818908820122|1818908820122|20200511000080|B3UHWVR2|1|0|18600|18600|10|0|0|550|0|0|0|0|0|0|1|0|0|20200617132451
20200617|02000016|91247949|1818669281955|1818669281955|20200511000080|B3UHWVR2|1|0|18600|18600|10|0|0|550|0|0|0|0|0|0|1|0|0|20200617132350
20200617|02000016|91247947|1813429398439|1813429398439|20200511000080|B3UHWVR2|1|0|18600|18600|10|0|0|550|0|0|0|0|0|0|1|0|0|20200617132318
20200617|02000016|91247941|1813650053647|1813650053647|20200511000080|B3UHWVR2|1|0|18600|18600|10|0|0|550|0|0|0|0|0|0|1|0|0|20200617132237
20200617|02000016|91247938|1815603255558|1815603255558|20200511000080|B3UHWVR2|1|0|18600|18600|10|0|0|550|0|0|0|0|0|0|1|0|0|20200617132201
20200617|02000016|91247932|1813593926195|1813593926195|20200511000080|B3UHWVR2|1|0|18600|18600|10|0|0|550|0|0|0|0|0|0|1|0|0|20200617132150
20200617|02000016|91247916|1818887546468|1818887546468|20200511000080|B3UHWVR2|1|0|18600|18600|10|0|0|550|0|0|0|0|0|0|1|0|0|20200617132126
20200617|02000016|91247909|1815969226677|1815969226677|20200511000080|B3UHWVR2|1|0|18600|18600|10|0|0|550|0|0|0|0|0|0|1|0|0|20200617131947
20200617|02000016|91247900|1813903128198|1813903128198|20200511000080|B3UHWVR2|1|0|18600|18600|10|0|0|550|0|0|0|0|0|0|1|0|0|20200617131812
20200617|02000016|91247897|1818507776297|1818507776297|20200511000080|B3UHWVR2|1|0|18600|18600|10|0|0|550|0|0|0|0|0|0|1|0|0|20200617131650
20200617|02000016|91247884|1813066542463|1813066542463|20200511000080|B3UHWVR2|1|0|18600|18600|10|0|0|550|0|0|0|0|0|0|1|0|0|20200617131415
20200617|02000016|91247883|1815368684150|1815368684150|20200511000080|B3UHWVR2|1|0|18600|18600|10|0|0|550|0|0|0|0|0|0|1|0|0|20200617131407
20200617|02000016|91247882|1813636870153|1813636870153|20200511000080|B3UHWVR2|1|0|18600|18600|10|0|0|550|0|0|0|0|0|0|1|0|0|20200617131347
20200617|02000016|91247881|1813661262290|1813661262290|20200511000080|B3UHWVR2|1|0|18600|18600|10|0|0|550|0|0|0|0|0|0|1|0|0|20200617131329
20200617|02000016|91247880|1813759221835|1813759221835|20200511000080|B3UHWVR2|1|0|18600|18600|10|0|0|550|0|0|0|0|0|0|1|0|0|20200617131316
20200617|02000016|91247868|1813597431025|1813597431025|20200511000080|B3UHWVR2|1|0|18600|18600|10|0|0|550|0|0|0|0|0|0|1|0|0|20200617131127
20200617|02000016|91247861|1815586314943|1815586314943|20200511000080|B3UHWVR2|1|0|18600|18600|10|0|0|550|0|0|0|0|0|0|1|0|0|20200617130940
20200617|02000016|91247853|1818187266755|1818187266755|20200511000080|B3UHWVR2|1|0|18600|18600|10|0|0|550|0|0|0|0|0|0|1|0|0|20200617130905
20200617|02000016|91247851|1818725226619|1818725226619|20200511000080|B3UHWVR2|1|0|18600|18600|10|0|0|550|0|0|0|0|0|0|1|0|0|20200617130837
20200617|02000016|91247845|1813933293845|1813933293845|20200511000080|B3UHWVR2|1|0|18600|18600|10|0|0|550|0|0|0|0|0|0|1|0|0|20200617130821
20200617|02000016|91247841|1813035944756|1813035944756|20200511000080|B3UHWVR2|1|0|18600|18600|10|0|0|550|0|0|0|0|0|0|1|0|0|20200617130732
20200617|02000016|91247840|1818803250101|1818803250101|20200511000080|B3UHWVR2|1|0|18600|18600|10|0|0|550|0|0|0|0|0|0|1|0|0|20200617130712
20200617|02000016|91247839|1818987916981|1818987916981|20200511000080|B3UHWVR2|1|0|18600|18600|10|0|0|550|0|0|0|0|0|0|1|0|0|20200617130706
20200617|02000016|91247829|1813401705096|1813401705096|20200511000080|B3UHWVR2|1|0|18600|18600|10|0|0|550|0|0|0|0|0|0|1|0|0|20200617130616
20200617|02000016|91247830|1815397618643|1815397618643|20200511000080|B3UHWVR2|1|0|18600|18600|10|0|0|550|0|0|0|0|0|0|1|0|0|20200617130616
20200617|02000016|91247827|1813886968888|1813886968888|20200511000080|B3UHWVR2|1|0|18600|18600|10|0|0|550|0|0|0|0|0|0|1|0|0|20200617130403
20200617|02000016|91247826|1818674148199|1818674148199|20200511000080|B3UHWVR2|1|0|18600|18600|10|0|0|550|0|0|0|0|0|0|1|0|0|20200617130354
20200617|02000016|91247822|1815208802992|1815208802992|20200511000080|B3UHWVR2|1|0|18600|18600|10|0|0|550|0|0|0|0|0|0|1|0|0|20200617130302
20200617|02000016|91247820|1818387542603|1818387542603|20200511000080|B3UHWVR2|1|0|18600|18600|10|0|0|550|0|0|0|0|0|0|1|0|0|20200617130253
20200617|02000016|91247819|1815925594498|1815925594498|20200511000080|B3UHWVR2|1|0|18600|18600|10|0|0|550|0|0|0|0|0|0|1|0|0|20200617130237
20200617|02000016|91247817|1815512590549|1815512590549|20200511000080|B3UHWVR2|1|0|18600|18600|10|0|0|550|0|0|0|0|0|0|1|0|0|20200617130203
20200617|02000016|91247816|1815932548856|1815932548856|20200511000080|B3UHWVR2|1|0|18600|18600|10|0|0|550|0|0|0|0|0|0|1|0|0|20200617130202
20200617|02000016|91247815|1818387541395|1818387541395|20200511000080|B3UHWVR2|1|0|18600|18600|10|0|0|550|0|0|0|0|0|0|1|0|0|20200617130111
20200617|02000016|91247814|1813988266809|1813988266809|20200511000080|B3UHWVR2|1|0|18600|18600|10|0|0|550|0|0|0|0|0|0|1|0|0|20200617130047
20200617|02000016|91247808|1813363243535|1813363243535|20200511000080|B3UHWVR2|1|0|18600|18600|10|0|0|550|0|0|0|0|0|0|1|0|0|20200617130015
20200617|02000016|91247807|1818931504408|1818931504408|20200511000080|B3UHWVR2|1|0|18600|18600|10|0|0|550|0|0|0|0|0|0|1|0|0|20200617130007
20200617|02000016|91247806|1815998819593|1815998819593|20200511000080|B3UHWVR2|1|0|18600|18600|10|0|0|550|0|0|0|0|0|0|1|0|0|20200617112930
20200617|02000016|91247804|1818987916256|1818987916256|20200511000080|B3UHWVR2|1|0|18600|18600|10|0|0|550|0|0|0|0|0|0|1|0|0|20200617112835
20200617|02000016|91247797|1819187939328|1819187939328|20200511000080|B3UHWVR2|1|0|18600|18600|10|0|0|550|0|0|0|0|0|0|1|0|0|20200617112754
20200617|02000016|91247790|1813887868883|1813887868883|20200511000080|B3UHWVR2|1|0|18600|18600|10|0|0|550|0|0|0|0|0|0|1|0|0|20200617112621
20200617|02000016|91247788|1818869127192|1818869127192|20200511000080|B3UHWVR2|1|0|18600|18600|10|0|0|550|0|0|0|0|0|0|1|0|0|20200617112538
20200617|02000016|91247778|1813759208139|1813759208139|20200511000080|B3UHWVR2|1|0|18600|18600|10|0|0|550|0|0|0|0|0|0|1|0|0|20200617112501
20200617|02000016|91247777|1818288950291|1818288950291|20200511000080|B3UHWVR2|1|0|18600|18600|10|0|0|550|0|0|0|0|0|0|1|0|0|20200617112442
20200617|02000016|91247775|1815271167538|1815271167538|20200511000080|B3UHWVR2|1|0|18600|18600|10|0|0|550|0|0|0|0|0|0|1|0|0|20200617112340
20200617|02000016|91247773|1815187700939|1815187700939|20200511000080|B3UHWVR2|1|0|18600|18600|10|0|0|550|0|0|0|0|0|0|1|0|0|20200617112316
20200617|02000016|91247767|1815733226550|1815733226550|20200511000080|B3UHWVR2|1|0|18600|18600|10|0|0|550|0|0|0|0|0|0|1|0|0|20200617112247
20200617|02000016|91247766|1813673797843|1813673797843|20200511000080|B3UHWVR2|1|0|18600|18600|10|0|0|550|0|0|0|0|0|0|1|0|0|20200617112245
20200617|02000016|91247765|1813991898100|1813991898100|20200511000080|B3UHWVR2|1|0|18600|18600|10|0|0|550|0|0|0|0|0|0|1|0|0|20200617112218
20200617|02000016|91247756|1813879690981|1813879690981|20200511000080|B3UHWVR2|1|0|18600|18600|10|0|0|550|0|0|0|0|0|0|1|0|0|20200617111924
20200617|02000016|91247755|1815869087947|1815869087947|20200511000080|B3UHWVR2|1|0|18600|18600|10|0|0|550|0|0|0|0|0|0|1|0|0|20200617111830
20200617|02000016|91247753|1813603243648|1813603243648|20200511000080|B3UHWVR2|1|0|18600|18600|10|0|0|550|0|0|0|0|0|0|1|0|0|20200617111701
20200617|02000016|91247745|1819937271172|1819937271172|20200511000080|B3UHWVR2|1|0|18600|18600|10|0|0|550|0|0|0|0|0|0|1|0|0|20200617111545
20200617|02000016|91247744|1815932005092|1815932005092|20200511000080|B3UHWVR2|1|0|18600|18600|10|0|0|550|0|0|0|0|0|0|1|0|0|20200617111532
20200617|02000016|91247740|1813988238986|1813988238986|20200511000080|B3UHWVR2|1|0|18600|18600|10|0|0|550|0|0|0|0|0|0|1|0|0|20200617111345
20200617|02000016|91247739|1815097408526|1815097408526|20200511000080|B3UHWVR2|1|0|18600|18600|10|0|0|550|0|0|0|0|0|0|1|0|0|20200617111317
20200617|02000016|91247737|1818306974726|1818306974726|20200511000080|B3UHWVR2|1|0|18600|18600|10|0|0|550|0|0|0|0|0|0|1|0|0|20200617111258
20200617|02000016|91247732|1817532047595|1817532047595|20200511000080|B3UHWVR2|1|0|18600|18600|10|0|0|550|0|0|0|0|0|0|1|0|0|20200617111220
20200617|02000016|91247723|1813516512882|1813516512882|20200511000080|B3UHWVR2|1|0|18600|18600|10|0|0|550|0|0|0|0|0|0|1|0|0|20200617111140
20200617|02000016|91247711|1818009990778|1818009990778|20200511000080|B3UHWVR2|1|0|18600|18600|10|0|0|550|0|0|0|0|0|0|1|0|0|20200617111014
20200617|02000016|91247709|1813400267349|1813400267349|20200511000080|B3UHWVR2|1|0|18600|18600|10|0|0|550|0|0|0|0|0|0|1|0|0|20200617110952
20200617|02000016|91247703|1815837935868|1815837935868|20200511000080|B3UHWVR2|1|0|18600|18600|10|0|0|550|0|0|0|0|0|0|1|0|0|20200617110924
20200617|02000016|91247701|1817508751568|1817508751568|20200511000080|B3UHWVR2|1|0|18600|18600|10|0|0|550|0|0|0|0|0|0|1|0|0|20200617110832
20200617|02000016|91247700|1818392029751|1818392029751|20200511000080|B3UHWVR2|1|0|18600|18600|10|0|0|550|0|0|0|0|0|0|1|0|0|20200617110826
20200617|02000016|91247697|1818231283196|1818231283196|20200511000080|B3UHWVR2|1|0|18600|18600|10|0|0|550|0|0|0|0|0|0|1|0|0|20200617110658
20200617|02000016|91247685|1818233358282|1818233358282|20200511000080|B3UHWVR2|1|0|18600|18600|10|0|0|550|0|0|0|0|0|0|1|0|0|20200617110557
20200617|02000016|91247682|1813932238474|1813932238474|20200511000080|B3UHWVR2|1|0|18600|18600|10|0|0|550|0|0|0|0|0|0|1|0|0|20200617110534
20200617|02000016|91247680|1815334341131|1815334341131|20200511000080|B3UHWVR2|1|0|18600|18600|10|0|0|550|0|0|0|0|0|0|1|0|0|20200617110454
20200617|02000016|91247678|1818872629912|1818872629912|20200511000080|B3UHWVR2|1|0|18600|18600|10|0|0|550|0|0|0|0|0|0|1|0|0|20200617110330
20200617|02000016|91247676|1815630880329|1815630880329|20200511000080|B3UHWVR2|1|0|18600|18600|10|0|0|550|0|0|0|0|0|0|1|0|0|20200617110309
20200617|02000016|91247675|1813473122412|1813473122412|20200511000080|B3UHWVR2|1|0|18600|18600|10|0|0|550|0|0|0|0|0|0|1|0|0|20200617110303
20200617|02000016|91247666|1813553311983|1813553311983|20200511000080|B3UHWVR2|1|0|18600|18600|10|0|0|550|0|0|0|0|0|0|1|0|0|20200617110238
20200617|02000016|91247660|1815838593992|1815838593992|20200511000080|B3UHWVR2|1|0|18600|18600|10|0|0|550|0|0|0|0|0|0|1|0|0|20200617110003
20200617|02000016|91247655|1815142051751|1815142051751|20200511000080|B3UHWVR2|1|0|18600|18600|10|0|0|550|0|0|0|0|0|0|1|0|0|20200617105916
20200617|02000016|91247651|1815987504832|1815987504832|20200511000080|B3UHWVR2|1|0|18600|18600|10|0|0|550|0|0|0|0|0|0|1|0|0|20200617105853
20200617|02000016|91247649|1813908813212|1813908813212|20200511000080|B3UHWVR2|1|0|18600|18600|10|0|0|550|0|0|0|0|0|0|1|0|0|20200617105852
20200617|02000016|91247643|1815028299966|1815028299966|20200511000080|B3UHWVR2|1|0|18600|18600|10|0|0|550|0|0|0|0|0|0|1|0|0|20200617105821
20200617|02000016|91247630|1813368815583|1813368815583|20200511000080|B3UHWVR2|1|0|18600|18600|10|0|0|550|0|0|0|0|0|0|1|0|0|20200617105627
20200617|02000016|91247628|1813330593811|1813330593811|20200511000080|B3UHWVR2|1|0|18600|18600|10|0|0|550|0|0|0|0|0|0|1|0|0|20200617105517
20200617|02000016|91247627|1813323259697|1813323259697|20200511000080|B3UHWVR2|1|0|18600|18600|10|0|0|550|0|0|0|0|0|0|1|0|0|20200617105425
20200617|02000016|91247625|1813833201819|1813833201819|20200511000080|B3UHWVR2|1|0|18600|18600|10|0|0|550|0|0|0|0|0|0|1|0|0|20200617105412
20200617|02000016|91247626|1813803283883|1813803283883|20200511000080|B3UHWVR2|1|0|18600|18600|10|0|0|550|0|0|0|0|0|0|1|0|0|20200617105412
20200617|02000016|91247624|1818309859106|1818309859106|20200511000080|B3UHWVR2|1|0|18600|18600|10|0|0|550|0|0|0|0|0|0|1|0|0|20200617105355
20200617|02000016|91247623|1815925589060|1815925589060|20200511000080|B3UHWVR2|1|0|18600|18600|10|0|0|550|0|0|0|0|0|0|1|0|0|20200617105324
20200617|02000016|91247602|1818731901468|1818731901468|20200511000080|B3UHWVR2|1|0|18600|18600|10|0|0|550|0|0|0|0|0|0|1|0|0|20200617105230
20200617|02000016|91247601|1813803277987|1813803277987|20200511000080|B3UHWVR2|1|0|18600|18600|10|0|0|550|0|0|0|0|0|0|1|0|0|20200617105224
20200617|02000016|91247595|1815133232674|1815133232674|20200511000080|B3UHWVR2|1|0|18600|18600|10|0|0|550|0|0|0|0|0|0|1|0|0|20200617105136
20200617|02000016|91247594|1813513061187|1813513061187|20200511000080|B3UHWVR2|1|0|18600|18600|10|0|0|550|0|0|0|0|0|0|1|0|0|20200617105124
20200617|02000016|91247585|1818103143885|1818103143885|20200511000080|B3UHWVR2|1|0|18600|18600|10|0|0|550|0|0|0|0|0|0|1|0|0|20200617104953
20200617|02000016|91247583|1818687924557|1818687924557|20200511000080|B3UHWVR2|1|0|18600|18600|10|0|0|550|0|0|0|0|0|0|1|0|0|20200617104937
20200617|02000016|91247576|1813759215316|1813759215316|20200511000080|B3UHWVR2|1|0|18600|18600|10|0|0|550|0|0|0|0|0|0|1|0|0|20200617104900
20200617|02000016|91247570|1818468025462|1818468025462|20200511000080|B3UHWVR2|1|0|18600|18600|10|0|0|550|0|0|0|0|0|0|1|0|0|20200617104819
20200617|02000016|91247565|1815946109858|1815946109858|20200511000080|B3UHWVR2|1|0|18600|18600|10|0|0|550|0|0|0|0|0|0|1|0|0|20200617104655
20200617|02000016|91247555|1815368948672|1815368948672|20200511000080|B3UHWVR2|1|0|18600|18600|10|0|0|550|0|0|0|0|0|0|1|0|0|20200617104622
20200617|02000016|91247550|1813987510903|1813987510903|20200511000080|B3UHWVR2|1|0|18600|18600|10|0|0|550|0|0|0|0|0|0|1|0|0|20200617104549
20200617|02000016|91247549|1815327855187|1815327855187|20200511000080|B3UHWVR2|1|0|18600|18600|10|0|0|550|0|0|0|0|0|0|1|0|0|20200617104544
20200617|02000016|91247546|1813577500356|1813577500356|20200511000080|B3UHWVR2|1|0|18600|18600|10|0|0|550|0|0|0|0|0|0|1|0|0|20200617104543
20200617|02000016|91247528|1815912255139|1815912255139|20200511000080|B3UHWVR2|1|0|18600|18600|10|0|0|550|0|0|0|0|0|0|1|0|0|20200617104503
20200617|02000016|91247527|1815176213410|1815176213410|20200511000080|B3UHWVR2|1|0|18600|18600|10|0|0|550|0|0|0|0|0|0|1|0|0|20200617104501
20200617|02000016|91247522|1813735038903|1813735038903|20200511000080|B3UHWVR2|1|0|18600|18600|10|0|0|550|0|0|0|0|0|0|1|0|0|20200617104416
20200617|02000016|91247509|1815108634308|1815108634308|20200511000080|B3UHWVR2|1|0|18600|18600|10|0|0|550|0|0|0|0|0|0|1|0|0|20200617104332
20200617|02000016|91247508|1813687247435|1813687247435|20200511000080|B3UHWVR2|1|0|18600|18600|10|0|0|550|0|0|0|0|0|0|1|0|0|20200617104330
20200617|02000016|91247507|1800100000107|1800100000107|20200511000080|B3UHWVR2|1|0|18600|18600|10|0|0|550|0|0|0|0|0|0|1|0|0|20200617104323
20200617|02000016|91247506|1815538816005|1815538816005|20200511000080|B3UHWVR2|1|0|18600|18600|10|0|0|550|0|0|0|0|0|0|1|0|0|20200617104303
20200617|02000016|91247503|1815670742888|1815670742888|20200511000080|B3UHWVR2|1|0|18600|18600|10|0|0|550|0|0|0|0|0|0|1|0|0|20200617104119
20200617|02000016|91247502|1813466135914|1813466135914|20200511000080|B3UHWVR2|1|0|18600|18600|10|0|0|550|0|0|0|0|0|0|1|0|0|20200617104116
20200617|02000016|91247501|1813785266844|1813785266844|20200511000080|B3UHWVR2|1|0|18600|18600|10|0|0|550|0|0|0|0|0|0|1|0|0|20200617104106
20200617|02000016|91247499|1813785222268|1813785222268|20200511000080|B3UHWVR2|1|0|18600|18600|10|0|0|550|0|0|0|0|0|0|1|0|0|20200617104105
20200617|02000016|91247477|1819931216183|1819931216183|20200511000080|B3UHWVR2|1|0|18600|18600|10|0|0|550|0|0|0|0|0|0|1|0|0|20200617103845
20200617|02000016|91247476|1813894477032|1813894477032|20200511000080|B3UHWVR2|1|0|18600|18600|10|0|0|550|0|0|0|0|0|0|1|0|0|20200617103828
20200617|02000016|91247470|1818987517957|1818987517957|20200511000080|B3UHWVR2|1|0|18600|18600|10|0|0|550|0|0|0|0|0|0|1|0|0|20200617103802
20200617|02000016|91247460|1813988271457|1813988271457|20200511000080|B3UHWVR2|1|0|18600|18600|10|0|0|550|0|0|0|0|0|0|1|0|0|20200617103709
20200617|02000016|91247455|1818288560316|1818288560316|20200511000080|B3UHWVR2|1|0|18600|18600|10|0|0|550|0|0|0|0|0|0|1|0|0|20200617103634
20200617|02000016|91247441|1813309116156|1813309116156|20200511000080|B3UHWVR2|1|0|18600|18600|10|0|0|550|0|0|0|0|0|0|1|0|0|20200617103538
20200617|02000016|91247440|1815925591567|1815925591567|20200511000080|B3UHWVR2|1|0|18600|18600|10|0|0|550|0|0|0|0|0|0|1|0|0|20200617103537
20200617|02000016|91247436|1818220730920|1818220730920|20200511000080|B3UHWVR2|1|0|18600|18600|10|0|0|550|0|0|0|0|0|0|1|0|0|20200617103530
20200617|02000016|91247417|1819987541980|1819987541980|20200511000080|B3UHWVR2|1|0|18600|18600|10|0|0|550|0|0|0|0|0|0|1|0|0|20200617103320
20200617|02000016|91247415|1815184974413|1815184974413|20200511000080|B3UHWVR2|1|0|18600|18600|10|0|0|550|0|0|0|0|0|0|1|0|0|20200617103253
20200617|02000016|91247414|1815951703440|1815951703440|20200511000080|B3UHWVR2|1|0|18600|18600|10|0|0|550|0|0|0|0|0|0|1|0|0|20200617103249
20200617|02000016|91247412|1813481184097|1813481184097|20200511000080|B3UHWVR2|1|0|18600|18600|10|0|0|550|0|0|0|0|0|0|1|0|0|20200617103236
20200617|02000016|91247411|1815832295137|1815832295137|20200511000080|B3UHWVR2|1|0|18600|18600|10|0|0|550|0|0|0|0|0|0|1|0|0|20200617103234
20200617|02000016|91247410|1815334465219|1815334465219|20200511000080|B3UHWVR2|1|0|18600|18600|10|0|0|550|0|0|0|0|0|0|1|0|0|20200617103217
20200617|02000016|91247409|1818088209155|1818088209155|20200511000080|B3UHWVR2|1|0|18600|18600|10|0|0|550|0|0|0|0|0|0|1|0|0|20200617103155
20200617|02000016|91247386|1813035964466|1813035964466|20200511000080|B3UHWVR2|1|0|18600|18600|10|0|0|550|0|0|0|0|0|0|1|0|0|20200617103035
20200617|02000016|91247370|1818987538596|1818987538596|20200511000080|B3UHWVR2|1|0|18600|18600|10|0|0|550|0|0|0|0|0|0|1|0|0|20200617102859
20200617|02000016|91247367|1813730157568|1813730157568|20200511000080|B3UHWVR2|1|0|18600|18600|10|0|0|550|0|0|0|0|0|0|1|0|0|20200617102751
20200617|02000016|91247361|1813769055559|1813769055559|20200511000080|B3UHWVR2|1|0|18600|18600|10|0|0|550|0|0|0|0|0|0|1|0|0|20200617102723
20200617|02000016|91247356|1813383626357|1813383626357|20200511000080|B3UHWVR2|1|0|18600|18600|10|0|0|550|0|0|0|0|0|0|1|0|0|20200617102645
20200617|02000016|91247347|1815925565064|1815925565064|20200511000080|B3UHWVR2|1|0|18600|18600|10|0|0|550|0|0|0|0|0|0|1|0|0|20200617102623
20200617|02000016|91247337|1813992529265|1813992529265|20200511000080|B3UHWVR2|1|0|18600|18600|10|0|0|550|0|0|0|0|0|0|1|0|0|20200617102533
20200617|02000016|91247326|1815187564467|1815187564467|20200511000080|B3UHWVR2|1|0|18600|18600|10|0|0|550|0|0|0|0|0|0|1|0|0|20200617102457
20200617|02000016|91247324|1815029688272|1815029688272|20200511000080|B3UHWVR2|1|0|18600|18600|10|0|0|550|0|0|0|0|0|0|1|0|0|20200617102401
20200617|02000016|91247322|1815887555058|1815887555058|20200511000080|B3UHWVR2|1|0|18600|18600|10|0|0|550|0|0|0|0|0|0|1|0|0|20200617102329
20200617|02000016|91247315|1813486694384|1813486694384|20200511000080|B3UHWVR2|1|0|18600|18600|10|0|0|550|0|0|0|0|0|0|1|0|0|20200617102304
20200617|02000016|91247309|1813578201088|1813578201088|20200511000080|B3UHWVR2|1|0|18600|18600|10|0|0|550|0|0|0|0|0|0|1|0|0|20200617102225
20200617|02000016|91247308|1813636725549|1813636725549|20200511000080|B3UHWVR2|1|0|18600|18600|10|0|0|550|0|0|0|0|0|0|1|0|0|20200617102219
20200617|02000016|91247297|1815727280047|1815727280047|20200511000080|B3UHWVR2|1|0|18600|18600|10|0|0|550|0|0|0|0|0|0|1|0|0|20200617102151
20200617|02000016|91247272|1815383223594|1815383223594|20200511000080|B3UHWVR2|1|0|18600|18600|10|0|0|550|0|0|0|0|0|0|1|0|0|20200617102123
20200617|02000016|91247260|1813933211628|1813933211628|20200511000080|B3UHWVR2|1|0|18600|18600|10|0|0|550|0|0|0|0|0|0|1|0|0|20200617102110
20200617|02000016|91247256|1818788201666|1818788201666|20200511000080|B3UHWVR2|1|0|18600|18600|10|0|0|550|0|0|0|0|0|0|1|0|0|20200617102047
20200617|02000016|91247255|1800100000328|1800100000328|20200511000080|B3UHWVR2|1|0|18600|18600|10|0|0|550|0|0|0|0|0|0|1|0|0|20200617102023
20200617|02000016|91247251|1813152026763|1813152026763|20200511000080|B3UHWVR2|1|0|18600|18600|10|0|0|550|0|0|0|0|0|0|1|0|0|20200617101957
20200617|02000016|91247238|1813628842075|1813628842075|20200511000080|B3UHWVR2|1|0|18600|18600|10|0|0|550|0|0|0|0|0|0|1|0|0|20200617101817
20200617|02000016|91247233|1813582222311|1813582222311|20200511000080|B3UHWVR2|1|0|18600|18600|10|0|0|550|0|0|0|0|0|0|1|0|0|20200617101555
20200617|02000016|91247231|1813669212329|1813669212329|20200511000080|B3UHWVR2|1|0|18600|18600|10|0|0|550|0|0|0|0|0|0|1|0|0|20200617101540
20200617|02000016|91247232|1813607918208|1813607918208|20200511000080|B3UHWVR2|1|0|18600|18600|10|0|0|550|0|0|0|0|0|0|1|0|0|20200617101540
20200617|02000016|91247230|1818979143369|1818979143369|20200511000080|B3UHWVR2|1|0|18600|18600|10|0|0|550|0|0|0|0|0|0|1|0|0|20200617101538
20200617|02000016|91247225|1800100000125|1800100000125|20200511000080|B3UHWVR2|1|0|18600|18600|10|0|0|550|0|0|0|0|0|0|1|0|0|20200617101531
20200617|02000016|91247204|1815636926050|1815636926050|20200511000080|B3UHWVR2|1|0|18600|18600|10|0|0|550|0|0|0|0|0|0|1|0|0|20200617101428
20200617|02000016|91247203|1815907005758|1815907005758|20200511000080|B3UHWVR2|1|0|18600|18600|10|0|0|550|0|0|0|0|0|0|1|0|0|20200617101427
20200617|02000016|91247196|1815972280790|1815972280790|20200511000080|B3UHWVR2|1|0|18600|18600|10|0|0|550|0|0|0|0|0|0|1|0|0|20200617101414
20200617|02000016|91247190|1813343028920|1813343028920|20200511000080|B3UHWVR2|1|0|18600|18600|10|0|0|550|0|0|0|0|0|0|1|0|0|20200617101359
20200617|02000016|91247188|1818313082518|1818313082518|20200511000080|B3UHWVR2|1|0|18600|18600|10|0|0|550|0|0|0|0|0|0|1|0|0|20200617101357
20200617|02000016|91247179|1815830939311|1815830939311|20200511000080|B3UHWVR2|1|0|18600|18600|10|0|0|550|0|0|0|0|0|0|1|0|0|20200617101338
20200617|02000016|91247171|1813931267078|1813931267078|20200511000080|B3UHWVR2|1|0|18600|18600|10|0|0|550|0|0|0|0|0|0|1|0|0|20200617101316
20200617|02000016|91247150|1815771836378|1815771836378|20200511000080|B3UHWVR2|1|0|18600|18600|10|0|0|550|0|0|0|0|0|0|1|0|0|20200617101246
20200617|02000016|91247147|1813576284540|1813576284540|20200511000080|B3UHWVR2|1|0|18600|18600|10|0|0|550|0|0|0|0|0|0|1|0|0|20200617101219
20200617|02000016|91247142|1815630158606|1815630158606|20200511000080|B3UHWVR2|1|0|18600|18600|10|0|0|550|0|0|0|0|0|0|1|0|0|20200617101206
20200617|02000016|91247133|1818631228121|1818631228121|20200511000080|B3UHWVR2|1|0|18600|18600|10|0|0|550|0|0|0|0|0|0|1|0|0|20200617101131
20200617|02000016|91247134|1815188947714|1815188947714|20200511000080|B3UHWVR2|1|0|18600|18600|10|0|0|550|0|0|0|0|0|0|1|0|0|20200617101131
20200617|02000016|91247130|1815368486928|1815368486928|20200511000080|B3UHWVR2|1|0|18600|18600|10|0|0|550|0|0|0|0|0|0|1|0|0|20200617101125
20200617|02000016|91247125|1813970039068|1813970039068|20200511000080|B3UHWVR2|1|0|18600|18600|10|0|0|550|0|0|0|0|0|0|1|0|0|20200617101114
20200617|02000016|91247118|1815232267540|1815232267540|20200511000080|B3UHWVR2|1|0|18600|18600|10|0|0|550|0|0|0|0|0|0|1|0|0|20200617101059
20200617|02000016|91247111|1813930525191|1813930525191|20200511000080|B3UHWVR2|1|0|18600|18600|10|0|0|550|0|0|0|0|0|0|1|0|0|20200617101053
20200617|02000016|91247094|1815945537804|1815945537804|20200511000080|B3UHWVR2|1|0|18600|18600|10|0|0|550|0|0|0|0|0|0|1|0|0|20200617101026
20200617|02000016|91247091|1815003129116|1815003129116|20200511000080|B3UHWVR2|1|0|18600|18600|10|0|0|550|0|0|0|0|0|0|1|0|0|20200617101014
20200617|02000016|91247080|1815978647111|1815978647111|20200511000080|B3UHWVR2|1|0|18600|18600|10|0|0|550|0|0|0|0|0|0|1|0|0|20200617100949
20200617|02000016|91247078|1813767188659|1813767188659|20200511000080|B3UHWVR2|1|0|18600|18600|10|0|0|550|0|0|0|0|0|0|1|0|0|20200617100923
20200617|02000016|91247056|1815031298030|1815031298030|20200511000080|B3UHWVR2|1|0|18600|18600|10|0|0|550|0|0|0|0|0|0|1|0|0|20200617100843
20200617|02000016|91247052|1815032393998|1815032393998|20200511000080|B3UHWVR2|1|0|18600|18600|10|0|0|550|0|0|0|0|0|0|1|0|0|20200617100821
20200617|02000016|91247048|1818921860818|1818921860818|20200511000080|B3UHWVR2|1|0|18600|18600|10|0|0|550|0|0|0|0|0|0|1|0|0|20200617100809
20200617|02000016|91247047|1817167993679|1817167993679|20200511000080|B3UHWVR2|1|0|18600|18600|10|0|0|550|0|0|0|0|0|0|1|0|0|20200617100736
20200617|02000016|91247046|1815233123371|1815233123371|20200511000080|B3UHWVR2|1|0|18600|18600|10|0|0|550|0|0|0|0|0|0|1|0|0|20200617100726
20200617|02000016|91247043|1813224207506|1813224207506|20200511000080|B3UHWVR2|1|0|18600|18600|10|0|0|550|0|0|0|0|0|0|1|0|0|20200617100723
20200617|02000016|91247042|1815974969450|1815974969450|20200511000080|B3UHWVR2|1|0|18600|18600|10|0|0|550|0|0|0|0|0|0|1|0|0|20200617100720
20200617|02000016|91247040|1817503250596|1817503250596|20200511000080|B3UHWVR2|1|0|18600|18600|10|0|0|550|0|0|0|0|0|0|1|0|0|20200617100718
20200617|02000016|91247026|1813840385547|1813840385547|20200511000080|B3UHWVR2|1|0|18600|18600|10|0|0|550|0|0|0|0|0|0|1|0|0|20200617100656
20200617|02000016|91246997|1813897985407|1813897985407|20200511000080|B3UHWVR2|1|0|18600|18600|10|0|0|550|0|0|0|0|0|0|1|0|0|20200617100549
20200617|02000016|91246996|1813330093627|1813330093627|20200511000080|B3UHWVR2|1|0|18600|18600|10|0|0|550|0|0|0|0|0|0|1|0|0|20200617100548
20200617|02000016|91246995|1813638362781|1813638362781|20200511000080|B3UHWVR2|1|0|18600|18600|10|0|0|550|0|0|0|0|0|0|1|0|0|20200617100542
20200617|02000016|91246989|1813909114265|1813909114265|20200511000080|B3UHWVR2|1|0|18600|18600|10|0|0|550|0|0|0|0|0|0|1|0|0|20200617100531
20200617|02000016|91246984|1813252712046|1813252712046|20200511000080|B3UHWVR2|1|0|18600|18600|10|0|0|550|0|0|0|0|0|0|1|0|0|20200617100501
20200617|02000016|91246982|1813463503191|1813463503191|20200511000080|B3UHWVR2|1|0|18600|18600|10|0|0|550|0|0|0|0|0|0|1|0|0|20200617100447
20200617|02000016|91246967|1815215907729|1815215907729|20200511000080|B3UHWVR2|1|0|18600|18600|10|0|0|550|0|0|0|0|0|0|1|0|0|20200617100428
20200617|02000016|91246963|1813831723408|1813831723408|20200511000080|B3UHWVR2|1|0|18600|18600|10|0|0|550|0|0|0|0|0|0|1|0|0|20200617100416
20200617|02000016|91246961|1815232591002|1815232591002|20200511000080|B3UHWVR2|1|0|18600|18600|10|0|0|550|0|0|0|0|0|0|1|0|0|20200617100409
20200617|02000016|91246960|1817866568244|1817866568244|20200511000080|B3UHWVR2|1|0|18600|18600|10|0|0|550|0|0|0|0|0|0|1|0|0|20200617100405
20200617|02000016|91246959|1815870697192|1815870697192|20200511000080|B3UHWVR2|1|0|18600|18600|10|0|0|550|0|0|0|0|0|0|1|0|0|20200617100402
20200617|02000016|91246939|1818468150535|1818468150535|20200511000080|B3UHWVR2|1|0|18600|18600|10|0|0|550|0|0|0|0|0|0|1|0|0|20200617100340
20200617|02000016|91246921|1817317033540|1817317033540|20200511000080|B3UHWVR2|1|0|18600|18600|10|0|0|550|0|0|0|0|0|0|1|0|0|20200617100311
20200617|02000016|91246918|1818165477289|1818165477289|20200511000080|B3UHWVR2|1|0|18600|18600|10|0|0|550|0|0|0|0|0|0|1|0|0|20200617100306
20200617|02000016|91246919|1815288116989|1815288116989|20200511000080|B3UHWVR2|1|0|18600|18600|10|0|0|550|0|0|0|0|0|0|1|0|0|20200617100306
20200617|02000016|91246920|1818032580086|1818032580086|20200511000080|B3UHWVR2|1|0|18600|18600|10|0|0|550|0|0|0|0|0|0|1|0|0|20200617100306
20200617|02000016|91246893|1815818598480|1815818598480|20200511000080|B3UHWVR2|1|0|18600|18600|10|0|0|550|0|0|0|0|0|0|1|0|0|20200617100224
20200617|02000016|91246891|1818674146599|1818674146599|20200511000080|B3UHWVR2|1|0|18600|18600|10|0|0|550|0|0|0|0|0|0|1|0|0|20200617100212
20200617|02000016|91246874|1818931441806|1818931441806|20200511000080|B3UHWVR2|1|0|18600|18600|10|0|0|550|0|0|0|0|0|0|1|0|0|20200617100148
20200617|02000016|91246868|1813607095019|1813607095019|20200511000080|B3UHWVR2|1|0|18600|18600|10|0|0|550|0|0|0|0|0|0|1|0|0|20200617100137
20200617|02000016|91246856|1815940818417|1815940818417|20200511000080|B3UHWVR2|1|0|18600|18600|10|0|0|550|0|0|0|0|0|0|1|0|0|20200617100101
20200617|02000016|91246852|1813832228797|1813832228797|20200511000080|B3UHWVR2|1|0|18600|18600|10|0|0|550|0|0|0|0|0|0|1|0|0|20200617100053
20200617|02000016|91246838|1815087553123|1815087553123|20200511000080|B3UHWVR2|1|0|18600|18600|10|0|0|550|0|0|0|0|0|0|1|0|0|20200617100030
20200617|02000016|91246834|1818908752966|1818908752966|20200511000080|B3UHWVR2|1|0|18600|18600|10|0|0|550|0|0|0|0|0|0|1|0|0|20200617100020
20200617|02000016|91246831|1819931286513|1819931286513|20200511000080|B3UHWVR2|1|0|18600|18600|10|0|0|550|0|0|0|0|0|0|1|0|0|20200617100009
20200617|02000016|91246832|1815222123742|1815222123742|20200511000080|B3UHWVR2|1|0|18600|18600|10|0|0|550|0|0|0|0|0|0|1|0|0|20200617100009
20200617|02000016|91246829|1800100000197|1800100000197|20200511000080|B3UHWVR2|1|0|18600|18600|10|0|0|550|0|0|0|0|0|0|1|0|0|20200617100002
20200617|02000016|91246823|1815592260808|1815592260808|20200511000080|B3UHWVR2|1|0|18600|18600|10|0|0|550|0|0|0|0|0|0|1|0|0|20200617095958
20200617|02000016|91246808|1815030230206|1815030230206|20200511000080|B3UHWVR2|1|0|18600|18600|10|0|0|550|0|0|0|0|0|0|1|0|0|20200617095943
20200617|02000016|91246798|1815070004787|1815070004787|20200511000080|B3UHWVR2|1|0|18600|18600|10|0|0|550|0|0|0|0|0|0|1|0|0|20200617095921
20200617|02000016|91246797|1813477461038|1813477461038|20200511000080|B3UHWVR2|1|0|18600|18600|10|0|0|550|0|0|0|0|0|0|1|0|0|20200617095916
20200617|02000016|91246795|1818696301799|1818696301799|20200511000080|B3UHWVR2|1|0|18600|18600|10|0|0|550|0|0|0|0|0|0|1|0|0|20200617095912
20200617|02000016|91246794|1815633362628|1815633362628|20200511000080|B3UHWVR2|1|0|18600|18600|10|0|0|550|0|0|0|0|0|0|1|0|0|20200617095911
20200617|02000016|91246787|1813703227331|1813703227331|20200511000080|B3UHWVR2|1|0|18600|18600|10|0|0|550|0|0|0|0|0|0|1|0|0|20200617095905
20200617|02000016|91246783|1813407259698|1813407259698|20200511000080|B3UHWVR2|1|0|18600|18600|10|0|0|550|0|0|0|0|0|0|1|0|0|20200617095900
20200617|02000016|91246756|1813230331640|1813230331640|20200511000080|B3UHWVR2|1|0|18600|18600|10|0|0|550|0|0|0|0|0|0|1|0|0|20200617095823
20200617|02000016|91246743|1815271903817|1815271903817|20200511000080|B3UHWVR2|1|0|18600|18600|10|0|0|550|0|0|0|0|0|0|1|0|0|20200617095812
20200617|02000016|91246742|1815907052137|1815907052137|20200511000080|B3UHWVR2|1|0|18600|18600|10|0|0|550|0|0|0|0|0|0|1|0|0|20200617095811
20200617|02000016|91246739|1813478653378|1813478653378|20200511000080|B3UHWVR2|1|0|18600|18600|10|0|0|550|0|0|0|0|0|0|1|0|0|20200617095810
20200617|02000016|91246733|1813808781900|1813808781900|20200511000080|B3UHWVR2|1|0|18600|18600|10|0|0|550|0|0|0|0|0|0|1|0|0|20200617095805
20200617|02000016|91246720|1818164319032|1818164319032|20200511000080|B3UHWVR2|1|0|18600|18600|10|0|0|550|0|0|0|0|0|0|1|0|0|20200617095754
20200617|02000016|91246713|1813031511388|1813031511388|20200511000080|B3UHWVR2|1|0|18600|18600|10|0|0|550|0|0|0|0|0|0|1|0|0|20200617095748
20200617|02000016|91246710|1815716865625|1815716865625|20200511000080|B3UHWVR2|1|0|18600|18600|10|0|0|550|0|0|0|0|0|0|1|0|0|20200617095746
20200617|02000016|91246704|1815117001128|1815117001128|20200511000080|B3UHWVR2|1|0|18600|18600|10|0|0|550|0|0|0|0|0|0|1|0|0|20200617095743
20200617|02000016|91246703|1815634310189|1815634310189|20200511000080|B3UHWVR2|1|0|18600|18600|10|0|0|550|0|0|0|0|0|0|1|0|0|20200617095742
20200617|02000016|91246687|1818689707602|1818689707602|20200511000080|B3UHWVR2|1|0|18600|18600|10|0|0|550|0|0|0|0|0|0|1|0|0|20200617095722
20200617|02000016|91246684|1815070008715|1815070008715|20200511000080|B3UHWVR2|1|0|18600|18600|10|0|0|550|0|0|0|0|0|0|1|0|0|20200617095721
20200617|02000016|91246683|1815871938967|1815871938967|20200511000080|B3UHWVR2|1|0|18600|18600|10|0|0|550|0|0|0|0|0|0|1|0|0|20200617095719
20200617|02000016|91246677|1815070964165|1815070964165|20200511000080|B3UHWVR2|1|0|18600|18600|10|0|0|550|0|0|0|0|0|0|1|0|0|20200617095715
20200617|02000016|91246671|1813191775000|1813191775000|20200511000080|B3UHWVR2|1|0|18600|18600|10|0|0|550|0|0|0|0|0|0|1|0|0|20200617095703
20200617|02000016|91246657|1818741608136|1818741608136|20200511000080|B3UHWVR2|1|0|18600|18600|10|0|0|550|0|0|0|0|0|0|1|0|0|20200617095650
20200617|02000016|91246653|1813237785798|1813237785798|20200511000080|B3UHWVR2|1|0|18600|18600|10|0|0|550|0|0|0|0|0|0|1|0|0|20200617095648
20200617|02000016|91246654|1815921012597|1815921012597|20200511000080|B3UHWVR2|1|0|18600|18600|10|0|0|550|0|0|0|0|0|0|1|0|0|20200617095648
20200617|02000016|91246644|1819931210376|1819931210376|20200511000080|B3UHWVR2|1|0|18600|18600|10|0|0|550|0|0|0|0|0|0|1|0|0|20200617095637
20200617|02000016|91246641|1813407207108|1813407207108|20200511000080|B3UHWVR2|1|0|18600|18600|10|0|0|550|0|0|0|0|0|0|1|0|0|20200617095633
20200617|02000016|91246642|1817789888843|1817789888843|20200511000080|B3UHWVR2|1|0|18600|18600|10|0|0|550|0|0|0|0|0|0|1|0|0|20200617095633
20200617|02000016|91246638|1815287565721|1815287565721|20200511000080|B3UHWVR2|1|0|18600|18600|10|0|0|550|0|0|0|0|0|0|1|0|0|20200617095629
20200617|02000016|91246634|1818855897042|1818855897042|20200511000080|B3UHWVR2|1|0|18600|18600|10|0|0|550|0|0|0|0|0|0|1|0|0|20200617095622
20200617|02000016|91246635|1815389494945|1815389494945|20200511000080|B3UHWVR2|1|0|18600|18600|10|0|0|550|0|0|0|0|0|0|1|0|0|20200617095622
20200617|02000016|91246623|1815879317904|1815879317904|20200511000080|B3UHWVR2|1|0|18600|18600|10|0|0|550|0|0|0|0|0|0|1|0|0|20200617095612
20200617|02000016|91246617|1817732266277|1817732266277|20200511000080|B3UHWVR2|1|0|18600|18600|10|0|0|550|0|0|0|0|0|0|1|0|0|20200617095608
20200617|02000016|91246593|1815232640847|1815232640847|20200511000080|B3UHWVR2|1|0|18600|18600|10|0|0|550|0|0|0|0|0|0|1|0|0|20200617095556
20200617|02000016|91246589|1800100000057|1800100000057|20200511000080|B3UHWVR2|1|0|18600|18600|10|0|0|550|0|0|0|0|0|0|1|0|0|20200617095550
20200617|02000016|91246581|1818002496102|1818002496102|20200511000080|B3UHWVR2|1|0|18600|18600|10|0|0|550|0|0|0|0|0|0|1|0|0|20200617095542
20200617|02000016|91246580|1813909852916|1813909852916|20200511000080|B3UHWVR2|1|0|18600|18600|10|0|0|550|0|0|0|0|0|0|1|0|0|20200617095540
20200617|02000016|91246577|1813870662832|1813870662832|20200511000080|B3UHWVR2|1|0|18600|18600|10|0|0|550|0|0|0|0|0|0|1|0|0|20200617095538
20200617|02000016|91246566|1813825724130|1813825724130|20200511000080|B3UHWVR2|1|0|18600|18600|10|0|0|550|0|0|0|0|0|0|1|0|0|20200617095531
20200617|02000016|91246561|1815232607038|1815232607038|20200511000080|B3UHWVR2|1|0|18600|18600|10|0|0|550|0|0|0|0|0|0|1|0|0|20200617095522
20200617|02000016|91246562|1818889422056|1818889422056|20200511000080|B3UHWVR2|1|0|18600|18600|10|0|0|550|0|0|0|0|0|0|1|0|0|20200617095522
20200617|02000016|91246555|1815561743759|1815561743759|20200511000080|B3UHWVR2|1|0|18600|18600|10|0|0|550|0|0|0|0|0|0|1|0|0|20200617095520
20200617|02000016|91246552|1813578288004|1813578288004|20200511000080|B3UHWVR2|1|0|18600|18600|10|0|0|550|0|0|0|0|0|0|1|0|0|20200617095518
20200617|02000016|91246548|1818834581128|1818834581128|20200511000080|B3UHWVR2|1|0|18600|18600|10|0|0|550|0|0|0|0|0|0|1|0|0|20200617095514
20200617|02000016|91246540|1813584278719|1813584278719|20200511000080|B3UHWVR2|1|0|18600|18600|10|0|0|550|0|0|0|0|0|0|1|0|0|20200617095506
20200617|02000016|91246528|1818507792116|1818507792116|20200511000080|B3UHWVR2|1|0|18600|18600|10|0|0|550|0|0|0|0|0|0|1|0|0|20200617095457
20200617|02000016|91246515|1815331520336|1815331520336|20200511000080|B3UHWVR2|1|0|18600|18600|10|0|0|550|0|0|0|0|0|0|1|0|0|20200617095447
20200617|02000016|91246510|1813687506090|1813687506090|20200511000080|B3UHWVR2|1|0|18600|18600|10|0|0|550|0|0|0|0|0|0|1|0|0|20200617095435
20200617|02000016|91246506|1817689826169|1817689826169|20200511000080|B3UHWVR2|1|0|18600|18600|10|0|0|550|0|0|0|0|0|0|1|0|0|20200617095431
20200617|02000016|91246503|1813582628539|1813582628539|20200511000080|B3UHWVR2|1|0|18600|18600|10|0|0|550|0|0|0|0|0|0|1|0|0|20200617095429
20200617|02000016|91246502|1818923668819|1818923668819|20200511000080|B3UHWVR2|1|0|18600|18600|10|0|0|550|0|0|0|0|0|0|1|0|0|20200617095427
20200617|02000016|91246499|1813070527319|1813070527319|20200511000080|B3UHWVR2|1|0|18600|18600|10|0|0|550|0|0|0|0|0|0|1|0|0|20200617095426
20200617|02000016|91246480|1813400336006|1813400336006|20200511000080|B3UHWVR2|1|0|18600|18600|10|0|0|550|0|0|0|0|0|0|1|0|0|20200617095414
20200617|02000016|91246471|1813608767593|1813608767593|20200511000080|B3UHWVR2|1|0|18600|18600|10|0|0|550|0|0|0|0|0|0|1|0|0|20200617095404
20200617|02000016|91246459|1818511141687|1818511141687|20200511000080|B3UHWVR2|1|0|18600|18600|10|0|0|550|0|0|0|0|0|0|1|0|0|20200617095357
20200617|02000016|91246456|1818931232281|1818931232281|20200511000080|B3UHWVR2|1|0|18600|18600|10|0|0|550|0|0|0|0|0|0|1|0|0|20200617095353
20200617|02000016|91246457|1815187580133|1815187580133|20200511000080|B3UHWVR2|1|0|18600|18600|10|0|0|550|0|0|0|0|0|0|1|0|0|20200617095353
20200617|02000016|91246444|1813730288889|1813730288889|20200511000080|B3UHWVR2|1|0|18600|18600|10|0|0|550|0|0|0|0|0|0|1|0|0|20200617095346
20200617|02000016|91246438|1813796445877|1813796445877|20200511000080|B3UHWVR2|1|0|18600|18600|10|0|0|550|0|0|0|0|0|0|1|0|0|20200617095342
20200617|02000016|91246428|1819987525520|1819987525520|20200511000080|B3UHWVR2|1|0|18600|18600|10|0|0|550|0|0|0|0|0|0|1|0|0|20200617095329
20200617|02000016|91246421|1815512532000|1815512532000|20200511000080|B3UHWVR2|1|0|18600|18600|10|0|0|550|0|0|0|0|0|0|1|0|0|20200617095323
20200617|02000016|91246409|1818976770088|1818976770088|20200511000080|B3UHWVR2|1|0|18600|18600|10|0|0|550|0|0|0|0|0|0|1|0|0|20200617095315
20200617|02000016|91246405|1813393327863|1813393327863|20200511000080|B3UHWVR2|1|0|18600|18600|10|0|0|550|0|0|0|0|0|0|1|0|0|20200617095311
20200617|02000016|91246400|1815208999328|1815208999328|20200511000080|B3UHWVR2|1|0|18600|18600|10|0|0|550|0|0|0|0|0|0|1|0|0|20200617095306
20200617|02000016|91246398|1818206761891|1818206761891|20200511000080|B3UHWVR2|1|0|18600|18600|10|0|0|550|0|0|0|0|0|0|1|0|0|20200617095303
20200617|02000016|91246395|1818103121030|1818103121030|20200511000080|B3UHWVR2|1|0|18600|18600|10|0|0|550|0|0|0|0|0|0|1|0|0|20200617095257
20200617|02000016|91246389|1813832526017|1813832526017|20200511000080|B3UHWVR2|1|0|18600|18600|10|0|0|550|0|0|0|0|0|0|1|0|0|20200617095252
20200617|02000016|91246387|1815170023481|1815170023481|20200511000080|B3UHWVR2|1|0|18600|18600|10|0|0|550|0|0|0|0|0|0|1|0|0|20200617095248
20200617|02000016|91246384|1813887870390|1813887870390|20200511000080|B3UHWVR2|1|0|18600|18600|10|0|0|550|0|0|0|0|0|0|1|0|0|20200617095247
20200617|02000016|91246385|1813501288089|1813501288089|20200511000080|B3UHWVR2|1|0|18600|18600|10|0|0|550|0|0|0|0|0|0|1|0|0|20200617095247
20200617|02000016|91246386|1813235522109|1813235522109|20200511000080|B3UHWVR2|1|0|18600|18600|10|0|0|550|0|0|0|0|0|0|1|0|0|20200617095247
20200617|02000016|91246367|1817679024406|1817679024406|20200511000080|B3UHWVR2|1|0|18600|18600|10|0|0|550|0|0|0|0|0|0|1|0|0|20200617095235
20200617|02000016|91246364|1815045503182|1815045503182|20200511000080|B3UHWVR2|1|0|18600|18600|10|0|0|550|0|0|0|0|0|0|1|0|0|20200617095232
20200617|02000016|91246357|1813879606751|1813879606751|20200511000080|B3UHWVR2|1|0|18600|18600|10|0|0|550|0|0|0|0|0|0|1|0|0|20200617095226
20200617|02000016|91246355|1813733371391|1813733371391|20200511000080|B3UHWVR2|1|0|18600|18600|10|0|0|550|0|0|0|0|0|0|1|0|0|20200617095224
20200617|02000016|91246339|1813845158388|1813845158388|20200511000080|B3UHWVR2|1|0|18600|18600|10|0|0|550|0|0|0|0|0|0|1|0|0|20200617095210
20200617|02000016|91246333|1815671191786|1815671191786|20200511000080|B3UHWVR2|1|0|18600|18600|10|0|0|550|0|0|0|0|0|0|1|0|0|20200617095203
20200617|02000016|91246325|1813842006737|1813842006737|20200511000080|B3UHWVR2|1|0|18600|18600|10|0|0|550|0|0|0|0|0|0|1|0|0|20200617095201
20200617|02000016|91246322|1813810810905|1813810810905|20200511000080|B3UHWVR2|1|0|18600|18600|10|0|0|550|0|0|0|0|0|0|1|0|0|20200617095159
20200617|02000016|91246320|1818731521085|1818731521085|20200511000080|B3UHWVR2|1|0|18600|18600|10|0|0|550|0|0|0|0|0|0|1|0|0|20200617095153
20200617|02000016|91246318|1818210293990|1818210293990|20200511000080|B3UHWVR2|1|0|18600|18600|10|0|0|550|0|0|0|0|0|0|1|0|0|20200617095142
20200617|02000016|91246314|1813082360764|1813082360764|20200511000080|B3UHWVR2|1|0|18600|18600|10|0|0|550|0|0|0|0|0|0|1|0|0|20200617095139
20200617|02000016|91246287|1817303121352|1817303121352|20200511000080|B3UHWVR2|1|0|18600|18600|10|0|0|550|0|0|0|0|0|0|1|0|0|20200617095109
20200617|02000016|91246288|1813346190092|1813346190092|20200511000080|B3UHWVR2|1|0|18600|18600|10|0|0|550|0|0|0|0|0|0|1|0|0|20200617095109
20200617|02000016|91246283|1813780538684|1813780538684|20200511000080|B3UHWVR2|1|0|18600|18600|10|0|0|550|0|0|0|0|0|0|1|0|0|20200617095105
20200617|02000016|91246270|1815833589669|1815833589669|20200511000080|B3UHWVR2|1|0|18600|18600|10|0|0|550|0|0|0|0|0|0|1|0|0|20200617095055
20200617|02000016|91246272|1813618827226|1813618827226|20200511000080|B3UHWVR2|1|0|18600|18600|10|0|0|550|0|0|0|0|0|0|1|0|0|20200617095055
20200617|02000016|91246264|1818732221628|1818732221628|20200511000080|B3UHWVR2|1|0|18600|18600|10|0|0|550|0|0|0|0|0|0|1|0|0|20200617095050
20200617|02000016|91246254|1818046671766|1818046671766|20200511000080|B3UHWVR2|1|0|18600|18600|10|0|0|550|0|0|0|0|0|0|1|0|0|20200617095038
20200617|02000016|91246248|1813559965824|1813559965824|20200511000080|B3UHWVR2|1|0|18600|18600|10|0|0|550|0|0|0|0|0|0|1|0|0|20200617095030
20200617|02000016|91246247|1815208756608|1815208756608|20200511000080|B3UHWVR2|1|0|18600|18600|10|0|0|550|0|0|0|0|0|0|1|0|0|20200617095029
20200617|02000016|91246242|1813932211661|1813932211661|20200511000080|B3UHWVR2|1|0|18600|18600|10|0|0|550|0|0|0|0|0|0|1|0|0|20200617095019
20200617|02000016|91246241|1815911261986|1815911261986|20200511000080|B3UHWVR2|1|0|18600|18600|10|0|0|550|0|0|0|0|0|0|1|0|0|20200617095017
20200617|02000016|91246232|1815933739942|1815933739942|20200511000080|B3UHWVR2|1|0|18600|18600|10|0|0|550|0|0|0|0|0|0|1|0|0|20200617094934
20200617|02000016|91246231|1815633917679|1815633917679|20200511000080|B3UHWVR2|1|0|18600|18600|10|0|0|550|0|0|0|0|0|0|1|0|0|20200617094933
20200617|02000016|91246215|1800100000345|1800100000345|20200511000080|B3UHWVR2|1|0|18600|18600|10|0|0|550|0|0|0|0|0|0|1|0|0|20200617094851
20200617|02000016|91246209|1815288130560|1815288130560|20200511000080|B3UHWVR2|1|0|18600|18600|10|0|0|550|0|0|0|0|0|0|1|0|0|20200617094834
20200617|02000016|91246208|1813230823996|1813230823996|20200511000080|B3UHWVR2|1|0|18600|18600|10|0|0|550|0|0|0|0|0|0|1|0|0|20200617094830
20200617|02000016|91246204|1815170899237|1815170899237|20200511000080|B3UHWVR2|1|0|18600|18600|10|0|0|550|0|0|0|0|0|0|1|0|0|20200617094822
20200617|02000016|91246205|1813836685281|1813836685281|20200511000080|B3UHWVR2|1|0|18600|18600|10|0|0|550|0|0|0|0|0|0|1|0|0|20200617094822
20200617|02000016|91246192|1815346666882|1815346666882|20200511000080|B3UHWVR2|1|0|18600|18600|10|0|0|550|0|0|0|0|0|0|1|0|0|20200617094752
20200617|02000016|91246189|1813739822199|1813739822199|20200511000080|B3UHWVR2|1|0|18600|18600|10|0|0|550|0|0|0|0|0|0|1|0|0|20200617094747
20200617|02000016|91246188|1815079668098|1815079668098|20200511000080|B3UHWVR2|1|0|18600|18600|10|0|0|550|0|0|0|0|0|0|1|0|0|20200617094746
20200617|02000016|91246184|1818309996978|1818309996978|20200511000080|B3UHWVR2|1|0|18600|18600|10|0|0|550|0|0|0|0|0|0|1|0|0|20200617094742
20200617|02000016|91246168|1815887550134|1815887550134|20200511000080|B3UHWVR2|1|0|18600|18600|10|0|0|550|0|0|0|0|0|0|1|0|0|20200617094702
20200617|02000016|91246167|1815387777905|1815387777905|20200511000080|B3UHWVR2|1|0|18600|18600|10|0|0|550|0|0|0|0|0|0|1|0|0|20200617094701
20200617|02000016|91246148|1813945537116|1813945537116|20200511000080|B3UHWVR2|1|0|18600|18600|10|0|0|550|0|0|0|0|0|0|1|0|0|20200617094610
20200617|02000016|91246147|1815830799079|1815830799079|20200511000080|B3UHWVR2|1|0|18600|18600|10|0|0|550|0|0|0|0|0|0|1|0|0|20200617094604
20200617|02000016|91246134|1813997996613|1813997996613|20200511000080|B3UHWVR2|1|0|18600|18600|10|0|0|550|0|0|0|0|0|0|1|0|0|20200617094526
20200617|02000016|91246130|1815032925000|1815032925000|20200511000080|B3UHWVR2|1|0|18600|18600|10|0|0|550|0|0|0|0|0|0|1|0|0|20200617094507
20200617|02000016|91246113|1813832256871|1813832256871|20200511000080|B3UHWVR2|1|0|18600|18600|10|0|0|550|0|0|0|0|0|0|1|0|0|20200617094421
20200617|02000016|91246099|1813577513922|1813577513922|20200511000080|B3UHWVR2|1|0|18600|18600|10|0|0|550|0|0|0|0|0|0|1|0|0|20200617094344
20200617|02000016|91246096|1815911281296|1815911281296|20200511000080|B3UHWVR2|1|0|18600|18600|10|0|0|550|0|0|0|0|0|0|1|0|0|20200617094337
20200617|02000016|91246090|1813545932491|1813545932491|20200511000080|B3UHWVR2|1|0|18600|18600|10|0|0|550|0|0|0|0|0|0|1|0|0|20200617094321
20200617|02000016|91246089|1815894443268|1815894443268|20200511000080|B3UHWVR2|1|0|18600|18600|10|0|0|550|0|0|0|0|0|0|1|0|0|20200617094318
20200617|02000016|91246086|1818959010680|1818959010680|20200511000080|B3UHWVR2|1|0|18600|18600|10|0|0|550|0|0|0|0|0|0|1|0|0|20200617094314
20200617|02000016|91246080|1813988267556|1813988267556|20200511000080|B3UHWVR2|1|0|18600|18600|10|0|0|550|0|0|0|0|0|0|1|0|0|20200617094306
20200617|02000016|91246077|1800100000213|1800100000213|20200511000080|B3UHWVR2|1|0|18600|18600|10|0|0|550|0|0|0|0|0|0|1|0|0|20200617094303
20200617|02000016|91246071|1815129878708|1815129878708|20200511000080|B3UHWVR2|1|0|18600|18600|10|0|0|550|0|0|0|0|0|0|1|0|0|20200617094251
20200617|02000016|91246062|1815087942456|1815087942456|20200511000080|B3UHWVR2|1|0|18600|18600|10|0|0|550|0|0|0|0|0|0|1|0|0|20200617094234
20200617|02000016|91246061|1813578286883|1813578286883|20200511000080|B3UHWVR2|1|0|18600|18600|10|0|0|550|0|0|0|0|0|0|1|0|0|20200617094229
20200617|02000016|91246057|1800100000347|1800100000347|20200511000080|B3UHWVR2|1|0|18600|18600|10|0|0|550|0|0|0|0|0|0|1|0|0|20200617094217
20200617|02000016|91246053|1818313096871|1818313096871|20200511000080|B3UHWVR2|1|0|18600|18600|10|0|0|550|0|0|0|0|0|0|1|0|0|20200617094203
20200617|02000016|91246054|1815887543597|1815887543597|20200511000080|B3UHWVR2|1|0|18600|18600|10|0|0|550|0|0|0|0|0|0|1|0|0|20200617094203
20200617|02000016|91246055|1815925582092|1815925582092|20200511000080|B3UHWVR2|1|0|18600|18600|10|0|0|550|0|0|0|0|0|0|1|0|0|20200617094203
20200617|02000016|91246046|1815208896655|1815208896655|20200511000080|B3UHWVR2|1|0|18600|18600|10|0|0|550|0|0|0|0|0|0|1|0|0|20200617094145
20200617|02000016|91246038|1813988240419|1813988240419|20200511000080|B3UHWVR2|1|0|18600|18600|10|0|0|550|0|0|0|0|0|0|1|0|0|20200617094126
20200617|02000016|91246036|1813064860909|1813064860909|20200511000080|B3UHWVR2|1|0|18600|18600|10|0|0|550|0|0|0|0|0|0|1|0|0|20200617094119
20200617|02000016|91246032|1818788001556|1818788001556|20200511000080|B3UHWVR2|1|0|18600|18600|10|0|0|550|0|0|0|0|0|0|1|0|0|20200617094058
20200617|02000016|91246012|1813131286769|1813131286769|20200511000080|B3UHWVR2|1|0|18600|18600|10|0|0|550|0|0|0|0|0|0|1|0|0|20200617093856
20200617|02000016|91246009|1819931458246|1819931458246|20200511000080|B3UHWVR2|1|0|18600|18600|10|0|0|550|0|0|0|0|0|0|1|0|0|20200617093841
20200617|02000016|91245990|1813988253077|1813988253077|20200511000080|B3UHWVR2|1|0|18600|18600|10|0|0|550|0|0|0|0|0|0|1|0|0|20200617093811
20200617|02000016|91245989|1818187582339|1818187582339|20200511000080|B3UHWVR2|1|0|18600|18600|10|0|0|550|0|0|0|0|0|0|1|0|0|20200617093809
20200617|02000016|91245984|1815140671196|1815140671196|20200511000080|B3UHWVR2|1|0|18600|18600|10|0|0|550|0|0|0|0|0|0|1|0|0|20200617093805
20200617|02000016|91245980|1815187541886|1815187541886|20200511000080|B3UHWVR2|1|0|18600|18600|10|0|0|550|0|0|0|0|0|0|1|0|0|20200617093756
20200617|02000016|91245978|1813796290795|1813796290795|20200511000080|B3UHWVR2|1|0|18600|18600|10|0|0|550|0|0|0|0|0|0|1|0|0|20200617093751
20200617|02000016|91245973|1818787586472|1818787586472|20200511000080|B3UHWVR2|1|0|18600|18600|10|0|0|550|0|0|0|0|0|0|1|0|0|20200617093741
20200617|02000016|91245969|1815161960908|1815161960908|20200511000080|B3UHWVR2|1|0|18600|18600|10|0|0|550|0|0|0|0|0|0|1|0|0|20200617093738
20200617|02000016|91245968|1815887508589|1815887508589|20200511000080|B3UHWVR2|1|0|18600|18600|10|0|0|550|0|0|0|0|0|0|1|0|0|20200617093734
20200617|02000016|91245960|1813021088510|1813021088510|20200511000080|B3UHWVR2|1|0|18600|18600|10|0|0|550|0|0|0|0|0|0|1|0|0|20200617093725
20200617|02000016|91245958|1815287222929|1815287222929|20200511000080|B3UHWVR2|1|0|18600|18600|10|0|0|550|0|0|0|0|0|0|1|0|0|20200617093723
20200617|02000016|91245956|1818788405644|1818788405644|20200511000080|B3UHWVR2|1|0|18600|18600|10|0|0|550|0|0|0|0|0|0|1|0|0|20200617093720
20200617|02000016|91245957|1813988247562|1813988247562|20200511000080|B3UHWVR2|1|0|18600|18600|10|0|0|550|0|0|0|0|0|0|1|0|0|20200617093720
20200617|02000016|91245955|1815246489748|1815246489748|20200511000080|B3UHWVR2|1|0|18600|18600|10|0|0|550|0|0|0|0|0|0|1|0|0|20200617093715
20200617|02000016|91245952|1818161735141|1818161735141|20200511000080|B3UHWVR2|1|0|18600|18600|10|0|0|550|0|0|0|0|0|0|1|0|0|20200617093713
20200617|02000016|91245949|1813577542946|1813577542946|20200511000080|B3UHWVR2|1|0|18600|18600|10|0|0|550|0|0|0|0|0|0|1|0|0|20200617093711
20200617|02000016|91245944|1813578273333|1813578273333|20200511000080|B3UHWVR2|1|0|18600|18600|10|0|0|550|0|0|0|0|0|0|1|0|0|20200617093706
20200617|02000016|91245941|1818371580857|1818371580857|20200511000080|B3UHWVR2|1|0|18600|18600|10|0|0|550|0|0|0|0|0|0|1|0|0|20200617093701
20200617|02000016|91245940|1813987956640|1813987956640|20200511000080|B3UHWVR2|1|0|18600|18600|10|0|0|550|0|0|0|0|0|0|1|0|0|20200617093648
20200617|02000016|91245939|1813320061039|1813320061039|20200511000080|B3UHWVR2|1|0|18600|18600|10|0|0|550|0|0|0|0|0|0|1|0|0|20200617093647
20200617|02000016|91245936|1813400222805|1813400222805|20200511000080|B3UHWVR2|1|0|18600|18600|10|0|0|550|0|0|0|0|0|0|1|0|0|20200617093636
20200617|02000016|91245937|1813577525294|1813577525294|20200511000080|B3UHWVR2|1|0|18600|18600|10|0|0|550|0|0|0|0|0|0|1|0|0|20200617093636
20200617|02000016|91245928|1800100000280|1800100000280|20200511000080|B3UHWVR2|1|0|18600|18600|10|0|0|550|0|0|0|0|0|0|1|0|0|20200617093626
20200617|02000016|91245920|1818165273182|1818165273182|20200511000080|B3UHWVR2|1|0|18600|18600|10|0|0|550|0|0|0|0|0|0|1|0|0|20200617093616
20200617|02000016|91245910|1813510564251|1813510564251|20200511000080|B3UHWVR2|1|0|18600|18600|10|0|0|550|0|0|0|0|0|0|1|0|0|20200617093602
20200617|02000016|91245905|1815184855733|1815184855733|20200511000080|B3UHWVR2|1|0|18600|18600|10|0|0|550|0|0|0|0|0|0|1|0|0|20200617093555
20200617|02000016|91245904|1813159989877|1813159989877|20200511000080|B3UHWVR2|1|0|18600|18600|10|0|0|550|0|0|0|0|0|0|1|0|0|20200617093552
20200617|02000016|91245903|1813657964642|1813657964642|20200511000080|B3UHWVR2|1|0|18600|18600|10|0|0|550|0|0|0|0|0|0|1|0|0|20200617093551
20200617|02000016|91245902|1815613556396|1815613556396|20200511000080|B3UHWVR2|1|0|18600|18600|10|0|0|550|0|0|0|0|0|0|1|0|0|20200617093550
20200617|02000016|91245900|1813470525576|1813470525576|20200511000080|B3UHWVR2|1|0|18600|18600|10|0|0|550|0|0|0|0|0|0|1|0|0|20200617093541
20200617|02000016|91245899|1815308750506|1815308750506|20200511000080|B3UHWVR2|1|0|18600|18600|10|0|0|550|0|0|0|0|0|0|1|0|0|20200617093535
20200617|02000016|91245892|1813556430912|1813556430912|20200511000080|B3UHWVR2|1|0|18600|18600|10|0|0|550|0|0|0|0|0|0|1|0|0|20200617093523
20200617|02000016|91245887|1813231500951|1813231500951|20200511000080|B3UHWVR2|1|0|18600|18600|10|0|0|550|0|0|0|0|0|0|1|0|0|20200617093517
20200617|02000016|91245886|1813940061166|1813940061166|20200511000080|B3UHWVR2|1|0|18600|18600|10|0|0|550|0|0|0|0|0|0|1|0|0|20200617093515
20200617|02000016|91245885|1813831270832|1813831270832|20200511000080|B3UHWVR2|1|0|18600|18600|10|0|0|550|0|0|0|0|0|0|1|0|0|20200617093514
20200617|02000016|91245883|1818691191808|1818691191808|20200511000080|B3UHWVR2|1|0|18600|18600|10|0|0|550|0|0|0|0|0|0|1|0|0|20200617093510
20200617|02000016|91245884|1818962075812|1818962075812|20200511000080|B3UHWVR2|1|0|18600|18600|10|0|0|550|0|0|0|0|0|0|1|0|0|20200617093510
20200617|02000016|91245878|1813988205870|1813988205870|20200511000080|B3UHWVR2|1|0|18600|18600|10|0|0|550|0|0|0|0|0|0|1|0|0|20200617093504
20200617|02000016|91245877|1813370555380|1813370555380|20200511000080|B3UHWVR2|1|0|18600|18600|10|0|0|550|0|0|0|0|0|0|1|0|0|20200617093503
20200617|02000016|91245874|1800100000154|1800100000154|20200511000080|B3UHWVR2|1|0|18600|18600|10|0|0|550|0|0|0|0|0|0|1|0|0|20200617093459
20200617|02000016|91245872|1813808787391|1813808787391|20200511000080|B3UHWVR2|1|0|18600|18600|10|0|0|550|0|0|0|0|0|0|1|0|0|20200617093451
20200617|02000016|91245873|1815042400515|1815042400515|20200511000080|B3UHWVR2|1|0|18600|18600|10|0|0|550|0|0|0|0|0|0|1|0|0|20200617093451
20200617|02000016|91245870|1815667931997|1815667931997|20200511000080|B3UHWVR2|1|0|18600|18600|10|0|0|550|0|0|0|0|0|0|1|0|0|20200617093435
20200617|02000016|91245858|1815601097966|1815601097966|20200511000080|B3UHWVR2|1|0|18600|18600|10|0|0|550|0|0|0|0|0|0|1|0|0|20200617093351
20200617|02000016|91245857|1815232508176|1815232508176|20200511000080|B3UHWVR2|1|0|18600|18600|10|0|0|550|0|0|0|0|0|0|1|0|0|20200617093346
20200617|02000016|91245853|1813992400727|1813992400727|20200511000080|B3UHWVR2|1|0|18600|18600|10|0|0|550|0|0|0|0|0|0|1|0|0|20200617093345
20200617|02000016|91245851|1813987581003|1813987581003|20200511000080|B3UHWVR2|1|0|18600|18600|10|0|0|550|0|0|0|0|0|0|1|0|0|20200617093341
20200617|02000016|91245852|1813987508720|1813987508720|20200511000080|B3UHWVR2|1|0|18600|18600|10|0|0|550|0|0|0|0|0|0|1|0|0|20200617093341
20200617|02000016|91245845|1815184848605|1815184848605|20200511000080|B3UHWVR2|1|0|18600|18600|10|0|0|550|0|0|0|0|0|0|1|0|0|20200617093332
20200617|02000016|91245846|1813095218509|1813095218509|20200511000080|B3UHWVR2|1|0|18600|18600|10|0|0|550|0|0|0|0|0|0|1|0|0|20200617093332
20200617|02000016|91245841|1818191539413|1818191539413|20200511000080|B3UHWVR2|1|0|18600|18600|10|0|0|550|0|0|0|0|0|0|1|0|0|20200617093326
20200617|02000016|91245839|1818945765909|1818945765909|20200511000080|B3UHWVR2|1|0|18600|18600|10|0|0|550|0|0|0|0|0|0|1|0|0|20200617093322
20200617|02000016|91245838|1813978866093|1813978866093|20200511000080|B3UHWVR2|1|0|18600|18600|10|0|0|550|0|0|0|0|0|0|1|0|0|20200617093321
20200617|02000016|91245837|1817346665892|1817346665892|20200511000080|B3UHWVR2|1|0|18600|18600|10|0|0|550|0|0|0|0|0|0|1|0|0|20200617093318
20200617|02000016|91245833|1815912705961|1815912705961|20200511000080|B3UHWVR2|1|0|18600|18600|10|0|0|550|0|0|0|0|0|0|1|0|0|20200617093315
20200617|02000016|91245829|1813833011132|1813833011132|20200511000080|B3UHWVR2|1|0|18600|18600|10|0|0|550|0|0|0|0|0|0|1|0|0|20200617093307
20200617|02000016|91245822|1813970022873|1813970022873|20200511000080|B3UHWVR2|1|0|18600|18600|10|0|0|550|0|0|0|0|0|0|1|0|0|20200617093256
20200617|02000016|91245819|1815245431805|1815245431805|20200511000080|B3UHWVR2|1|0|18600|18600|10|0|0|550|0|0|0|0|0|0|1|0|0|20200617093230
20200617|02000016|91245818|1817796982621|1817796982621|20200511000080|B3UHWVR2|1|0|18600|18600|10|0|0|550|0|0|0|0|0|0|1|0|0|20200617093226
20200617|02000016|91245815|1813520629383|1813520629383|20200511000080|B3UHWVR2|1|0|18600|18600|10|0|0|550|0|0|0|0|0|0|1|0|0|20200617093223
20200617|02000016|91245807|1813591148644|1813591148644|20200511000080|B3UHWVR2|1|0|18600|18600|10|0|0|550|0|0|0|0|0|0|1|0|0|20200617093216
20200617|02000016|91245806|1815887537882|1815887537882|20200511000080|B3UHWVR2|1|0|18600|18600|10|0|0|550|0|0|0|0|0|0|1|0|0|20200617093211
20200617|02000016|91245805|1815830793323|1815830793323|20200511000080|B3UHWVR2|1|0|18600|18600|10|0|0|550|0|0|0|0|0|0|1|0|0|20200617093204
20200617|02000016|91245804|1813887829820|1813887829820|20200511000080|B3UHWVR2|1|0|18600|18600|10|0|0|550|0|0|0|0|0|0|1|0|0|20200617093159
20200617|02000016|91245799|1813324561701|1813324561701|20200511000080|B3UHWVR2|1|0|18600|18600|10|0|0|550|0|0|0|0|0|0|1|0|0|20200617093156
20200617|02000016|91245789|1813323529941|1813323529941|20200511000080|B3UHWVR2|1|0|18600|18600|10|0|0|550|0|0|0|0|0|0|1|0|0|20200617093139
20200617|02000016|91245788|1815094690607|1815094690607|20200511000080|B3UHWVR2|1|0|18600|18600|10|0|0|550|0|0|0|0|0|0|1|0|0|20200617093136
20200617|02000016|91245786|1813623333299|1813623333299|20200511000080|B3UHWVR2|1|0|18600|18600|10|0|0|550|0|0|0|0|0|0|1|0|0|20200617093135
20200617|02000016|91245787|1818306923965|1818306923965|20200511000080|B3UHWVR2|1|0|18600|18600|10|0|0|550|0|0|0|0|0|0|1|0|0|20200617093135
20200617|02000016|91245783|1818875037395|1818875037395|20200511000080|B3UHWVR2|1|0|18600|18600|10|0|0|550|0|0|0|0|0|0|1|0|0|20200617093133
20200617|02000016|91245781|1818331534443|1818331534443|20200511000080|B3UHWVR2|1|0|18600|18600|10|0|0|550|0|0|0|0|0|0|1|0|0|20200617093131
20200617|02000016|91245779|1800100000032|1800100000032|20200511000080|B3UHWVR2|1|0|18600|18600|10|0|0|550|0|0|0|0|0|0|1|0|0|20200617093128
20200617|02000016|91245769|1813385213554|1813385213554|20200511000080|B3UHWVR2|1|0|18600|18600|10|0|0|550|0|0|0|0|0|0|1|0|0|20200617093111
20200617|02000016|91245767|1813730198476|1813730198476|20200511000080|B3UHWVR2|1|0|18600|18600|10|0|0|550|0|0|0|0|0|0|1|0|0|20200617093110
20200617|02000016|91245766|1813545997179|1813545997179|20200511000080|B3UHWVR2|1|0|18600|18600|10|0|0|550|0|0|0|0|0|0|1|0|0|20200617093109
20200617|02000016|91245765|1813683131563|1813683131563|20200511000080|B3UHWVR2|1|0|18600|18600|10|0|0|550|0|0|0|0|0|0|1|0|0|20200617093103
20200617|02000016|91245764|1813607196765|1813607196765|20200511000080|B3UHWVR2|1|0|18600|18600|10|0|0|550|0|0|0|0|0|0|1|0|0|20200617091853
20200617|02000016|91245763|1818966843973|1818966843973|20200511000080|B3UHWVR2|1|0|18600|18600|10|0|0|550|0|0|0|0|0|0|1|0|0|20200617091852
20200617|02000016|91245762|1815076235183|1815076235183|20200511000080|B3UHWVR2|1|0|18600|18600|10|0|0|550|0|0|0|0|0|0|1|0|0|20200617091833
20200617|02000016|91245761|1815256323299|1815256323299|20200511000080|B3UHWVR2|1|0|18600|18600|10|0|0|0|0|0|0|0|0|0|1|0|0|20200617091815
20200617|02000016|91245760|1818088174982|1818088174982|20200511000080|B3UHWVR2|1|0|18600|18600|10|0|0|550|0|0|0|0|0|0|1|0|0|20200617091755
20200617|02000016|91245759|1813832565805|1813832565805|20200511000080|B3UHWVR2|1|0|18600|18600|10|0|0|550|0|0|0|0|0|0|1|0|0|20200617091736
20200617|02000016|91245758|1815256323299|1815256323299|20200511000080|B3UHWVR2|1|0|18600|18600|10|0|0|0|0|0|0|0|0|0|1|0|0|20200617091654
20200617|02000016|91245757|1818669296269|1818669296269|20200511000080|B3UHWVR2|1|0|18600|18600|10|0|0|550|0|0|0|0|0|0|1|0|0|20200617091653
20200617|02000016|91245756|1815512595393|1815512595393|20200511000080|B3UHWVR2|1|0|18600|18600|10|0|0|550|0|0|0|0|0|0|1|0|0|20200617091641
20200617|02000016|91245755|1815256323299|1815256323299|20200511000080|B3UHWVR2|1|0|18600|18600|10|0|0|0|0|0|0|0|0|0|1|0|0|20200617091640
20200617|02000016|91245754|1815256323299|1815256323299|20200511000080|B3UHWVR2|1|0|18600|18600|10|0|0|0|0|0|0|0|0|0|1|0|0|20200617091630
20200617|02000016|91245750|1815256323299|1815256323299|20200511000080|B3UHWVR2|1|0|18600|18600|10|0|0|0|0|0|0|0|0|0|1|0|0|20200617091620
20200617|02000016|91245749|1815256323299|1815256323299|20200511000080|B3UHWVR2|1|0|18600|18600|10|0|0|0|0|0|0|0|0|0|1|0|0|20200617091606
20200617|02000016|91245748|1815256323299|1815256323299|20200511000080|B3UHWVR2|1|0|18600|18600|10|0|0|0|0|0|0|0|0|0|1|0|0|20200617091555
20200617|02000016|91245747|1815256323299|1815256323299|20200511000080|B3UHWVR2|1|0|18600|18600|10|0|0|0|0|0|0|0|0|0|1|0|0|20200617091545
20200617|02000016|91245746|1815256323299|1815256323299|20200511000080|B3UHWVR2|1|0|18600|18600|10|0|0|0|0|0|0|0|0|0|1|0|0|20200617091535
20200617|02000016|91245745|1813633226787|1813633226787|20200511000080|B3UHWVR2|1|0|18600|18600|10|0|0|550|0|0|0|0|0|0|1|0|0|20200617091534
20200617|02000016|91245744|1815256323299|1815256323299|20200511000080|B3UHWVR2|1|0|18600|18600|10|0|0|0|0|0|0|0|0|0|1|0|0|20200617091520
20200617|02000016|91245743|1815388839989|1815388839989|20200511000080|B3UHWVR2|1|0|18600|18600|10|0|0|550|0|0|0|0|0|0|1|0|0|20200617091514
20200617|02000016|91245742|1813703151462|1813703151462|20200511000080|B3UHWVR2|1|0|18600|18600|10|0|0|550|0|0|0|0|0|0|1|0|0|20200617091502
20200617|02000016|91245739|1815256323299|1815256323299|20200511000080|B3UHWVR2|1|0|18600|18600|10|0|0|0|0|0|0|0|0|0|1|0|0|20200617091457
20200617|02000016|91245737|1815256323299|1815256323299|20200511000080|B3UHWVR2|1|0|18600|18600|10|0|0|0|0|0|0|0|0|0|1|0|0|20200617091442
20200617|02000016|91245736|1815256323299|1815256323299|20200511000080|B3UHWVR2|1|0|18600|18600|10|0|0|0|0|0|0|0|0|0|1|0|0|20200617091431
20200617|02000016|91245735|1815256323299|1815256323299|20200511000080|B3UHWVR2|1|0|18600|18600|10|0|0|0|0|0|0|0|0|0|1|0|0|20200617091420
20200617|02000016|91245733|1815256323299|1815256323299|20200511000080|B3UHWVR2|1|0|18600|18600|10|0|0|0|0|0|0|0|0|0|1|0|0|20200617091409
20200617|02000016|91245730|1815256323299|1815256323299|20200511000080|B3UHWVR2|1|0|18600|18600|10|0|0|0|0|0|0|0|0|0|1|0|0|20200617091359
20200617|02000016|91245724|1815256323299|1815256323299|20200511000080|B3UHWVR2|1|0|18600|18600|10|0|0|0|0|0|0|0|0|0|1|0|0|20200617091345
20200617|02000016|91245723|1815256323299|1815256323299|20200511000080|B3UHWVR2|1|0|18600|18600|10|0|0|0|0|0|0|0|0|0|1|0|0|20200617091332
20200617|02000016|91245721|1813582840507|1813582840507|20200511000080|B3UHWVR2|1|0|18600|18600|10|0|0|550|0|0|0|0|0|0|1|0|0|20200617091112
