20200507|02000134|3329|1813324639668|1813324639668|20200414000456|B3UHWVR2|1|0|18600|18600|10|0|0|558|0|0|0|0|0|0|1|0|0|20200507144904
20200507|02000134|3321|1818631220891|1818631220891|20200414000456|B3UHWVR2|1|0|18600|18600|10|0|0|558|0|0|0|0|0|0|1|0|0|20200507144831
20200507|02000134|3314|1813578222161|1813578222161|20200414000456|B3UHWVR2|1|0|18600|18600|10|0|0|558|0|0|0|0|0|0|1|0|0|20200507144735
20200507|02000134|3313|1813315439137|1813315439137|20200414000456|B3UHWVR2|1|0|18600|18600|10|0|0|558|0|0|0|0|0|0|1|0|0|20200507144719
20200507|02000134|3304|1813379416382|1813379416382|20200414000456|B3UHWVR2|1|0|18600|18600|10|0|0|558|0|0|0|0|0|0|1|0|0|20200507144606
20200507|02000134|3303|1818932685729|1818932685729|20200414000456|B3UHWVR2|1|0|18600|18600|10|0|0|558|0|0|0|0|0|0|1|0|0|20200507144559
20200507|02000134|3294|1815127495468|1815127495468|20200414000456|B3UHWVR2|1|0|18600|18600|10|0|0|558|0|0|0|0|0|0|1|0|0|20200507144441
20200507|02000134|3293|1818788201666|1818788201666|20200414000456|B3UHWVR2|1|0|18600|18600|10|0|0|558|0|0|0|0|0|0|1|0|0|20200507144425
20200507|02000134|3288|1815303121880|1815303121880|20200414000456|B3UHWVR2|1|0|18600|18600|10|0|0|558|0|0|0|0|0|0|1|0|0|20200507144355
20200507|02000134|3287|1818931222380|1818931222380|20200414000456|B3UHWVR2|1|0|18600|18600|10|0|0|558|0|0|0|0|0|0|1|0|0|20200507144319
20200507|02000134|3282|1800100000366|1800100000366|20200414000456|B3UHWVR2|1|0|18600|18600|10|0|0|558|0|0|0|0|0|0|1|0|0|20200507144044
20200507|02000134|3281|1818132723583|1818132723583|20200414000456|B3UHWVR2|1|0|18600|18600|10|0|0|558|0|0|0|0|0|0|1|0|0|20200507144013
20200507|02000134|3269|1813846011141|1813846011141|20200414000456|B3UHWVR2|1|0|18600|18600|10|0|0|558|0|0|0|0|0|0|1|0|0|20200507143759
20200507|02000134|3256|1813988263155|1813988263155|20200414000456|B3UHWVR2|1|0|18600|18600|10|0|0|558|0|0|0|0|0|0|1|0|0|20200507142449
20200507|02000134|3251|1813847612877|1813847612877|20200414000456|B3UHWVR2|1|0|18600|18600|10|0|0|558|0|0|0|0|0|0|1|0|0|20200507142310
20200507|02000134|3245|1815947464963|1815947464963|20200414000456|B3UHWVR2|1|0|18600|18600|10|0|0|558|0|0|0|0|0|0|1|0|0|20200507142149
20200507|02000134|3238|1815630880329|1815630880329|20200414000456|B3UHWVR2|1|0|18600|18600|10|0|0|558|0|0|0|0|0|0|1|0|0|20200507142121
20200507|02000134|3237|1815201189518|1815201189518|20200414000456|B3UHWVR2|1|0|18600|18600|10|0|0|558|0|0|0|0|0|0|1|0|0|20200507142117
20200507|02000134|3224|1813088421577|1813088421577|20200414000456|B3UHWVR2|1|0|18600|18600|10|0|0|558|0|0|0|0|0|0|1|0|0|20200507141946
20200507|02000134|3217|1815932240292|1815932240292|20200414000456|B3UHWVR2|1|0|18600|18600|10|0|0|558|0|0|0|0|0|0|1|0|0|20200507141857
20200507|02000134|3207|1813931219857|1813931219857|20200414000456|B3UHWVR2|1|0|18600|18600|10|0|0|558|0|0|0|0|0|0|1|0|0|20200507141748
20200507|02000134|3202|1818629264385|1818629264385|20200414000456|B3UHWVR2|1|0|18600|18600|10|0|0|558|0|0|0|0|0|0|1|0|0|20200507141643
20200507|02000134|3201|1800100000070|1800100000070|20200414000456|B3UHWVR2|1|0|18600|18600|10|0|0|558|0|0|0|0|0|0|1|0|0|20200507141611
20200507|02000134|3200|1800100000209|1800100000209|20200414000456|B3UHWVR2|1|0|18600|18600|10|0|0|558|0|0|0|0|0|0|1|0|0|20200507141606
20200507|02000134|3181|1815029688272|1815029688272|20200414000456|B3UHWVR2|1|0|18600|18600|10|0|0|558|0|0|0|0|0|0|1|0|0|20200507141433
20200507|02000134|3180|1815833895638|1815833895638|20200414000456|B3UHWVR2|1|0|18600|18600|10|0|0|558|0|0|0|0|0|0|1|0|0|20200507141405
20200507|02000134|3179|1817784230052|1817784230052|20200414000456|B3UHWVR2|1|0|18600|18600|10|0|0|558|0|0|0|0|0|0|1|0|0|20200507141359
20200507|02000134|3171|1813091586900|1813091586900|20200414000456|B3UHWVR2|1|0|18600|18600|10|0|0|558|0|0|0|0|0|0|1|0|0|20200507141300
20200507|02000134|3170|1800100000245|1800100000245|20200414000456|B3UHWVR2|1|0|18600|18600|10|0|0|558|0|0|0|0|0|0|1|0|0|20200507141221
20200507|02000134|3164|1818631222983|1818631222983|20200414000456|B3UHWVR2|1|0|18600|18600|10|0|0|558|0|0|0|0|0|0|1|0|0|20200507141128
20200507|02000134|3160|1813066713691|1813066713691|20200414000456|B3UHWVR2|1|0|18600|18600|10|0|0|558|0|0|0|0|0|0|1|0|0|20200507141051
20200507|02000134|3156|1813164990022|1813164990022|20200414000456|B3UHWVR2|1|0|18600|18600|10|0|0|558|0|0|0|0|0|0|1|0|0|20200507141027
20200507|02000134|3152|1818869202035|1818869202035|20200414000456|B3UHWVR2|1|0|18600|18600|10|0|0|558|0|0|0|0|0|0|1|0|0|20200507141005
20200507|02000134|3151|1800100000161|1800100000161|20200414000456|B3UHWVR2|1|0|18600|18600|10|0|0|558|0|0|0|0|0|0|1|0|0|20200507141003
20200507|02000134|3150|1813970887172|1813970887172|20200414000456|B3UHWVR2|1|0|18600|18600|10|0|0|558|0|0|0|0|0|0|1|0|0|20200507140958
20200507|02000134|3139|1800100000085|1800100000085|20200414000456|B3UHWVR2|1|0|18600|18600|10|0|0|558|0|0|0|0|0|0|1|0|0|20200507140901
20200507|02000134|3135|1815931279585|1815931279585|20200414000456|B3UHWVR2|1|0|18600|18600|10|0|0|558|0|0|0|0|0|0|1|0|0|20200507140800
20200507|02000134|3133|1815208819237|1815208819237|20200414000456|B3UHWVR2|1|0|18600|18600|10|0|0|558|0|0|0|0|0|0|1|0|0|20200507140703
20200507|02000134|3131|1800100000136|1800100000136|20200414000456|B3UHWVR2|1|0|18600|18600|10|0|0|558|0|0|0|0|0|0|1|0|0|20200507140644
20200507|02000134|3126|1813266662096|1813266662096|20200414000456|B3UHWVR2|1|0|18600|18600|10|0|0|558|0|0|0|0|0|0|1|0|0|20200507140448
20200507|02000134|3125|1817732411319|1817732411319|20200414000456|B3UHWVR2|1|0|18600|18600|10|0|0|558|0|0|0|0|0|0|1|0|0|20200507140437
20200507|02000134|3121|1813641226784|1813641226784|20200414000456|B3UHWVR2|1|0|18600|18600|10|0|0|558|0|0|0|0|0|0|1|0|0|20200507140429
20200507|02000134|3109|1800100000182|1800100000182|20200414000456|B3UHWVR2|1|0|18600|18600|10|0|0|558|0|0|0|0|0|0|1|0|0|20200507140321
20200507|02000134|3108|1818731866982|1818731866982|20200414000456|B3UHWVR2|1|0|18600|18600|10|0|0|558|0|0|0|0|0|0|1|0|0|20200507140309
20200507|02000134|3107|1813129593568|1813129593568|20200414000456|B3UHWVR2|1|0|18600|18600|10|0|0|558|0|0|0|0|0|0|1|0|0|20200507140308
20200507|02000134|3102|1813014300009|1813014300009|20200414000456|B3UHWVR2|1|0|18600|18600|10|0|0|558|0|0|0|0|0|0|1|0|0|20200507140232
20200507|02000134|3094|1813513284448|1813513284448|20200414000456|B3UHWVR2|1|0|18600|18600|10|0|0|558|0|0|0|0|0|0|1|0|0|20200507140141
20200507|02000134|3091|1818093392935|1818093392935|20200414000456|B3UHWVR2|1|0|18600|18600|10|0|0|558|0|0|0|0|0|0|1|0|0|20200507140119
20200507|02000134|3080|1815032236912|1815032236912|20200414000456|B3UHWVR2|1|0|18600|18600|10|0|0|558|0|0|0|0|0|0|1|0|0|20200507140024
20200507|02000134|3068|1800100000229|1800100000229|20200414000456|B3UHWVR2|1|0|18600|18600|10|0|0|558|0|0|0|0|0|0|1|0|0|20200507135850
20200507|02000134|3061|1818313082518|1818313082518|20200414000456|B3UHWVR2|1|0|18600|18600|10|0|0|558|0|0|0|0|0|0|1|0|0|20200507135801
20200507|02000134|3060|1813777101958|1813777101958|20200414000456|B3UHWVR2|1|0|18600|18600|10|0|0|558|0|0|0|0|0|0|1|0|0|20200507135745
20200507|02000134|3059|1800100000188|1800100000188|20200414000456|B3UHWVR2|1|0|18600|18600|10|0|0|558|0|0|0|0|0|0|1|0|0|20200507135643
20200507|02000134|3054|1818806080965|1818806080965|20200414000456|B3UHWVR2|1|0|18600|18600|10|0|0|558|0|0|0|0|0|0|1|0|0|20200507135502
20200507|02000134|3053|1818932692236|1818932692236|20200414000456|B3UHWVR2|1|0|18600|18600|1|0|0|55|0|0|0|0|0|0|1|0|0|20200507135425
20200507|02000134|3052|1815630231725|1815630231725|20200414000456|B3UHWVR2|1|0|18600|18600|1|0|0|55|0|0|0|0|0|0|1|0|0|20200507135343
20200507|02000134|3050|1813730229934|1813730229934|20200414000456|B3UHWVR2|1|0|18600|18600|10|0|0|558|0|0|0|0|0|0|1|0|0|20200507135248
20200507|02000134|3045|1813931380155|1813931380155|20200414000456|B3UHWVR2|1|0|18600|18600|1|0|0|55|0|0|0|0|0|0|1|0|0|20200507135132
20200507|02000134|3040|1818967335077|1818967335077|20200414000456|B3UHWVR2|1|0|18600|18600|10|0|0|558|0|0|0|0|0|0|1|0|0|20200507135109
20200507|02000134|3039|1813931380155|1813931380155|20200414000456|B3UHWVR2|1|0|18600|18600|9|0|0|502|0|0|0|0|0|0|1|0|0|20200507135032
20200507|02000134|3038|1813930241343|1813930241343|20200414000456|B3UHWVR2|1|0|18600|18600|10|0|0|558|0|0|0|0|0|0|1|0|0|20200507135010
20200507|02000134|3034|1815671191786|1815671191786|20200414000456|B3UHWVR2|1|0|18600|18600|10|0|0|558|0|0|0|0|0|0|1|0|0|20200507134912
20200507|02000134|3033|1813933229549|1813933229549|20200414000456|B3UHWVR2|1|0|18600|18600|10|0|0|558|0|0|0|0|0|0|1|0|0|20200507134823
20200507|02000134|3032|1815231225276|1815231225276|20200414000456|B3UHWVR2|1|0|18600|18600|10|0|0|558|0|0|0|0|0|0|1|0|0|20200507134714
20200507|02000134|3031|1815032232283|1815032232283|20200414000456|B3UHWVR2|1|0|18600|18600|10|0|0|558|0|0|0|0|0|0|1|0|0|20200507134703
20200507|02000134|3024|1815230285659|1815230285659|20200414000456|B3UHWVR2|1|0|18600|18600|10|0|0|558|0|0|0|0|0|0|1|0|0|20200507134619
20200507|02000134|3025|1814708750317|1814708750317|20200414000456|B3UHWVR2|1|0|18600|18600|10|0|0|558|0|0|0|0|0|0|1|0|0|20200507134619
20200507|02000134|3019|1813700388839|1813700388839|20200414000456|B3UHWVR2|1|0|18600|18600|10|0|0|558|0|0|0|0|0|0|1|0|0|20200507134520
20200507|02000134|3018|1813832212723|1813832212723|20200414000456|B3UHWVR2|1|0|18600|18600|10|0|0|558|0|0|0|0|0|0|1|0|0|20200507134427
20200507|02000134|3017|1815368798533|1815368798533|20200414000456|B3UHWVR2|1|0|18600|18600|10|0|0|558|0|0|0|0|0|0|1|0|0|20200507134406
20200507|02000134|3012|1813931360238|1813931360238|20200414000456|B3UHWVR2|1|0|18600|18600|10|0|0|558|0|0|0|0|0|0|1|0|0|20200507134350
20200507|02000134|3006|1815131220736|1815131220736|20200414000456|B3UHWVR2|1|0|18600|18600|10|0|0|558|0|0|0|0|0|0|1|0|0|20200507134312
20200507|02000134|2996|1815332256088|1815332256088|20200414000456|B3UHWVR2|1|0|18600|18600|10|0|0|558|0|0|0|0|0|0|1|0|0|20200507134228
20200507|02000134|2995|1813582743080|1813582743080|20200414000456|B3UHWVR2|1|0|18600|18600|10|0|0|558|0|0|0|0|0|0|1|0|0|20200507134225
20200507|02000134|2994|1813911318605|1813911318605|20200414000456|B3UHWVR2|1|0|18600|18600|10|0|0|558|0|0|0|0|0|0|1|0|0|20200507134211
20200507|02000134|2993|1813466173625|1813466173625|20200414000456|B3UHWVR2|1|0|18600|18600|10|0|0|558|0|0|0|0|0|0|1|0|0|20200507134150
20200507|02000134|2985|1815903176271|1815903176271|20200414000456|B3UHWVR2|1|0|18600|18600|10|0|0|558|0|0|0|0|0|0|1|0|0|20200507134057
20200507|02000134|2984|1813643126078|1813643126078|20200414000456|B3UHWVR2|1|0|18600|18600|10|0|0|558|0|0|0|0|0|0|1|0|0|20200507134047
20200507|02000134|2983|1813463287557|1813463287557|20200414000456|B3UHWVR2|1|0|18600|18600|10|0|0|558|0|0|0|0|0|0|1|0|0|20200507134036
20200507|02000134|2981|1815803121080|1815803121080|20200414000456|B3UHWVR2|1|0|18600|18600|10|0|0|558|0|0|0|0|0|0|1|0|0|20200507134024
20200507|02000134|2971|1815227017957|1815227017957|20200414000456|B3UHWVR2|1|0|18600|18600|10|0|0|558|0|0|0|0|0|0|1|0|0|20200507134008
20200507|02000134|2966|1813930801797|1813930801797|20200414000456|B3UHWVR2|1|0|18600|18600|10|0|0|558|0|0|0|0|0|0|1|0|0|20200507133937
20200507|02000134|2955|1815837935868|1815837935868|20200414000456|B3UHWVR2|1|0|18600|18600|10|0|0|558|0|0|0|0|0|0|1|0|0|20200507133858
20200507|02000134|2954|1815208756608|1815208756608|20200414000456|B3UHWVR2|1|0|18600|18600|10|0|0|558|0|0|0|0|0|0|1|0|0|20200507133857
20200507|02000134|2953|1815630813944|1815630813944|20200414000456|B3UHWVR2|1|0|18600|18600|10|0|0|558|0|0|0|0|0|0|1|0|0|20200507133853
20200507|02000134|2941|1817732650061|1817732650061|20200414000456|B3UHWVR2|1|0|18600|18600|10|0|0|558|0|0|0|0|0|0|1|0|0|20200507133756
20200507|02000134|2934|1813314687653|1813314687653|20200414000456|B3UHWVR2|1|0|18600|18600|10|0|0|558|0|0|0|0|0|0|1|0|0|20200507133735
20200507|02000134|2933|1815699680001|1815699680001|20200414000456|B3UHWVR2|1|0|18600|18600|10|0|0|558|0|0|0|0|0|0|1|0|0|20200507133733
20200507|02000134|2929|1813903128392|1813903128392|20200414000456|B3UHWVR2|1|0|18600|18600|10|0|0|558|0|0|0|0|0|0|1|0|0|20200507133714
20200507|02000134|2924|1813566373447|1813566373447|20200414000456|B3UHWVR2|1|0|18600|18600|10|0|0|558|0|0|0|0|0|0|1|0|0|20200507133659
20200507|02000134|2923|1818304684246|1818304684246|20200414000456|B3UHWVR2|1|0|18600|18600|10|0|0|558|0|0|0|0|0|0|1|0|0|20200507133658
20200507|02000134|2922|1815097439866|1815097439866|20200414000456|B3UHWVR2|1|0|18600|18600|10|0|0|558|0|0|0|0|0|0|1|0|0|20200507133657
20200507|02000134|2915|1813766708898|1813766708898|20200414000456|B3UHWVR2|1|0|18600|18600|10|0|0|558|0|0|0|0|0|0|1|0|0|20200507133627
20200507|02000134|2914|1815803121616|1815803121616|20200414000456|B3UHWVR2|1|0|18600|18600|10|0|0|558|0|0|0|0|0|0|1|0|0|20200507133624
20200507|02000134|2904|1815732221263|1815732221263|20200414000456|B3UHWVR2|1|0|18600|18600|10|0|0|558|0|0|0|0|0|0|1|0|0|20200507133540
20200507|02000134|2899|1815830265369|1815830265369|20200414000456|B3UHWVR2|1|0|18600|18600|10|0|0|558|0|0|0|0|0|0|1|0|0|20200507133450
20200507|02000134|2894|1813933285734|1813933285734|20200414000456|B3UHWVR2|1|0|18600|18600|10|0|0|558|0|0|0|0|0|0|1|0|0|20200507133409
20200507|02000134|2889|1815853623056|1815853623056|20200414000456|B3UHWVR2|1|0|18600|18600|10|0|0|558|0|0|0|0|0|0|1|0|0|20200507133321
20200507|02000134|2880|1813230203301|1813230203301|20200414000456|B3UHWVR2|1|0|18600|18600|10|0|0|558|0|0|0|0|0|0|1|0|0|20200507133235
20200507|02000134|2873|1813722423486|1813722423486|20200414000456|B3UHWVR2|1|0|18600|18600|10|0|0|558|0|0|0|0|0|0|1|0|0|20200507133143
20200507|02000134|2868|1813091257294|1813091257294|20200414000456|B3UHWVR2|1|0|18600|18600|10|0|0|558|0|0|0|0|0|0|1|0|0|20200507133052
20200507|02000134|2866|1813309116156|1813309116156|20200414000456|B3UHWVR2|1|0|18600|18600|10|0|0|558|0|0|0|0|0|0|1|0|0|20200507133026
20200507|02000134|2862|1818920030157|1818920030157|20200414000456|B3UHWVR2|1|0|18600|18600|10|0|0|558|0|0|0|0|0|0|1|0|0|20200507132927
20200507|02000134|2858|1815705193619|1815705193619|20200414000456|B3UHWVR2|1|0|18600|18600|10|0|0|558|0|0|0|0|0|0|1|0|0|20200507132910
20200507|02000134|2856|1815932233668|1815932233668|20200414000456|B3UHWVR2|1|0|18600|18600|10|0|0|558|0|0|0|0|0|0|1|0|0|20200507132817
20200507|02000134|2851|1813658729094|1813658729094|20200414000456|B3UHWVR2|1|0|18600|18600|10|0|0|558|0|0|0|0|0|0|1|0|0|20200507132738
20200507|02000134|2847|1819987525520|1819987525520|20200414000456|B3UHWVR2|1|0|18600|18600|10|0|0|558|0|0|0|0|0|0|1|0|0|20200507132656
20200507|02000134|2846|1815912255139|1815912255139|20200414000456|B3UHWVR2|1|0|18600|18600|10|0|0|558|0|0|0|0|0|0|1|0|0|20200507132452
20200507|02000134|2845|1813566092855|1813566092855|20200414000456|B3UHWVR2|1|0|18600|18600|10|0|0|558|0|0|0|0|0|0|1|0|0|20200507132435
20200507|02000134|2843|1813673221558|1813673221558|20200414000456|B3UHWVR2|1|0|18600|18600|10|0|0|558|0|0|0|0|0|0|1|0|0|20200507132326
20200507|02000134|2839|1815632285132|1815632285132|20200414000456|B3UHWVR2|1|0|18600|18600|10|0|0|558|0|0|0|0|0|0|1|0|0|20200507132226
20200507|02000134|2838|1813263638109|1813263638109|20200414000456|B3UHWVR2|1|0|18600|18600|10|0|0|558|0|0|0|0|0|0|1|0|0|20200507132217
20200507|02000134|2829|1818674146599|1818674146599|20200414000456|B3UHWVR2|1|0|18600|18600|10|0|0|558|0|0|0|0|0|0|1|0|0|20200507132053
20200507|02000134|2828|1815291119145|1815291119145|20200414000456|B3UHWVR2|1|0|18600|18600|10|0|0|558|0|0|0|0|0|0|1|0|0|20200507132021
20200507|02000134|2823|1813993467318|1813993467318|20200414000456|B3UHWVR2|1|0|18600|18600|10|0|0|558|0|0|0|0|0|0|1|0|0|20200507131944
20200507|02000134|2819|1818674148199|1818674148199|20200414000456|B3UHWVR2|1|0|18600|18600|10|0|0|558|0|0|0|0|0|0|1|0|0|20200507131923
20200507|02000134|2815|1817713243193|1817713243193|20200414000456|B3UHWVR2|1|0|18600|18600|10|0|0|558|0|0|0|0|0|0|1|0|0|20200507131915
20200507|02000134|2814|1818091149039|1818091149039|20200414000456|B3UHWVR2|1|0|18600|18600|10|0|0|558|0|0|0|0|0|0|1|0|0|20200507131852
20200507|02000134|2813|1818049119039|1818049119039|20200414000456|B3UHWVR2|1|0|18600|18600|10|0|0|558|0|0|0|0|0|0|1|0|0|20200507131822
20200507|02000134|2812|1813582217784|1813582217784|20200414000456|B3UHWVR2|1|0|18600|18600|10|0|0|558|0|0|0|0|0|0|1|0|0|20200507131821
20200507|02000134|2807|1815891187077|1815891187077|20200414000456|B3UHWVR2|1|0|18600|18600|10|0|0|558|0|0|0|0|0|0|1|0|0|20200507131755
20200507|02000134|2798|1800100000099|1800100000099|20200414000456|B3UHWVR2|1|0|18600|18600|10|0|0|558|0|0|0|0|0|0|1|0|0|20200507131616
20200507|02000134|2790|1813603123859|1813603123859|20200414000456|B3UHWVR2|1|0|18600|18600|10|0|0|558|0|0|0|0|0|0|1|0|0|20200507131539
20200507|02000134|2789|1815603255558|1815603255558|20200414000456|B3UHWVR2|1|0|18600|18600|10|0|0|558|0|0|0|0|0|0|1|0|0|20200507131527
20200507|02000134|2784|1813368815583|1813368815583|20200414000456|B3UHWVR2|1|0|18600|18600|10|0|0|558|0|0|0|0|0|0|1|0|0|20200507131501
20200507|02000134|2783|1813903321663|1813903321663|20200414000456|B3UHWVR2|1|0|18600|18600|10|0|0|558|0|0|0|0|0|0|1|0|0|20200507131429
20200507|02000134|2782|1815184855733|1815184855733|20200414000456|B3UHWVR2|1|0|18600|18600|10|0|0|558|0|0|0|0|0|0|1|0|0|20200507131428
20200507|02000134|2778|1815887555058|1815887555058|20200414000456|B3UHWVR2|1|0|18600|18600|10|0|0|558|0|0|0|0|0|0|1|0|0|20200507131409
20200507|02000134|2777|1800100000109|1800100000109|20200414000456|B3UHWVR2|1|0|18600|18600|10|0|0|558|0|0|0|0|0|0|1|0|0|20200507131404
20200507|02000134|2776|1815333262646|1815333262646|20200414000456|B3UHWVR2|1|0|18600|18600|10|0|0|558|0|0|0|0|0|0|1|0|0|20200507131350
20200507|02000134|2772|1813908813212|1813908813212|20200414000456|B3UHWVR2|1|0|18600|18600|10|0|0|558|0|0|0|0|0|0|1|0|0|20200507131345
20200507|02000134|2767|1813931358252|1813931358252|20200414000456|B3UHWVR2|1|0|18600|18600|10|0|0|558|0|0|0|0|0|0|1|0|0|20200507131252
20200507|02000134|2758|1815132225088|1815132225088|20200414000456|B3UHWVR2|1|0|18600|18600|10|0|0|558|0|0|0|0|0|0|1|0|0|20200507131203
20200507|02000134|2757|1817703687887|1817703687887|20200414000456|B3UHWVR2|1|0|18600|18600|10|0|0|558|0|0|0|0|0|0|1|0|0|20200507131202
20200507|02000134|2747|1813833495031|1813833495031|20200414000456|B3UHWVR2|1|0|18600|18600|10|0|0|558|0|0|0|0|0|0|1|0|0|20200507131101
20200507|02000134|2742|1813803125311|1813803125311|20200414000456|B3UHWVR2|1|0|18600|18600|10|0|0|558|0|0|0|0|0|0|1|0|0|20200507131015
20200507|02000134|2741|1800100000298|1800100000298|20200414000456|B3UHWVR2|1|0|18600|18600|10|0|0|558|0|0|0|0|0|0|1|0|0|20200507131014
20200507|02000134|2729|1813803126152|1813803126152|20200414000456|B3UHWVR2|1|0|18600|18600|10|0|0|558|0|0|0|0|0|0|1|0|0|20200507130911
20200507|02000134|2728|1815945288222|1815945288222|20200414000456|B3UHWVR2|1|0|18600|18600|10|0|0|558|0|0|0|0|0|0|1|0|0|20200507130904
20200507|02000134|2724|1815891187077|1815891187077|20200414000456|B3UHWVR2|1|0|18600|18600|10|0|0|558|0|0|0|0|0|0|1|0|0|20200507130821
20200507|02000134|2723|1819931270007|1819931270007|20200414000456|B3UHWVR2|1|0|18600|18600|10|0|0|558|0|0|0|0|0|0|1|0|0|20200507130818
20200507|02000134|2710|1815633298879|1815633298879|20200414000456|B3UHWVR2|1|0|18600|18600|10|0|0|558|0|0|0|0|0|0|1|0|0|20200507130718
20200507|02000134|2703|1818969738286|1818969738286|20200414000456|B3UHWVR2|1|0|18600|18600|10|0|0|558|0|0|0|0|0|0|1|0|0|20200507130650
20200507|02000134|2702|1818767845169|1818767845169|20200414000456|B3UHWVR2|1|0|18600|18600|10|0|0|558|0|0|0|0|0|0|1|0|0|20200507130610
20200507|02000134|2698|1800100000390|1800100000390|20200414000456|B3UHWVR2|1|0|18600|18600|10|0|0|558|0|0|0|0|0|0|1|0|0|20200507130458
20200507|02000134|2697|1817631643762|1817631643762|20200414000456|B3UHWVR2|1|0|18600|18600|10|0|0|558|0|0|0|0|0|0|1|0|0|20200507130452
20200507|02000134|2690|1813624683018|1813624683018|20200414000456|B3UHWVR2|1|0|18600|18600|10|0|0|558|0|0|0|0|0|0|1|0|0|20200507130311
20200507|02000134|2688|1813619402778|1813619402778|20200414000456|B3UHWVR2|1|0|18600|18600|10|0|0|558|0|0|0|0|0|0|1|0|0|20200507130252
20200507|02000134|2687|1813763733303|1813763733303|20200414000456|B3UHWVR2|1|0|18600|18600|10|0|0|558|0|0|0|0|0|0|1|0|0|20200507130245
20200507|02000134|2680|1813988267556|1813988267556|20200414000456|B3UHWVR2|1|0|18600|18600|10|0|0|558|0|0|0|0|0|0|1|0|0|20200507130206
20200507|02000134|2678|1818833239911|1818833239911|20200414000456|B3UHWVR2|1|0|18600|18600|10|0|0|558|0|0|0|0|0|0|1|0|0|20200507130115
20200507|02000134|2677|1813796574791|1813796574791|20200414000456|B3UHWVR2|1|0|18600|18600|10|0|0|558|0|0|0|0|0|0|1|0|0|20200507130104
20200507|02000134|2676|1813932223643|1813932223643|20200414000456|B3UHWVR2|1|0|18600|18600|10|0|0|558|0|0|0|0|0|0|1|0|0|20200507130058
20200507|02000134|2660|1815929113628|1815929113628|20200414000456|B3UHWVR2|1|0|18600|18600|10|0|0|558|0|0|0|0|0|0|1|0|0|20200507112709
20200507|02000134|2659|1815308750767|1815308750767|20200414000456|B3UHWVR2|1|0|18600|18600|10|0|0|558|0|0|0|0|0|0|1|0|0|20200507112708
20200507|02000134|2651|1818149061051|1818149061051|20200414000456|B3UHWVR2|1|0|18600|18600|10|0|0|558|0|0|0|0|0|0|1|0|0|20200507112638
20200507|02000134|2650|1818604689751|1818604689751|20200414000456|B3UHWVR2|1|0|18600|18600|10|0|0|558|0|0|0|0|0|0|1|0|0|20200507112635
20200507|02000134|2640|1817642059933|1817642059933|20200414000456|B3UHWVR2|1|0|18600|18600|10|0|0|558|0|0|0|0|0|0|1|0|0|20200507112611
20200507|02000134|2639|1817697226810|1817697226810|20200414000456|B3UHWVR2|1|0|18600|18600|10|0|0|558|0|0|0|0|0|0|1|0|0|20200507112546
20200507|02000134|2632|1818604031950|1818604031950|20200414000456|B3UHWVR2|1|0|18600|18600|10|0|0|558|0|0|0|0|0|0|1|0|0|20200507112520
20200507|02000134|2622|1819909235532|1819909235532|20200414000456|B3UHWVR2|1|0|18600|18600|10|0|0|558|0|0|0|0|0|0|1|0|0|20200507112435
20200507|02000134|2621|1813159888612|1813159888612|20200414000456|B3UHWVR2|1|0|18600|18600|10|0|0|558|0|0|0|0|0|0|1|0|0|20200507112420
20200507|02000134|2609|1816646828858|1816646828858|20200414000456|B3UHWVR2|1|0|18600|18600|10|0|0|558|0|0|0|0|0|0|1|0|0|20200507112333
20200507|02000134|2605|1815184974413|1815184974413|20200414000456|B3UHWVR2|1|0|18600|18600|10|0|0|558|0|0|0|0|0|0|1|0|0|20200507112325
20200507|02000134|2604|1815829415554|1815829415554|20200414000456|B3UHWVR2|1|0|18600|18600|10|0|0|558|0|0|0|0|0|0|1|0|0|20200507112321
20200507|02000134|2600|1813669212329|1813669212329|20200414000456|B3UHWVR2|1|0|18600|18600|10|0|0|558|0|0|0|0|0|0|1|0|0|20200507112311
20200507|02000134|2584|1813204687660|1813204687660|20200414000456|B3UHWVR2|1|0|18600|18600|10|0|0|558|0|0|0|0|0|0|1|0|0|20200507112242
20200507|02000134|2565|1815845463032|1815845463032|20200414000456|B3UHWVR2|1|0|18600|18600|6|4|0|558|0|0|0|0|0|0|1|0|0|20200507112149
20200507|02000134|2549|1815093210309|1815093210309|20200414000456|B3UHWVR2|1|0|18600|18600|1|0|0|55|0|0|0|0|0|0|1|0|0|20200507112059
20200507|02000134|2548|1815094526270|1815094526270|20200414000456|B3UHWVR2|1|0|18600|18600|10|0|0|558|0|0|0|0|0|0|1|0|0|20200507112058
20200507|02000134|2541|1815804681313|1815804681313|20200414000456|B3UHWVR2|1|0|18600|18600|10|0|0|558|0|0|0|0|0|0|1|0|0|20200507112004
20200507|02000134|2534|1813808781900|1813808781900|20200414000456|B3UHWVR2|1|0|18600|18600|10|0|0|558|0|0|0|0|0|0|1|0|0|20200507111917
20200507|02000134|2533|1813339582221|1813339582221|20200414000456|B3UHWVR2|1|0|18600|18600|10|0|0|558|0|0|0|0|0|0|1|0|0|20200507111912
20200507|02000134|2529|1813115642991|1813115642991|20200414000456|B3UHWVR2|1|0|18600|18600|10|0|0|558|0|0|0|0|0|0|1|0|0|20200507111813
20200507|02000134|2525|1815945821718|1815945821718|20200414000456|B3UHWVR2|1|0|18600|18600|10|0|0|558|0|0|0|0|0|0|1|0|0|20200507111717
20200507|02000134|2521|1813633389021|1813633389021|20200414000456|B3UHWVR2|1|0|18600|18600|10|0|0|558|0|0|0|0|0|0|1|0|0|20200507111658
20200507|02000134|2514|1813946786563|1813946786563|20200414000456|B3UHWVR2|1|0|18600|18600|10|0|0|558|0|0|0|0|0|0|1|0|0|20200507111611
20200507|02000134|2512|1819187901601|1819187901601|20200414000456|B3UHWVR2|1|0|18600|18600|10|0|0|558|0|0|0|0|0|0|1|0|0|20200507111604
20200507|02000134|2507|1813730238225|1813730238225|20200414000456|B3UHWVR2|1|0|18600|18600|10|0|0|558|0|0|0|0|0|0|1|0|0|20200507111515
20200507|02000134|2506|1813846862770|1813846862770|20200414000456|B3UHWVR2|1|0|18600|18600|10|0|0|558|0|0|0|0|0|0|1|0|0|20200507111501
20200507|02000134|2498|1818088174982|1818088174982|20200414000456|B3UHWVR2|1|0|18600|18600|10|0|0|558|0|0|0|0|0|0|1|0|0|20200507111353
20200507|02000134|2497|1818191539413|1818191539413|20200414000456|B3UHWVR2|1|0|18600|18600|10|0|0|558|0|0|0|0|0|0|1|0|0|20200507111332
20200507|02000134|2496|1818804688440|1818804688440|20200414000456|B3UHWVR2|1|0|18600|18600|10|0|0|558|0|0|0|0|0|0|1|0|0|20200507111328
20200507|02000134|2489|1818987538596|1818987538596|20200414000456|B3UHWVR2|1|0|18600|18600|10|0|0|558|0|0|0|0|0|0|1|0|0|20200507110941
20200507|02000134|2485|1813335335656|1813335335656|20200414000456|B3UHWVR2|1|0|18600|18600|10|0|0|558|0|0|0|0|0|0|1|0|0|20200507110827
20200507|02000134|2484|1815968450230|1815968450230|20200414000456|B3UHWVR2|1|0|18600|18600|10|0|0|558|0|0|0|0|0|0|1|0|0|20200507110741
20200507|02000134|2479|1818875037395|1818875037395|20200414000456|B3UHWVR2|1|0|18600|18600|10|0|0|558|0|0|0|0|0|0|1|0|0|20200507110721
20200507|02000134|2474|1813310933838|1813310933838|20200414000456|B3UHWVR2|1|0|18600|18600|10|0|0|558|0|0|0|0|0|0|1|0|0|20200507110547
20200507|02000134|2462|1817732266277|1817732266277|20200414000456|B3UHWVR2|1|0|18600|18600|10|0|0|558|0|0|0|0|0|0|1|0|0|20200507110309
20200507|02000134|2461|1800100000057|1800100000057|20200414000456|B3UHWVR2|1|0|18600|18600|10|0|0|558|0|0|0|0|0|0|1|0|0|20200507110248
20200507|02000134|2447|1800100000221|1800100000221|20200414000456|B3UHWVR2|1|0|18600|18600|10|0|0|558|0|0|0|0|0|0|1|0|0|20200507105913
20200507|02000134|2446|1815142051751|1815142051751|20200414000456|B3UHWVR2|1|0|18600|18600|10|0|0|558|0|0|0|0|0|0|1|0|0|20200507105911
20200507|02000134|2436|1800100000218|1800100000218|20200414000456|B3UHWVR2|1|0|18600|18600|9|0|0|502|0|0|0|0|0|0|1|0|0|20200507105816
20200507|02000134|2432|1813607095019|1813607095019|20200414000456|B3UHWVR2|1|0|18600|18600|10|0|0|558|0|0|0|0|0|0|1|0|0|20200507105614
20200507|02000134|2431|1813330594491|1813330594491|20200414000456|B3UHWVR2|1|0|18600|18600|10|0|0|558|0|0|0|0|0|0|1|0|0|20200507105558
20200507|02000134|2430|1817332403134|1817332403134|20200414000456|B3UHWVR2|1|0|18600|18600|10|0|0|558|0|0|0|0|0|0|1|0|0|20200507105552
20200507|02000134|2418|1800100000287|1800100000287|20200414000456|B3UHWVR2|1|0|18600|18600|10|0|0|558|0|0|0|0|0|0|1|0|0|20200507105420
20200507|02000134|2416|1818855897042|1818855897042|20200414000456|B3UHWVR2|1|0|18600|18600|10|0|0|558|0|0|0|0|0|0|1|0|0|20200507105408
20200507|02000134|2415|1813709230552|1813709230552|20200414000456|B3UHWVR2|1|0|18600|18600|10|0|0|558|0|0|0|0|0|0|1|0|0|20200507105406
20200507|02000134|2414|1815070008715|1815070008715|20200414000456|B3UHWVR2|1|0|18600|18600|10|0|0|558|0|0|0|0|0|0|1|0|0|20200507105353
20200507|02000134|2413|1815333225923|1815333225923|20200414000456|B3UHWVR2|1|0|18600|18600|10|0|0|558|0|0|0|0|0|0|1|0|0|20200507105325
20200507|02000134|2403|1800100000237|1800100000237|20200414000456|B3UHWVR2|1|0|18600|18600|10|0|0|558|0|0|0|0|0|0|1|0|0|20200507105221
20200507|02000134|2391|1813930808723|1813930808723|20200414000456|B3UHWVR2|1|0|18600|18600|10|0|0|558|0|0|0|0|0|0|1|0|0|20200507105034
20200507|02000134|2381|1815969231848|1815969231848|20200414000456|B3UHWVR2|1|0|18600|18600|10|0|0|558|0|0|0|0|0|0|1|0|0|20200507104957
20200507|02000134|2380|1813576284540|1813576284540|20200414000456|B3UHWVR2|1|0|18600|18600|10|0|0|558|0|0|0|0|0|0|1|0|0|20200507104832
20200507|02000134|2379|1813931280093|1813931280093|20200414000456|B3UHWVR2|1|0|18600|18600|10|0|0|558|0|0|0|0|0|0|1|0|0|20200507104817
20200507|02000134|2371|1815033779933|1815033779933|20200414000456|B3UHWVR2|1|0|18600|18600|10|0|0|558|0|0|0|0|0|0|1|0|0|20200507104614
20200507|02000134|2367|1815127269046|1815127269046|20200414000456|B3UHWVR2|1|0|18600|18600|10|0|0|558|0|0|0|0|0|0|1|0|0|20200507104534
20200507|02000134|2366|1815045780767|1815045780767|20200414000456|B3UHWVR2|1|0|18600|18600|10|0|0|558|0|0|0|0|0|0|1|0|0|20200507104514
20200507|02000134|2353|1815832285526|1815832285526|20200414000456|B3UHWVR2|1|0|18600|18600|10|0|0|558|0|0|0|0|0|0|1|0|0|20200507104206
20200507|02000134|2346|1800100000028|1800100000028|20200414000456|B3UHWVR2|1|0|18600|18600|10|0|0|558|0|0|0|0|0|0|1|0|0|20200507103959
20200507|02000134|2335|1813190099140|1813190099140|20200414000456|B3UHWVR2|1|0|18600|18600|10|0|0|558|0|0|0|0|0|0|1|0|0|20200507103838
20200507|02000134|2333|1819912156726|1819912156726|20200414000456|B3UHWVR2|1|0|18600|18600|10|0|0|558|0|0|0|0|0|0|1|0|0|20200507103717
20200507|02000134|2331|1813619647900|1813619647900|20200414000456|B3UHWVR2|1|0|18600|18600|10|0|0|558|0|0|0|0|0|0|1|0|0|20200507103655
20200507|02000134|2326|1813315273740|1813315273740|20200414000456|B3UHWVR2|1|0|18600|18600|1|0|0|55|0|0|0|0|0|0|1|0|0|20200507103603
20200507|02000134|2319|1818802455863|1818802455863|20200414000456|B3UHWVR2|1|0|18600|18600|10|0|0|558|0|0|0|0|0|0|1|0|0|20200507103458
20200507|02000134|2318|1813730476179|1813730476179|20200414000456|B3UHWVR2|1|0|18600|18600|10|0|0|558|0|0|0|0|0|0|1|0|0|20200507103447
20200507|02000134|2316|1813082311311|1813082311311|20200414000456|B3UHWVR2|1|0|18600|18600|10|0|0|558|0|0|0|0|0|0|1|0|0|20200507103358
20200507|02000134|2308|1813832228797|1813832228797|20200414000456|B3UHWVR2|1|0|18600|18600|1|0|0|55|0|0|0|0|0|0|1|0|0|20200507103200
20200507|02000134|2303|1813569282610|1813569282610|20200414000456|B3UHWVR2|1|0|18600|18600|10|0|0|558|0|0|0|0|0|0|1|0|0|20200507103055
20200507|02000134|2301|1813628873717|1813628873717|20200414000456|B3UHWVR2|1|0|18600|18600|10|0|0|558|0|0|0|0|0|0|1|0|0|20200507102956
20200507|02000134|2295|1815305796690|1815305796690|20200414000456|B3UHWVR2|1|0|18600|18600|10|0|0|558|0|0|0|0|0|0|1|0|0|20200507102738
20200507|02000134|2294|1818931232281|1818931232281|20200414000456|B3UHWVR2|1|0|18600|18600|10|0|0|558|0|0|0|0|0|0|1|0|0|20200507102713
20200507|02000134|2293|1815102200735|1815102200735|20200414000456|B3UHWVR2|1|0|18600|18600|10|0|0|558|0|0|0|0|0|0|1|0|0|20200507102656
20200507|02000134|2292|1813932238474|1813932238474|20200414000456|B3UHWVR2|1|0|18600|18600|10|0|0|558|0|0|0|0|0|0|1|0|0|20200507102632
20200507|02000134|2291|1815257996892|1815257996892|20200414000456|B3UHWVR2|1|0|18600|18600|10|0|0|558|0|0|0|0|0|0|1|0|0|20200507102631
20200507|02000134|2290|1813887902815|1813887902815|20200414000456|B3UHWVR2|1|0|18600|18600|10|0|0|558|0|0|0|0|0|0|1|0|0|20200507102603
20200507|02000134|2289|1813473122412|1813473122412|20200414000456|B3UHWVR2|1|0|18600|18600|10|0|0|558|0|0|0|0|0|0|1|0|0|20200507102601
20200507|02000134|2285|1818923668819|1818923668819|20200414000456|B3UHWVR2|1|0|18600|18600|10|0|0|558|0|0|0|0|0|0|1|0|0|20200507102322
20200507|02000134|2284|1818908826659|1818908826659|20200414000456|B3UHWVR2|1|0|18600|18600|10|0|0|558|0|0|0|0|0|0|1|0|0|20200507102301
20200507|02000134|2280|1800100000125|1800100000125|20200414000456|B3UHWVR2|1|0|18600|18600|10|0|0|558|0|0|0|0|0|0|1|0|0|20200507102250
20200507|02000134|2279|1815879317904|1815879317904|20200414000456|B3UHWVR2|1|0|18600|18600|10|0|0|558|0|0|0|0|0|0|1|0|0|20200507102159
20200507|02000134|2278|1813958379288|1813958379288|20200414000456|B3UHWVR2|1|0|18600|18600|10|0|0|558|0|0|0|0|0|0|1|0|0|20200507102147
20200507|02000134|2276|1815227060395|1815227060395|20200414000456|B3UHWVR2|1|0|18600|18600|10|0|0|558|0|0|0|0|0|0|1|0|0|20200507102101
20200507|02000134|2266|1818787516848|1818787516848|20200414000456|B3UHWVR2|1|0|18600|18600|10|0|0|558|0|0|0|0|0|0|1|0|0|20200507101849
20200507|02000134|2262|1813988259242|1813988259242|20200414000456|B3UHWVR2|1|0|18600|18600|10|0|0|558|0|0|0|0|0|0|1|0|0|20200507101823
20200507|02000134|2261|1818787516848|1818787516848|20200414000456|B3UHWVR2|1|0|18600|18600|10|0|0|558|0|0|0|0|0|0|1|0|0|20200507101800
20200507|02000134|2260|1815946740910|1815946740910|20200414000456|B3UHWVR2|1|0|18600|18600|10|0|0|558|0|0|0|0|0|0|1|0|0|20200507101742
20200507|02000134|2259|1815840520719|1815840520719|20200414000456|B3UHWVR2|1|0|18600|18600|10|0|0|558|0|0|0|0|0|0|1|0|0|20200507101710
20200507|02000134|2257|1815070002292|1815070002292|20200414000456|B3UHWVR2|1|0|18600|18600|10|0|0|558|0|0|0|0|0|0|1|0|0|20200507101708
20200507|02000134|2252|1813796445877|1813796445877|20200414000456|B3UHWVR2|1|0|18600|18600|10|0|0|558|0|0|0|0|0|0|1|0|0|20200507101545
20200507|02000134|2250|1813958379288|1813958379288|20200414000456|B3UHWVR2|1|0|18600|18600|10|0|0|558|0|0|0|0|0|0|1|0|0|20200507101539
20200507|02000134|2244|1815925591567|1815925591567|20200414000456|B3UHWVR2|1|0|18600|18600|10|0|0|558|0|0|0|0|0|0|1|0|0|20200507101445
20200507|02000134|2224|1813988266069|1813988266069|20200414000456|B3UHWVR2|1|0|18600|18600|10|0|0|558|0|0|0|0|0|0|1|0|0|20200507101319
20200507|02000134|2214|1813315272938|1813315272938|20200414000456|B3UHWVR2|1|0|18600|18600|10|0|0|558|0|0|0|0|0|0|1|0|0|20200507100848
20200507|02000134|2206|1800100000040|1800100000040|20200414000456|B3UHWVR2|1|0|18600|18600|2|0|0|111|0|0|0|0|0|0|1|0|0|20200507100810
20200507|02000134|2203|1815988767249|1815988767249|20200414000456|B3UHWVR2|1|0|18600|18600|10|0|0|558|0|0|0|0|0|0|1|0|0|20200507100649
20200507|02000134|2196|1815945537804|1815945537804|20200414000456|B3UHWVR2|1|0|18600|18600|10|0|0|558|0|0|0|0|0|0|1|0|0|20200507100542
20200507|02000134|2190|1813378816227|1813378816227|20200414000456|B3UHWVR2|1|0|18600|18600|10|0|0|558|0|0|0|0|0|0|1|0|0|20200507100308
20200507|02000134|2189|1813703283113|1813703283113|20200414000456|B3UHWVR2|1|0|18600|18600|8|2|0|558|0|0|0|0|0|0|1|0|0|20200507100258
20200507|02000134|2188|1815921012597|1815921012597|20200414000456|B3UHWVR2|1|0|18600|18600|10|0|0|558|0|0|0|0|0|0|1|0|0|20200507100249
20200507|02000134|2187|1815709151444|1815709151444|20200414000456|B3UHWVR2|1|0|18600|18600|10|0|0|558|0|0|0|0|0|0|1|0|0|20200507100248
20200507|02000134|2186|1813306881828|1813306881828|20200414000456|B3UHWVR2|1|0|18600|18600|10|0|0|558|0|0|0|0|0|0|1|0|0|20200507100230
20200507|02000134|2185|1818940967978|1818940967978|20200414000456|B3UHWVR2|1|0|18600|18600|10|0|0|558|0|0|0|0|0|0|1|0|0|20200507100220
20200507|02000134|2184|1815097746135|1815097746135|20200414000456|B3UHWVR2|1|0|18600|18600|10|0|0|558|0|0|0|0|0|0|1|0|0|20200507100208
20200507|02000134|2183|1813909114265|1813909114265|20200414000456|B3UHWVR2|1|0|18600|18600|10|0|0|558|0|0|0|0|0|0|1|0|0|20200507100205
20200507|02000134|2176|1818164646890|1818164646890|20200414000456|B3UHWVR2|1|0|18600|18600|10|0|0|558|0|0|0|0|0|0|1|0|0|20200507100127
20200507|02000134|2165|1815184848605|1815184848605|20200414000456|B3UHWVR2|1|0|18600|18600|10|0|0|558|0|0|0|0|0|0|1|0|0|20200507095844
20200507|02000134|2161|1815389494945|1815389494945|20200414000456|B3UHWVR2|1|0|18600|18600|10|0|0|558|0|0|0|0|0|0|1|0|0|20200507095752
20200507|02000134|2160|1800100000154|1800100000154|20200414000456|B3UHWVR2|1|0|18600|18600|10|0|0|558|0|0|0|0|0|0|1|0|0|20200507095720
20200507|02000134|2158|1813769055559|1813769055559|20200414000456|B3UHWVR2|1|0|18600|18600|10|0|0|558|0|0|0|0|0|0|1|0|0|20200507095642
20200507|02000134|2154|1815201189518|1815201189518|20200414000456|B3UHWVR2|1|0|18600|18600|1|0|0|55|0|0|0|0|0|0|1|0|0|20200507095622
20200507|02000134|2150|1813846055840|1813846055840|20200414000456|B3UHWVR2|1|0|18600|18600|10|0|0|558|0|0|0|0|0|0|1|0|0|20200507095452
20200507|02000134|2141|1813674575508|1813674575508|20200414000456|B3UHWVR2|1|0|18600|18600|10|0|0|558|0|0|0|0|0|0|1|0|0|20200507095319
20200507|02000134|2131|1813858219868|1813858219868|20200414000456|B3UHWVR2|1|0|18600|18600|10|0|0|558|0|0|0|0|0|0|1|0|0|20200507095123
20200507|02000134|2129|1815894436377|1815894436377|20200414000456|B3UHWVR2|1|0|18600|18600|10|0|0|558|0|0|0|0|0|0|1|0|0|20200507095045
20200507|02000134|2128|1815045503182|1815045503182|20200414000456|B3UHWVR2|1|0|18600|18600|10|0|0|558|0|0|0|0|0|0|1|0|0|20200507095022
20200507|02000134|2127|1813400267349|1813400267349|20200414000456|B3UHWVR2|1|0|18600|18600|10|0|0|558|0|0|0|0|0|0|1|0|0|20200507095011
20200507|02000134|2122|1815368948672|1815368948672|20200414000456|B3UHWVR2|1|0|18600|18600|10|0|0|558|0|0|0|0|0|0|1|0|0|20200507094943
20200507|02000134|2121|1813330093627|1813330093627|20200414000456|B3UHWVR2|1|0|18600|18600|10|0|0|558|0|0|0|0|0|0|1|0|0|20200507094936
20200507|02000134|2120|1813555046898|1813555046898|20200414000456|B3UHWVR2|1|0|18600|18600|10|0|0|558|0|0|0|0|0|0|1|0|0|20200507094921
20200507|02000134|2119|1813730198476|1813730198476|20200414000456|B3UHWVR2|1|0|18600|18600|10|0|0|558|0|0|0|0|0|0|1|0|0|20200507094919
20200507|02000134|2117|1800100000048|1800100000048|20200414000456|B3UHWVR2|1|0|18600|18600|10|0|0|558|0|0|0|0|0|0|1|0|0|20200507094918
20200507|02000134|2116|1813628759556|1813628759556|20200414000456|B3UHWVR2|1|0|18600|18600|10|0|0|558|0|0|0|0|0|0|1|0|0|20200507094909
20200507|02000134|2112|1818187582339|1818187582339|20200414000456|B3UHWVR2|1|0|18600|18600|10|0|0|558|0|0|0|0|0|0|1|0|0|20200507094854
20200507|02000134|2105|1815925592540|1815925592540|20200414000456|B3UHWVR2|1|0|18600|18600|10|0|0|558|0|0|0|0|0|0|1|0|0|20200507094845
20200507|02000134|2104|1813992186412|1813992186412|20200414000456|B3UHWVR2|1|0|18600|18600|10|0|0|558|0|0|0|0|0|0|1|0|0|20200507094835
20200507|02000134|2103|1800100000066|1800100000066|20200414000456|B3UHWVR2|1|0|18600|18600|10|0|0|558|0|0|0|0|0|0|1|0|0|20200507094829
20200507|02000134|2099|1815887508589|1815887508589|20200414000456|B3UHWVR2|1|0|18600|18600|10|0|0|558|0|0|0|0|0|0|1|0|0|20200507094826
20200507|02000134|2093|1817304211987|1817304211987|20200414000456|B3UHWVR2|1|0|18600|18600|10|0|0|558|0|0|0|0|0|0|1|0|0|20200507094759
20200507|02000134|2092|1813577525294|1813577525294|20200414000456|B3UHWVR2|1|0|18600|18600|10|0|0|558|0|0|0|0|0|0|1|0|0|20200507094756
20200507|02000134|2091|1813578288004|1813578288004|20200414000456|B3UHWVR2|1|0|18600|18600|10|0|0|558|0|0|0|0|0|0|1|0|0|20200507094750
20200507|02000134|2090|1818132758604|1818132758604|20200414000456|B3UHWVR2|1|0|18600|18600|10|0|0|558|0|0|0|0|0|0|1|0|0|20200507094749
20200507|02000134|2088|1813970022873|1813970022873|20200414000456|B3UHWVR2|1|0|18600|18600|10|0|0|558|0|0|0|0|0|0|1|0|0|20200507094746
20200507|02000134|2087|1817679024406|1817679024406|20200414000456|B3UHWVR2|1|0|18600|18600|10|0|0|558|0|0|0|0|0|0|1|0|0|20200507094745
20200507|02000134|2086|1813555055525|1813555055525|20200414000456|B3UHWVR2|1|0|18600|18600|10|0|0|558|0|0|0|0|0|0|1|0|0|20200507094742
20200507|02000134|2084|1817346665892|1817346665892|20200414000456|B3UHWVR2|1|0|18600|18600|10|0|0|558|0|0|0|0|0|0|1|0|0|20200507094721
20200507|02000134|2074|1813292999216|1813292999216|20200414000456|B3UHWVR2|1|0|18600|18600|10|0|0|558|0|0|0|0|0|0|1|0|0|20200507094656
20200507|02000134|2069|1818468025462|1818468025462|20200414000456|B3UHWVR2|1|0|18600|18600|10|0|0|558|0|0|0|0|0|0|1|0|0|20200507094648
20200507|02000134|2060|1813903326296|1813903326296|20200414000456|B3UHWVR2|1|0|18600|18600|10|0|0|558|0|0|0|0|0|0|1|0|0|20200507094607
20200507|02000134|2058|1818945765909|1818945765909|20200414000456|B3UHWVR2|1|0|18600|18600|10|0|0|558|0|0|0|0|0|0|1|0|0|20200507094544
20200507|02000134|2057|1815866353002|1815866353002|20200414000456|B3UHWVR2|1|0|18600|18600|10|0|0|558|0|0|0|0|0|0|1|0|0|20200507094529
20200507|02000134|2056|1818987916981|1818987916981|20200414000456|B3UHWVR2|1|0|18600|18600|10|0|0|558|0|0|0|0|0|0|1|0|0|20200507094527
20200507|02000134|2052|1813315427245|1813315427245|20200414000456|B3UHWVR2|1|0|18600|18600|10|0|0|558|0|0|0|0|0|0|1|0|0|20200507094504
20200507|02000134|2051|1813577500356|1813577500356|20200414000456|B3UHWVR2|1|0|18600|18600|10|0|0|558|0|0|0|0|0|0|1|0|0|20200507094501
20200507|02000134|2050|1818042285818|1818042285818|20200414000456|B3UHWVR2|1|0|18600|18600|10|0|0|558|0|0|0|0|0|0|1|0|0|20200507094459
20200507|02000134|2045|1815933739943|1815933739943|20200414000456|B3UHWVR2|1|0|18600|18600|10|0|0|558|0|0|0|0|0|0|1|0|0|20200507094438
20200507|02000134|2027|1815132271576|1815132271576|20200414000456|B3UHWVR2|1|0|18600|18600|10|0|0|558|0|0|0|0|0|0|1|0|0|20200507094305
20200507|02000134|2025|1815334465219|1815334465219|20200414000456|B3UHWVR2|1|0|18600|18600|10|0|0|558|0|0|0|0|0|0|1|0|0|20200507094228
20200507|02000134|2024|1815930239024|1815930239024|20200414000456|B3UHWVR2|1|0|18600|18600|10|0|0|558|0|0|0|0|0|0|1|0|0|20200507094213
20200507|02000134|2016|1813908823287|1813908823287|20200414000456|B3UHWVR2|1|0|18600|18600|10|0|0|558|0|0|0|0|0|0|1|0|0|20200507094143
20200507|02000134|2014|1813238826869|1813238826869|20200414000456|B3UHWVR2|1|0|18600|18600|10|0|0|558|0|0|0|0|0|0|1|0|0|20200507094126
20200507|02000134|2006|1813988238986|1813988238986|20200414000456|B3UHWVR2|1|0|18600|18600|10|0|0|558|0|0|0|0|0|0|1|0|0|20200507094057
20200507|02000134|2005|1815933126808|1815933126808|20200414000456|B3UHWVR2|1|0|18600|18600|10|0|0|558|0|0|0|0|0|0|1|0|0|20200507094052
20200507|02000134|2001|1815288130560|1815288130560|20200414000456|B3UHWVR2|1|0|18600|18600|10|0|0|558|0|0|0|0|0|0|1|0|0|20200507094043
20200507|02000134|2000|1813578286883|1813578286883|20200414000456|B3UHWVR2|1|0|18600|18600|10|0|0|558|0|0|0|0|0|0|1|0|0|20200507094024
20200507|02000134|1999|1814784685555|1814784685555|20200414000456|B3UHWVR2|1|0|18600|18600|10|0|0|558|0|0|0|0|0|0|1|0|0|20200507094019
20200507|02000134|1998|1813897985407|1813897985407|20200414000456|B3UHWVR2|1|0|18600|18600|10|0|0|558|0|0|0|0|0|0|1|0|0|20200507094016
20200507|02000134|1997|1818869127192|1818869127192|20200414000456|B3UHWVR2|1|0|18600|18600|10|0|0|558|0|0|0|0|0|0|1|0|0|20200507094010
20200507|02000134|1996|1813769999509|1813769999509|20200414000456|B3UHWVR2|1|0|18600|18600|10|0|0|558|0|0|0|0|0|0|1|0|0|20200507094009
20200507|02000134|1994|1815334341131|1815334341131|20200414000456|B3UHWVR2|1|0|18600|18600|10|0|0|558|0|0|0|0|0|0|1|0|0|20200507093941
20200507|02000134|1993|1813331310643|1813331310643|20200414000456|B3UHWVR2|1|0|18600|18600|10|0|0|558|0|0|0|0|0|0|1|0|0|20200507093929
20200507|02000134|1992|1818691191808|1818691191808|20200414000456|B3UHWVR2|1|0|18600|18600|10|0|0|558|0|0|0|0|0|0|1|0|0|20200507093924
20200507|02000134|1990|1815352338039|1815352338039|20200414000456|B3UHWVR2|1|0|18600|18600|10|0|0|558|0|0|0|0|0|0|1|0|0|20200507093914
20200507|02000134|1989|1813231744099|1813231744099|20200414000456|B3UHWVR2|1|0|18600|18600|10|0|0|558|0|0|0|0|0|0|1|0|0|20200507093906
20200507|02000134|1988|1813808788999|1813808788999|20200414000456|B3UHWVR2|1|0|18600|18600|10|0|0|558|0|0|0|0|0|0|1|0|0|20200507093853
20200507|02000134|1987|1815903327688|1815903327688|20200414000456|B3UHWVR2|1|0|18600|18600|10|0|0|558|0|0|0|0|0|0|1|0|0|20200507093849
20200507|02000134|1983|1818891101268|1818891101268|20200414000456|B3UHWVR2|1|0|18600|18600|10|0|0|558|0|0|0|0|0|0|1|0|0|20200507093838
20200507|02000134|1979|1813887868883|1813887868883|20200414000456|B3UHWVR2|1|0|18600|18600|10|0|0|558|0|0|0|0|0|0|1|0|0|20200507093829
20200507|02000134|1978|1815187700939|1815187700939|20200414000456|B3UHWVR2|1|0|18600|18600|10|0|0|558|0|0|0|0|0|0|1|0|0|20200507093821
20200507|02000134|1972|1815233123371|1815233123371|20200414000456|B3UHWVR2|1|0|18600|18600|10|0|0|558|0|0|0|0|0|0|1|0|0|20200507093802
20200507|02000134|1965|1813840542929|1813840542929|20200414000456|B3UHWVR2|1|0|18600|18600|10|0|0|558|0|0|0|0|0|0|1|0|0|20200507093747
20200507|02000134|1961|1813870662832|1813870662832|20200414000456|B3UHWVR2|1|0|18600|18600|10|0|0|558|0|0|0|0|0|0|1|0|0|20200507093725
20200507|02000134|1957|1800100000104|1800100000104|20200414000456|B3UHWVR2|1|0|18600|18600|10|0|0|558|0|0|0|0|0|0|1|0|0|20200507093722
20200507|02000134|1956|1817682459990|1817682459990|20200414000456|B3UHWVR2|1|0|18600|18600|10|0|0|558|0|0|0|0|0|0|1|0|0|20200507093715
20200507|02000134|1951|1813628842075|1813628842075|20200414000456|B3UHWVR2|1|0|18600|18600|10|0|0|558|0|0|0|0|0|0|1|0|0|20200507093659
20200507|02000134|1947|1813988271457|1813988271457|20200414000456|B3UHWVR2|1|0|18600|18600|10|0|0|558|0|0|0|0|0|0|1|0|0|20200507093656
20200507|02000134|1936|1815931808321|1815931808321|20200414000456|B3UHWVR2|1|0|18600|18600|10|0|0|558|0|0|0|0|0|0|1|0|0|20200507093611
20200507|02000134|1935|1813388758398|1813388758398|20200414000456|B3UHWVR2|1|0|18600|18600|10|0|0|558|0|0|0|0|0|0|1|0|0|20200507093609
20200507|02000134|1934|1815287133896|1815287133896|20200414000456|B3UHWVR2|1|0|18600|18600|10|0|0|558|0|0|0|0|0|0|1|0|0|20200507093555
20200507|02000134|1924|1815087509852|1815087509852|20200414000456|B3UHWVR2|1|0|18600|18600|10|0|0|558|0|0|0|0|0|0|1|0|0|20200507093528
20200507|02000134|1917|1813577503685|1813577503685|20200414000456|B3UHWVR2|1|0|18600|18600|10|0|0|558|0|0|0|0|0|0|1|0|0|20200507093503
20200507|02000134|1916|1800100000045|1800100000045|20200414000456|B3UHWVR2|1|0|18600|18600|10|0|0|558|0|0|0|0|0|0|1|0|0|20200507093451
20200507|02000134|1914|1813808782960|1813808782960|20200414000456|B3UHWVR2|1|0|18600|18600|10|0|0|558|0|0|0|0|0|0|1|0|0|20200507093432
20200507|02000134|1913|1813385849623|1813385849623|20200414000456|B3UHWVR2|1|0|18600|18600|10|0|0|558|0|0|0|0|0|0|1|0|0|20200507093431
20200507|02000134|1911|1813429398439|1813429398439|20200414000456|B3UHWVR2|1|0|18600|18600|10|0|0|558|0|0|0|0|0|0|1|0|0|20200507093426
20200507|02000134|1912|1818987916256|1818987916256|20200414000456|B3UHWVR2|1|0|18600|18600|10|0|0|558|0|0|0|0|0|0|1|0|0|20200507093426
20200507|02000134|1910|1815087553123|1815087553123|20200414000456|B3UHWVR2|1|0|18600|18600|10|0|0|558|0|0|0|0|0|0|1|0|0|20200507093417
20200507|02000134|1904|1813987956640|1813987956640|20200414000456|B3UHWVR2|1|0|18600|18600|10|0|0|558|0|0|0|0|0|0|1|0|0|20200507093344
20200507|02000134|1900|1813393327863|1813393327863|20200414000456|B3UHWVR2|1|0|18600|18600|10|0|0|558|0|0|0|0|0|0|1|0|0|20200507093339
20200507|02000134|1899|1815108605312|1815108605312|20200414000456|B3UHWVR2|1|0|18600|18600|10|0|0|558|0|0|0|0|0|0|1|0|0|20200507093330
20200507|02000134|1898|1818306924682|1818306924682|20200414000456|B3UHWVR2|1|0|18600|18600|10|0|0|558|0|0|0|0|0|0|1|0|0|20200507093319
20200507|02000134|1894|1815846656422|1815846656422|20200414000456|B3UHWVR2|1|0|18600|18600|10|0|0|558|0|0|0|0|0|0|1|0|0|20200507093254
20200507|02000134|1893|1813578228698|1813578228698|20200414000456|B3UHWVR2|1|0|18600|18600|10|0|0|558|0|0|0|0|0|0|1|0|0|20200507093252
20200507|02000134|1892|1813486694384|1813486694384|20200414000456|B3UHWVR2|1|0|18600|18600|10|0|0|558|0|0|0|0|0|0|1|0|0|20200507093244
20200507|02000134|1891|1818335259239|1818335259239|20200414000456|B3UHWVR2|1|0|18600|18600|10|0|0|558|0|0|0|0|0|0|1|0|0|20200507093240
20200507|02000134|1890|1813082360764|1813082360764|20200414000456|B3UHWVR2|1|0|18600|18600|10|0|0|558|0|0|0|0|0|0|1|0|0|20200507093233
20200507|02000134|1889|1818605848566|1818605848566|20200414000456|B3UHWVR2|1|0|18600|18600|10|0|0|558|0|0|0|0|0|0|1|0|0|20200507093230
20200507|02000134|1886|1813705843059|1813705843059|20200414000456|B3UHWVR2|1|0|18600|18600|10|0|0|558|0|0|0|0|0|0|1|0|0|20200507093205
20200507|02000134|1882|1815716865625|1815716865625|20200414000456|B3UHWVR2|1|0|18600|18600|10|0|0|558|0|0|0|0|0|0|1|0|0|20200507093200
20200507|02000134|1881|1813777101958|1813777101958|20200414000456|B3UHWVR2|1|0|18600|18600|10|0|0|558|0|0|0|0|0|0|1|0|0|20200507093158
20200507|02000134|1880|1813576268031|1813576268031|20200414000456|B3UHWVR2|1|0|18600|18600|2|0|0|0|0|0|0|0|0|0|1|0|0|20200507093157
20200507|02000134|1872|1813608767593|1813608767593|20200414000456|B3UHWVR2|1|0|18600|18600|10|0|0|558|0|0|0|0|0|0|1|0|0|20200507093134
20200507|02000134|1871|1813566373447|1813566373447|20200414000456|B3UHWVR2|1|0|18600|18600|10|0|0|558|0|0|0|0|0|0|1|0|0|20200507093111
20200507|02000134|1863|1813164990022|1813164990022|20200414000456|B3UHWVR2|1|0|18600|18600|10|0|0|558|0|0|0|0|0|0|1|0|0|20200507093044
20200507|02000134|1867|1813576268031|1813576268031|20200414000456|B3UHWVR2|1|0|18600|18600|8|0|0|0|0|0|0|0|0|0|1|0|0|20200507093044
20200507|02000134|1860|1813479229801|1813479229801|20200414000456|B3UHWVR2|1|0|18600|18600|10|0|0|558|0|0|0|0|0|0|1|0|0|20200507093025
